/store/group/phys_higgs/hbb/ntuples/VHbbPostNano/2018/V11/EGamma/Run2018A-Nano14Dec2018-v184/190426_091623/0000/tree_1.root
/store/group/phys_higgs/hbb/ntuples/VHbbPostNano/2018/V11/EGamma/Run2018A-Nano14Dec2018-v184/190426_091623/0000/tree_10.root
/store/group/phys_higgs/hbb/ntuples/VHbbPostNano/2018/V11/EGamma/Run2018A-Nano14Dec2018-v184/190426_091623/0000/tree_100.root
/store/group/phys_higgs/hbb/ntuples/VHbbPostNano/2018/V11/EGamma/Run2018A-Nano14Dec2018-v184/190426_091623/0000/tree_101.root
/store/group/phys_higgs/hbb/ntuples/VHbbPostNano/2018/V11/EGamma/Run2018A-Nano14Dec2018-v184/190426_091623/0000/tree_102.root
/store/group/phys_higgs/hbb/ntuples/VHbbPostNano/2018/V11/EGamma/Run2018A-Nano14Dec2018-v184/190426_091623/0000/tree_103.root
/store/group/phys_higgs/hbb/ntuples/VHbbPostNano/2018/V11/EGamma/Run2018A-Nano14Dec2018-v184/190426_091623/0000/tree_104.root
/store/group/phys_higgs/hbb/ntuples/VHbbPostNano/2018/V11/EGamma/Run2018A-Nano14Dec2018-v184/190426_091623/0000/tree_105.root
/store/group/phys_higgs/hbb/ntuples/VHbbPostNano/2018/V11/EGamma/Run2018A-Nano14Dec2018-v184/190426_091623/0000/tree_106.root
/store/group/phys_higgs/hbb/ntuples/VHbbPostNano/2018/V11/EGamma/Run2018A-Nano14Dec2018-v184/190426_091623/0000/tree_107.root
/store/group/phys_higgs/hbb/ntuples/VHbbPostNano/2018/V11/EGamma/Run2018A-Nano14Dec2018-v184/190426_091623/0000/tree_108.root
/store/group/phys_higgs/hbb/ntuples/VHbbPostNano/2018/V11/EGamma/Run2018A-Nano14Dec2018-v184/190426_091623/0000/tree_109.root
/store/group/phys_higgs/hbb/ntuples/VHbbPostNano/2018/V11/EGamma/Run2018A-Nano14Dec2018-v184/190426_091623/0000/tree_11.root
/store/group/phys_higgs/hbb/ntuples/VHbbPostNano/2018/V11/EGamma/Run2018A-Nano14Dec2018-v184/190426_091623/0000/tree_110.root
/store/group/phys_higgs/hbb/ntuples/VHbbPostNano/2018/V11/EGamma/Run2018A-Nano14Dec2018-v184/190426_091623/0000/tree_111.root
/store/group/phys_higgs/hbb/ntuples/VHbbPostNano/2018/V11/EGamma/Run2018A-Nano14Dec2018-v184/190426_091623/0000/tree_112.root
/store/group/phys_higgs/hbb/ntuples/VHbbPostNano/2018/V11/EGamma/Run2018A-Nano14Dec2018-v184/190426_091623/0000/tree_113.root
/store/group/phys_higgs/hbb/ntuples/VHbbPostNano/2018/V11/EGamma/Run2018A-Nano14Dec2018-v184/190426_091623/0000/tree_114.root
/store/group/phys_higgs/hbb/ntuples/VHbbPostNano/2018/V11/EGamma/Run2018A-Nano14Dec2018-v184/190426_091623/0000/tree_115.root
/store/group/phys_higgs/hbb/ntuples/VHbbPostNano/2018/V11/EGamma/Run2018A-Nano14Dec2018-v184/190426_091623/0000/tree_116.root
/store/group/phys_higgs/hbb/ntuples/VHbbPostNano/2018/V11/EGamma/Run2018A-Nano14Dec2018-v184/190426_091623/0000/tree_117.root
/store/group/phys_higgs/hbb/ntuples/VHbbPostNano/2018/V11/EGamma/Run2018A-Nano14Dec2018-v184/190426_091623/0000/tree_118.root
/store/group/phys_higgs/hbb/ntuples/VHbbPostNano/2018/V11/EGamma/Run2018A-Nano14Dec2018-v184/190426_091623/0000/tree_119.root
/store/group/phys_higgs/hbb/ntuples/VHbbPostNano/2018/V11/EGamma/Run2018A-Nano14Dec2018-v184/190426_091623/0000/tree_12.root
/store/group/phys_higgs/hbb/ntuples/VHbbPostNano/2018/V11/EGamma/Run2018A-Nano14Dec2018-v184/190426_091623/0000/tree_120.root
/store/group/phys_higgs/hbb/ntuples/VHbbPostNano/2018/V11/EGamma/Run2018A-Nano14Dec2018-v184/190426_091623/0000/tree_121.root
/store/group/phys_higgs/hbb/ntuples/VHbbPostNano/2018/V11/EGamma/Run2018A-Nano14Dec2018-v184/190426_091623/0000/tree_122.root
/store/group/phys_higgs/hbb/ntuples/VHbbPostNano/2018/V11/EGamma/Run2018A-Nano14Dec2018-v184/190426_091623/0000/tree_123.root
/store/group/phys_higgs/hbb/ntuples/VHbbPostNano/2018/V11/EGamma/Run2018A-Nano14Dec2018-v184/190426_091623/0000/tree_124.root
/store/group/phys_higgs/hbb/ntuples/VHbbPostNano/2018/V11/EGamma/Run2018A-Nano14Dec2018-v184/190426_091623/0000/tree_125.root
/store/group/phys_higgs/hbb/ntuples/VHbbPostNano/2018/V11/EGamma/Run2018A-Nano14Dec2018-v184/190426_091623/0000/tree_126.root
/store/group/phys_higgs/hbb/ntuples/VHbbPostNano/2018/V11/EGamma/Run2018A-Nano14Dec2018-v184/190426_091623/0000/tree_127.root
/store/group/phys_higgs/hbb/ntuples/VHbbPostNano/2018/V11/EGamma/Run2018A-Nano14Dec2018-v184/190426_091623/0000/tree_128.root
/store/group/phys_higgs/hbb/ntuples/VHbbPostNano/2018/V11/EGamma/Run2018A-Nano14Dec2018-v184/190426_091623/0000/tree_129.root
/store/group/phys_higgs/hbb/ntuples/VHbbPostNano/2018/V11/EGamma/Run2018A-Nano14Dec2018-v184/190426_091623/0000/tree_13.root
/store/group/phys_higgs/hbb/ntuples/VHbbPostNano/2018/V11/EGamma/Run2018A-Nano14Dec2018-v184/190426_091623/0000/tree_130.root
/store/group/phys_higgs/hbb/ntuples/VHbbPostNano/2018/V11/EGamma/Run2018A-Nano14Dec2018-v184/190426_091623/0000/tree_131.root
/store/group/phys_higgs/hbb/ntuples/VHbbPostNano/2018/V11/EGamma/Run2018A-Nano14Dec2018-v184/190426_091623/0000/tree_132.root
/store/group/phys_higgs/hbb/ntuples/VHbbPostNano/2018/V11/EGamma/Run2018A-Nano14Dec2018-v184/190426_091623/0000/tree_133.root
/store/group/phys_higgs/hbb/ntuples/VHbbPostNano/2018/V11/EGamma/Run2018A-Nano14Dec2018-v184/190426_091623/0000/tree_134.root
/store/group/phys_higgs/hbb/ntuples/VHbbPostNano/2018/V11/EGamma/Run2018A-Nano14Dec2018-v184/190426_091623/0000/tree_135.root
/store/group/phys_higgs/hbb/ntuples/VHbbPostNano/2018/V11/EGamma/Run2018A-Nano14Dec2018-v184/190426_091623/0000/tree_136.root
/store/group/phys_higgs/hbb/ntuples/VHbbPostNano/2018/V11/EGamma/Run2018A-Nano14Dec2018-v184/190426_091623/0000/tree_137.root
/store/group/phys_higgs/hbb/ntuples/VHbbPostNano/2018/V11/EGamma/Run2018A-Nano14Dec2018-v184/190426_091623/0000/tree_138.root
/store/group/phys_higgs/hbb/ntuples/VHbbPostNano/2018/V11/EGamma/Run2018A-Nano14Dec2018-v184/190426_091623/0000/tree_139.root
/store/group/phys_higgs/hbb/ntuples/VHbbPostNano/2018/V11/EGamma/Run2018A-Nano14Dec2018-v184/190426_091623/0000/tree_14.root
/store/group/phys_higgs/hbb/ntuples/VHbbPostNano/2018/V11/EGamma/Run2018A-Nano14Dec2018-v184/190426_091623/0000/tree_140.root
/store/group/phys_higgs/hbb/ntuples/VHbbPostNano/2018/V11/EGamma/Run2018A-Nano14Dec2018-v184/190426_091623/0000/tree_141.root
/store/group/phys_higgs/hbb/ntuples/VHbbPostNano/2018/V11/EGamma/Run2018A-Nano14Dec2018-v184/190426_091623/0000/tree_142.root
/store/group/phys_higgs/hbb/ntuples/VHbbPostNano/2018/V11/EGamma/Run2018A-Nano14Dec2018-v184/190426_091623/0000/tree_143.root
/store/group/phys_higgs/hbb/ntuples/VHbbPostNano/2018/V11/EGamma/Run2018A-Nano14Dec2018-v184/190426_091623/0000/tree_144.root
/store/group/phys_higgs/hbb/ntuples/VHbbPostNano/2018/V11/EGamma/Run2018A-Nano14Dec2018-v184/190426_091623/0000/tree_145.root
/store/group/phys_higgs/hbb/ntuples/VHbbPostNano/2018/V11/EGamma/Run2018A-Nano14Dec2018-v184/190426_091623/0000/tree_146.root
/store/group/phys_higgs/hbb/ntuples/VHbbPostNano/2018/V11/EGamma/Run2018A-Nano14Dec2018-v184/190426_091623/0000/tree_147.root
/store/group/phys_higgs/hbb/ntuples/VHbbPostNano/2018/V11/EGamma/Run2018A-Nano14Dec2018-v184/190426_091623/0000/tree_148.root
/store/group/phys_higgs/hbb/ntuples/VHbbPostNano/2018/V11/EGamma/Run2018A-Nano14Dec2018-v184/190426_091623/0000/tree_149.root
/store/group/phys_higgs/hbb/ntuples/VHbbPostNano/2018/V11/EGamma/Run2018A-Nano14Dec2018-v184/190426_091623/0000/tree_15.root
/store/group/phys_higgs/hbb/ntuples/VHbbPostNano/2018/V11/EGamma/Run2018A-Nano14Dec2018-v184/190426_091623/0000/tree_150.root
/store/group/phys_higgs/hbb/ntuples/VHbbPostNano/2018/V11/EGamma/Run2018A-Nano14Dec2018-v184/190426_091623/0000/tree_151.root
/store/group/phys_higgs/hbb/ntuples/VHbbPostNano/2018/V11/EGamma/Run2018A-Nano14Dec2018-v184/190426_091623/0000/tree_152.root
/store/group/phys_higgs/hbb/ntuples/VHbbPostNano/2018/V11/EGamma/Run2018A-Nano14Dec2018-v184/190426_091623/0000/tree_153.root
/store/group/phys_higgs/hbb/ntuples/VHbbPostNano/2018/V11/EGamma/Run2018A-Nano14Dec2018-v184/190426_091623/0000/tree_154.root
/store/group/phys_higgs/hbb/ntuples/VHbbPostNano/2018/V11/EGamma/Run2018A-Nano14Dec2018-v184/190426_091623/0000/tree_155.root
/store/group/phys_higgs/hbb/ntuples/VHbbPostNano/2018/V11/EGamma/Run2018A-Nano14Dec2018-v184/190426_091623/0000/tree_156.root
/store/group/phys_higgs/hbb/ntuples/VHbbPostNano/2018/V11/EGamma/Run2018A-Nano14Dec2018-v184/190426_091623/0000/tree_157.root
/store/group/phys_higgs/hbb/ntuples/VHbbPostNano/2018/V11/EGamma/Run2018A-Nano14Dec2018-v184/190426_091623/0000/tree_158.root
/store/group/phys_higgs/hbb/ntuples/VHbbPostNano/2018/V11/EGamma/Run2018A-Nano14Dec2018-v184/190426_091623/0000/tree_159.root
/store/group/phys_higgs/hbb/ntuples/VHbbPostNano/2018/V11/EGamma/Run2018A-Nano14Dec2018-v184/190426_091623/0000/tree_16.root
/store/group/phys_higgs/hbb/ntuples/VHbbPostNano/2018/V11/EGamma/Run2018A-Nano14Dec2018-v184/190426_091623/0000/tree_160.root
/store/group/phys_higgs/hbb/ntuples/VHbbPostNano/2018/V11/EGamma/Run2018A-Nano14Dec2018-v184/190426_091623/0000/tree_161.root
/store/group/phys_higgs/hbb/ntuples/VHbbPostNano/2018/V11/EGamma/Run2018A-Nano14Dec2018-v184/190426_091623/0000/tree_162.root
/store/group/phys_higgs/hbb/ntuples/VHbbPostNano/2018/V11/EGamma/Run2018A-Nano14Dec2018-v184/190426_091623/0000/tree_163.root
/store/group/phys_higgs/hbb/ntuples/VHbbPostNano/2018/V11/EGamma/Run2018A-Nano14Dec2018-v184/190426_091623/0000/tree_164.root
/store/group/phys_higgs/hbb/ntuples/VHbbPostNano/2018/V11/EGamma/Run2018A-Nano14Dec2018-v184/190426_091623/0000/tree_17.root
/store/group/phys_higgs/hbb/ntuples/VHbbPostNano/2018/V11/EGamma/Run2018A-Nano14Dec2018-v184/190426_091623/0000/tree_18.root
/store/group/phys_higgs/hbb/ntuples/VHbbPostNano/2018/V11/EGamma/Run2018A-Nano14Dec2018-v184/190426_091623/0000/tree_19.root
/store/group/phys_higgs/hbb/ntuples/VHbbPostNano/2018/V11/EGamma/Run2018A-Nano14Dec2018-v184/190426_091623/0000/tree_2.root
/store/group/phys_higgs/hbb/ntuples/VHbbPostNano/2018/V11/EGamma/Run2018A-Nano14Dec2018-v184/190426_091623/0000/tree_20.root
/store/group/phys_higgs/hbb/ntuples/VHbbPostNano/2018/V11/EGamma/Run2018A-Nano14Dec2018-v184/190426_091623/0000/tree_21.root
/store/group/phys_higgs/hbb/ntuples/VHbbPostNano/2018/V11/EGamma/Run2018A-Nano14Dec2018-v184/190426_091623/0000/tree_22.root
/store/group/phys_higgs/hbb/ntuples/VHbbPostNano/2018/V11/EGamma/Run2018A-Nano14Dec2018-v184/190426_091623/0000/tree_23.root
/store/group/phys_higgs/hbb/ntuples/VHbbPostNano/2018/V11/EGamma/Run2018A-Nano14Dec2018-v184/190426_091623/0000/tree_24.root
/store/group/phys_higgs/hbb/ntuples/VHbbPostNano/2018/V11/EGamma/Run2018A-Nano14Dec2018-v184/190426_091623/0000/tree_25.root
/store/group/phys_higgs/hbb/ntuples/VHbbPostNano/2018/V11/EGamma/Run2018A-Nano14Dec2018-v184/190426_091623/0000/tree_26.root
/store/group/phys_higgs/hbb/ntuples/VHbbPostNano/2018/V11/EGamma/Run2018A-Nano14Dec2018-v184/190426_091623/0000/tree_27.root
/store/group/phys_higgs/hbb/ntuples/VHbbPostNano/2018/V11/EGamma/Run2018A-Nano14Dec2018-v184/190426_091623/0000/tree_28.root
/store/group/phys_higgs/hbb/ntuples/VHbbPostNano/2018/V11/EGamma/Run2018A-Nano14Dec2018-v184/190426_091623/0000/tree_29.root
/store/group/phys_higgs/hbb/ntuples/VHbbPostNano/2018/V11/EGamma/Run2018A-Nano14Dec2018-v184/190426_091623/0000/tree_3.root
/store/group/phys_higgs/hbb/ntuples/VHbbPostNano/2018/V11/EGamma/Run2018A-Nano14Dec2018-v184/190426_091623/0000/tree_30.root
/store/group/phys_higgs/hbb/ntuples/VHbbPostNano/2018/V11/EGamma/Run2018A-Nano14Dec2018-v184/190426_091623/0000/tree_31.root
/store/group/phys_higgs/hbb/ntuples/VHbbPostNano/2018/V11/EGamma/Run2018A-Nano14Dec2018-v184/190426_091623/0000/tree_32.root
/store/group/phys_higgs/hbb/ntuples/VHbbPostNano/2018/V11/EGamma/Run2018A-Nano14Dec2018-v184/190426_091623/0000/tree_33.root
/store/group/phys_higgs/hbb/ntuples/VHbbPostNano/2018/V11/EGamma/Run2018A-Nano14Dec2018-v184/190426_091623/0000/tree_34.root
/store/group/phys_higgs/hbb/ntuples/VHbbPostNano/2018/V11/EGamma/Run2018A-Nano14Dec2018-v184/190426_091623/0000/tree_35.root
/store/group/phys_higgs/hbb/ntuples/VHbbPostNano/2018/V11/EGamma/Run2018A-Nano14Dec2018-v184/190426_091623/0000/tree_36.root
/store/group/phys_higgs/hbb/ntuples/VHbbPostNano/2018/V11/EGamma/Run2018A-Nano14Dec2018-v184/190426_091623/0000/tree_37.root
/store/group/phys_higgs/hbb/ntuples/VHbbPostNano/2018/V11/EGamma/Run2018A-Nano14Dec2018-v184/190426_091623/0000/tree_38.root
/store/group/phys_higgs/hbb/ntuples/VHbbPostNano/2018/V11/EGamma/Run2018A-Nano14Dec2018-v184/190426_091623/0000/tree_39.root
/store/group/phys_higgs/hbb/ntuples/VHbbPostNano/2018/V11/EGamma/Run2018A-Nano14Dec2018-v184/190426_091623/0000/tree_4.root
/store/group/phys_higgs/hbb/ntuples/VHbbPostNano/2018/V11/EGamma/Run2018A-Nano14Dec2018-v184/190426_091623/0000/tree_40.root
/store/group/phys_higgs/hbb/ntuples/VHbbPostNano/2018/V11/EGamma/Run2018A-Nano14Dec2018-v184/190426_091623/0000/tree_41.root
/store/group/phys_higgs/hbb/ntuples/VHbbPostNano/2018/V11/EGamma/Run2018A-Nano14Dec2018-v184/190426_091623/0000/tree_42.root
/store/group/phys_higgs/hbb/ntuples/VHbbPostNano/2018/V11/EGamma/Run2018A-Nano14Dec2018-v184/190426_091623/0000/tree_43.root
/store/group/phys_higgs/hbb/ntuples/VHbbPostNano/2018/V11/EGamma/Run2018A-Nano14Dec2018-v184/190426_091623/0000/tree_44.root
/store/group/phys_higgs/hbb/ntuples/VHbbPostNano/2018/V11/EGamma/Run2018A-Nano14Dec2018-v184/190426_091623/0000/tree_45.root
/store/group/phys_higgs/hbb/ntuples/VHbbPostNano/2018/V11/EGamma/Run2018A-Nano14Dec2018-v184/190426_091623/0000/tree_46.root
/store/group/phys_higgs/hbb/ntuples/VHbbPostNano/2018/V11/EGamma/Run2018A-Nano14Dec2018-v184/190426_091623/0000/tree_47.root
/store/group/phys_higgs/hbb/ntuples/VHbbPostNano/2018/V11/EGamma/Run2018A-Nano14Dec2018-v184/190426_091623/0000/tree_48.root
/store/group/phys_higgs/hbb/ntuples/VHbbPostNano/2018/V11/EGamma/Run2018A-Nano14Dec2018-v184/190426_091623/0000/tree_49.root
/store/group/phys_higgs/hbb/ntuples/VHbbPostNano/2018/V11/EGamma/Run2018A-Nano14Dec2018-v184/190426_091623/0000/tree_5.root
/store/group/phys_higgs/hbb/ntuples/VHbbPostNano/2018/V11/EGamma/Run2018A-Nano14Dec2018-v184/190426_091623/0000/tree_50.root
/store/group/phys_higgs/hbb/ntuples/VHbbPostNano/2018/V11/EGamma/Run2018A-Nano14Dec2018-v184/190426_091623/0000/tree_51.root
/store/group/phys_higgs/hbb/ntuples/VHbbPostNano/2018/V11/EGamma/Run2018A-Nano14Dec2018-v184/190426_091623/0000/tree_52.root
/store/group/phys_higgs/hbb/ntuples/VHbbPostNano/2018/V11/EGamma/Run2018A-Nano14Dec2018-v184/190426_091623/0000/tree_53.root
/store/group/phys_higgs/hbb/ntuples/VHbbPostNano/2018/V11/EGamma/Run2018A-Nano14Dec2018-v184/190426_091623/0000/tree_54.root
/store/group/phys_higgs/hbb/ntuples/VHbbPostNano/2018/V11/EGamma/Run2018A-Nano14Dec2018-v184/190426_091623/0000/tree_55.root
/store/group/phys_higgs/hbb/ntuples/VHbbPostNano/2018/V11/EGamma/Run2018A-Nano14Dec2018-v184/190426_091623/0000/tree_56.root
/store/group/phys_higgs/hbb/ntuples/VHbbPostNano/2018/V11/EGamma/Run2018A-Nano14Dec2018-v184/190426_091623/0000/tree_57.root
/store/group/phys_higgs/hbb/ntuples/VHbbPostNano/2018/V11/EGamma/Run2018A-Nano14Dec2018-v184/190426_091623/0000/tree_58.root
/store/group/phys_higgs/hbb/ntuples/VHbbPostNano/2018/V11/EGamma/Run2018A-Nano14Dec2018-v184/190426_091623/0000/tree_59.root
/store/group/phys_higgs/hbb/ntuples/VHbbPostNano/2018/V11/EGamma/Run2018A-Nano14Dec2018-v184/190426_091623/0000/tree_6.root
/store/group/phys_higgs/hbb/ntuples/VHbbPostNano/2018/V11/EGamma/Run2018A-Nano14Dec2018-v184/190426_091623/0000/tree_60.root
/store/group/phys_higgs/hbb/ntuples/VHbbPostNano/2018/V11/EGamma/Run2018A-Nano14Dec2018-v184/190426_091623/0000/tree_61.root
/store/group/phys_higgs/hbb/ntuples/VHbbPostNano/2018/V11/EGamma/Run2018A-Nano14Dec2018-v184/190426_091623/0000/tree_62.root
/store/group/phys_higgs/hbb/ntuples/VHbbPostNano/2018/V11/EGamma/Run2018A-Nano14Dec2018-v184/190426_091623/0000/tree_63.root
/store/group/phys_higgs/hbb/ntuples/VHbbPostNano/2018/V11/EGamma/Run2018A-Nano14Dec2018-v184/190426_091623/0000/tree_64.root
/store/group/phys_higgs/hbb/ntuples/VHbbPostNano/2018/V11/EGamma/Run2018A-Nano14Dec2018-v184/190426_091623/0000/tree_65.root
/store/group/phys_higgs/hbb/ntuples/VHbbPostNano/2018/V11/EGamma/Run2018A-Nano14Dec2018-v184/190426_091623/0000/tree_66.root
/store/group/phys_higgs/hbb/ntuples/VHbbPostNano/2018/V11/EGamma/Run2018A-Nano14Dec2018-v184/190426_091623/0000/tree_67.root
/store/group/phys_higgs/hbb/ntuples/VHbbPostNano/2018/V11/EGamma/Run2018A-Nano14Dec2018-v184/190426_091623/0000/tree_68.root
/store/group/phys_higgs/hbb/ntuples/VHbbPostNano/2018/V11/EGamma/Run2018A-Nano14Dec2018-v184/190426_091623/0000/tree_69.root
/store/group/phys_higgs/hbb/ntuples/VHbbPostNano/2018/V11/EGamma/Run2018A-Nano14Dec2018-v184/190426_091623/0000/tree_7.root
/store/group/phys_higgs/hbb/ntuples/VHbbPostNano/2018/V11/EGamma/Run2018A-Nano14Dec2018-v184/190426_091623/0000/tree_70.root
/store/group/phys_higgs/hbb/ntuples/VHbbPostNano/2018/V11/EGamma/Run2018A-Nano14Dec2018-v184/190426_091623/0000/tree_71.root
/store/group/phys_higgs/hbb/ntuples/VHbbPostNano/2018/V11/EGamma/Run2018A-Nano14Dec2018-v184/190426_091623/0000/tree_72.root
/store/group/phys_higgs/hbb/ntuples/VHbbPostNano/2018/V11/EGamma/Run2018A-Nano14Dec2018-v184/190426_091623/0000/tree_73.root
/store/group/phys_higgs/hbb/ntuples/VHbbPostNano/2018/V11/EGamma/Run2018A-Nano14Dec2018-v184/190426_091623/0000/tree_74.root
/store/group/phys_higgs/hbb/ntuples/VHbbPostNano/2018/V11/EGamma/Run2018A-Nano14Dec2018-v184/190426_091623/0000/tree_75.root
/store/group/phys_higgs/hbb/ntuples/VHbbPostNano/2018/V11/EGamma/Run2018A-Nano14Dec2018-v184/190426_091623/0000/tree_76.root
/store/group/phys_higgs/hbb/ntuples/VHbbPostNano/2018/V11/EGamma/Run2018A-Nano14Dec2018-v184/190426_091623/0000/tree_77.root
/store/group/phys_higgs/hbb/ntuples/VHbbPostNano/2018/V11/EGamma/Run2018A-Nano14Dec2018-v184/190426_091623/0000/tree_78.root
/store/group/phys_higgs/hbb/ntuples/VHbbPostNano/2018/V11/EGamma/Run2018A-Nano14Dec2018-v184/190426_091623/0000/tree_79.root
/store/group/phys_higgs/hbb/ntuples/VHbbPostNano/2018/V11/EGamma/Run2018A-Nano14Dec2018-v184/190426_091623/0000/tree_8.root
/store/group/phys_higgs/hbb/ntuples/VHbbPostNano/2018/V11/EGamma/Run2018A-Nano14Dec2018-v184/190426_091623/0000/tree_80.root
/store/group/phys_higgs/hbb/ntuples/VHbbPostNano/2018/V11/EGamma/Run2018A-Nano14Dec2018-v184/190426_091623/0000/tree_81.root
/store/group/phys_higgs/hbb/ntuples/VHbbPostNano/2018/V11/EGamma/Run2018A-Nano14Dec2018-v184/190426_091623/0000/tree_82.root
/store/group/phys_higgs/hbb/ntuples/VHbbPostNano/2018/V11/EGamma/Run2018A-Nano14Dec2018-v184/190426_091623/0000/tree_83.root
/store/group/phys_higgs/hbb/ntuples/VHbbPostNano/2018/V11/EGamma/Run2018A-Nano14Dec2018-v184/190426_091623/0000/tree_84.root
/store/group/phys_higgs/hbb/ntuples/VHbbPostNano/2018/V11/EGamma/Run2018A-Nano14Dec2018-v184/190426_091623/0000/tree_85.root
/store/group/phys_higgs/hbb/ntuples/VHbbPostNano/2018/V11/EGamma/Run2018A-Nano14Dec2018-v184/190426_091623/0000/tree_86.root
/store/group/phys_higgs/hbb/ntuples/VHbbPostNano/2018/V11/EGamma/Run2018A-Nano14Dec2018-v184/190426_091623/0000/tree_87.root
/store/group/phys_higgs/hbb/ntuples/VHbbPostNano/2018/V11/EGamma/Run2018A-Nano14Dec2018-v184/190426_091623/0000/tree_88.root
/store/group/phys_higgs/hbb/ntuples/VHbbPostNano/2018/V11/EGamma/Run2018A-Nano14Dec2018-v184/190426_091623/0000/tree_89.root
/store/group/phys_higgs/hbb/ntuples/VHbbPostNano/2018/V11/EGamma/Run2018A-Nano14Dec2018-v184/190426_091623/0000/tree_9.root
/store/group/phys_higgs/hbb/ntuples/VHbbPostNano/2018/V11/EGamma/Run2018A-Nano14Dec2018-v184/190426_091623/0000/tree_90.root
/store/group/phys_higgs/hbb/ntuples/VHbbPostNano/2018/V11/EGamma/Run2018A-Nano14Dec2018-v184/190426_091623/0000/tree_91.root
/store/group/phys_higgs/hbb/ntuples/VHbbPostNano/2018/V11/EGamma/Run2018A-Nano14Dec2018-v184/190426_091623/0000/tree_92.root
/store/group/phys_higgs/hbb/ntuples/VHbbPostNano/2018/V11/EGamma/Run2018A-Nano14Dec2018-v184/190426_091623/0000/tree_93.root
/store/group/phys_higgs/hbb/ntuples/VHbbPostNano/2018/V11/EGamma/Run2018A-Nano14Dec2018-v184/190426_091623/0000/tree_94.root
/store/group/phys_higgs/hbb/ntuples/VHbbPostNano/2018/V11/EGamma/Run2018A-Nano14Dec2018-v184/190426_091623/0000/tree_95.root
/store/group/phys_higgs/hbb/ntuples/VHbbPostNano/2018/V11/EGamma/Run2018A-Nano14Dec2018-v184/190426_091623/0000/tree_96.root
/store/group/phys_higgs/hbb/ntuples/VHbbPostNano/2018/V11/EGamma/Run2018A-Nano14Dec2018-v184/190426_091623/0000/tree_97.root
/store/group/phys_higgs/hbb/ntuples/VHbbPostNano/2018/V11/EGamma/Run2018A-Nano14Dec2018-v184/190426_091623/0000/tree_98.root
/store/group/phys_higgs/hbb/ntuples/VHbbPostNano/2018/V11/EGamma/Run2018A-Nano14Dec2018-v184/190426_091623/0000/tree_99.root
/store/group/phys_higgs/hbb/ntuples/VHbbPostNano/2018/V11/EGamma/Run2018B-Nano14Dec2018-v185/190426_091705/0000/tree_1.root
/store/group/phys_higgs/hbb/ntuples/VHbbPostNano/2018/V11/EGamma/Run2018B-Nano14Dec2018-v185/190426_091705/0000/tree_10.root
/store/group/phys_higgs/hbb/ntuples/VHbbPostNano/2018/V11/EGamma/Run2018B-Nano14Dec2018-v185/190426_091705/0000/tree_11.root
/store/group/phys_higgs/hbb/ntuples/VHbbPostNano/2018/V11/EGamma/Run2018B-Nano14Dec2018-v185/190426_091705/0000/tree_12.root
/store/group/phys_higgs/hbb/ntuples/VHbbPostNano/2018/V11/EGamma/Run2018B-Nano14Dec2018-v185/190426_091705/0000/tree_13.root
/store/group/phys_higgs/hbb/ntuples/VHbbPostNano/2018/V11/EGamma/Run2018B-Nano14Dec2018-v185/190426_091705/0000/tree_14.root
/store/group/phys_higgs/hbb/ntuples/VHbbPostNano/2018/V11/EGamma/Run2018B-Nano14Dec2018-v185/190426_091705/0000/tree_15.root
/store/group/phys_higgs/hbb/ntuples/VHbbPostNano/2018/V11/EGamma/Run2018B-Nano14Dec2018-v185/190426_091705/0000/tree_16.root
/store/group/phys_higgs/hbb/ntuples/VHbbPostNano/2018/V11/EGamma/Run2018B-Nano14Dec2018-v185/190426_091705/0000/tree_17.root
/store/group/phys_higgs/hbb/ntuples/VHbbPostNano/2018/V11/EGamma/Run2018B-Nano14Dec2018-v185/190426_091705/0000/tree_18.root
/store/group/phys_higgs/hbb/ntuples/VHbbPostNano/2018/V11/EGamma/Run2018B-Nano14Dec2018-v185/190426_091705/0000/tree_19.root
/store/group/phys_higgs/hbb/ntuples/VHbbPostNano/2018/V11/EGamma/Run2018B-Nano14Dec2018-v185/190426_091705/0000/tree_2.root
/store/group/phys_higgs/hbb/ntuples/VHbbPostNano/2018/V11/EGamma/Run2018B-Nano14Dec2018-v185/190426_091705/0000/tree_20.root
/store/group/phys_higgs/hbb/ntuples/VHbbPostNano/2018/V11/EGamma/Run2018B-Nano14Dec2018-v185/190426_091705/0000/tree_21.root
/store/group/phys_higgs/hbb/ntuples/VHbbPostNano/2018/V11/EGamma/Run2018B-Nano14Dec2018-v185/190426_091705/0000/tree_22.root
/store/group/phys_higgs/hbb/ntuples/VHbbPostNano/2018/V11/EGamma/Run2018B-Nano14Dec2018-v185/190426_091705/0000/tree_23.root
/store/group/phys_higgs/hbb/ntuples/VHbbPostNano/2018/V11/EGamma/Run2018B-Nano14Dec2018-v185/190426_091705/0000/tree_24.root
/store/group/phys_higgs/hbb/ntuples/VHbbPostNano/2018/V11/EGamma/Run2018B-Nano14Dec2018-v185/190426_091705/0000/tree_25.root
/store/group/phys_higgs/hbb/ntuples/VHbbPostNano/2018/V11/EGamma/Run2018B-Nano14Dec2018-v185/190426_091705/0000/tree_26.root
/store/group/phys_higgs/hbb/ntuples/VHbbPostNano/2018/V11/EGamma/Run2018B-Nano14Dec2018-v185/190426_091705/0000/tree_27.root
/store/group/phys_higgs/hbb/ntuples/VHbbPostNano/2018/V11/EGamma/Run2018B-Nano14Dec2018-v185/190426_091705/0000/tree_28.root
/store/group/phys_higgs/hbb/ntuples/VHbbPostNano/2018/V11/EGamma/Run2018B-Nano14Dec2018-v185/190426_091705/0000/tree_29.root
/store/group/phys_higgs/hbb/ntuples/VHbbPostNano/2018/V11/EGamma/Run2018B-Nano14Dec2018-v185/190426_091705/0000/tree_3.root
/store/group/phys_higgs/hbb/ntuples/VHbbPostNano/2018/V11/EGamma/Run2018B-Nano14Dec2018-v185/190426_091705/0000/tree_30.root
/store/group/phys_higgs/hbb/ntuples/VHbbPostNano/2018/V11/EGamma/Run2018B-Nano14Dec2018-v185/190426_091705/0000/tree_31.root
/store/group/phys_higgs/hbb/ntuples/VHbbPostNano/2018/V11/EGamma/Run2018B-Nano14Dec2018-v185/190426_091705/0000/tree_32.root
/store/group/phys_higgs/hbb/ntuples/VHbbPostNano/2018/V11/EGamma/Run2018B-Nano14Dec2018-v185/190426_091705/0000/tree_33.root
/store/group/phys_higgs/hbb/ntuples/VHbbPostNano/2018/V11/EGamma/Run2018B-Nano14Dec2018-v185/190426_091705/0000/tree_34.root
/store/group/phys_higgs/hbb/ntuples/VHbbPostNano/2018/V11/EGamma/Run2018B-Nano14Dec2018-v185/190426_091705/0000/tree_35.root
/store/group/phys_higgs/hbb/ntuples/VHbbPostNano/2018/V11/EGamma/Run2018B-Nano14Dec2018-v185/190426_091705/0000/tree_36.root
/store/group/phys_higgs/hbb/ntuples/VHbbPostNano/2018/V11/EGamma/Run2018B-Nano14Dec2018-v185/190426_091705/0000/tree_37.root
/store/group/phys_higgs/hbb/ntuples/VHbbPostNano/2018/V11/EGamma/Run2018B-Nano14Dec2018-v185/190426_091705/0000/tree_38.root
/store/group/phys_higgs/hbb/ntuples/VHbbPostNano/2018/V11/EGamma/Run2018B-Nano14Dec2018-v185/190426_091705/0000/tree_39.root
/store/group/phys_higgs/hbb/ntuples/VHbbPostNano/2018/V11/EGamma/Run2018B-Nano14Dec2018-v185/190426_091705/0000/tree_4.root
/store/group/phys_higgs/hbb/ntuples/VHbbPostNano/2018/V11/EGamma/Run2018B-Nano14Dec2018-v185/190426_091705/0000/tree_40.root
/store/group/phys_higgs/hbb/ntuples/VHbbPostNano/2018/V11/EGamma/Run2018B-Nano14Dec2018-v185/190426_091705/0000/tree_41.root
/store/group/phys_higgs/hbb/ntuples/VHbbPostNano/2018/V11/EGamma/Run2018B-Nano14Dec2018-v185/190426_091705/0000/tree_42.root
/store/group/phys_higgs/hbb/ntuples/VHbbPostNano/2018/V11/EGamma/Run2018B-Nano14Dec2018-v185/190426_091705/0000/tree_43.root
/store/group/phys_higgs/hbb/ntuples/VHbbPostNano/2018/V11/EGamma/Run2018B-Nano14Dec2018-v185/190426_091705/0000/tree_44.root
/store/group/phys_higgs/hbb/ntuples/VHbbPostNano/2018/V11/EGamma/Run2018B-Nano14Dec2018-v185/190426_091705/0000/tree_45.root
/store/group/phys_higgs/hbb/ntuples/VHbbPostNano/2018/V11/EGamma/Run2018B-Nano14Dec2018-v185/190426_091705/0000/tree_46.root
/store/group/phys_higgs/hbb/ntuples/VHbbPostNano/2018/V11/EGamma/Run2018B-Nano14Dec2018-v185/190426_091705/0000/tree_47.root
/store/group/phys_higgs/hbb/ntuples/VHbbPostNano/2018/V11/EGamma/Run2018B-Nano14Dec2018-v185/190426_091705/0000/tree_48.root
/store/group/phys_higgs/hbb/ntuples/VHbbPostNano/2018/V11/EGamma/Run2018B-Nano14Dec2018-v185/190426_091705/0000/tree_49.root
/store/group/phys_higgs/hbb/ntuples/VHbbPostNano/2018/V11/EGamma/Run2018B-Nano14Dec2018-v185/190426_091705/0000/tree_5.root
/store/group/phys_higgs/hbb/ntuples/VHbbPostNano/2018/V11/EGamma/Run2018B-Nano14Dec2018-v185/190426_091705/0000/tree_50.root
/store/group/phys_higgs/hbb/ntuples/VHbbPostNano/2018/V11/EGamma/Run2018B-Nano14Dec2018-v185/190426_091705/0000/tree_51.root
/store/group/phys_higgs/hbb/ntuples/VHbbPostNano/2018/V11/EGamma/Run2018B-Nano14Dec2018-v185/190426_091705/0000/tree_52.root
/store/group/phys_higgs/hbb/ntuples/VHbbPostNano/2018/V11/EGamma/Run2018B-Nano14Dec2018-v185/190426_091705/0000/tree_53.root
/store/group/phys_higgs/hbb/ntuples/VHbbPostNano/2018/V11/EGamma/Run2018B-Nano14Dec2018-v185/190426_091705/0000/tree_54.root
/store/group/phys_higgs/hbb/ntuples/VHbbPostNano/2018/V11/EGamma/Run2018B-Nano14Dec2018-v185/190426_091705/0000/tree_55.root
/store/group/phys_higgs/hbb/ntuples/VHbbPostNano/2018/V11/EGamma/Run2018B-Nano14Dec2018-v185/190426_091705/0000/tree_56.root
/store/group/phys_higgs/hbb/ntuples/VHbbPostNano/2018/V11/EGamma/Run2018B-Nano14Dec2018-v185/190426_091705/0000/tree_57.root
/store/group/phys_higgs/hbb/ntuples/VHbbPostNano/2018/V11/EGamma/Run2018B-Nano14Dec2018-v185/190426_091705/0000/tree_58.root
/store/group/phys_higgs/hbb/ntuples/VHbbPostNano/2018/V11/EGamma/Run2018B-Nano14Dec2018-v185/190426_091705/0000/tree_59.root
/store/group/phys_higgs/hbb/ntuples/VHbbPostNano/2018/V11/EGamma/Run2018B-Nano14Dec2018-v185/190426_091705/0000/tree_6.root
/store/group/phys_higgs/hbb/ntuples/VHbbPostNano/2018/V11/EGamma/Run2018B-Nano14Dec2018-v185/190426_091705/0000/tree_60.root
/store/group/phys_higgs/hbb/ntuples/VHbbPostNano/2018/V11/EGamma/Run2018B-Nano14Dec2018-v185/190426_091705/0000/tree_61.root
/store/group/phys_higgs/hbb/ntuples/VHbbPostNano/2018/V11/EGamma/Run2018B-Nano14Dec2018-v185/190426_091705/0000/tree_62.root
/store/group/phys_higgs/hbb/ntuples/VHbbPostNano/2018/V11/EGamma/Run2018B-Nano14Dec2018-v185/190426_091705/0000/tree_63.root
/store/group/phys_higgs/hbb/ntuples/VHbbPostNano/2018/V11/EGamma/Run2018B-Nano14Dec2018-v185/190426_091705/0000/tree_64.root
/store/group/phys_higgs/hbb/ntuples/VHbbPostNano/2018/V11/EGamma/Run2018B-Nano14Dec2018-v185/190426_091705/0000/tree_65.root
/store/group/phys_higgs/hbb/ntuples/VHbbPostNano/2018/V11/EGamma/Run2018B-Nano14Dec2018-v185/190426_091705/0000/tree_66.root
/store/group/phys_higgs/hbb/ntuples/VHbbPostNano/2018/V11/EGamma/Run2018B-Nano14Dec2018-v185/190426_091705/0000/tree_67.root
/store/group/phys_higgs/hbb/ntuples/VHbbPostNano/2018/V11/EGamma/Run2018B-Nano14Dec2018-v185/190426_091705/0000/tree_68.root
/store/group/phys_higgs/hbb/ntuples/VHbbPostNano/2018/V11/EGamma/Run2018B-Nano14Dec2018-v185/190426_091705/0000/tree_69.root
/store/group/phys_higgs/hbb/ntuples/VHbbPostNano/2018/V11/EGamma/Run2018B-Nano14Dec2018-v185/190426_091705/0000/tree_7.root
/store/group/phys_higgs/hbb/ntuples/VHbbPostNano/2018/V11/EGamma/Run2018B-Nano14Dec2018-v185/190426_091705/0000/tree_70.root
/store/group/phys_higgs/hbb/ntuples/VHbbPostNano/2018/V11/EGamma/Run2018B-Nano14Dec2018-v185/190426_091705/0000/tree_8.root
/store/group/phys_higgs/hbb/ntuples/VHbbPostNano/2018/V11/EGamma/Run2018B-Nano14Dec2018-v185/190426_091705/0000/tree_9.root
/store/group/phys_higgs/hbb/ntuples/VHbbPostNano/2018/V11/EGamma/Run2018C-Nano14Dec2018-v186/190426_091747/0000/tree_1.root
/store/group/phys_higgs/hbb/ntuples/VHbbPostNano/2018/V11/EGamma/Run2018C-Nano14Dec2018-v186/190426_091747/0000/tree_10.root
/store/group/phys_higgs/hbb/ntuples/VHbbPostNano/2018/V11/EGamma/Run2018C-Nano14Dec2018-v186/190426_091747/0000/tree_11.root
/store/group/phys_higgs/hbb/ntuples/VHbbPostNano/2018/V11/EGamma/Run2018C-Nano14Dec2018-v186/190426_091747/0000/tree_12.root
/store/group/phys_higgs/hbb/ntuples/VHbbPostNano/2018/V11/EGamma/Run2018C-Nano14Dec2018-v186/190426_091747/0000/tree_13.root
/store/group/phys_higgs/hbb/ntuples/VHbbPostNano/2018/V11/EGamma/Run2018C-Nano14Dec2018-v186/190426_091747/0000/tree_14.root
/store/group/phys_higgs/hbb/ntuples/VHbbPostNano/2018/V11/EGamma/Run2018C-Nano14Dec2018-v186/190426_091747/0000/tree_15.root
/store/group/phys_higgs/hbb/ntuples/VHbbPostNano/2018/V11/EGamma/Run2018C-Nano14Dec2018-v186/190426_091747/0000/tree_16.root
/store/group/phys_higgs/hbb/ntuples/VHbbPostNano/2018/V11/EGamma/Run2018C-Nano14Dec2018-v186/190426_091747/0000/tree_17.root
/store/group/phys_higgs/hbb/ntuples/VHbbPostNano/2018/V11/EGamma/Run2018C-Nano14Dec2018-v186/190426_091747/0000/tree_18.root
/store/group/phys_higgs/hbb/ntuples/VHbbPostNano/2018/V11/EGamma/Run2018C-Nano14Dec2018-v186/190426_091747/0000/tree_19.root
/store/group/phys_higgs/hbb/ntuples/VHbbPostNano/2018/V11/EGamma/Run2018C-Nano14Dec2018-v186/190426_091747/0000/tree_2.root
/store/group/phys_higgs/hbb/ntuples/VHbbPostNano/2018/V11/EGamma/Run2018C-Nano14Dec2018-v186/190426_091747/0000/tree_20.root
/store/group/phys_higgs/hbb/ntuples/VHbbPostNano/2018/V11/EGamma/Run2018C-Nano14Dec2018-v186/190426_091747/0000/tree_21.root
/store/group/phys_higgs/hbb/ntuples/VHbbPostNano/2018/V11/EGamma/Run2018C-Nano14Dec2018-v186/190426_091747/0000/tree_22.root
/store/group/phys_higgs/hbb/ntuples/VHbbPostNano/2018/V11/EGamma/Run2018C-Nano14Dec2018-v186/190426_091747/0000/tree_23.root
/store/group/phys_higgs/hbb/ntuples/VHbbPostNano/2018/V11/EGamma/Run2018C-Nano14Dec2018-v186/190426_091747/0000/tree_24.root
/store/group/phys_higgs/hbb/ntuples/VHbbPostNano/2018/V11/EGamma/Run2018C-Nano14Dec2018-v186/190426_091747/0000/tree_25.root
/store/group/phys_higgs/hbb/ntuples/VHbbPostNano/2018/V11/EGamma/Run2018C-Nano14Dec2018-v186/190426_091747/0000/tree_26.root
/store/group/phys_higgs/hbb/ntuples/VHbbPostNano/2018/V11/EGamma/Run2018C-Nano14Dec2018-v186/190426_091747/0000/tree_27.root
/store/group/phys_higgs/hbb/ntuples/VHbbPostNano/2018/V11/EGamma/Run2018C-Nano14Dec2018-v186/190426_091747/0000/tree_28.root
/store/group/phys_higgs/hbb/ntuples/VHbbPostNano/2018/V11/EGamma/Run2018C-Nano14Dec2018-v186/190426_091747/0000/tree_29.root
/store/group/phys_higgs/hbb/ntuples/VHbbPostNano/2018/V11/EGamma/Run2018C-Nano14Dec2018-v186/190426_091747/0000/tree_3.root
/store/group/phys_higgs/hbb/ntuples/VHbbPostNano/2018/V11/EGamma/Run2018C-Nano14Dec2018-v186/190426_091747/0000/tree_30.root
/store/group/phys_higgs/hbb/ntuples/VHbbPostNano/2018/V11/EGamma/Run2018C-Nano14Dec2018-v186/190426_091747/0000/tree_31.root
/store/group/phys_higgs/hbb/ntuples/VHbbPostNano/2018/V11/EGamma/Run2018C-Nano14Dec2018-v186/190426_091747/0000/tree_32.root
/store/group/phys_higgs/hbb/ntuples/VHbbPostNano/2018/V11/EGamma/Run2018C-Nano14Dec2018-v186/190426_091747/0000/tree_33.root
/store/group/phys_higgs/hbb/ntuples/VHbbPostNano/2018/V11/EGamma/Run2018C-Nano14Dec2018-v186/190426_091747/0000/tree_34.root
/store/group/phys_higgs/hbb/ntuples/VHbbPostNano/2018/V11/EGamma/Run2018C-Nano14Dec2018-v186/190426_091747/0000/tree_35.root
/store/group/phys_higgs/hbb/ntuples/VHbbPostNano/2018/V11/EGamma/Run2018C-Nano14Dec2018-v186/190426_091747/0000/tree_36.root
/store/group/phys_higgs/hbb/ntuples/VHbbPostNano/2018/V11/EGamma/Run2018C-Nano14Dec2018-v186/190426_091747/0000/tree_37.root
/store/group/phys_higgs/hbb/ntuples/VHbbPostNano/2018/V11/EGamma/Run2018C-Nano14Dec2018-v186/190426_091747/0000/tree_38.root
/store/group/phys_higgs/hbb/ntuples/VHbbPostNano/2018/V11/EGamma/Run2018C-Nano14Dec2018-v186/190426_091747/0000/tree_39.root
/store/group/phys_higgs/hbb/ntuples/VHbbPostNano/2018/V11/EGamma/Run2018C-Nano14Dec2018-v186/190426_091747/0000/tree_4.root
/store/group/phys_higgs/hbb/ntuples/VHbbPostNano/2018/V11/EGamma/Run2018C-Nano14Dec2018-v186/190426_091747/0000/tree_40.root
/store/group/phys_higgs/hbb/ntuples/VHbbPostNano/2018/V11/EGamma/Run2018C-Nano14Dec2018-v186/190426_091747/0000/tree_41.root
/store/group/phys_higgs/hbb/ntuples/VHbbPostNano/2018/V11/EGamma/Run2018C-Nano14Dec2018-v186/190426_091747/0000/tree_42.root
/store/group/phys_higgs/hbb/ntuples/VHbbPostNano/2018/V11/EGamma/Run2018C-Nano14Dec2018-v186/190426_091747/0000/tree_43.root
/store/group/phys_higgs/hbb/ntuples/VHbbPostNano/2018/V11/EGamma/Run2018C-Nano14Dec2018-v186/190426_091747/0000/tree_44.root
/store/group/phys_higgs/hbb/ntuples/VHbbPostNano/2018/V11/EGamma/Run2018C-Nano14Dec2018-v186/190426_091747/0000/tree_45.root
/store/group/phys_higgs/hbb/ntuples/VHbbPostNano/2018/V11/EGamma/Run2018C-Nano14Dec2018-v186/190426_091747/0000/tree_46.root
/store/group/phys_higgs/hbb/ntuples/VHbbPostNano/2018/V11/EGamma/Run2018C-Nano14Dec2018-v186/190426_091747/0000/tree_47.root
/store/group/phys_higgs/hbb/ntuples/VHbbPostNano/2018/V11/EGamma/Run2018C-Nano14Dec2018-v186/190426_091747/0000/tree_48.root
/store/group/phys_higgs/hbb/ntuples/VHbbPostNano/2018/V11/EGamma/Run2018C-Nano14Dec2018-v186/190426_091747/0000/tree_49.root
/store/group/phys_higgs/hbb/ntuples/VHbbPostNano/2018/V11/EGamma/Run2018C-Nano14Dec2018-v186/190426_091747/0000/tree_5.root
/store/group/phys_higgs/hbb/ntuples/VHbbPostNano/2018/V11/EGamma/Run2018C-Nano14Dec2018-v186/190426_091747/0000/tree_50.root
/store/group/phys_higgs/hbb/ntuples/VHbbPostNano/2018/V11/EGamma/Run2018C-Nano14Dec2018-v186/190426_091747/0000/tree_51.root
/store/group/phys_higgs/hbb/ntuples/VHbbPostNano/2018/V11/EGamma/Run2018C-Nano14Dec2018-v186/190426_091747/0000/tree_52.root
/store/group/phys_higgs/hbb/ntuples/VHbbPostNano/2018/V11/EGamma/Run2018C-Nano14Dec2018-v186/190426_091747/0000/tree_53.root
/store/group/phys_higgs/hbb/ntuples/VHbbPostNano/2018/V11/EGamma/Run2018C-Nano14Dec2018-v186/190426_091747/0000/tree_54.root
/store/group/phys_higgs/hbb/ntuples/VHbbPostNano/2018/V11/EGamma/Run2018C-Nano14Dec2018-v186/190426_091747/0000/tree_55.root
/store/group/phys_higgs/hbb/ntuples/VHbbPostNano/2018/V11/EGamma/Run2018C-Nano14Dec2018-v186/190426_091747/0000/tree_56.root
/store/group/phys_higgs/hbb/ntuples/VHbbPostNano/2018/V11/EGamma/Run2018C-Nano14Dec2018-v186/190426_091747/0000/tree_57.root
/store/group/phys_higgs/hbb/ntuples/VHbbPostNano/2018/V11/EGamma/Run2018C-Nano14Dec2018-v186/190426_091747/0000/tree_58.root
/store/group/phys_higgs/hbb/ntuples/VHbbPostNano/2018/V11/EGamma/Run2018C-Nano14Dec2018-v186/190426_091747/0000/tree_59.root
/store/group/phys_higgs/hbb/ntuples/VHbbPostNano/2018/V11/EGamma/Run2018C-Nano14Dec2018-v186/190426_091747/0000/tree_6.root
/store/group/phys_higgs/hbb/ntuples/VHbbPostNano/2018/V11/EGamma/Run2018C-Nano14Dec2018-v186/190426_091747/0000/tree_60.root
/store/group/phys_higgs/hbb/ntuples/VHbbPostNano/2018/V11/EGamma/Run2018C-Nano14Dec2018-v186/190426_091747/0000/tree_61.root
/store/group/phys_higgs/hbb/ntuples/VHbbPostNano/2018/V11/EGamma/Run2018C-Nano14Dec2018-v186/190426_091747/0000/tree_62.root
/store/group/phys_higgs/hbb/ntuples/VHbbPostNano/2018/V11/EGamma/Run2018C-Nano14Dec2018-v186/190426_091747/0000/tree_63.root
/store/group/phys_higgs/hbb/ntuples/VHbbPostNano/2018/V11/EGamma/Run2018C-Nano14Dec2018-v186/190426_091747/0000/tree_64.root
/store/group/phys_higgs/hbb/ntuples/VHbbPostNano/2018/V11/EGamma/Run2018C-Nano14Dec2018-v186/190426_091747/0000/tree_65.root
/store/group/phys_higgs/hbb/ntuples/VHbbPostNano/2018/V11/EGamma/Run2018C-Nano14Dec2018-v186/190426_091747/0000/tree_66.root
/store/group/phys_higgs/hbb/ntuples/VHbbPostNano/2018/V11/EGamma/Run2018C-Nano14Dec2018-v186/190426_091747/0000/tree_67.root
/store/group/phys_higgs/hbb/ntuples/VHbbPostNano/2018/V11/EGamma/Run2018C-Nano14Dec2018-v186/190426_091747/0000/tree_68.root
/store/group/phys_higgs/hbb/ntuples/VHbbPostNano/2018/V11/EGamma/Run2018C-Nano14Dec2018-v186/190426_091747/0000/tree_69.root
/store/group/phys_higgs/hbb/ntuples/VHbbPostNano/2018/V11/EGamma/Run2018C-Nano14Dec2018-v186/190426_091747/0000/tree_7.root
/store/group/phys_higgs/hbb/ntuples/VHbbPostNano/2018/V11/EGamma/Run2018C-Nano14Dec2018-v186/190426_091747/0000/tree_70.root
/store/group/phys_higgs/hbb/ntuples/VHbbPostNano/2018/V11/EGamma/Run2018C-Nano14Dec2018-v186/190426_091747/0000/tree_71.root
/store/group/phys_higgs/hbb/ntuples/VHbbPostNano/2018/V11/EGamma/Run2018C-Nano14Dec2018-v186/190426_091747/0000/tree_72.root
/store/group/phys_higgs/hbb/ntuples/VHbbPostNano/2018/V11/EGamma/Run2018C-Nano14Dec2018-v186/190426_091747/0000/tree_73.root
/store/group/phys_higgs/hbb/ntuples/VHbbPostNano/2018/V11/EGamma/Run2018C-Nano14Dec2018-v186/190426_091747/0000/tree_74.root
/store/group/phys_higgs/hbb/ntuples/VHbbPostNano/2018/V11/EGamma/Run2018C-Nano14Dec2018-v186/190426_091747/0000/tree_75.root
/store/group/phys_higgs/hbb/ntuples/VHbbPostNano/2018/V11/EGamma/Run2018C-Nano14Dec2018-v186/190426_091747/0000/tree_76.root
/store/group/phys_higgs/hbb/ntuples/VHbbPostNano/2018/V11/EGamma/Run2018C-Nano14Dec2018-v186/190426_091747/0000/tree_77.root
/store/group/phys_higgs/hbb/ntuples/VHbbPostNano/2018/V11/EGamma/Run2018C-Nano14Dec2018-v186/190426_091747/0000/tree_78.root
/store/group/phys_higgs/hbb/ntuples/VHbbPostNano/2018/V11/EGamma/Run2018C-Nano14Dec2018-v186/190426_091747/0000/tree_79.root
/store/group/phys_higgs/hbb/ntuples/VHbbPostNano/2018/V11/EGamma/Run2018C-Nano14Dec2018-v186/190426_091747/0000/tree_8.root
/store/group/phys_higgs/hbb/ntuples/VHbbPostNano/2018/V11/EGamma/Run2018C-Nano14Dec2018-v186/190426_091747/0000/tree_80.root
/store/group/phys_higgs/hbb/ntuples/VHbbPostNano/2018/V11/EGamma/Run2018C-Nano14Dec2018-v186/190426_091747/0000/tree_81.root
/store/group/phys_higgs/hbb/ntuples/VHbbPostNano/2018/V11/EGamma/Run2018C-Nano14Dec2018-v186/190426_091747/0000/tree_82.root
/store/group/phys_higgs/hbb/ntuples/VHbbPostNano/2018/V11/EGamma/Run2018C-Nano14Dec2018-v186/190426_091747/0000/tree_83.root
/store/group/phys_higgs/hbb/ntuples/VHbbPostNano/2018/V11/EGamma/Run2018C-Nano14Dec2018-v186/190426_091747/0000/tree_9.root
/store/group/phys_higgs/hbb/ntuples/VHbbPostNano/2018/V11/EGamma/Run2018D-Nano14Dec2018_ver2-v187/190426_091828/0000/tree_1.root
/store/group/phys_higgs/hbb/ntuples/VHbbPostNano/2018/V11/EGamma/Run2018D-Nano14Dec2018_ver2-v187/190426_091828/0000/tree_10.root
/store/group/phys_higgs/hbb/ntuples/VHbbPostNano/2018/V11/EGamma/Run2018D-Nano14Dec2018_ver2-v187/190426_091828/0000/tree_100.root
/store/group/phys_higgs/hbb/ntuples/VHbbPostNano/2018/V11/EGamma/Run2018D-Nano14Dec2018_ver2-v187/190426_091828/0000/tree_101.root
/store/group/phys_higgs/hbb/ntuples/VHbbPostNano/2018/V11/EGamma/Run2018D-Nano14Dec2018_ver2-v187/190426_091828/0000/tree_102.root
/store/group/phys_higgs/hbb/ntuples/VHbbPostNano/2018/V11/EGamma/Run2018D-Nano14Dec2018_ver2-v187/190426_091828/0000/tree_103.root
/store/group/phys_higgs/hbb/ntuples/VHbbPostNano/2018/V11/EGamma/Run2018D-Nano14Dec2018_ver2-v187/190426_091828/0000/tree_104.root
/store/group/phys_higgs/hbb/ntuples/VHbbPostNano/2018/V11/EGamma/Run2018D-Nano14Dec2018_ver2-v187/190426_091828/0000/tree_105.root
/store/group/phys_higgs/hbb/ntuples/VHbbPostNano/2018/V11/EGamma/Run2018D-Nano14Dec2018_ver2-v187/190426_091828/0000/tree_106.root
/store/group/phys_higgs/hbb/ntuples/VHbbPostNano/2018/V11/EGamma/Run2018D-Nano14Dec2018_ver2-v187/190426_091828/0000/tree_107.root
/store/group/phys_higgs/hbb/ntuples/VHbbPostNano/2018/V11/EGamma/Run2018D-Nano14Dec2018_ver2-v187/190426_091828/0000/tree_108.root
/store/group/phys_higgs/hbb/ntuples/VHbbPostNano/2018/V11/EGamma/Run2018D-Nano14Dec2018_ver2-v187/190426_091828/0000/tree_109.root
/store/group/phys_higgs/hbb/ntuples/VHbbPostNano/2018/V11/EGamma/Run2018D-Nano14Dec2018_ver2-v187/190426_091828/0000/tree_11.root
/store/group/phys_higgs/hbb/ntuples/VHbbPostNano/2018/V11/EGamma/Run2018D-Nano14Dec2018_ver2-v187/190426_091828/0000/tree_110.root
/store/group/phys_higgs/hbb/ntuples/VHbbPostNano/2018/V11/EGamma/Run2018D-Nano14Dec2018_ver2-v187/190426_091828/0000/tree_111.root
/store/group/phys_higgs/hbb/ntuples/VHbbPostNano/2018/V11/EGamma/Run2018D-Nano14Dec2018_ver2-v187/190426_091828/0000/tree_112.root
/store/group/phys_higgs/hbb/ntuples/VHbbPostNano/2018/V11/EGamma/Run2018D-Nano14Dec2018_ver2-v187/190426_091828/0000/tree_113.root
/store/group/phys_higgs/hbb/ntuples/VHbbPostNano/2018/V11/EGamma/Run2018D-Nano14Dec2018_ver2-v187/190426_091828/0000/tree_114.root
/store/group/phys_higgs/hbb/ntuples/VHbbPostNano/2018/V11/EGamma/Run2018D-Nano14Dec2018_ver2-v187/190426_091828/0000/tree_115.root
/store/group/phys_higgs/hbb/ntuples/VHbbPostNano/2018/V11/EGamma/Run2018D-Nano14Dec2018_ver2-v187/190426_091828/0000/tree_116.root
/store/group/phys_higgs/hbb/ntuples/VHbbPostNano/2018/V11/EGamma/Run2018D-Nano14Dec2018_ver2-v187/190426_091828/0000/tree_117.root
/store/group/phys_higgs/hbb/ntuples/VHbbPostNano/2018/V11/EGamma/Run2018D-Nano14Dec2018_ver2-v187/190426_091828/0000/tree_118.root
/store/group/phys_higgs/hbb/ntuples/VHbbPostNano/2018/V11/EGamma/Run2018D-Nano14Dec2018_ver2-v187/190426_091828/0000/tree_119.root
/store/group/phys_higgs/hbb/ntuples/VHbbPostNano/2018/V11/EGamma/Run2018D-Nano14Dec2018_ver2-v187/190426_091828/0000/tree_12.root
/store/group/phys_higgs/hbb/ntuples/VHbbPostNano/2018/V11/EGamma/Run2018D-Nano14Dec2018_ver2-v187/190426_091828/0000/tree_120.root
/store/group/phys_higgs/hbb/ntuples/VHbbPostNano/2018/V11/EGamma/Run2018D-Nano14Dec2018_ver2-v187/190426_091828/0000/tree_121.root
/store/group/phys_higgs/hbb/ntuples/VHbbPostNano/2018/V11/EGamma/Run2018D-Nano14Dec2018_ver2-v187/190426_091828/0000/tree_122.root
/store/group/phys_higgs/hbb/ntuples/VHbbPostNano/2018/V11/EGamma/Run2018D-Nano14Dec2018_ver2-v187/190426_091828/0000/tree_123.root
/store/group/phys_higgs/hbb/ntuples/VHbbPostNano/2018/V11/EGamma/Run2018D-Nano14Dec2018_ver2-v187/190426_091828/0000/tree_124.root
/store/group/phys_higgs/hbb/ntuples/VHbbPostNano/2018/V11/EGamma/Run2018D-Nano14Dec2018_ver2-v187/190426_091828/0000/tree_125.root
/store/group/phys_higgs/hbb/ntuples/VHbbPostNano/2018/V11/EGamma/Run2018D-Nano14Dec2018_ver2-v187/190426_091828/0000/tree_126.root
/store/group/phys_higgs/hbb/ntuples/VHbbPostNano/2018/V11/EGamma/Run2018D-Nano14Dec2018_ver2-v187/190426_091828/0000/tree_127.root
/store/group/phys_higgs/hbb/ntuples/VHbbPostNano/2018/V11/EGamma/Run2018D-Nano14Dec2018_ver2-v187/190426_091828/0000/tree_128.root
/store/group/phys_higgs/hbb/ntuples/VHbbPostNano/2018/V11/EGamma/Run2018D-Nano14Dec2018_ver2-v187/190426_091828/0000/tree_129.root
/store/group/phys_higgs/hbb/ntuples/VHbbPostNano/2018/V11/EGamma/Run2018D-Nano14Dec2018_ver2-v187/190426_091828/0000/tree_13.root
/store/group/phys_higgs/hbb/ntuples/VHbbPostNano/2018/V11/EGamma/Run2018D-Nano14Dec2018_ver2-v187/190426_091828/0000/tree_130.root
/store/group/phys_higgs/hbb/ntuples/VHbbPostNano/2018/V11/EGamma/Run2018D-Nano14Dec2018_ver2-v187/190426_091828/0000/tree_131.root
/store/group/phys_higgs/hbb/ntuples/VHbbPostNano/2018/V11/EGamma/Run2018D-Nano14Dec2018_ver2-v187/190426_091828/0000/tree_132.root
/store/group/phys_higgs/hbb/ntuples/VHbbPostNano/2018/V11/EGamma/Run2018D-Nano14Dec2018_ver2-v187/190426_091828/0000/tree_133.root
/store/group/phys_higgs/hbb/ntuples/VHbbPostNano/2018/V11/EGamma/Run2018D-Nano14Dec2018_ver2-v187/190426_091828/0000/tree_134.root
/store/group/phys_higgs/hbb/ntuples/VHbbPostNano/2018/V11/EGamma/Run2018D-Nano14Dec2018_ver2-v187/190426_091828/0000/tree_135.root
/store/group/phys_higgs/hbb/ntuples/VHbbPostNano/2018/V11/EGamma/Run2018D-Nano14Dec2018_ver2-v187/190426_091828/0000/tree_136.root
/store/group/phys_higgs/hbb/ntuples/VHbbPostNano/2018/V11/EGamma/Run2018D-Nano14Dec2018_ver2-v187/190426_091828/0000/tree_137.root
/store/group/phys_higgs/hbb/ntuples/VHbbPostNano/2018/V11/EGamma/Run2018D-Nano14Dec2018_ver2-v187/190426_091828/0000/tree_138.root
/store/group/phys_higgs/hbb/ntuples/VHbbPostNano/2018/V11/EGamma/Run2018D-Nano14Dec2018_ver2-v187/190426_091828/0000/tree_139.root
/store/group/phys_higgs/hbb/ntuples/VHbbPostNano/2018/V11/EGamma/Run2018D-Nano14Dec2018_ver2-v187/190426_091828/0000/tree_14.root
/store/group/phys_higgs/hbb/ntuples/VHbbPostNano/2018/V11/EGamma/Run2018D-Nano14Dec2018_ver2-v187/190426_091828/0000/tree_140.root
/store/group/phys_higgs/hbb/ntuples/VHbbPostNano/2018/V11/EGamma/Run2018D-Nano14Dec2018_ver2-v187/190426_091828/0000/tree_141.root
/store/group/phys_higgs/hbb/ntuples/VHbbPostNano/2018/V11/EGamma/Run2018D-Nano14Dec2018_ver2-v187/190426_091828/0000/tree_142.root
/store/group/phys_higgs/hbb/ntuples/VHbbPostNano/2018/V11/EGamma/Run2018D-Nano14Dec2018_ver2-v187/190426_091828/0000/tree_143.root
/store/group/phys_higgs/hbb/ntuples/VHbbPostNano/2018/V11/EGamma/Run2018D-Nano14Dec2018_ver2-v187/190426_091828/0000/tree_144.root
/store/group/phys_higgs/hbb/ntuples/VHbbPostNano/2018/V11/EGamma/Run2018D-Nano14Dec2018_ver2-v187/190426_091828/0000/tree_145.root
/store/group/phys_higgs/hbb/ntuples/VHbbPostNano/2018/V11/EGamma/Run2018D-Nano14Dec2018_ver2-v187/190426_091828/0000/tree_146.root
/store/group/phys_higgs/hbb/ntuples/VHbbPostNano/2018/V11/EGamma/Run2018D-Nano14Dec2018_ver2-v187/190426_091828/0000/tree_147.root
/store/group/phys_higgs/hbb/ntuples/VHbbPostNano/2018/V11/EGamma/Run2018D-Nano14Dec2018_ver2-v187/190426_091828/0000/tree_148.root
/store/group/phys_higgs/hbb/ntuples/VHbbPostNano/2018/V11/EGamma/Run2018D-Nano14Dec2018_ver2-v187/190426_091828/0000/tree_149.root
/store/group/phys_higgs/hbb/ntuples/VHbbPostNano/2018/V11/EGamma/Run2018D-Nano14Dec2018_ver2-v187/190426_091828/0000/tree_15.root
/store/group/phys_higgs/hbb/ntuples/VHbbPostNano/2018/V11/EGamma/Run2018D-Nano14Dec2018_ver2-v187/190426_091828/0000/tree_150.root
/store/group/phys_higgs/hbb/ntuples/VHbbPostNano/2018/V11/EGamma/Run2018D-Nano14Dec2018_ver2-v187/190426_091828/0000/tree_151.root
/store/group/phys_higgs/hbb/ntuples/VHbbPostNano/2018/V11/EGamma/Run2018D-Nano14Dec2018_ver2-v187/190426_091828/0000/tree_152.root
/store/group/phys_higgs/hbb/ntuples/VHbbPostNano/2018/V11/EGamma/Run2018D-Nano14Dec2018_ver2-v187/190426_091828/0000/tree_153.root
/store/group/phys_higgs/hbb/ntuples/VHbbPostNano/2018/V11/EGamma/Run2018D-Nano14Dec2018_ver2-v187/190426_091828/0000/tree_154.root
/store/group/phys_higgs/hbb/ntuples/VHbbPostNano/2018/V11/EGamma/Run2018D-Nano14Dec2018_ver2-v187/190426_091828/0000/tree_155.root
/store/group/phys_higgs/hbb/ntuples/VHbbPostNano/2018/V11/EGamma/Run2018D-Nano14Dec2018_ver2-v187/190426_091828/0000/tree_156.root
/store/group/phys_higgs/hbb/ntuples/VHbbPostNano/2018/V11/EGamma/Run2018D-Nano14Dec2018_ver2-v187/190426_091828/0000/tree_157.root
/store/group/phys_higgs/hbb/ntuples/VHbbPostNano/2018/V11/EGamma/Run2018D-Nano14Dec2018_ver2-v187/190426_091828/0000/tree_158.root
/store/group/phys_higgs/hbb/ntuples/VHbbPostNano/2018/V11/EGamma/Run2018D-Nano14Dec2018_ver2-v187/190426_091828/0000/tree_159.root
/store/group/phys_higgs/hbb/ntuples/VHbbPostNano/2018/V11/EGamma/Run2018D-Nano14Dec2018_ver2-v187/190426_091828/0000/tree_16.root
/store/group/phys_higgs/hbb/ntuples/VHbbPostNano/2018/V11/EGamma/Run2018D-Nano14Dec2018_ver2-v187/190426_091828/0000/tree_160.root
/store/group/phys_higgs/hbb/ntuples/VHbbPostNano/2018/V11/EGamma/Run2018D-Nano14Dec2018_ver2-v187/190426_091828/0000/tree_161.root
/store/group/phys_higgs/hbb/ntuples/VHbbPostNano/2018/V11/EGamma/Run2018D-Nano14Dec2018_ver2-v187/190426_091828/0000/tree_162.root
/store/group/phys_higgs/hbb/ntuples/VHbbPostNano/2018/V11/EGamma/Run2018D-Nano14Dec2018_ver2-v187/190426_091828/0000/tree_163.root
/store/group/phys_higgs/hbb/ntuples/VHbbPostNano/2018/V11/EGamma/Run2018D-Nano14Dec2018_ver2-v187/190426_091828/0000/tree_164.root
/store/group/phys_higgs/hbb/ntuples/VHbbPostNano/2018/V11/EGamma/Run2018D-Nano14Dec2018_ver2-v187/190426_091828/0000/tree_165.root
/store/group/phys_higgs/hbb/ntuples/VHbbPostNano/2018/V11/EGamma/Run2018D-Nano14Dec2018_ver2-v187/190426_091828/0000/tree_166.root
/store/group/phys_higgs/hbb/ntuples/VHbbPostNano/2018/V11/EGamma/Run2018D-Nano14Dec2018_ver2-v187/190426_091828/0000/tree_167.root
/store/group/phys_higgs/hbb/ntuples/VHbbPostNano/2018/V11/EGamma/Run2018D-Nano14Dec2018_ver2-v187/190426_091828/0000/tree_168.root
/store/group/phys_higgs/hbb/ntuples/VHbbPostNano/2018/V11/EGamma/Run2018D-Nano14Dec2018_ver2-v187/190426_091828/0000/tree_169.root
/store/group/phys_higgs/hbb/ntuples/VHbbPostNano/2018/V11/EGamma/Run2018D-Nano14Dec2018_ver2-v187/190426_091828/0000/tree_17.root
/store/group/phys_higgs/hbb/ntuples/VHbbPostNano/2018/V11/EGamma/Run2018D-Nano14Dec2018_ver2-v187/190426_091828/0000/tree_170.root
/store/group/phys_higgs/hbb/ntuples/VHbbPostNano/2018/V11/EGamma/Run2018D-Nano14Dec2018_ver2-v187/190426_091828/0000/tree_171.root
/store/group/phys_higgs/hbb/ntuples/VHbbPostNano/2018/V11/EGamma/Run2018D-Nano14Dec2018_ver2-v187/190426_091828/0000/tree_172.root
/store/group/phys_higgs/hbb/ntuples/VHbbPostNano/2018/V11/EGamma/Run2018D-Nano14Dec2018_ver2-v187/190426_091828/0000/tree_173.root
/store/group/phys_higgs/hbb/ntuples/VHbbPostNano/2018/V11/EGamma/Run2018D-Nano14Dec2018_ver2-v187/190426_091828/0000/tree_174.root
/store/group/phys_higgs/hbb/ntuples/VHbbPostNano/2018/V11/EGamma/Run2018D-Nano14Dec2018_ver2-v187/190426_091828/0000/tree_175.root
/store/group/phys_higgs/hbb/ntuples/VHbbPostNano/2018/V11/EGamma/Run2018D-Nano14Dec2018_ver2-v187/190426_091828/0000/tree_176.root
/store/group/phys_higgs/hbb/ntuples/VHbbPostNano/2018/V11/EGamma/Run2018D-Nano14Dec2018_ver2-v187/190426_091828/0000/tree_177.root
/store/group/phys_higgs/hbb/ntuples/VHbbPostNano/2018/V11/EGamma/Run2018D-Nano14Dec2018_ver2-v187/190426_091828/0000/tree_178.root
/store/group/phys_higgs/hbb/ntuples/VHbbPostNano/2018/V11/EGamma/Run2018D-Nano14Dec2018_ver2-v187/190426_091828/0000/tree_179.root
/store/group/phys_higgs/hbb/ntuples/VHbbPostNano/2018/V11/EGamma/Run2018D-Nano14Dec2018_ver2-v187/190426_091828/0000/tree_18.root
/store/group/phys_higgs/hbb/ntuples/VHbbPostNano/2018/V11/EGamma/Run2018D-Nano14Dec2018_ver2-v187/190426_091828/0000/tree_180.root
/store/group/phys_higgs/hbb/ntuples/VHbbPostNano/2018/V11/EGamma/Run2018D-Nano14Dec2018_ver2-v187/190426_091828/0000/tree_181.root
/store/group/phys_higgs/hbb/ntuples/VHbbPostNano/2018/V11/EGamma/Run2018D-Nano14Dec2018_ver2-v187/190426_091828/0000/tree_182.root
/store/group/phys_higgs/hbb/ntuples/VHbbPostNano/2018/V11/EGamma/Run2018D-Nano14Dec2018_ver2-v187/190426_091828/0000/tree_183.root
/store/group/phys_higgs/hbb/ntuples/VHbbPostNano/2018/V11/EGamma/Run2018D-Nano14Dec2018_ver2-v187/190426_091828/0000/tree_184.root
/store/group/phys_higgs/hbb/ntuples/VHbbPostNano/2018/V11/EGamma/Run2018D-Nano14Dec2018_ver2-v187/190426_091828/0000/tree_185.root
/store/group/phys_higgs/hbb/ntuples/VHbbPostNano/2018/V11/EGamma/Run2018D-Nano14Dec2018_ver2-v187/190426_091828/0000/tree_186.root
/store/group/phys_higgs/hbb/ntuples/VHbbPostNano/2018/V11/EGamma/Run2018D-Nano14Dec2018_ver2-v187/190426_091828/0000/tree_187.root
/store/group/phys_higgs/hbb/ntuples/VHbbPostNano/2018/V11/EGamma/Run2018D-Nano14Dec2018_ver2-v187/190426_091828/0000/tree_188.root
/store/group/phys_higgs/hbb/ntuples/VHbbPostNano/2018/V11/EGamma/Run2018D-Nano14Dec2018_ver2-v187/190426_091828/0000/tree_189.root
/store/group/phys_higgs/hbb/ntuples/VHbbPostNano/2018/V11/EGamma/Run2018D-Nano14Dec2018_ver2-v187/190426_091828/0000/tree_19.root
/store/group/phys_higgs/hbb/ntuples/VHbbPostNano/2018/V11/EGamma/Run2018D-Nano14Dec2018_ver2-v187/190426_091828/0000/tree_190.root
/store/group/phys_higgs/hbb/ntuples/VHbbPostNano/2018/V11/EGamma/Run2018D-Nano14Dec2018_ver2-v187/190426_091828/0000/tree_191.root
/store/group/phys_higgs/hbb/ntuples/VHbbPostNano/2018/V11/EGamma/Run2018D-Nano14Dec2018_ver2-v187/190426_091828/0000/tree_192.root
/store/group/phys_higgs/hbb/ntuples/VHbbPostNano/2018/V11/EGamma/Run2018D-Nano14Dec2018_ver2-v187/190426_091828/0000/tree_193.root
/store/group/phys_higgs/hbb/ntuples/VHbbPostNano/2018/V11/EGamma/Run2018D-Nano14Dec2018_ver2-v187/190426_091828/0000/tree_194.root
/store/group/phys_higgs/hbb/ntuples/VHbbPostNano/2018/V11/EGamma/Run2018D-Nano14Dec2018_ver2-v187/190426_091828/0000/tree_195.root
/store/group/phys_higgs/hbb/ntuples/VHbbPostNano/2018/V11/EGamma/Run2018D-Nano14Dec2018_ver2-v187/190426_091828/0000/tree_196.root
/store/group/phys_higgs/hbb/ntuples/VHbbPostNano/2018/V11/EGamma/Run2018D-Nano14Dec2018_ver2-v187/190426_091828/0000/tree_197.root
/store/group/phys_higgs/hbb/ntuples/VHbbPostNano/2018/V11/EGamma/Run2018D-Nano14Dec2018_ver2-v187/190426_091828/0000/tree_198.root
/store/group/phys_higgs/hbb/ntuples/VHbbPostNano/2018/V11/EGamma/Run2018D-Nano14Dec2018_ver2-v187/190426_091828/0000/tree_199.root
/store/group/phys_higgs/hbb/ntuples/VHbbPostNano/2018/V11/EGamma/Run2018D-Nano14Dec2018_ver2-v187/190426_091828/0000/tree_2.root
/store/group/phys_higgs/hbb/ntuples/VHbbPostNano/2018/V11/EGamma/Run2018D-Nano14Dec2018_ver2-v187/190426_091828/0000/tree_20.root
/store/group/phys_higgs/hbb/ntuples/VHbbPostNano/2018/V11/EGamma/Run2018D-Nano14Dec2018_ver2-v187/190426_091828/0000/tree_200.root
/store/group/phys_higgs/hbb/ntuples/VHbbPostNano/2018/V11/EGamma/Run2018D-Nano14Dec2018_ver2-v187/190426_091828/0000/tree_201.root
/store/group/phys_higgs/hbb/ntuples/VHbbPostNano/2018/V11/EGamma/Run2018D-Nano14Dec2018_ver2-v187/190426_091828/0000/tree_202.root
/store/group/phys_higgs/hbb/ntuples/VHbbPostNano/2018/V11/EGamma/Run2018D-Nano14Dec2018_ver2-v187/190426_091828/0000/tree_203.root
/store/group/phys_higgs/hbb/ntuples/VHbbPostNano/2018/V11/EGamma/Run2018D-Nano14Dec2018_ver2-v187/190426_091828/0000/tree_204.root
/store/group/phys_higgs/hbb/ntuples/VHbbPostNano/2018/V11/EGamma/Run2018D-Nano14Dec2018_ver2-v187/190426_091828/0000/tree_205.root
/store/group/phys_higgs/hbb/ntuples/VHbbPostNano/2018/V11/EGamma/Run2018D-Nano14Dec2018_ver2-v187/190426_091828/0000/tree_206.root
/store/group/phys_higgs/hbb/ntuples/VHbbPostNano/2018/V11/EGamma/Run2018D-Nano14Dec2018_ver2-v187/190426_091828/0000/tree_207.root
/store/group/phys_higgs/hbb/ntuples/VHbbPostNano/2018/V11/EGamma/Run2018D-Nano14Dec2018_ver2-v187/190426_091828/0000/tree_208.root
/store/group/phys_higgs/hbb/ntuples/VHbbPostNano/2018/V11/EGamma/Run2018D-Nano14Dec2018_ver2-v187/190426_091828/0000/tree_209.root
/store/group/phys_higgs/hbb/ntuples/VHbbPostNano/2018/V11/EGamma/Run2018D-Nano14Dec2018_ver2-v187/190426_091828/0000/tree_21.root
/store/group/phys_higgs/hbb/ntuples/VHbbPostNano/2018/V11/EGamma/Run2018D-Nano14Dec2018_ver2-v187/190426_091828/0000/tree_210.root
/store/group/phys_higgs/hbb/ntuples/VHbbPostNano/2018/V11/EGamma/Run2018D-Nano14Dec2018_ver2-v187/190426_091828/0000/tree_211.root
/store/group/phys_higgs/hbb/ntuples/VHbbPostNano/2018/V11/EGamma/Run2018D-Nano14Dec2018_ver2-v187/190426_091828/0000/tree_212.root
/store/group/phys_higgs/hbb/ntuples/VHbbPostNano/2018/V11/EGamma/Run2018D-Nano14Dec2018_ver2-v187/190426_091828/0000/tree_213.root
/store/group/phys_higgs/hbb/ntuples/VHbbPostNano/2018/V11/EGamma/Run2018D-Nano14Dec2018_ver2-v187/190426_091828/0000/tree_214.root
/store/group/phys_higgs/hbb/ntuples/VHbbPostNano/2018/V11/EGamma/Run2018D-Nano14Dec2018_ver2-v187/190426_091828/0000/tree_215.root
/store/group/phys_higgs/hbb/ntuples/VHbbPostNano/2018/V11/EGamma/Run2018D-Nano14Dec2018_ver2-v187/190426_091828/0000/tree_216.root
/store/group/phys_higgs/hbb/ntuples/VHbbPostNano/2018/V11/EGamma/Run2018D-Nano14Dec2018_ver2-v187/190426_091828/0000/tree_217.root
/store/group/phys_higgs/hbb/ntuples/VHbbPostNano/2018/V11/EGamma/Run2018D-Nano14Dec2018_ver2-v187/190426_091828/0000/tree_218.root
/store/group/phys_higgs/hbb/ntuples/VHbbPostNano/2018/V11/EGamma/Run2018D-Nano14Dec2018_ver2-v187/190426_091828/0000/tree_219.root
/store/group/phys_higgs/hbb/ntuples/VHbbPostNano/2018/V11/EGamma/Run2018D-Nano14Dec2018_ver2-v187/190426_091828/0000/tree_22.root
/store/group/phys_higgs/hbb/ntuples/VHbbPostNano/2018/V11/EGamma/Run2018D-Nano14Dec2018_ver2-v187/190426_091828/0000/tree_220.root
/store/group/phys_higgs/hbb/ntuples/VHbbPostNano/2018/V11/EGamma/Run2018D-Nano14Dec2018_ver2-v187/190426_091828/0000/tree_221.root
/store/group/phys_higgs/hbb/ntuples/VHbbPostNano/2018/V11/EGamma/Run2018D-Nano14Dec2018_ver2-v187/190426_091828/0000/tree_222.root
/store/group/phys_higgs/hbb/ntuples/VHbbPostNano/2018/V11/EGamma/Run2018D-Nano14Dec2018_ver2-v187/190426_091828/0000/tree_223.root
/store/group/phys_higgs/hbb/ntuples/VHbbPostNano/2018/V11/EGamma/Run2018D-Nano14Dec2018_ver2-v187/190426_091828/0000/tree_224.root
/store/group/phys_higgs/hbb/ntuples/VHbbPostNano/2018/V11/EGamma/Run2018D-Nano14Dec2018_ver2-v187/190426_091828/0000/tree_225.root
/store/group/phys_higgs/hbb/ntuples/VHbbPostNano/2018/V11/EGamma/Run2018D-Nano14Dec2018_ver2-v187/190426_091828/0000/tree_226.root
/store/group/phys_higgs/hbb/ntuples/VHbbPostNano/2018/V11/EGamma/Run2018D-Nano14Dec2018_ver2-v187/190426_091828/0000/tree_227.root
/store/group/phys_higgs/hbb/ntuples/VHbbPostNano/2018/V11/EGamma/Run2018D-Nano14Dec2018_ver2-v187/190426_091828/0000/tree_228.root
/store/group/phys_higgs/hbb/ntuples/VHbbPostNano/2018/V11/EGamma/Run2018D-Nano14Dec2018_ver2-v187/190426_091828/0000/tree_229.root
/store/group/phys_higgs/hbb/ntuples/VHbbPostNano/2018/V11/EGamma/Run2018D-Nano14Dec2018_ver2-v187/190426_091828/0000/tree_23.root
/store/group/phys_higgs/hbb/ntuples/VHbbPostNano/2018/V11/EGamma/Run2018D-Nano14Dec2018_ver2-v187/190426_091828/0000/tree_230.root
/store/group/phys_higgs/hbb/ntuples/VHbbPostNano/2018/V11/EGamma/Run2018D-Nano14Dec2018_ver2-v187/190426_091828/0000/tree_231.root
/store/group/phys_higgs/hbb/ntuples/VHbbPostNano/2018/V11/EGamma/Run2018D-Nano14Dec2018_ver2-v187/190426_091828/0000/tree_232.root
/store/group/phys_higgs/hbb/ntuples/VHbbPostNano/2018/V11/EGamma/Run2018D-Nano14Dec2018_ver2-v187/190426_091828/0000/tree_233.root
/store/group/phys_higgs/hbb/ntuples/VHbbPostNano/2018/V11/EGamma/Run2018D-Nano14Dec2018_ver2-v187/190426_091828/0000/tree_234.root
/store/group/phys_higgs/hbb/ntuples/VHbbPostNano/2018/V11/EGamma/Run2018D-Nano14Dec2018_ver2-v187/190426_091828/0000/tree_235.root
/store/group/phys_higgs/hbb/ntuples/VHbbPostNano/2018/V11/EGamma/Run2018D-Nano14Dec2018_ver2-v187/190426_091828/0000/tree_236.root
/store/group/phys_higgs/hbb/ntuples/VHbbPostNano/2018/V11/EGamma/Run2018D-Nano14Dec2018_ver2-v187/190426_091828/0000/tree_237.root
/store/group/phys_higgs/hbb/ntuples/VHbbPostNano/2018/V11/EGamma/Run2018D-Nano14Dec2018_ver2-v187/190426_091828/0000/tree_238.root
/store/group/phys_higgs/hbb/ntuples/VHbbPostNano/2018/V11/EGamma/Run2018D-Nano14Dec2018_ver2-v187/190426_091828/0000/tree_239.root
/store/group/phys_higgs/hbb/ntuples/VHbbPostNano/2018/V11/EGamma/Run2018D-Nano14Dec2018_ver2-v187/190426_091828/0000/tree_24.root
/store/group/phys_higgs/hbb/ntuples/VHbbPostNano/2018/V11/EGamma/Run2018D-Nano14Dec2018_ver2-v187/190426_091828/0000/tree_240.root
/store/group/phys_higgs/hbb/ntuples/VHbbPostNano/2018/V11/EGamma/Run2018D-Nano14Dec2018_ver2-v187/190426_091828/0000/tree_241.root
/store/group/phys_higgs/hbb/ntuples/VHbbPostNano/2018/V11/EGamma/Run2018D-Nano14Dec2018_ver2-v187/190426_091828/0000/tree_242.root
/store/group/phys_higgs/hbb/ntuples/VHbbPostNano/2018/V11/EGamma/Run2018D-Nano14Dec2018_ver2-v187/190426_091828/0000/tree_243.root
/store/group/phys_higgs/hbb/ntuples/VHbbPostNano/2018/V11/EGamma/Run2018D-Nano14Dec2018_ver2-v187/190426_091828/0000/tree_244.root
/store/group/phys_higgs/hbb/ntuples/VHbbPostNano/2018/V11/EGamma/Run2018D-Nano14Dec2018_ver2-v187/190426_091828/0000/tree_245.root
/store/group/phys_higgs/hbb/ntuples/VHbbPostNano/2018/V11/EGamma/Run2018D-Nano14Dec2018_ver2-v187/190426_091828/0000/tree_246.root
/store/group/phys_higgs/hbb/ntuples/VHbbPostNano/2018/V11/EGamma/Run2018D-Nano14Dec2018_ver2-v187/190426_091828/0000/tree_247.root
/store/group/phys_higgs/hbb/ntuples/VHbbPostNano/2018/V11/EGamma/Run2018D-Nano14Dec2018_ver2-v187/190426_091828/0000/tree_248.root
/store/group/phys_higgs/hbb/ntuples/VHbbPostNano/2018/V11/EGamma/Run2018D-Nano14Dec2018_ver2-v187/190426_091828/0000/tree_249.root
/store/group/phys_higgs/hbb/ntuples/VHbbPostNano/2018/V11/EGamma/Run2018D-Nano14Dec2018_ver2-v187/190426_091828/0000/tree_25.root
/store/group/phys_higgs/hbb/ntuples/VHbbPostNano/2018/V11/EGamma/Run2018D-Nano14Dec2018_ver2-v187/190426_091828/0000/tree_250.root
/store/group/phys_higgs/hbb/ntuples/VHbbPostNano/2018/V11/EGamma/Run2018D-Nano14Dec2018_ver2-v187/190426_091828/0000/tree_251.root
/store/group/phys_higgs/hbb/ntuples/VHbbPostNano/2018/V11/EGamma/Run2018D-Nano14Dec2018_ver2-v187/190426_091828/0000/tree_252.root
/store/group/phys_higgs/hbb/ntuples/VHbbPostNano/2018/V11/EGamma/Run2018D-Nano14Dec2018_ver2-v187/190426_091828/0000/tree_253.root
/store/group/phys_higgs/hbb/ntuples/VHbbPostNano/2018/V11/EGamma/Run2018D-Nano14Dec2018_ver2-v187/190426_091828/0000/tree_254.root
/store/group/phys_higgs/hbb/ntuples/VHbbPostNano/2018/V11/EGamma/Run2018D-Nano14Dec2018_ver2-v187/190426_091828/0000/tree_255.root
/store/group/phys_higgs/hbb/ntuples/VHbbPostNano/2018/V11/EGamma/Run2018D-Nano14Dec2018_ver2-v187/190426_091828/0000/tree_256.root
/store/group/phys_higgs/hbb/ntuples/VHbbPostNano/2018/V11/EGamma/Run2018D-Nano14Dec2018_ver2-v187/190426_091828/0000/tree_257.root
/store/group/phys_higgs/hbb/ntuples/VHbbPostNano/2018/V11/EGamma/Run2018D-Nano14Dec2018_ver2-v187/190426_091828/0000/tree_258.root
/store/group/phys_higgs/hbb/ntuples/VHbbPostNano/2018/V11/EGamma/Run2018D-Nano14Dec2018_ver2-v187/190426_091828/0000/tree_259.root
/store/group/phys_higgs/hbb/ntuples/VHbbPostNano/2018/V11/EGamma/Run2018D-Nano14Dec2018_ver2-v187/190426_091828/0000/tree_26.root
/store/group/phys_higgs/hbb/ntuples/VHbbPostNano/2018/V11/EGamma/Run2018D-Nano14Dec2018_ver2-v187/190426_091828/0000/tree_260.root
/store/group/phys_higgs/hbb/ntuples/VHbbPostNano/2018/V11/EGamma/Run2018D-Nano14Dec2018_ver2-v187/190426_091828/0000/tree_261.root
/store/group/phys_higgs/hbb/ntuples/VHbbPostNano/2018/V11/EGamma/Run2018D-Nano14Dec2018_ver2-v187/190426_091828/0000/tree_262.root
/store/group/phys_higgs/hbb/ntuples/VHbbPostNano/2018/V11/EGamma/Run2018D-Nano14Dec2018_ver2-v187/190426_091828/0000/tree_263.root
/store/group/phys_higgs/hbb/ntuples/VHbbPostNano/2018/V11/EGamma/Run2018D-Nano14Dec2018_ver2-v187/190426_091828/0000/tree_264.root
/store/group/phys_higgs/hbb/ntuples/VHbbPostNano/2018/V11/EGamma/Run2018D-Nano14Dec2018_ver2-v187/190426_091828/0000/tree_265.root
/store/group/phys_higgs/hbb/ntuples/VHbbPostNano/2018/V11/EGamma/Run2018D-Nano14Dec2018_ver2-v187/190426_091828/0000/tree_266.root
/store/group/phys_higgs/hbb/ntuples/VHbbPostNano/2018/V11/EGamma/Run2018D-Nano14Dec2018_ver2-v187/190426_091828/0000/tree_267.root
/store/group/phys_higgs/hbb/ntuples/VHbbPostNano/2018/V11/EGamma/Run2018D-Nano14Dec2018_ver2-v187/190426_091828/0000/tree_268.root
/store/group/phys_higgs/hbb/ntuples/VHbbPostNano/2018/V11/EGamma/Run2018D-Nano14Dec2018_ver2-v187/190426_091828/0000/tree_269.root
/store/group/phys_higgs/hbb/ntuples/VHbbPostNano/2018/V11/EGamma/Run2018D-Nano14Dec2018_ver2-v187/190426_091828/0000/tree_27.root
/store/group/phys_higgs/hbb/ntuples/VHbbPostNano/2018/V11/EGamma/Run2018D-Nano14Dec2018_ver2-v187/190426_091828/0000/tree_270.root
/store/group/phys_higgs/hbb/ntuples/VHbbPostNano/2018/V11/EGamma/Run2018D-Nano14Dec2018_ver2-v187/190426_091828/0000/tree_271.root
/store/group/phys_higgs/hbb/ntuples/VHbbPostNano/2018/V11/EGamma/Run2018D-Nano14Dec2018_ver2-v187/190426_091828/0000/tree_272.root
/store/group/phys_higgs/hbb/ntuples/VHbbPostNano/2018/V11/EGamma/Run2018D-Nano14Dec2018_ver2-v187/190426_091828/0000/tree_273.root
/store/group/phys_higgs/hbb/ntuples/VHbbPostNano/2018/V11/EGamma/Run2018D-Nano14Dec2018_ver2-v187/190426_091828/0000/tree_274.root
/store/group/phys_higgs/hbb/ntuples/VHbbPostNano/2018/V11/EGamma/Run2018D-Nano14Dec2018_ver2-v187/190426_091828/0000/tree_275.root
/store/group/phys_higgs/hbb/ntuples/VHbbPostNano/2018/V11/EGamma/Run2018D-Nano14Dec2018_ver2-v187/190426_091828/0000/tree_276.root
/store/group/phys_higgs/hbb/ntuples/VHbbPostNano/2018/V11/EGamma/Run2018D-Nano14Dec2018_ver2-v187/190426_091828/0000/tree_277.root
/store/group/phys_higgs/hbb/ntuples/VHbbPostNano/2018/V11/EGamma/Run2018D-Nano14Dec2018_ver2-v187/190426_091828/0000/tree_278.root
/store/group/phys_higgs/hbb/ntuples/VHbbPostNano/2018/V11/EGamma/Run2018D-Nano14Dec2018_ver2-v187/190426_091828/0000/tree_279.root
/store/group/phys_higgs/hbb/ntuples/VHbbPostNano/2018/V11/EGamma/Run2018D-Nano14Dec2018_ver2-v187/190426_091828/0000/tree_28.root
/store/group/phys_higgs/hbb/ntuples/VHbbPostNano/2018/V11/EGamma/Run2018D-Nano14Dec2018_ver2-v187/190426_091828/0000/tree_280.root
/store/group/phys_higgs/hbb/ntuples/VHbbPostNano/2018/V11/EGamma/Run2018D-Nano14Dec2018_ver2-v187/190426_091828/0000/tree_281.root
/store/group/phys_higgs/hbb/ntuples/VHbbPostNano/2018/V11/EGamma/Run2018D-Nano14Dec2018_ver2-v187/190426_091828/0000/tree_282.root
/store/group/phys_higgs/hbb/ntuples/VHbbPostNano/2018/V11/EGamma/Run2018D-Nano14Dec2018_ver2-v187/190426_091828/0000/tree_283.root
/store/group/phys_higgs/hbb/ntuples/VHbbPostNano/2018/V11/EGamma/Run2018D-Nano14Dec2018_ver2-v187/190426_091828/0000/tree_284.root
/store/group/phys_higgs/hbb/ntuples/VHbbPostNano/2018/V11/EGamma/Run2018D-Nano14Dec2018_ver2-v187/190426_091828/0000/tree_285.root
/store/group/phys_higgs/hbb/ntuples/VHbbPostNano/2018/V11/EGamma/Run2018D-Nano14Dec2018_ver2-v187/190426_091828/0000/tree_286.root
/store/group/phys_higgs/hbb/ntuples/VHbbPostNano/2018/V11/EGamma/Run2018D-Nano14Dec2018_ver2-v187/190426_091828/0000/tree_287.root
/store/group/phys_higgs/hbb/ntuples/VHbbPostNano/2018/V11/EGamma/Run2018D-Nano14Dec2018_ver2-v187/190426_091828/0000/tree_288.root
/store/group/phys_higgs/hbb/ntuples/VHbbPostNano/2018/V11/EGamma/Run2018D-Nano14Dec2018_ver2-v187/190426_091828/0000/tree_289.root
/store/group/phys_higgs/hbb/ntuples/VHbbPostNano/2018/V11/EGamma/Run2018D-Nano14Dec2018_ver2-v187/190426_091828/0000/tree_29.root
/store/group/phys_higgs/hbb/ntuples/VHbbPostNano/2018/V11/EGamma/Run2018D-Nano14Dec2018_ver2-v187/190426_091828/0000/tree_290.root
/store/group/phys_higgs/hbb/ntuples/VHbbPostNano/2018/V11/EGamma/Run2018D-Nano14Dec2018_ver2-v187/190426_091828/0000/tree_291.root
/store/group/phys_higgs/hbb/ntuples/VHbbPostNano/2018/V11/EGamma/Run2018D-Nano14Dec2018_ver2-v187/190426_091828/0000/tree_292.root
/store/group/phys_higgs/hbb/ntuples/VHbbPostNano/2018/V11/EGamma/Run2018D-Nano14Dec2018_ver2-v187/190426_091828/0000/tree_293.root
/store/group/phys_higgs/hbb/ntuples/VHbbPostNano/2018/V11/EGamma/Run2018D-Nano14Dec2018_ver2-v187/190426_091828/0000/tree_294.root
/store/group/phys_higgs/hbb/ntuples/VHbbPostNano/2018/V11/EGamma/Run2018D-Nano14Dec2018_ver2-v187/190426_091828/0000/tree_295.root
/store/group/phys_higgs/hbb/ntuples/VHbbPostNano/2018/V11/EGamma/Run2018D-Nano14Dec2018_ver2-v187/190426_091828/0000/tree_296.root
/store/group/phys_higgs/hbb/ntuples/VHbbPostNano/2018/V11/EGamma/Run2018D-Nano14Dec2018_ver2-v187/190426_091828/0000/tree_297.root
/store/group/phys_higgs/hbb/ntuples/VHbbPostNano/2018/V11/EGamma/Run2018D-Nano14Dec2018_ver2-v187/190426_091828/0000/tree_298.root
/store/group/phys_higgs/hbb/ntuples/VHbbPostNano/2018/V11/EGamma/Run2018D-Nano14Dec2018_ver2-v187/190426_091828/0000/tree_299.root
/store/group/phys_higgs/hbb/ntuples/VHbbPostNano/2018/V11/EGamma/Run2018D-Nano14Dec2018_ver2-v187/190426_091828/0000/tree_3.root
/store/group/phys_higgs/hbb/ntuples/VHbbPostNano/2018/V11/EGamma/Run2018D-Nano14Dec2018_ver2-v187/190426_091828/0000/tree_30.root
/store/group/phys_higgs/hbb/ntuples/VHbbPostNano/2018/V11/EGamma/Run2018D-Nano14Dec2018_ver2-v187/190426_091828/0000/tree_300.root
/store/group/phys_higgs/hbb/ntuples/VHbbPostNano/2018/V11/EGamma/Run2018D-Nano14Dec2018_ver2-v187/190426_091828/0000/tree_301.root
/store/group/phys_higgs/hbb/ntuples/VHbbPostNano/2018/V11/EGamma/Run2018D-Nano14Dec2018_ver2-v187/190426_091828/0000/tree_302.root
/store/group/phys_higgs/hbb/ntuples/VHbbPostNano/2018/V11/EGamma/Run2018D-Nano14Dec2018_ver2-v187/190426_091828/0000/tree_303.root
/store/group/phys_higgs/hbb/ntuples/VHbbPostNano/2018/V11/EGamma/Run2018D-Nano14Dec2018_ver2-v187/190426_091828/0000/tree_304.root
/store/group/phys_higgs/hbb/ntuples/VHbbPostNano/2018/V11/EGamma/Run2018D-Nano14Dec2018_ver2-v187/190426_091828/0000/tree_305.root
/store/group/phys_higgs/hbb/ntuples/VHbbPostNano/2018/V11/EGamma/Run2018D-Nano14Dec2018_ver2-v187/190426_091828/0000/tree_306.root
/store/group/phys_higgs/hbb/ntuples/VHbbPostNano/2018/V11/EGamma/Run2018D-Nano14Dec2018_ver2-v187/190426_091828/0000/tree_307.root
/store/group/phys_higgs/hbb/ntuples/VHbbPostNano/2018/V11/EGamma/Run2018D-Nano14Dec2018_ver2-v187/190426_091828/0000/tree_308.root
/store/group/phys_higgs/hbb/ntuples/VHbbPostNano/2018/V11/EGamma/Run2018D-Nano14Dec2018_ver2-v187/190426_091828/0000/tree_309.root
/store/group/phys_higgs/hbb/ntuples/VHbbPostNano/2018/V11/EGamma/Run2018D-Nano14Dec2018_ver2-v187/190426_091828/0000/tree_31.root
/store/group/phys_higgs/hbb/ntuples/VHbbPostNano/2018/V11/EGamma/Run2018D-Nano14Dec2018_ver2-v187/190426_091828/0000/tree_310.root
/store/group/phys_higgs/hbb/ntuples/VHbbPostNano/2018/V11/EGamma/Run2018D-Nano14Dec2018_ver2-v187/190426_091828/0000/tree_311.root
/store/group/phys_higgs/hbb/ntuples/VHbbPostNano/2018/V11/EGamma/Run2018D-Nano14Dec2018_ver2-v187/190426_091828/0000/tree_312.root
/store/group/phys_higgs/hbb/ntuples/VHbbPostNano/2018/V11/EGamma/Run2018D-Nano14Dec2018_ver2-v187/190426_091828/0000/tree_313.root
/store/group/phys_higgs/hbb/ntuples/VHbbPostNano/2018/V11/EGamma/Run2018D-Nano14Dec2018_ver2-v187/190426_091828/0000/tree_314.root
/store/group/phys_higgs/hbb/ntuples/VHbbPostNano/2018/V11/EGamma/Run2018D-Nano14Dec2018_ver2-v187/190426_091828/0000/tree_315.root
/store/group/phys_higgs/hbb/ntuples/VHbbPostNano/2018/V11/EGamma/Run2018D-Nano14Dec2018_ver2-v187/190426_091828/0000/tree_316.root
/store/group/phys_higgs/hbb/ntuples/VHbbPostNano/2018/V11/EGamma/Run2018D-Nano14Dec2018_ver2-v187/190426_091828/0000/tree_317.root
/store/group/phys_higgs/hbb/ntuples/VHbbPostNano/2018/V11/EGamma/Run2018D-Nano14Dec2018_ver2-v187/190426_091828/0000/tree_318.root
/store/group/phys_higgs/hbb/ntuples/VHbbPostNano/2018/V11/EGamma/Run2018D-Nano14Dec2018_ver2-v187/190426_091828/0000/tree_319.root
/store/group/phys_higgs/hbb/ntuples/VHbbPostNano/2018/V11/EGamma/Run2018D-Nano14Dec2018_ver2-v187/190426_091828/0000/tree_32.root
/store/group/phys_higgs/hbb/ntuples/VHbbPostNano/2018/V11/EGamma/Run2018D-Nano14Dec2018_ver2-v187/190426_091828/0000/tree_320.root
/store/group/phys_higgs/hbb/ntuples/VHbbPostNano/2018/V11/EGamma/Run2018D-Nano14Dec2018_ver2-v187/190426_091828/0000/tree_321.root
/store/group/phys_higgs/hbb/ntuples/VHbbPostNano/2018/V11/EGamma/Run2018D-Nano14Dec2018_ver2-v187/190426_091828/0000/tree_322.root
/store/group/phys_higgs/hbb/ntuples/VHbbPostNano/2018/V11/EGamma/Run2018D-Nano14Dec2018_ver2-v187/190426_091828/0000/tree_323.root
/store/group/phys_higgs/hbb/ntuples/VHbbPostNano/2018/V11/EGamma/Run2018D-Nano14Dec2018_ver2-v187/190426_091828/0000/tree_324.root
/store/group/phys_higgs/hbb/ntuples/VHbbPostNano/2018/V11/EGamma/Run2018D-Nano14Dec2018_ver2-v187/190426_091828/0000/tree_325.root
/store/group/phys_higgs/hbb/ntuples/VHbbPostNano/2018/V11/EGamma/Run2018D-Nano14Dec2018_ver2-v187/190426_091828/0000/tree_326.root
/store/group/phys_higgs/hbb/ntuples/VHbbPostNano/2018/V11/EGamma/Run2018D-Nano14Dec2018_ver2-v187/190426_091828/0000/tree_327.root
/store/group/phys_higgs/hbb/ntuples/VHbbPostNano/2018/V11/EGamma/Run2018D-Nano14Dec2018_ver2-v187/190426_091828/0000/tree_328.root
/store/group/phys_higgs/hbb/ntuples/VHbbPostNano/2018/V11/EGamma/Run2018D-Nano14Dec2018_ver2-v187/190426_091828/0000/tree_329.root
/store/group/phys_higgs/hbb/ntuples/VHbbPostNano/2018/V11/EGamma/Run2018D-Nano14Dec2018_ver2-v187/190426_091828/0000/tree_33.root
/store/group/phys_higgs/hbb/ntuples/VHbbPostNano/2018/V11/EGamma/Run2018D-Nano14Dec2018_ver2-v187/190426_091828/0000/tree_330.root
/store/group/phys_higgs/hbb/ntuples/VHbbPostNano/2018/V11/EGamma/Run2018D-Nano14Dec2018_ver2-v187/190426_091828/0000/tree_331.root
/store/group/phys_higgs/hbb/ntuples/VHbbPostNano/2018/V11/EGamma/Run2018D-Nano14Dec2018_ver2-v187/190426_091828/0000/tree_332.root
/store/group/phys_higgs/hbb/ntuples/VHbbPostNano/2018/V11/EGamma/Run2018D-Nano14Dec2018_ver2-v187/190426_091828/0000/tree_333.root
/store/group/phys_higgs/hbb/ntuples/VHbbPostNano/2018/V11/EGamma/Run2018D-Nano14Dec2018_ver2-v187/190426_091828/0000/tree_334.root
/store/group/phys_higgs/hbb/ntuples/VHbbPostNano/2018/V11/EGamma/Run2018D-Nano14Dec2018_ver2-v187/190426_091828/0000/tree_335.root
/store/group/phys_higgs/hbb/ntuples/VHbbPostNano/2018/V11/EGamma/Run2018D-Nano14Dec2018_ver2-v187/190426_091828/0000/tree_336.root
/store/group/phys_higgs/hbb/ntuples/VHbbPostNano/2018/V11/EGamma/Run2018D-Nano14Dec2018_ver2-v187/190426_091828/0000/tree_337.root
/store/group/phys_higgs/hbb/ntuples/VHbbPostNano/2018/V11/EGamma/Run2018D-Nano14Dec2018_ver2-v187/190426_091828/0000/tree_338.root
/store/group/phys_higgs/hbb/ntuples/VHbbPostNano/2018/V11/EGamma/Run2018D-Nano14Dec2018_ver2-v187/190426_091828/0000/tree_339.root
/store/group/phys_higgs/hbb/ntuples/VHbbPostNano/2018/V11/EGamma/Run2018D-Nano14Dec2018_ver2-v187/190426_091828/0000/tree_34.root
/store/group/phys_higgs/hbb/ntuples/VHbbPostNano/2018/V11/EGamma/Run2018D-Nano14Dec2018_ver2-v187/190426_091828/0000/tree_340.root
/store/group/phys_higgs/hbb/ntuples/VHbbPostNano/2018/V11/EGamma/Run2018D-Nano14Dec2018_ver2-v187/190426_091828/0000/tree_341.root
/store/group/phys_higgs/hbb/ntuples/VHbbPostNano/2018/V11/EGamma/Run2018D-Nano14Dec2018_ver2-v187/190426_091828/0000/tree_342.root
/store/group/phys_higgs/hbb/ntuples/VHbbPostNano/2018/V11/EGamma/Run2018D-Nano14Dec2018_ver2-v187/190426_091828/0000/tree_343.root
/store/group/phys_higgs/hbb/ntuples/VHbbPostNano/2018/V11/EGamma/Run2018D-Nano14Dec2018_ver2-v187/190426_091828/0000/tree_344.root
/store/group/phys_higgs/hbb/ntuples/VHbbPostNano/2018/V11/EGamma/Run2018D-Nano14Dec2018_ver2-v187/190426_091828/0000/tree_345.root
/store/group/phys_higgs/hbb/ntuples/VHbbPostNano/2018/V11/EGamma/Run2018D-Nano14Dec2018_ver2-v187/190426_091828/0000/tree_346.root
/store/group/phys_higgs/hbb/ntuples/VHbbPostNano/2018/V11/EGamma/Run2018D-Nano14Dec2018_ver2-v187/190426_091828/0000/tree_347.root
/store/group/phys_higgs/hbb/ntuples/VHbbPostNano/2018/V11/EGamma/Run2018D-Nano14Dec2018_ver2-v187/190426_091828/0000/tree_348.root
/store/group/phys_higgs/hbb/ntuples/VHbbPostNano/2018/V11/EGamma/Run2018D-Nano14Dec2018_ver2-v187/190426_091828/0000/tree_35.root
/store/group/phys_higgs/hbb/ntuples/VHbbPostNano/2018/V11/EGamma/Run2018D-Nano14Dec2018_ver2-v187/190426_091828/0000/tree_36.root
/store/group/phys_higgs/hbb/ntuples/VHbbPostNano/2018/V11/EGamma/Run2018D-Nano14Dec2018_ver2-v187/190426_091828/0000/tree_37.root
/store/group/phys_higgs/hbb/ntuples/VHbbPostNano/2018/V11/EGamma/Run2018D-Nano14Dec2018_ver2-v187/190426_091828/0000/tree_38.root
/store/group/phys_higgs/hbb/ntuples/VHbbPostNano/2018/V11/EGamma/Run2018D-Nano14Dec2018_ver2-v187/190426_091828/0000/tree_39.root
/store/group/phys_higgs/hbb/ntuples/VHbbPostNano/2018/V11/EGamma/Run2018D-Nano14Dec2018_ver2-v187/190426_091828/0000/tree_4.root
/store/group/phys_higgs/hbb/ntuples/VHbbPostNano/2018/V11/EGamma/Run2018D-Nano14Dec2018_ver2-v187/190426_091828/0000/tree_40.root
/store/group/phys_higgs/hbb/ntuples/VHbbPostNano/2018/V11/EGamma/Run2018D-Nano14Dec2018_ver2-v187/190426_091828/0000/tree_41.root
/store/group/phys_higgs/hbb/ntuples/VHbbPostNano/2018/V11/EGamma/Run2018D-Nano14Dec2018_ver2-v187/190426_091828/0000/tree_42.root
/store/group/phys_higgs/hbb/ntuples/VHbbPostNano/2018/V11/EGamma/Run2018D-Nano14Dec2018_ver2-v187/190426_091828/0000/tree_43.root
/store/group/phys_higgs/hbb/ntuples/VHbbPostNano/2018/V11/EGamma/Run2018D-Nano14Dec2018_ver2-v187/190426_091828/0000/tree_44.root
/store/group/phys_higgs/hbb/ntuples/VHbbPostNano/2018/V11/EGamma/Run2018D-Nano14Dec2018_ver2-v187/190426_091828/0000/tree_45.root
/store/group/phys_higgs/hbb/ntuples/VHbbPostNano/2018/V11/EGamma/Run2018D-Nano14Dec2018_ver2-v187/190426_091828/0000/tree_46.root
/store/group/phys_higgs/hbb/ntuples/VHbbPostNano/2018/V11/EGamma/Run2018D-Nano14Dec2018_ver2-v187/190426_091828/0000/tree_47.root
/store/group/phys_higgs/hbb/ntuples/VHbbPostNano/2018/V11/EGamma/Run2018D-Nano14Dec2018_ver2-v187/190426_091828/0000/tree_48.root
/store/group/phys_higgs/hbb/ntuples/VHbbPostNano/2018/V11/EGamma/Run2018D-Nano14Dec2018_ver2-v187/190426_091828/0000/tree_49.root
/store/group/phys_higgs/hbb/ntuples/VHbbPostNano/2018/V11/EGamma/Run2018D-Nano14Dec2018_ver2-v187/190426_091828/0000/tree_5.root
/store/group/phys_higgs/hbb/ntuples/VHbbPostNano/2018/V11/EGamma/Run2018D-Nano14Dec2018_ver2-v187/190426_091828/0000/tree_50.root
/store/group/phys_higgs/hbb/ntuples/VHbbPostNano/2018/V11/EGamma/Run2018D-Nano14Dec2018_ver2-v187/190426_091828/0000/tree_51.root
/store/group/phys_higgs/hbb/ntuples/VHbbPostNano/2018/V11/EGamma/Run2018D-Nano14Dec2018_ver2-v187/190426_091828/0000/tree_52.root
/store/group/phys_higgs/hbb/ntuples/VHbbPostNano/2018/V11/EGamma/Run2018D-Nano14Dec2018_ver2-v187/190426_091828/0000/tree_53.root
/store/group/phys_higgs/hbb/ntuples/VHbbPostNano/2018/V11/EGamma/Run2018D-Nano14Dec2018_ver2-v187/190426_091828/0000/tree_54.root
/store/group/phys_higgs/hbb/ntuples/VHbbPostNano/2018/V11/EGamma/Run2018D-Nano14Dec2018_ver2-v187/190426_091828/0000/tree_55.root
/store/group/phys_higgs/hbb/ntuples/VHbbPostNano/2018/V11/EGamma/Run2018D-Nano14Dec2018_ver2-v187/190426_091828/0000/tree_56.root
/store/group/phys_higgs/hbb/ntuples/VHbbPostNano/2018/V11/EGamma/Run2018D-Nano14Dec2018_ver2-v187/190426_091828/0000/tree_57.root
/store/group/phys_higgs/hbb/ntuples/VHbbPostNano/2018/V11/EGamma/Run2018D-Nano14Dec2018_ver2-v187/190426_091828/0000/tree_58.root
/store/group/phys_higgs/hbb/ntuples/VHbbPostNano/2018/V11/EGamma/Run2018D-Nano14Dec2018_ver2-v187/190426_091828/0000/tree_59.root
/store/group/phys_higgs/hbb/ntuples/VHbbPostNano/2018/V11/EGamma/Run2018D-Nano14Dec2018_ver2-v187/190426_091828/0000/tree_6.root
/store/group/phys_higgs/hbb/ntuples/VHbbPostNano/2018/V11/EGamma/Run2018D-Nano14Dec2018_ver2-v187/190426_091828/0000/tree_60.root
/store/group/phys_higgs/hbb/ntuples/VHbbPostNano/2018/V11/EGamma/Run2018D-Nano14Dec2018_ver2-v187/190426_091828/0000/tree_61.root
/store/group/phys_higgs/hbb/ntuples/VHbbPostNano/2018/V11/EGamma/Run2018D-Nano14Dec2018_ver2-v187/190426_091828/0000/tree_62.root
/store/group/phys_higgs/hbb/ntuples/VHbbPostNano/2018/V11/EGamma/Run2018D-Nano14Dec2018_ver2-v187/190426_091828/0000/tree_63.root
/store/group/phys_higgs/hbb/ntuples/VHbbPostNano/2018/V11/EGamma/Run2018D-Nano14Dec2018_ver2-v187/190426_091828/0000/tree_64.root
/store/group/phys_higgs/hbb/ntuples/VHbbPostNano/2018/V11/EGamma/Run2018D-Nano14Dec2018_ver2-v187/190426_091828/0000/tree_65.root
/store/group/phys_higgs/hbb/ntuples/VHbbPostNano/2018/V11/EGamma/Run2018D-Nano14Dec2018_ver2-v187/190426_091828/0000/tree_66.root
/store/group/phys_higgs/hbb/ntuples/VHbbPostNano/2018/V11/EGamma/Run2018D-Nano14Dec2018_ver2-v187/190426_091828/0000/tree_67.root
/store/group/phys_higgs/hbb/ntuples/VHbbPostNano/2018/V11/EGamma/Run2018D-Nano14Dec2018_ver2-v187/190426_091828/0000/tree_68.root
/store/group/phys_higgs/hbb/ntuples/VHbbPostNano/2018/V11/EGamma/Run2018D-Nano14Dec2018_ver2-v187/190426_091828/0000/tree_69.root
/store/group/phys_higgs/hbb/ntuples/VHbbPostNano/2018/V11/EGamma/Run2018D-Nano14Dec2018_ver2-v187/190426_091828/0000/tree_7.root
/store/group/phys_higgs/hbb/ntuples/VHbbPostNano/2018/V11/EGamma/Run2018D-Nano14Dec2018_ver2-v187/190426_091828/0000/tree_70.root
/store/group/phys_higgs/hbb/ntuples/VHbbPostNano/2018/V11/EGamma/Run2018D-Nano14Dec2018_ver2-v187/190426_091828/0000/tree_71.root
/store/group/phys_higgs/hbb/ntuples/VHbbPostNano/2018/V11/EGamma/Run2018D-Nano14Dec2018_ver2-v187/190426_091828/0000/tree_72.root
/store/group/phys_higgs/hbb/ntuples/VHbbPostNano/2018/V11/EGamma/Run2018D-Nano14Dec2018_ver2-v187/190426_091828/0000/tree_73.root
/store/group/phys_higgs/hbb/ntuples/VHbbPostNano/2018/V11/EGamma/Run2018D-Nano14Dec2018_ver2-v187/190426_091828/0000/tree_74.root
/store/group/phys_higgs/hbb/ntuples/VHbbPostNano/2018/V11/EGamma/Run2018D-Nano14Dec2018_ver2-v187/190426_091828/0000/tree_75.root
/store/group/phys_higgs/hbb/ntuples/VHbbPostNano/2018/V11/EGamma/Run2018D-Nano14Dec2018_ver2-v187/190426_091828/0000/tree_76.root
/store/group/phys_higgs/hbb/ntuples/VHbbPostNano/2018/V11/EGamma/Run2018D-Nano14Dec2018_ver2-v187/190426_091828/0000/tree_77.root
/store/group/phys_higgs/hbb/ntuples/VHbbPostNano/2018/V11/EGamma/Run2018D-Nano14Dec2018_ver2-v187/190426_091828/0000/tree_78.root
/store/group/phys_higgs/hbb/ntuples/VHbbPostNano/2018/V11/EGamma/Run2018D-Nano14Dec2018_ver2-v187/190426_091828/0000/tree_79.root
/store/group/phys_higgs/hbb/ntuples/VHbbPostNano/2018/V11/EGamma/Run2018D-Nano14Dec2018_ver2-v187/190426_091828/0000/tree_8.root
/store/group/phys_higgs/hbb/ntuples/VHbbPostNano/2018/V11/EGamma/Run2018D-Nano14Dec2018_ver2-v187/190426_091828/0000/tree_80.root
/store/group/phys_higgs/hbb/ntuples/VHbbPostNano/2018/V11/EGamma/Run2018D-Nano14Dec2018_ver2-v187/190426_091828/0000/tree_81.root
/store/group/phys_higgs/hbb/ntuples/VHbbPostNano/2018/V11/EGamma/Run2018D-Nano14Dec2018_ver2-v187/190426_091828/0000/tree_82.root
/store/group/phys_higgs/hbb/ntuples/VHbbPostNano/2018/V11/EGamma/Run2018D-Nano14Dec2018_ver2-v187/190426_091828/0000/tree_83.root
/store/group/phys_higgs/hbb/ntuples/VHbbPostNano/2018/V11/EGamma/Run2018D-Nano14Dec2018_ver2-v187/190426_091828/0000/tree_84.root
/store/group/phys_higgs/hbb/ntuples/VHbbPostNano/2018/V11/EGamma/Run2018D-Nano14Dec2018_ver2-v187/190426_091828/0000/tree_85.root
/store/group/phys_higgs/hbb/ntuples/VHbbPostNano/2018/V11/EGamma/Run2018D-Nano14Dec2018_ver2-v187/190426_091828/0000/tree_86.root
/store/group/phys_higgs/hbb/ntuples/VHbbPostNano/2018/V11/EGamma/Run2018D-Nano14Dec2018_ver2-v187/190426_091828/0000/tree_87.root
/store/group/phys_higgs/hbb/ntuples/VHbbPostNano/2018/V11/EGamma/Run2018D-Nano14Dec2018_ver2-v187/190426_091828/0000/tree_88.root
/store/group/phys_higgs/hbb/ntuples/VHbbPostNano/2018/V11/EGamma/Run2018D-Nano14Dec2018_ver2-v187/190426_091828/0000/tree_89.root
/store/group/phys_higgs/hbb/ntuples/VHbbPostNano/2018/V11/EGamma/Run2018D-Nano14Dec2018_ver2-v187/190426_091828/0000/tree_9.root
/store/group/phys_higgs/hbb/ntuples/VHbbPostNano/2018/V11/EGamma/Run2018D-Nano14Dec2018_ver2-v187/190426_091828/0000/tree_90.root
/store/group/phys_higgs/hbb/ntuples/VHbbPostNano/2018/V11/EGamma/Run2018D-Nano14Dec2018_ver2-v187/190426_091828/0000/tree_91.root
/store/group/phys_higgs/hbb/ntuples/VHbbPostNano/2018/V11/EGamma/Run2018D-Nano14Dec2018_ver2-v187/190426_091828/0000/tree_92.root
/store/group/phys_higgs/hbb/ntuples/VHbbPostNano/2018/V11/EGamma/Run2018D-Nano14Dec2018_ver2-v187/190426_091828/0000/tree_93.root
/store/group/phys_higgs/hbb/ntuples/VHbbPostNano/2018/V11/EGamma/Run2018D-Nano14Dec2018_ver2-v187/190426_091828/0000/tree_94.root
/store/group/phys_higgs/hbb/ntuples/VHbbPostNano/2018/V11/EGamma/Run2018D-Nano14Dec2018_ver2-v187/190426_091828/0000/tree_95.root
/store/group/phys_higgs/hbb/ntuples/VHbbPostNano/2018/V11/EGamma/Run2018D-Nano14Dec2018_ver2-v187/190426_091828/0000/tree_96.root
/store/group/phys_higgs/hbb/ntuples/VHbbPostNano/2018/V11/EGamma/Run2018D-Nano14Dec2018_ver2-v187/190426_091828/0000/tree_97.root
/store/group/phys_higgs/hbb/ntuples/VHbbPostNano/2018/V11/EGamma/Run2018D-Nano14Dec2018_ver2-v187/190426_091828/0000/tree_98.root
/store/group/phys_higgs/hbb/ntuples/VHbbPostNano/2018/V11/EGamma/Run2018D-Nano14Dec2018_ver2-v187/190426_091828/0000/tree_99.root
