/store/group/phys_higgs/hbb/ntuples/VHbbPostNano/2018/V11_bis/WJetsToLNu_HT-200To400_TuneCP5_13TeV-madgraphMLM-pythia8/4ecef54a4af00bc9843638bbb5d832934a1186cc00d7fd1b07c49f1a/000000_000000/0000/tree_0.root
/store/group/phys_higgs/hbb/ntuples/VHbbPostNano/2018/V11_bis/WJetsToLNu_HT-200To400_TuneCP5_13TeV-madgraphMLM-pythia8/d8fc4b1b03de90498d5a3d6db43ef1a37b3b3ed7423b80fc43d7edbd/000000_000000/0000/tree_1.root
/store/group/phys_higgs/hbb/ntuples/VHbbPostNano/2018/V11_bis/WJetsToLNu_HT-200To400_TuneCP5_13TeV-madgraphMLM-pythia8/0ba5a4933bd2e27518bcb40c8207cb26435cb27795ad1e66ba03342a/000000_000000/0000/tree_2.root
/store/group/phys_higgs/hbb/ntuples/VHbbPostNano/2018/V11_bis/WJetsToLNu_HT-200To400_TuneCP5_13TeV-madgraphMLM-pythia8/52699eb272122dab5b5e1f50dc8c44636c4ebf1338311260f86ece78/000000_000000/0000/tree_3.root
/store/group/phys_higgs/hbb/ntuples/VHbbPostNano/2018/V11_bis/WJetsToLNu_HT-200To400_TuneCP5_13TeV-madgraphMLM-pythia8/25b972abf7f53fc2edc4bbf3f57d4db35b8d29361213ccf976046150/000000_000000/0000/tree_4.root
/store/group/phys_higgs/hbb/ntuples/VHbbPostNano/2018/V11_bis/WJetsToLNu_HT-200To400_TuneCP5_13TeV-madgraphMLM-pythia8/32df868b85593c39112e3eb7ca8788fb2d1857278458c2eefe2a25ee/000000_000000/0000/tree_5.root
/store/group/phys_higgs/hbb/ntuples/VHbbPostNano/2018/V11_bis/WJetsToLNu_HT-200To400_TuneCP5_13TeV-madgraphMLM-pythia8/fbf805dff620e45fbc8d4baa437ba3f69ac557b8780b967a4f064a58/000000_000000/0000/tree_6.root
/store/group/phys_higgs/hbb/ntuples/VHbbPostNano/2018/V11_bis/WJetsToLNu_HT-200To400_TuneCP5_13TeV-madgraphMLM-pythia8/34cc37abacbe7070f5155965c6052038bb564e4c86d9eddcd1b58dcc/000000_000000/0000/tree_7.root
/store/group/phys_higgs/hbb/ntuples/VHbbPostNano/2018/V11_bis/WJetsToLNu_HT-200To400_TuneCP5_13TeV-madgraphMLM-pythia8/5facdbd39b1b6c59a5f757355ac252ebdc7054e88b85ae94143afd24/000000_000000/0000/tree_8.root
/store/group/phys_higgs/hbb/ntuples/VHbbPostNano/2018/V11_bis/WJetsToLNu_HT-200To400_TuneCP5_13TeV-madgraphMLM-pythia8/40dde369c4bbb15878ed5ac4dd8033337f18f3fcfe1868a4b3f30a93/000000_000000/0000/tree_9.root
/store/group/phys_higgs/hbb/ntuples/VHbbPostNano/2018/V11_bis/WJetsToLNu_HT-200To400_TuneCP5_13TeV-madgraphMLM-pythia8/310462bc897f9c1e52bb22322985458cb6a07f39db0a054cf9ddefd2/000000_000000/0000/tree_10.root
/store/group/phys_higgs/hbb/ntuples/VHbbPostNano/2018/V11_bis/WJetsToLNu_HT-200To400_TuneCP5_13TeV-madgraphMLM-pythia8/699e6411c9ae5c5402cdb0fa06a19f0c9d75e39a4e2c3b6475186633/000000_000000/0000/tree_11.root
/store/group/phys_higgs/hbb/ntuples/VHbbPostNano/2018/V11_bis/WJetsToLNu_HT-200To400_TuneCP5_13TeV-madgraphMLM-pythia8/7004c62f315f8bed63a89fc501c99965e5f4a4751b954620779ebe4c/000000_000000/0000/tree_12.root