/store/group/phys_higgs/hbb/ntuples/VHbbPostNano/2018/V11-STXS/WplusH_HToBB_WToLNu_M125_13TeV_powheg_pythia8/52d2ba30dde6ec762e0d30edd9c7218c81465da7f498cc8cef74caac/000000_000000/0000/tree_0.root
/store/group/phys_higgs/hbb/ntuples/VHbbPostNano/2018/V11-STXS/WplusH_HToBB_WToLNu_M125_13TeV_powheg_pythia8/8dfa676e97078e418784e7f1d93e23bee1264dc835d14e57ec78dd9e/000000_000000/0000/tree_1.root
/store/group/phys_higgs/hbb/ntuples/VHbbPostNano/2018/V11-STXS/WplusH_HToBB_WToLNu_M125_13TeV_powheg_pythia8/bc81ca0d7871fe9607b90831b59c57e17aa138c24562bcc2f527e614/000000_000000/0000/tree_2.root
/store/group/phys_higgs/hbb/ntuples/VHbbPostNano/2018/V11-STXS/WplusH_HToBB_WToLNu_M125_13TeV_powheg_pythia8/614d4909fa93c895f5d64f33c064849d4a6bf4165c74afa0d091debc/000000_000000/0000/tree_3.root
/store/group/phys_higgs/hbb/ntuples/VHbbPostNano/2018/V11-STXS/WplusH_HToBB_WToLNu_M125_13TeV_powheg_pythia8/b4bbafa9d6d105516302171bcf92d9f854caedeabe233e438f8cfba4/000000_000000/0000/tree_4.root
/store/group/phys_higgs/hbb/ntuples/VHbbPostNano/2018/V11-STXS/WplusH_HToBB_WToLNu_M125_13TeV_powheg_pythia8/8fd842b3c1215e937e1d633bddce8721da9740b2bd01dd10d5724e8c/000000_000000/0000/tree_5.root
/store/group/phys_higgs/hbb/ntuples/VHbbPostNano/2018/V11-STXS/WplusH_HToBB_WToLNu_M125_13TeV_powheg_pythia8/0f25d66e555a3629cf929c0fdad3884bfdcb39dd7978311ba263ea8b/000000_000000/0000/tree_6.root
/store/group/phys_higgs/hbb/ntuples/VHbbPostNano/2018/V11-STXS/WplusH_HToBB_WToLNu_M125_13TeV_powheg_pythia8/6cce49c35a8d88968daa4232f40dc9abde219fc3a8230ac6ee4dc976/000000_000000/0000/tree_7.root