/eos/cms/store/group/phys_higgs/hbb/ntuples/VHbbPostNano/UL/EFT/2016_preVFP/V1/DYJetsToLL_2J_TuneCP5_13TeV-amcatnloFXFX-pythia8/faeb336a9e397345d01983c89ae4d3a2dec7df4f5e78a05ca5f91cda/000000_000000/0000/tree_0.root
/eos/cms/store/group/phys_higgs/hbb/ntuples/VHbbPostNano/UL/EFT/2016_preVFP/V1/DYJetsToLL_2J_TuneCP5_13TeV-amcatnloFXFX-pythia8/704e4a13454e6049ec9f6ed1c83288e4a0197907c1deda0b3224d07a/000000_000000/0000/tree_1.root
/eos/cms/store/group/phys_higgs/hbb/ntuples/VHbbPostNano/UL/EFT/2016_preVFP/V1/DYJetsToLL_2J_TuneCP5_13TeV-amcatnloFXFX-pythia8/011f654ff48436dbb21dae3272021501d131c1d361c6fe8e85f2ac6d/000000_000000/0000/tree_2.root
/eos/cms/store/group/phys_higgs/hbb/ntuples/VHbbPostNano/UL/EFT/2016_preVFP/V1/DYJetsToLL_2J_TuneCP5_13TeV-amcatnloFXFX-pythia8/0143b8c52057021851bc9092dd0f6870953e2234a8073a83f546fa17/000000_000000/0000/tree_3.root
/eos/cms/store/group/phys_higgs/hbb/ntuples/VHbbPostNano/UL/EFT/2016_preVFP/V1/DYJetsToLL_2J_TuneCP5_13TeV-amcatnloFXFX-pythia8/7b7e08471495a22c0c14f9fbcaa1b68b455bf21c4f432f000a9a7c39/000000_000000/0000/tree_4.root
/eos/cms/store/group/phys_higgs/hbb/ntuples/VHbbPostNano/UL/EFT/2016_preVFP/V1/DYJetsToLL_2J_TuneCP5_13TeV-amcatnloFXFX-pythia8/f9ca334059ccfabb5c718a136e75110290be1ee15f6a6bfebe72aec8/000000_000000/0000/tree_5.root
/eos/cms/store/group/phys_higgs/hbb/ntuples/VHbbPostNano/UL/EFT/2016_preVFP/V1/DYJetsToLL_2J_TuneCP5_13TeV-amcatnloFXFX-pythia8/03a21eac9a1b1f71b5e19466d0931da6eac12cf7dd37a68592fa823d/000000_000000/0000/tree_6.root
/eos/cms/store/group/phys_higgs/hbb/ntuples/VHbbPostNano/UL/EFT/2016_preVFP/V1/DYJetsToLL_2J_TuneCP5_13TeV-amcatnloFXFX-pythia8/d250cdd81486c7390075a747789f6af8003da1f32bb54452c2030d25/000000_000000/0000/tree_7.root
/eos/cms/store/group/phys_higgs/hbb/ntuples/VHbbPostNano/UL/EFT/2016_preVFP/V1/DYJetsToLL_2J_TuneCP5_13TeV-amcatnloFXFX-pythia8/fb9c22beeb707bbc8f1b0b8db625f9835f6d19b80089b25e6e437cc9/000000_000000/0000/tree_8.root
/eos/cms/store/group/phys_higgs/hbb/ntuples/VHbbPostNano/UL/EFT/2016_preVFP/V1/DYJetsToLL_2J_TuneCP5_13TeV-amcatnloFXFX-pythia8/1ff1eef4421175db069d5980230cdafc6cfbe0e5093fded821f1ad47/000000_000000/0000/tree_9.root
/eos/cms/store/group/phys_higgs/hbb/ntuples/VHbbPostNano/UL/EFT/2016_preVFP/V1/DYJetsToLL_2J_TuneCP5_13TeV-amcatnloFXFX-pythia8/e957ce05b8f224fad806375efedbf92e2d03b7d773cb1d04fbd36c06/000000_000000/0000/tree_10.root
/eos/cms/store/group/phys_higgs/hbb/ntuples/VHbbPostNano/UL/EFT/2016_preVFP/V1/DYJetsToLL_2J_TuneCP5_13TeV-amcatnloFXFX-pythia8/7084f201247cd6daef8fda41635da9c3c701a596dc0a8423f0709dba/000000_000000/0000/tree_11.root
/eos/cms/store/group/phys_higgs/hbb/ntuples/VHbbPostNano/UL/EFT/2016_preVFP/V1/DYJetsToLL_2J_TuneCP5_13TeV-amcatnloFXFX-pythia8/b83b03d8944f3a9b1474e8c193033f525b71f212372c7fcbee5c94c3/000000_000000/0000/tree_12.root
/eos/cms/store/group/phys_higgs/hbb/ntuples/VHbbPostNano/UL/EFT/2016_preVFP/V1/DYJetsToLL_2J_TuneCP5_13TeV-amcatnloFXFX-pythia8/c7142259b6feb95fc7ba70c490c0745342ab95c64d9d2f915ab78478/000000_000000/0000/tree_13.root
/eos/cms/store/group/phys_higgs/hbb/ntuples/VHbbPostNano/UL/EFT/2016_preVFP/V1/DYJetsToLL_2J_TuneCP5_13TeV-amcatnloFXFX-pythia8/94d8160539be8365506d9f78af1399732f756781cb7173a630a63df8/000000_000000/0000/tree_14.root
/eos/cms/store/group/phys_higgs/hbb/ntuples/VHbbPostNano/UL/EFT/2016_preVFP/V1/DYJetsToLL_2J_TuneCP5_13TeV-amcatnloFXFX-pythia8/f3fd27d852039d9d0d5836dc06a7c8d0fa45eeee252f320e7759da94/000000_000000/0000/tree_15.root
/eos/cms/store/group/phys_higgs/hbb/ntuples/VHbbPostNano/UL/EFT/2016_preVFP/V1/DYJetsToLL_2J_TuneCP5_13TeV-amcatnloFXFX-pythia8/4cbfb9cfc9671c0dd38e43639746fcada1b9d9a176afe8b2cec46839/000000_000000/0000/tree_16.root
/eos/cms/store/group/phys_higgs/hbb/ntuples/VHbbPostNano/UL/EFT/2016_preVFP/V1/DYJetsToLL_2J_TuneCP5_13TeV-amcatnloFXFX-pythia8/85686ddf7e9ae3f12e3e1d6be8f04ecd37d7de730698ccf198c21bfc/000000_000000/0000/tree_17.root
/eos/cms/store/group/phys_higgs/hbb/ntuples/VHbbPostNano/UL/EFT/2016_preVFP/V1/DYJetsToLL_2J_TuneCP5_13TeV-amcatnloFXFX-pythia8/a5c985f31bee744a0a70c21a98541b98228ae5958177f38bca43810b/000000_000000/0000/tree_18.root
/eos/cms/store/group/phys_higgs/hbb/ntuples/VHbbPostNano/UL/EFT/2016_preVFP/V1/DYJetsToLL_2J_TuneCP5_13TeV-amcatnloFXFX-pythia8/37e61a88d5cb8dc648b46f48bde8ad24576ec0ba688d2685a83e887f/000000_000000/0000/tree_19.root
/eos/cms/store/group/phys_higgs/hbb/ntuples/VHbbPostNano/UL/EFT/2016_preVFP/V1/DYJetsToLL_2J_TuneCP5_13TeV-amcatnloFXFX-pythia8/958a6adcf8bb924af256a63e0a4358fdbd4402aede0dfa535abebe1b/000000_000000/0000/tree_20.root
/eos/cms/store/group/phys_higgs/hbb/ntuples/VHbbPostNano/UL/EFT/2016_preVFP/V1/DYJetsToLL_2J_TuneCP5_13TeV-amcatnloFXFX-pythia8/3d63515c64011b808ac992979f4a54562ba07dea31a94cbb43766616/000000_000000/0000/tree_21.root
/eos/cms/store/group/phys_higgs/hbb/ntuples/VHbbPostNano/UL/EFT/2016_preVFP/V1/DYJetsToLL_2J_TuneCP5_13TeV-amcatnloFXFX-pythia8/310b4ed8e9ef15c3c7b904c15f63e58e7ad9b64003678f16957b74a2/000000_000000/0000/tree_22.root
/eos/cms/store/group/phys_higgs/hbb/ntuples/VHbbPostNano/UL/EFT/2016_preVFP/V1/DYJetsToLL_2J_TuneCP5_13TeV-amcatnloFXFX-pythia8/241a79fea51d89650eddbdf95c783b8c3343460839e7b534a38a5d46/000000_000000/0000/tree_23.root
/eos/cms/store/group/phys_higgs/hbb/ntuples/VHbbPostNano/UL/EFT/2016_preVFP/V1/DYJetsToLL_2J_TuneCP5_13TeV-amcatnloFXFX-pythia8/0eb69ae5deb0111c97ee61b6bdf830787da7c41105aaac683381f22a/000000_000000/0000/tree_24.root
/eos/cms/store/group/phys_higgs/hbb/ntuples/VHbbPostNano/UL/EFT/2016_preVFP/V1/DYJetsToLL_2J_TuneCP5_13TeV-amcatnloFXFX-pythia8/994f1c97441a0fea691db734036c12d810d9ee8a879d0744eec3ce72/000000_000000/0000/tree_25.root
/eos/cms/store/group/phys_higgs/hbb/ntuples/VHbbPostNano/UL/EFT/2016_preVFP/V1/DYJetsToLL_2J_TuneCP5_13TeV-amcatnloFXFX-pythia8/9bd2a3946d1342ae333ce3e1e81675b29980f50055448ed9f8908514/000000_000000/0000/tree_26.root
/eos/cms/store/group/phys_higgs/hbb/ntuples/VHbbPostNano/UL/EFT/2016_preVFP/V1/DYJetsToLL_2J_TuneCP5_13TeV-amcatnloFXFX-pythia8/4275f5b78eeacd23b3c7b1be3a6e804a5b6f6ad74784b0207a03dd8f/000000_000000/0000/tree_27.root
/eos/cms/store/group/phys_higgs/hbb/ntuples/VHbbPostNano/UL/EFT/2016_preVFP/V1/DYJetsToLL_2J_TuneCP5_13TeV-amcatnloFXFX-pythia8/ea55e2bb1326a008a942c5b364b961c96f48ac01b188c0a609bee76a/000000_000000/0000/tree_28.root
/eos/cms/store/group/phys_higgs/hbb/ntuples/VHbbPostNano/UL/EFT/2016_preVFP/V1/DYJetsToLL_2J_TuneCP5_13TeV-amcatnloFXFX-pythia8/d88c91fb2defb37bc96099d311ebe0fd65e2650b57c07af3a95392c5/000000_000000/0000/tree_29.root
/eos/cms/store/group/phys_higgs/hbb/ntuples/VHbbPostNano/UL/EFT/2016_preVFP/V1/DYJetsToLL_2J_TuneCP5_13TeV-amcatnloFXFX-pythia8/41f862f0a2ceb121fae15b1db6bfad69546f52ac878ce80a6fa3dbfc/000000_000000/0000/tree_30.root
/eos/cms/store/group/phys_higgs/hbb/ntuples/VHbbPostNano/UL/EFT/2016_preVFP/V1/DYJetsToLL_2J_TuneCP5_13TeV-amcatnloFXFX-pythia8/cf9ba01af926e847e4ace6751ac502478ae72fc70b640f9e7508331d/000000_000000/0000/tree_31.root
/eos/cms/store/group/phys_higgs/hbb/ntuples/VHbbPostNano/UL/EFT/2016_preVFP/V1/DYJetsToLL_2J_TuneCP5_13TeV-amcatnloFXFX-pythia8/46c2a618f711f0f64ac75d473160e89214fb59307c346e18ff2b186e/000000_000000/0000/tree_32.root
/eos/cms/store/group/phys_higgs/hbb/ntuples/VHbbPostNano/UL/EFT/2016_preVFP/V1/DYJetsToLL_2J_TuneCP5_13TeV-amcatnloFXFX-pythia8/3d471dca9817d8342c29292c6e7dc53b1075fa1e53ecf965ae99238e/000000_000000/0000/tree_33.root
/eos/cms/store/group/phys_higgs/hbb/ntuples/VHbbPostNano/UL/EFT/2016_preVFP/V1/DYJetsToLL_2J_TuneCP5_13TeV-amcatnloFXFX-pythia8/ccb04fd80573873f8263d3018a186993cdeb936ea1ef24dc75c7f836/000000_000000/0000/tree_34.root
/eos/cms/store/group/phys_higgs/hbb/ntuples/VHbbPostNano/UL/EFT/2016_preVFP/V1/DYJetsToLL_2J_TuneCP5_13TeV-amcatnloFXFX-pythia8/da7956a777abb8b3e516884fc1f577af93b3899a0a542db11a310b0c/000000_000000/0000/tree_35.root
/eos/cms/store/group/phys_higgs/hbb/ntuples/VHbbPostNano/UL/EFT/2016_preVFP/V1/DYJetsToLL_2J_TuneCP5_13TeV-amcatnloFXFX-pythia8/7d4c44396131b35f5e0c6901e5a2612d7d6daa290f85d106d9e00e34/000000_000000/0000/tree_36.root
/eos/cms/store/group/phys_higgs/hbb/ntuples/VHbbPostNano/UL/EFT/2016_preVFP/V1/DYJetsToLL_2J_TuneCP5_13TeV-amcatnloFXFX-pythia8/6644c2bbd390b327fe14becaafc860620a57e6632a94e34914c6cd51/000000_000000/0000/tree_37.root
/eos/cms/store/group/phys_higgs/hbb/ntuples/VHbbPostNano/UL/EFT/2016_preVFP/V1/DYJetsToLL_2J_TuneCP5_13TeV-amcatnloFXFX-pythia8/a0112573140de5870f551065bf01f8e187e15ca26279e3b9398b73f2/000000_000000/0000/tree_38.root
/eos/cms/store/group/phys_higgs/hbb/ntuples/VHbbPostNano/UL/EFT/2016_preVFP/V1/DYJetsToLL_2J_TuneCP5_13TeV-amcatnloFXFX-pythia8/11480f6d45c1a08acbafd23b7822f1a03bc2b0f75c3c2223f76e5be5/000000_000000/0000/tree_39.root
/eos/cms/store/group/phys_higgs/hbb/ntuples/VHbbPostNano/UL/EFT/2016_preVFP/V1/DYJetsToLL_2J_TuneCP5_13TeV-amcatnloFXFX-pythia8/89272584beb8c0cc1e9849e4aa06c9ecb0ad3cea19f526c20f969def/000000_000000/0000/tree_40.root
/eos/cms/store/group/phys_higgs/hbb/ntuples/VHbbPostNano/UL/EFT/2016_preVFP/V1/DYJetsToLL_2J_TuneCP5_13TeV-amcatnloFXFX-pythia8/4e7e2de6cea8006f88f8a9537fc92292c9aaddcdc7ada6a1ae978143/000000_000000/0000/tree_41.root
/eos/cms/store/group/phys_higgs/hbb/ntuples/VHbbPostNano/UL/EFT/2016_preVFP/V1/DYJetsToLL_2J_TuneCP5_13TeV-amcatnloFXFX-pythia8/e8518fa2c92a2c3fd504f9af07f81701b46cb3e91a685ba7956bc793/000000_000000/0000/tree_42.root
/eos/cms/store/group/phys_higgs/hbb/ntuples/VHbbPostNano/UL/EFT/2016_preVFP/V1/DYJetsToLL_2J_TuneCP5_13TeV-amcatnloFXFX-pythia8/9c14c50abd49d35af49890f602d646ebf9bc33f3b0b687f802a0f696/000000_000000/0000/tree_43.root
/eos/cms/store/group/phys_higgs/hbb/ntuples/VHbbPostNano/UL/EFT/2016_preVFP/V1/DYJetsToLL_2J_TuneCP5_13TeV-amcatnloFXFX-pythia8/e0fe55b33830a4ad21e8004604b24b688f194598969b9331bf3cd301/000000_000000/0000/tree_44.root
/eos/cms/store/group/phys_higgs/hbb/ntuples/VHbbPostNano/UL/EFT/2016_preVFP/V1/DYJetsToLL_2J_TuneCP5_13TeV-amcatnloFXFX-pythia8/b5230165bda0eaa9b28d244c716147518c3b090f35e5800f055a0c50/000000_000000/0000/tree_45.root
/eos/cms/store/group/phys_higgs/hbb/ntuples/VHbbPostNano/UL/EFT/2016_preVFP/V1/DYJetsToLL_2J_TuneCP5_13TeV-amcatnloFXFX-pythia8/cc9a8dd4ebd43fe491cbebbf320ff615ddb0e77957419981f10cde5d/000000_000000/0000/tree_46.root
/eos/cms/store/group/phys_higgs/hbb/ntuples/VHbbPostNano/UL/EFT/2016_preVFP/V1/DYJetsToLL_2J_TuneCP5_13TeV-amcatnloFXFX-pythia8/4954ac1aa9c6ccc68ebc28cccd70b734d774b1f124e529135b17a9e4/000000_000000/0000/tree_47.root
/eos/cms/store/group/phys_higgs/hbb/ntuples/VHbbPostNano/UL/EFT/2016_preVFP/V1/DYJetsToLL_2J_TuneCP5_13TeV-amcatnloFXFX-pythia8/720c9518c0d97452e55ec9f28c0618bd6aa0a35b55f179e313f4d6f5/000000_000000/0000/tree_48.root
/eos/cms/store/group/phys_higgs/hbb/ntuples/VHbbPostNano/UL/EFT/2016_preVFP/V1/DYJetsToLL_2J_TuneCP5_13TeV-amcatnloFXFX-pythia8/8924c2d0df0a4905b3d7521dc18569ea095a925cde63b81675c4b7a6/000000_000000/0000/tree_49.root
/eos/cms/store/group/phys_higgs/hbb/ntuples/VHbbPostNano/UL/EFT/2016_preVFP/V1/DYJetsToLL_2J_TuneCP5_13TeV-amcatnloFXFX-pythia8/24d2f42888a371cac9935e36b80509388223f7c04a0357e44f20f365/000000_000000/0000/tree_50.root
/eos/cms/store/group/phys_higgs/hbb/ntuples/VHbbPostNano/UL/EFT/2016_preVFP/V1/DYJetsToLL_2J_TuneCP5_13TeV-amcatnloFXFX-pythia8/ade317da3084c6d303fb1fa275505c351f261b14012e49bc48345653/000000_000000/0000/tree_51.root
/eos/cms/store/group/phys_higgs/hbb/ntuples/VHbbPostNano/UL/EFT/2016_preVFP/V1/DYJetsToLL_2J_TuneCP5_13TeV-amcatnloFXFX-pythia8/40ab00d74c7da42ea58ef625eda846bf62544b0a8c46f169e31d6a37/000000_000000/0000/tree_52.root
/eos/cms/store/group/phys_higgs/hbb/ntuples/VHbbPostNano/UL/EFT/2016_preVFP/V1/DYJetsToLL_2J_TuneCP5_13TeV-amcatnloFXFX-pythia8/cd1ae98894ea3bdb492a0c7ad78394ba1ea49b756f2d828ee626ebe2/000000_000000/0000/tree_53.root
/eos/cms/store/group/phys_higgs/hbb/ntuples/VHbbPostNano/UL/EFT/2016_preVFP/V1/DYJetsToLL_2J_TuneCP5_13TeV-amcatnloFXFX-pythia8/439db35cf6e50cd6e7fbbf847251720a6d5aa96231c0c0b18110295f/000000_000000/0000/tree_54.root
/eos/cms/store/group/phys_higgs/hbb/ntuples/VHbbPostNano/UL/EFT/2016_preVFP/V1/DYJetsToLL_2J_TuneCP5_13TeV-amcatnloFXFX-pythia8/23172cfba8317f0444c152a46c1b9959c37d03e0725571031c704c95/000000_000000/0000/tree_55.root
/eos/cms/store/group/phys_higgs/hbb/ntuples/VHbbPostNano/UL/EFT/2016_preVFP/V1/DYJetsToLL_2J_TuneCP5_13TeV-amcatnloFXFX-pythia8/79f8cf1412d0f07f56f865a506b09da5de58980b73958cf0e9c599c3/000000_000000/0000/tree_56.root
/eos/cms/store/group/phys_higgs/hbb/ntuples/VHbbPostNano/UL/EFT/2016_preVFP/V1/DYJetsToLL_2J_TuneCP5_13TeV-amcatnloFXFX-pythia8/4aad116e389183af7dba61811705f44911616709ac265dd07b92d049/000000_000000/0000/tree_57.root
/eos/cms/store/group/phys_higgs/hbb/ntuples/VHbbPostNano/UL/EFT/2016_preVFP/V1/DYJetsToLL_2J_TuneCP5_13TeV-amcatnloFXFX-pythia8/fc559d15d642b9c311870fce722ecf84183546b34d3ac2fc724ecd8a/000000_000000/0000/tree_58.root
/eos/cms/store/group/phys_higgs/hbb/ntuples/VHbbPostNano/UL/EFT/2016_preVFP/V1/DYJetsToLL_2J_TuneCP5_13TeV-amcatnloFXFX-pythia8/4cd1ceba9b0d86174a4168a102ae384af32f50a2cdf0c72772746328/000000_000000/0000/tree_59.root
/eos/cms/store/group/phys_higgs/hbb/ntuples/VHbbPostNano/UL/EFT/2016_preVFP/V1/DYJetsToLL_2J_TuneCP5_13TeV-amcatnloFXFX-pythia8/42b7768e335895da644cb350bd761a6d4a35e2eee58909c0a85f83b1/000000_000000/0000/tree_60.root
/eos/cms/store/group/phys_higgs/hbb/ntuples/VHbbPostNano/UL/EFT/2016_preVFP/V1/DYJetsToLL_2J_TuneCP5_13TeV-amcatnloFXFX-pythia8/bb0e9e4f5a82cbf3bc2dd230d1648881f653a9c097693034206c6d61/000000_000000/0000/tree_61.root
/eos/cms/store/group/phys_higgs/hbb/ntuples/VHbbPostNano/UL/EFT/2016_preVFP/V1/DYJetsToLL_2J_TuneCP5_13TeV-amcatnloFXFX-pythia8/57ca3cb09bd1d46be2ae649dff8f91d937997aeaf2b403dc909fcd1d/000000_000000/0000/tree_62.root
/eos/cms/store/group/phys_higgs/hbb/ntuples/VHbbPostNano/UL/EFT/2016_preVFP/V1/DYJetsToLL_2J_TuneCP5_13TeV-amcatnloFXFX-pythia8/ac2104db23bf8909a03213da43c680205c7e828131da75260cb795fb/000000_000000/0000/tree_63.root
/eos/cms/store/group/phys_higgs/hbb/ntuples/VHbbPostNano/UL/EFT/2016_preVFP/V1/DYJetsToLL_2J_TuneCP5_13TeV-amcatnloFXFX-pythia8/de6dc35fcbe715b66588dd3ec014a83b2aac54850835058c39f94c84/000000_000000/0000/tree_64.root
/eos/cms/store/group/phys_higgs/hbb/ntuples/VHbbPostNano/UL/EFT/2016_preVFP/V1/DYJetsToLL_2J_TuneCP5_13TeV-amcatnloFXFX-pythia8/f2a40f06b3285f3c57434ea400537cfbfc44e0db6d8e9d7d35da7eef/000000_000000/0000/tree_65.root
/eos/cms/store/group/phys_higgs/hbb/ntuples/VHbbPostNano/UL/EFT/2016_preVFP/V1/DYJetsToLL_2J_TuneCP5_13TeV-amcatnloFXFX-pythia8/8a3e3aeff0f4948d1a8de0a003004a76a640969fb9d35be16a131d57/000000_000000/0000/tree_66.root
/eos/cms/store/group/phys_higgs/hbb/ntuples/VHbbPostNano/UL/EFT/2016_preVFP/V1/DYJetsToLL_2J_TuneCP5_13TeV-amcatnloFXFX-pythia8/d3cc5af8f1247777f13fee6ffb3a43d603b325ea60722ab177a7912c/000000_000000/0000/tree_67.root
/eos/cms/store/group/phys_higgs/hbb/ntuples/VHbbPostNano/UL/EFT/2016_preVFP/V1/DYJetsToLL_2J_TuneCP5_13TeV-amcatnloFXFX-pythia8/d5694005b4d03f906079277d8e4950b8c312b1ca444d898f91047046/000000_000000/0000/tree_68.root
/eos/cms/store/group/phys_higgs/hbb/ntuples/VHbbPostNano/UL/EFT/2016_preVFP/V1/DYJetsToLL_2J_TuneCP5_13TeV-amcatnloFXFX-pythia8/d2aa9d0685bdeb3749ba95d8c575cf603b7df8bf0d5e55d2159116be/000000_000000/0000/tree_69.root
/eos/cms/store/group/phys_higgs/hbb/ntuples/VHbbPostNano/UL/EFT/2016_preVFP/V1/DYJetsToLL_2J_TuneCP5_13TeV-amcatnloFXFX-pythia8/16e45a01723638d18ec04066f8897bb9b22110e6d630b041e891a15a/000000_000000/0000/tree_70.root
/eos/cms/store/group/phys_higgs/hbb/ntuples/VHbbPostNano/UL/EFT/2016_preVFP/V1/DYJetsToLL_2J_TuneCP5_13TeV-amcatnloFXFX-pythia8/181f3a53f83426b1f7f64f41c8737857bebd45ed5a60741450745e3d/000000_000000/0000/tree_71.root
/eos/cms/store/group/phys_higgs/hbb/ntuples/VHbbPostNano/UL/EFT/2016_preVFP/V1/DYJetsToLL_2J_TuneCP5_13TeV-amcatnloFXFX-pythia8/d25a16de3bcec3cb9212ad365e4b31edbccca473c6e8009a5683d9b6/000000_000000/0000/tree_72.root
/eos/cms/store/group/phys_higgs/hbb/ntuples/VHbbPostNano/UL/EFT/2016_preVFP/V1/DYJetsToLL_2J_TuneCP5_13TeV-amcatnloFXFX-pythia8/8641e3c5ba9ad1a5a4284123039d11d8bfb6913742e8efe919637531/000000_000000/0000/tree_73.root
/eos/cms/store/group/phys_higgs/hbb/ntuples/VHbbPostNano/UL/EFT/2016_preVFP/V1/DYJetsToLL_2J_TuneCP5_13TeV-amcatnloFXFX-pythia8/961f71835af7b84059e56d864adb9e8e9509fd5993b1e77605601a1d/000000_000000/0000/tree_74.root
/eos/cms/store/group/phys_higgs/hbb/ntuples/VHbbPostNano/UL/EFT/2016_preVFP/V1/DYJetsToLL_2J_TuneCP5_13TeV-amcatnloFXFX-pythia8/2c422d88072a94ff2365a4dfa15d4db452ce36c8b319b1a608f6a0db/000000_000000/0000/tree_75.root
/eos/cms/store/group/phys_higgs/hbb/ntuples/VHbbPostNano/UL/EFT/2016_preVFP/V1/DYJetsToLL_2J_TuneCP5_13TeV-amcatnloFXFX-pythia8/401f32ebe4623808b88f31f0bb8b626c222df7a701f111b4b5bc7819/000000_000000/0000/tree_76.root
/eos/cms/store/group/phys_higgs/hbb/ntuples/VHbbPostNano/UL/EFT/2016_preVFP/V1/DYJetsToLL_2J_TuneCP5_13TeV-amcatnloFXFX-pythia8/35903b62f6b8d4f85753034854fefe402a7ce2c986048bdf5849c234/000000_000000/0000/tree_77.root
/eos/cms/store/group/phys_higgs/hbb/ntuples/VHbbPostNano/UL/EFT/2016_preVFP/V1/DYJetsToLL_2J_TuneCP5_13TeV-amcatnloFXFX-pythia8/167ddf56cf4467376964a7f929a27e28ccac7913d078bec21666d9b9/000000_000000/0000/tree_78.root
/eos/cms/store/group/phys_higgs/hbb/ntuples/VHbbPostNano/UL/EFT/2016_preVFP/V1/DYJetsToLL_2J_TuneCP5_13TeV-amcatnloFXFX-pythia8/576bfa8bba2d3c627f78b5aff9044348372b6a4d94fce58f80c3ef83/000000_000000/0000/tree_79.root
/eos/cms/store/group/phys_higgs/hbb/ntuples/VHbbPostNano/UL/EFT/2016_preVFP/V1/DYJetsToLL_2J_TuneCP5_13TeV-amcatnloFXFX-pythia8/363ee36115bea44ab36e838a2dfcbe7de01127f3c7f62c5914044f58/000000_000000/0000/tree_80.root
/eos/cms/store/group/phys_higgs/hbb/ntuples/VHbbPostNano/UL/EFT/2016_preVFP/V1/DYJetsToLL_2J_TuneCP5_13TeV-amcatnloFXFX-pythia8/d976d3c8548f52ad176999fc37f6101fa7efeeb3f755b4fe3fdafb8c/000000_000000/0000/tree_81.root
/eos/cms/store/group/phys_higgs/hbb/ntuples/VHbbPostNano/UL/EFT/2016_preVFP/V1/DYJetsToLL_2J_TuneCP5_13TeV-amcatnloFXFX-pythia8/25cf984b50986b0b59ad7482f930746915049f26cdc1a3005921e0f0/000000_000000/0000/tree_82.root
/eos/cms/store/group/phys_higgs/hbb/ntuples/VHbbPostNano/UL/EFT/2016_preVFP/V1/DYJetsToLL_2J_TuneCP5_13TeV-amcatnloFXFX-pythia8/0cdd1a90190958e56b94548c25b38542cf997c60659e660dc0e614e7/000000_000000/0000/tree_83.root
/eos/cms/store/group/phys_higgs/hbb/ntuples/VHbbPostNano/UL/EFT/2016_preVFP/V1/DYJetsToLL_2J_TuneCP5_13TeV-amcatnloFXFX-pythia8/4a1f3a47642e651c71a988fd6efda321c177c1345a605ea3c4d574be/000000_000000/0000/tree_84.root
/eos/cms/store/group/phys_higgs/hbb/ntuples/VHbbPostNano/UL/EFT/2016_preVFP/V1/DYJetsToLL_2J_TuneCP5_13TeV-amcatnloFXFX-pythia8/89f2ee4ede630428d409e6e91e56ae42a5cc4d798a9f537c864cd608/000000_000000/0000/tree_85.root
/eos/cms/store/group/phys_higgs/hbb/ntuples/VHbbPostNano/UL/EFT/2016_preVFP/V1/DYJetsToLL_2J_TuneCP5_13TeV-amcatnloFXFX-pythia8/c6794eb6d7e1880702ae1a9b863026c3bf1613fd3dc16f101bede7f8/000000_000000/0000/tree_86.root
/eos/cms/store/group/phys_higgs/hbb/ntuples/VHbbPostNano/UL/EFT/2016_preVFP/V1/DYJetsToLL_2J_TuneCP5_13TeV-amcatnloFXFX-pythia8/2708a6700bbca169d7bd44e2e7fbc817b463974aa2e5dda4397656f9/000000_000000/0000/tree_87.root
/eos/cms/store/group/phys_higgs/hbb/ntuples/VHbbPostNano/UL/EFT/2016_preVFP/V1/DYJetsToLL_2J_TuneCP5_13TeV-amcatnloFXFX-pythia8/c0340d3c363c29afdd81b554204a253433d58641d1c7f8af548b30e7/000000_000000/0000/tree_88.root
/eos/cms/store/group/phys_higgs/hbb/ntuples/VHbbPostNano/UL/EFT/2016_preVFP/V1/DYJetsToLL_2J_TuneCP5_13TeV-amcatnloFXFX-pythia8/9148e1655a3c8b0523696b05382eff194c0aab9bcdd5fc81467ea58f/000000_000000/0000/tree_89.root
/eos/cms/store/group/phys_higgs/hbb/ntuples/VHbbPostNano/UL/EFT/2016_preVFP/V1/DYJetsToLL_2J_TuneCP5_13TeV-amcatnloFXFX-pythia8/85384a9f3c4eb8474eb421a148af433ac6aa1d7878167285b7b7c504/000000_000000/0000/tree_90.root
/eos/cms/store/group/phys_higgs/hbb/ntuples/VHbbPostNano/UL/EFT/2016_preVFP/V1/DYJetsToLL_2J_TuneCP5_13TeV-amcatnloFXFX-pythia8/bc2d61cc8b182f54a5c01ec0a7cdd5d09670a44ae2fc83d27261dbce/000000_000000/0000/tree_91.root
/eos/cms/store/group/phys_higgs/hbb/ntuples/VHbbPostNano/UL/EFT/2016_preVFP/V1/DYJetsToLL_2J_TuneCP5_13TeV-amcatnloFXFX-pythia8/d88068c6220fe9c3e5c97f10ab9b48e08822cbb8bb1400ce7cf607b2/000000_000000/0000/tree_92.root
/eos/cms/store/group/phys_higgs/hbb/ntuples/VHbbPostNano/UL/EFT/2016_preVFP/V1/DYJetsToLL_2J_TuneCP5_13TeV-amcatnloFXFX-pythia8/ee42a955f470e3011459e481822729fb6549cfeb61bd2d90f3849dcf/000000_000000/0000/tree_93.root
/eos/cms/store/group/phys_higgs/hbb/ntuples/VHbbPostNano/UL/EFT/2016_preVFP/V1/DYJetsToLL_2J_TuneCP5_13TeV-amcatnloFXFX-pythia8/bd6f0743d3f38a90f79239cac28703789513e4035b294fdc33bf8cdc/000000_000000/0000/tree_94.root
/eos/cms/store/group/phys_higgs/hbb/ntuples/VHbbPostNano/UL/EFT/2016_preVFP/V1/DYJetsToLL_2J_TuneCP5_13TeV-amcatnloFXFX-pythia8/b2921b04188ee5fac3bebd8b4721be7dcc86a5eec16bccb65976eb43/000000_000000/0000/tree_95.root
/eos/cms/store/group/phys_higgs/hbb/ntuples/VHbbPostNano/UL/EFT/2016_preVFP/V1/DYJetsToLL_2J_TuneCP5_13TeV-amcatnloFXFX-pythia8/181243c2f3259fc37c25fab657db70a4be9fa9be03ca779c89dcaa2f/000000_000000/0000/tree_96.root
/eos/cms/store/group/phys_higgs/hbb/ntuples/VHbbPostNano/UL/EFT/2016_preVFP/V1/DYJetsToLL_2J_TuneCP5_13TeV-amcatnloFXFX-pythia8/5bafe4ec0ace8c5ad7f34447cf4a13963f134ca2a6160a82d83fb692/000000_000000/0000/tree_97.root
/eos/cms/store/group/phys_higgs/hbb/ntuples/VHbbPostNano/UL/EFT/2016_preVFP/V1/DYJetsToLL_2J_TuneCP5_13TeV-amcatnloFXFX-pythia8/76ec018aafc5b5e3ba2cacfe52ff066bcbb02aba9dcbd34dfdd4254f/000000_000000/0000/tree_98.root
/eos/cms/store/group/phys_higgs/hbb/ntuples/VHbbPostNano/UL/EFT/2016_preVFP/V1/DYJetsToLL_2J_TuneCP5_13TeV-amcatnloFXFX-pythia8/b7b9672f23c62e216efb786e553464bdfc2123566f21a0d410ed3482/000000_000000/0000/tree_99.root
/eos/cms/store/group/phys_higgs/hbb/ntuples/VHbbPostNano/UL/EFT/2016_preVFP/V1/DYJetsToLL_2J_TuneCP5_13TeV-amcatnloFXFX-pythia8/48c01f3d14147234732a6e01b67e53fd1a73071aa12cf7f97b0a4d97/000000_000000/0000/tree_100.root
/eos/cms/store/group/phys_higgs/hbb/ntuples/VHbbPostNano/UL/EFT/2016_preVFP/V1/DYJetsToLL_2J_TuneCP5_13TeV-amcatnloFXFX-pythia8/20448906ab3e952e0e528536481baa43d0dcfcaa7388e39b6c2db588/000000_000000/0000/tree_101.root
/eos/cms/store/group/phys_higgs/hbb/ntuples/VHbbPostNano/UL/EFT/2016_preVFP/V1/DYJetsToLL_2J_TuneCP5_13TeV-amcatnloFXFX-pythia8/73c07ba549cbfc24e807132d6c440e1f10e60fc8fe1365f1ed7ddd64/000000_000000/0000/tree_102.root
/eos/cms/store/group/phys_higgs/hbb/ntuples/VHbbPostNano/UL/EFT/2016_preVFP/V1/DYJetsToLL_2J_TuneCP5_13TeV-amcatnloFXFX-pythia8/15d2f5fb65dc6a55ba9797c342756fd2a2c6cdae4d2c7592d5be7908/000000_000000/0000/tree_103.root
/eos/cms/store/group/phys_higgs/hbb/ntuples/VHbbPostNano/UL/EFT/2016_preVFP/V1/DYJetsToLL_2J_TuneCP5_13TeV-amcatnloFXFX-pythia8/fd4d8687b9b6286f69b2dacc63c7109b6e1d1f893e89cbfafe176a2a/000000_000000/0000/tree_104.root
/eos/cms/store/group/phys_higgs/hbb/ntuples/VHbbPostNano/UL/EFT/2016_preVFP/V1/DYJetsToLL_2J_TuneCP5_13TeV-amcatnloFXFX-pythia8/31381ecdfe5fafd6f371ea049a16e9a9d586a9b2cc77a2ac5273086d/000000_000000/0000/tree_105.root
/eos/cms/store/group/phys_higgs/hbb/ntuples/VHbbPostNano/UL/EFT/2016_preVFP/V1/DYJetsToLL_2J_TuneCP5_13TeV-amcatnloFXFX-pythia8/004a7ef47f965d78bf58375e2c81c7c3830164ca78f873cc743325aa/000000_000000/0000/tree_106.root
/eos/cms/store/group/phys_higgs/hbb/ntuples/VHbbPostNano/UL/EFT/2016_preVFP/V1/DYJetsToLL_2J_TuneCP5_13TeV-amcatnloFXFX-pythia8/1bb29c22feed8f7133704bb28aa090d5054e3fe32864dee1d7fec76b/000000_000000/0000/tree_107.root
/eos/cms/store/group/phys_higgs/hbb/ntuples/VHbbPostNano/UL/EFT/2016_preVFP/V1/DYJetsToLL_2J_TuneCP5_13TeV-amcatnloFXFX-pythia8/a67eddee0a339f9ed96f6a161034bbdebc588ce9c4ac2416e1018e4a/000000_000000/0000/tree_108.root
/eos/cms/store/group/phys_higgs/hbb/ntuples/VHbbPostNano/UL/EFT/2016_preVFP/V1/DYJetsToLL_2J_TuneCP5_13TeV-amcatnloFXFX-pythia8/73eb1df61cd79d452892665bb16f0920f6d158ee948d879bb1085088/000000_000000/0000/tree_109.root
/eos/cms/store/group/phys_higgs/hbb/ntuples/VHbbPostNano/UL/EFT/2016_preVFP/V1/DYJetsToLL_2J_TuneCP5_13TeV-amcatnloFXFX-pythia8/31ec4b375b5f8806e45a6d2a15fc8578c4810fc1fc9b3c2efad5b269/000000_000000/0000/tree_110.root
/eos/cms/store/group/phys_higgs/hbb/ntuples/VHbbPostNano/UL/EFT/2016_preVFP/V1/DYJetsToLL_2J_TuneCP5_13TeV-amcatnloFXFX-pythia8/d6d08026be90afc446c8cd390c7127488cd767d9a8ba23accc95a841/000000_000000/0000/tree_111.root
/eos/cms/store/group/phys_higgs/hbb/ntuples/VHbbPostNano/UL/EFT/2016_preVFP/V1/DYJetsToLL_2J_TuneCP5_13TeV-amcatnloFXFX-pythia8/b766d2b3d1c91afa9230e4b41c8a54466c58db4385ab960a1d41d73c/000000_000000/0000/tree_112.root
/eos/cms/store/group/phys_higgs/hbb/ntuples/VHbbPostNano/UL/EFT/2016_preVFP/V1/DYJetsToLL_2J_TuneCP5_13TeV-amcatnloFXFX-pythia8/cbb33e331da2132cdfe3cb929a098fd31a143c8c250fe22d59b327ff/000000_000000/0000/tree_113.root
/eos/cms/store/group/phys_higgs/hbb/ntuples/VHbbPostNano/UL/EFT/2016_preVFP/V1/DYJetsToLL_2J_TuneCP5_13TeV-amcatnloFXFX-pythia8/df8227af281d7d609e2260368a40cffd507d1093caa85a7c1194269b/000000_000000/0000/tree_114.root
/eos/cms/store/group/phys_higgs/hbb/ntuples/VHbbPostNano/UL/EFT/2016_preVFP/V1/DYJetsToLL_2J_TuneCP5_13TeV-amcatnloFXFX-pythia8/b935b3f2b11e41f5921b65b9367887b89ff2d215a00700ad9b0740aa/000000_000000/0000/tree_115.root
/eos/cms/store/group/phys_higgs/hbb/ntuples/VHbbPostNano/UL/EFT/2016_preVFP/V1/DYJetsToLL_2J_TuneCP5_13TeV-amcatnloFXFX-pythia8/a7ec94b354674f5c243a6a1313deddfb8133b15c79aa5b71f23f298e/000000_000000/0000/tree_116.root
/eos/cms/store/group/phys_higgs/hbb/ntuples/VHbbPostNano/UL/EFT/2016_preVFP/V1/DYJetsToLL_2J_TuneCP5_13TeV-amcatnloFXFX-pythia8/278872b21933b9c5a12927702726f0c0c46ef7c9d7c135d8be7377cb/000000_000000/0000/tree_117.root
/eos/cms/store/group/phys_higgs/hbb/ntuples/VHbbPostNano/UL/EFT/2016_preVFP/V1/DYJetsToLL_2J_TuneCP5_13TeV-amcatnloFXFX-pythia8/ed6d29f73599f46a15ff582a91edc632c22b3791370d0d8d9ba00164/000000_000000/0000/tree_118.root
/eos/cms/store/group/phys_higgs/hbb/ntuples/VHbbPostNano/UL/EFT/2016_preVFP/V1/DYJetsToLL_2J_TuneCP5_13TeV-amcatnloFXFX-pythia8/65c1fafe42cd9ce322f7fe4c9292618cec0aab326f2b76c00cb812a0/000000_000000/0000/tree_119.root
/eos/cms/store/group/phys_higgs/hbb/ntuples/VHbbPostNano/UL/EFT/2016_preVFP/V1/DYJetsToLL_2J_TuneCP5_13TeV-amcatnloFXFX-pythia8/976ba4b3706fd88e67314f53a539ebc123c952675706fc91034a4ceb/000000_000000/0000/tree_120.root
/eos/cms/store/group/phys_higgs/hbb/ntuples/VHbbPostNano/UL/EFT/2016_preVFP/V1/DYJetsToLL_2J_TuneCP5_13TeV-amcatnloFXFX-pythia8/78186daebca7e2fae6d79b0155bb06aa74b63f7b8df38a1daedb2293/000000_000000/0000/tree_121.root
/eos/cms/store/group/phys_higgs/hbb/ntuples/VHbbPostNano/UL/EFT/2016_preVFP/V1/DYJetsToLL_2J_TuneCP5_13TeV-amcatnloFXFX-pythia8/541837013063d77e21d53613317396bb7f8afc01ea3e7b0bbe45aa82/000000_000000/0000/tree_122.root
/eos/cms/store/group/phys_higgs/hbb/ntuples/VHbbPostNano/UL/EFT/2016_preVFP/V1/DYJetsToLL_2J_TuneCP5_13TeV-amcatnloFXFX-pythia8/6516bd84252feb83e5aabcf11abf5db9ecc62bb46fd450e56a070014/000000_000000/0000/tree_123.root
/eos/cms/store/group/phys_higgs/hbb/ntuples/VHbbPostNano/UL/EFT/2016_preVFP/V1/DYJetsToLL_2J_TuneCP5_13TeV-amcatnloFXFX-pythia8/d05276875604c2daeccd36cb3d924447ba24e3781884be5e997b60b1/000000_000000/0000/tree_124.root
/eos/cms/store/group/phys_higgs/hbb/ntuples/VHbbPostNano/UL/EFT/2016_preVFP/V1/DYJetsToLL_2J_TuneCP5_13TeV-amcatnloFXFX-pythia8/569a296e046d1bca39bbebf2e16ceeff5b482e37d20cd78427267fc9/000000_000000/0000/tree_125.root
/eos/cms/store/group/phys_higgs/hbb/ntuples/VHbbPostNano/UL/EFT/2016_preVFP/V1/DYJetsToLL_2J_TuneCP5_13TeV-amcatnloFXFX-pythia8/ddb96985170c5bef53f8487cf5a2c6d54cc13b102f56b779719ecd91/000000_000000/0000/tree_126.root
/eos/cms/store/group/phys_higgs/hbb/ntuples/VHbbPostNano/UL/EFT/2016_preVFP/V1/DYJetsToLL_2J_TuneCP5_13TeV-amcatnloFXFX-pythia8/ed522b5b0aa71f7515595470a8d81169b1908b2b3ffcaec7f13cb42e/000000_000000/0000/tree_127.root
/eos/cms/store/group/phys_higgs/hbb/ntuples/VHbbPostNano/UL/EFT/2016_preVFP/V1/DYJetsToLL_2J_TuneCP5_13TeV-amcatnloFXFX-pythia8/b7d9c8dcdbbc241eb1134edaaa00a954dc502f29798632e05545143f/000000_000000/0000/tree_128.root
/eos/cms/store/group/phys_higgs/hbb/ntuples/VHbbPostNano/UL/EFT/2016_preVFP/V1/DYJetsToLL_2J_TuneCP5_13TeV-amcatnloFXFX-pythia8/839b23e233b6e37ba59a79e16e38f833b8b7ada0388c2a89e37b47f6/000000_000000/0000/tree_129.root
/eos/cms/store/group/phys_higgs/hbb/ntuples/VHbbPostNano/UL/EFT/2016_preVFP/V1/DYJetsToLL_2J_TuneCP5_13TeV-amcatnloFXFX-pythia8/b3c75c6d60e84926503a54bd9e1b6cef83eb4615022a162b21c41dff/000000_000000/0000/tree_130.root
/eos/cms/store/group/phys_higgs/hbb/ntuples/VHbbPostNano/UL/EFT/2016_preVFP/V1/DYJetsToLL_2J_TuneCP5_13TeV-amcatnloFXFX-pythia8/c65b156879eee17f045773273e51be29432ccc0226642a930f781159/000000_000000/0000/tree_131.root
/eos/cms/store/group/phys_higgs/hbb/ntuples/VHbbPostNano/UL/EFT/2016_preVFP/V1/DYJetsToLL_2J_TuneCP5_13TeV-amcatnloFXFX-pythia8/f7dfa4b19b5953e7a1207328f5693ca9ca1394d775a987d6acb33c1f/000000_000000/0000/tree_132.root