/store/group/phys_higgs/hbb/ntuples/VHbbPostNano/2018/V12/TTToSemiLeptonic_TuneCP5_13TeV-powheg-pythia8/203b7a4ef97130fbd83d0a6c89187c4df31602f4bac3a3814ab90a97/000000_000000/0000/tree_0.root
/store/group/phys_higgs/hbb/ntuples/VHbbPostNano/2018/V12/TTToSemiLeptonic_TuneCP5_13TeV-powheg-pythia8/082c889c3db9aff0a8cd8193dfe5a8125f0e001333e3c5a334a148ea/000000_000000/0000/tree_1.root
/store/group/phys_higgs/hbb/ntuples/VHbbPostNano/2018/V12/TTToSemiLeptonic_TuneCP5_13TeV-powheg-pythia8/d486538efe95ad9524942708f4b10a3426d6f4c13b8626983a6e2dd7/000000_000000/0000/tree_2.root
/store/group/phys_higgs/hbb/ntuples/VHbbPostNano/2018/V12/TTToSemiLeptonic_TuneCP5_13TeV-powheg-pythia8/103e9c59e8a902a25b5709d6d4fe0e15c1a476b0e0cb530b68ec5be1/000000_000000/0000/tree_3.root
/store/group/phys_higgs/hbb/ntuples/VHbbPostNano/2018/V12/TTToSemiLeptonic_TuneCP5_13TeV-powheg-pythia8/c12e6aac9a42d0c7909537fae802b3b4fee942fd268baeff5924c631/000000_000000/0000/tree_4.root
/store/group/phys_higgs/hbb/ntuples/VHbbPostNano/2018/V12/TTToSemiLeptonic_TuneCP5_13TeV-powheg-pythia8/07b7c376e3cde529ba906b300e58ebac7ee80540f17564e4c158a34e/000000_000000/0000/tree_5.root
/store/group/phys_higgs/hbb/ntuples/VHbbPostNano/2018/V12/TTToSemiLeptonic_TuneCP5_13TeV-powheg-pythia8/422deaec08d85be3bd0f79ce4e58e85d1a8c7350c0a2f5ba661568e1/000000_000000/0000/tree_6.root
/store/group/phys_higgs/hbb/ntuples/VHbbPostNano/2018/V12/TTToSemiLeptonic_TuneCP5_13TeV-powheg-pythia8/a6975590a967373590a3d1f857137307ebc729bdb1e6ebb517cc1e69/000000_000000/0000/tree_7.root
/store/group/phys_higgs/hbb/ntuples/VHbbPostNano/2018/V12/TTToSemiLeptonic_TuneCP5_13TeV-powheg-pythia8/c19554918e2d9dd3ef50797ad1587053a33b730e9db111a9534ecf64/000000_000000/0000/tree_8.root
/store/group/phys_higgs/hbb/ntuples/VHbbPostNano/2018/V12/TTToSemiLeptonic_TuneCP5_13TeV-powheg-pythia8/e75d1d7be7b7ffe91f9b04c735ef335c13bccd86bd0f99a79a3c9974/000000_000000/0000/tree_9.root
/store/group/phys_higgs/hbb/ntuples/VHbbPostNano/2018/V12/TTToSemiLeptonic_TuneCP5_13TeV-powheg-pythia8/4073868d4a8eefbf4e10689383ff1c29906f4650ebbc4d5a8e2d00a8/000000_000000/0000/tree_10.root
/store/group/phys_higgs/hbb/ntuples/VHbbPostNano/2018/V12/TTToSemiLeptonic_TuneCP5_13TeV-powheg-pythia8/988ad8560c86a4429a1d91bce77b07eda9a81cec7df1fcdb3c4e91e8/000000_000000/0000/tree_11.root
/store/group/phys_higgs/hbb/ntuples/VHbbPostNano/2018/V12/TTToSemiLeptonic_TuneCP5_13TeV-powheg-pythia8/60fbeebb1d8422138e1a6e094492c76560bd215d49cc0829f1415169/000000_000000/0000/tree_12.root
/store/group/phys_higgs/hbb/ntuples/VHbbPostNano/2018/V12/TTToSemiLeptonic_TuneCP5_13TeV-powheg-pythia8/19a082deb49f3e8ed3c6c67718152b8179ddecedb87b1855ea74e618/000000_000000/0000/tree_13.root
/store/group/phys_higgs/hbb/ntuples/VHbbPostNano/2018/V12/TTToSemiLeptonic_TuneCP5_13TeV-powheg-pythia8/71edf7b028d51b4778099d428071c9fbecd0804c30e3340806f8c93c/000000_000000/0000/tree_14.root
/store/group/phys_higgs/hbb/ntuples/VHbbPostNano/2018/V12/TTToSemiLeptonic_TuneCP5_13TeV-powheg-pythia8/44e2a7b8f9b89f2e92a0631cbf40cb9b10cfdd1a0739ca2441f8d100/000000_000000/0000/tree_15.root
/store/group/phys_higgs/hbb/ntuples/VHbbPostNano/2018/V12/TTToSemiLeptonic_TuneCP5_13TeV-powheg-pythia8/735ea4d18e781f43577132f890edecf46024f8686d937b89f68aa66b/000000_000000/0000/tree_16.root
/store/group/phys_higgs/hbb/ntuples/VHbbPostNano/2018/V12/TTToSemiLeptonic_TuneCP5_13TeV-powheg-pythia8/f161666daf21dfc1180823afa70a0bf7da64cfda5f66233fb71fcdc0/000000_000000/0000/tree_17.root
/store/group/phys_higgs/hbb/ntuples/VHbbPostNano/2018/V12/TTToSemiLeptonic_TuneCP5_13TeV-powheg-pythia8/fa9459dc9b1d72241bdbf3663b55fd85d847c28cf801d3c4ccbee2d6/000000_000000/0000/tree_18.root
/store/group/phys_higgs/hbb/ntuples/VHbbPostNano/2018/V12/TTToSemiLeptonic_TuneCP5_13TeV-powheg-pythia8/572717064583a171f7d077074fb460512a4964a95eeafbb52e4b17c9/000000_000000/0000/tree_19.root
/store/group/phys_higgs/hbb/ntuples/VHbbPostNano/2018/V12/TTToSemiLeptonic_TuneCP5_13TeV-powheg-pythia8/7eb0fab8fe79df414840d2d875bca21fa04fb62c5423d8c98b8e99de/000000_000000/0000/tree_20.root
/store/group/phys_higgs/hbb/ntuples/VHbbPostNano/2018/V12/TTToSemiLeptonic_TuneCP5_13TeV-powheg-pythia8/a6915cbfb1dd44bb3f4bfd0ff515c83b830bbc9a80a238c46c068a6a/000000_000000/0000/tree_21.root
/store/group/phys_higgs/hbb/ntuples/VHbbPostNano/2018/V12/TTToSemiLeptonic_TuneCP5_13TeV-powheg-pythia8/a3957538df0c66e7706031df6cf4a7332ec632a1d508649aaca70eb8/000000_000000/0000/tree_22.root
/store/group/phys_higgs/hbb/ntuples/VHbbPostNano/2018/V12/TTToSemiLeptonic_TuneCP5_13TeV-powheg-pythia8/8d5a36eec34394ae66a38b0d6edaa63d4188a928561c4107e18ba071/000000_000000/0000/tree_23.root
/store/group/phys_higgs/hbb/ntuples/VHbbPostNano/2018/V12/TTToSemiLeptonic_TuneCP5_13TeV-powheg-pythia8/6ffbc760d11549fe7d8da9aa56eb09780f271820796c4ace33e85f8e/000000_000000/0000/tree_24.root
/store/group/phys_higgs/hbb/ntuples/VHbbPostNano/2018/V12/TTToSemiLeptonic_TuneCP5_13TeV-powheg-pythia8/b2028003e780b8965352b197a335748186c25823339b2a63e6e000e6/000000_000000/0000/tree_25.root
/store/group/phys_higgs/hbb/ntuples/VHbbPostNano/2018/V12/TTToSemiLeptonic_TuneCP5_13TeV-powheg-pythia8/7482b38c7c4401bf5685b26edf1dee537901296c945958125128ef3e/000000_000000/0000/tree_26.root
/store/group/phys_higgs/hbb/ntuples/VHbbPostNano/2018/V12/TTToSemiLeptonic_TuneCP5_13TeV-powheg-pythia8/c86a40fa9f0cf3caa3f9b417ee31740b653b5c25c945d629e00e71c4/000000_000000/0000/tree_27.root
/store/group/phys_higgs/hbb/ntuples/VHbbPostNano/2018/V12/TTToSemiLeptonic_TuneCP5_13TeV-powheg-pythia8/f7d8375dc98e829c5747c1ab337015352d4f12f926036074aebffca6/000000_000000/0000/tree_28.root
/store/group/phys_higgs/hbb/ntuples/VHbbPostNano/2018/V12/TTToSemiLeptonic_TuneCP5_13TeV-powheg-pythia8/9a6a80236857eff206199301fabf0323202e5ed024303ba3e1dcc8b6/000000_000000/0000/tree_29.root
/store/group/phys_higgs/hbb/ntuples/VHbbPostNano/2018/V12/TTToSemiLeptonic_TuneCP5_13TeV-powheg-pythia8/345bb557b016706640a64c5f47ae46e53db351bff59ed45fb4e273e2/000000_000000/0000/tree_30.root
/store/group/phys_higgs/hbb/ntuples/VHbbPostNano/2018/V12/TTToSemiLeptonic_TuneCP5_13TeV-powheg-pythia8/6b8344d080507a7651b466d2f1699731260ce53cfb46d0bef07d2b0c/000000_000000/0000/tree_31.root
/store/group/phys_higgs/hbb/ntuples/VHbbPostNano/2018/V12/TTToSemiLeptonic_TuneCP5_13TeV-powheg-pythia8/07bf3a5de04854e9c4b277ef7714766b0d381b52da178576d2a6ab78/000000_000000/0000/tree_32.root
/store/group/phys_higgs/hbb/ntuples/VHbbPostNano/2018/V12/TTToSemiLeptonic_TuneCP5_13TeV-powheg-pythia8/4f088daa832127ee979097a75d153b9caaa4f1e1459e8790b7e3ab93/000000_000000/0000/tree_33.root
/store/group/phys_higgs/hbb/ntuples/VHbbPostNano/2018/V12/TTToSemiLeptonic_TuneCP5_13TeV-powheg-pythia8/cab67432799288066a6467513eb25a9e36e036e997a34d29caa9cc9d/000000_000000/0000/tree_34.root
/store/group/phys_higgs/hbb/ntuples/VHbbPostNano/2018/V12/TTToSemiLeptonic_TuneCP5_13TeV-powheg-pythia8/592399093bc84f0169370d8c0641b90bbd18fbaf4d96c645e83bbdd8/000000_000000/0000/tree_35.root
/store/group/phys_higgs/hbb/ntuples/VHbbPostNano/2018/V12/TTToSemiLeptonic_TuneCP5_13TeV-powheg-pythia8/df4465622636b980eb19ddad4a2eb4e2aff96d1d1e90429207da91de/000000_000000/0000/tree_36.root
/store/group/phys_higgs/hbb/ntuples/VHbbPostNano/2018/V12/TTToSemiLeptonic_TuneCP5_13TeV-powheg-pythia8/76e425a7a10b8a68746c34e2a3d4eb263bda6f60ebc9d47fa797ae9a/000000_000000/0000/tree_37.root
/store/group/phys_higgs/hbb/ntuples/VHbbPostNano/2018/V12/TTToSemiLeptonic_TuneCP5_13TeV-powheg-pythia8/73fd90de793c5caaccb13fe58c82bfdcf42554981b6489a86150add7/000000_000000/0000/tree_38.root
/store/group/phys_higgs/hbb/ntuples/VHbbPostNano/2018/V12/TTToSemiLeptonic_TuneCP5_13TeV-powheg-pythia8/504523128ea16f0e49bf86a9c7c71e82c7f453fe62e6a8cc0b0cebd2/000000_000000/0000/tree_39.root
/store/group/phys_higgs/hbb/ntuples/VHbbPostNano/2018/V12/TTToSemiLeptonic_TuneCP5_13TeV-powheg-pythia8/26cf9169c07ed31960e64b557d019b373c735c4e9333af26aeb111ad/000000_000000/0000/tree_40.root
/store/group/phys_higgs/hbb/ntuples/VHbbPostNano/2018/V12/TTToSemiLeptonic_TuneCP5_13TeV-powheg-pythia8/ece077de1f4254347ace8cb12346e5603747024ad8d79e4a174203d1/000000_000000/0000/tree_41.root
/store/group/phys_higgs/hbb/ntuples/VHbbPostNano/2018/V12/TTToSemiLeptonic_TuneCP5_13TeV-powheg-pythia8/9f44edfb392cc79ee308a2d32c40bed0b174a2c7849353a78df5a101/000000_000000/0000/tree_42.root
/store/group/phys_higgs/hbb/ntuples/VHbbPostNano/2018/V12/TTToSemiLeptonic_TuneCP5_13TeV-powheg-pythia8/4ad242a8368d973a563720b4d8f824bf4b12fae66c79f1b179ff59dd/000000_000000/0000/tree_43.root
/store/group/phys_higgs/hbb/ntuples/VHbbPostNano/2018/V12/TTToSemiLeptonic_TuneCP5_13TeV-powheg-pythia8/defc114404a7e36b59449c46519f176000139041c6267914d0f68427/000000_000000/0000/tree_44.root
/store/group/phys_higgs/hbb/ntuples/VHbbPostNano/2018/V12/TTToSemiLeptonic_TuneCP5_13TeV-powheg-pythia8/a63c12f9801443d6243c9ec133f9b15d728d3041bb75134c2b9a9ec5/000000_000000/0000/tree_45.root
/store/group/phys_higgs/hbb/ntuples/VHbbPostNano/2018/V12/TTToSemiLeptonic_TuneCP5_13TeV-powheg-pythia8/aa3d01becc8a3d6fcb291bb064f38e361d580b475b740bf2f64739f0/000000_000000/0000/tree_46.root
/store/group/phys_higgs/hbb/ntuples/VHbbPostNano/2018/V12/TTToSemiLeptonic_TuneCP5_13TeV-powheg-pythia8/5488b249cf5ea4a79f521317bc8c2b2d9914c114b4cfd7a953e9074a/000000_000000/0000/tree_47.root
/store/group/phys_higgs/hbb/ntuples/VHbbPostNano/2018/V12/TTToSemiLeptonic_TuneCP5_13TeV-powheg-pythia8/fbf95b2ad2d39e7cdc5614490d7ce335ff11a304dc54e2bce10402b0/000000_000000/0000/tree_48.root
/store/group/phys_higgs/hbb/ntuples/VHbbPostNano/2018/V12/TTToSemiLeptonic_TuneCP5_13TeV-powheg-pythia8/61f5731c54f18d82762cbc1d5b8e1a79f40fe46fab745cbb7e2e78d0/000000_000000/0000/tree_49.root
/store/group/phys_higgs/hbb/ntuples/VHbbPostNano/2018/V12/TTToSemiLeptonic_TuneCP5_13TeV-powheg-pythia8/f1b586f3ec2973ffd8430b40d2d4ed68897b38a8d97808e63286bc71/000000_000000/0000/tree_50.root
/store/group/phys_higgs/hbb/ntuples/VHbbPostNano/2018/V12/TTToSemiLeptonic_TuneCP5_13TeV-powheg-pythia8/5e549eedd28a197b96b40a770b08a96f48e3c0ad5c7bb75dd0d48357/000000_000000/0000/tree_51.root
/store/group/phys_higgs/hbb/ntuples/VHbbPostNano/2018/V12/TTToSemiLeptonic_TuneCP5_13TeV-powheg-pythia8/f804d03edfdcfc55e6313ccc15a37445717f48c1312b0fa5c3940d7e/000000_000000/0000/tree_52.root
/store/group/phys_higgs/hbb/ntuples/VHbbPostNano/2018/V12/TTToSemiLeptonic_TuneCP5_13TeV-powheg-pythia8/28b4d54c9cf31faf3d01d7714361e605ff6a41ac5ad18376ae8b695c/000000_000000/0000/tree_53.root
/store/group/phys_higgs/hbb/ntuples/VHbbPostNano/2018/V12/TTToSemiLeptonic_TuneCP5_13TeV-powheg-pythia8/1cf292ad9abf30f6f0ecd0c0b713659d99d3a48a4179686ecf42afdf/000000_000000/0000/tree_54.root
/store/group/phys_higgs/hbb/ntuples/VHbbPostNano/2018/V12/TTToSemiLeptonic_TuneCP5_13TeV-powheg-pythia8/65d415e75b7e3f0beea1722e739e7c1d567782ddcbe780d4510c207f/000000_000000/0000/tree_55.root
/store/group/phys_higgs/hbb/ntuples/VHbbPostNano/2018/V12/TTToSemiLeptonic_TuneCP5_13TeV-powheg-pythia8/3577fca0732d96a207bd958bde1f023749d5f2545d8c79e607ab1fb4/000000_000000/0000/tree_56.root
/store/group/phys_higgs/hbb/ntuples/VHbbPostNano/2018/V12/TTToSemiLeptonic_TuneCP5_13TeV-powheg-pythia8/34fb03407aabaa08d0fff829fd1429ddca6a05aa22d8a894ccf5a384/000000_000000/0000/tree_57.root
/store/group/phys_higgs/hbb/ntuples/VHbbPostNano/2018/V12/TTToSemiLeptonic_TuneCP5_13TeV-powheg-pythia8/6cd7a0059e701bb5b4057c41206700ed2fe5bc51e7f392cb9f451fc7/000000_000000/0000/tree_58.root
/store/group/phys_higgs/hbb/ntuples/VHbbPostNano/2018/V12/TTToSemiLeptonic_TuneCP5_13TeV-powheg-pythia8/2c3d3c9bdef9cfa6ccb8cf3e642032ba7ce946b00d9fc97722650ffe/000000_000000/0000/tree_59.root
/store/group/phys_higgs/hbb/ntuples/VHbbPostNano/2018/V12/TTToSemiLeptonic_TuneCP5_13TeV-powheg-pythia8/121b38a031d6c5a37e0e5f143cf41a314abdab0923f9fe4e8ca6e9bf/000000_000000/0000/tree_60.root
/store/group/phys_higgs/hbb/ntuples/VHbbPostNano/2018/V12/TTToSemiLeptonic_TuneCP5_13TeV-powheg-pythia8/23bf901266ed8a8299f91f9940ca2758ff50d9143b53e18e6cfb8f40/000000_000000/0000/tree_61.root
/store/group/phys_higgs/hbb/ntuples/VHbbPostNano/2018/V12/TTToSemiLeptonic_TuneCP5_13TeV-powheg-pythia8/3287b6641f81a0619f9da4562dded3406e4db5e34c03e2fadaf7b6fd/000000_000000/0000/tree_62.root
/store/group/phys_higgs/hbb/ntuples/VHbbPostNano/2018/V12/TTToSemiLeptonic_TuneCP5_13TeV-powheg-pythia8/d494f7231db2e1241f2c4cf68006a49b59f9addb79aa84bc9debc2cb/000000_000000/0000/tree_63.root
/store/group/phys_higgs/hbb/ntuples/VHbbPostNano/2018/V12/TTToSemiLeptonic_TuneCP5_13TeV-powheg-pythia8/374fdcebeec150656d12c3dc6f2e0c1f970de49a04ede2cc8a13b5ab/000000_000000/0000/tree_64.root
/store/group/phys_higgs/hbb/ntuples/VHbbPostNano/2018/V12/TTToSemiLeptonic_TuneCP5_13TeV-powheg-pythia8/2356035d5e76bdf3feeb2a1711af14cafd15267928fb5a9b196cab0e/000000_000000/0000/tree_65.root
/store/group/phys_higgs/hbb/ntuples/VHbbPostNano/2018/V12/TTToSemiLeptonic_TuneCP5_13TeV-powheg-pythia8/6ce03f700d375ae9500ab7f764bc420ba1a68be2e11eddccc654f4e0/000000_000000/0000/tree_66.root
/store/group/phys_higgs/hbb/ntuples/VHbbPostNano/2018/V12/TTToSemiLeptonic_TuneCP5_13TeV-powheg-pythia8/91111ed1b41e66879f6b28a0ff1441feb613792cf710dbcf7028fa5a/000000_000000/0000/tree_67.root
/store/group/phys_higgs/hbb/ntuples/VHbbPostNano/2018/V12/TTToSemiLeptonic_TuneCP5_13TeV-powheg-pythia8/9125ca82ec64630c561d8e8d045c49111d73f27e3b4ee5e9f418d9f1/000000_000000/0000/tree_68.root
/store/group/phys_higgs/hbb/ntuples/VHbbPostNano/2018/V12/TTToSemiLeptonic_TuneCP5_13TeV-powheg-pythia8/cb6327a185eca71400b84df4c2960aa343f1e1b0d10252cd824d3d82/000000_000000/0000/tree_69.root
/store/group/phys_higgs/hbb/ntuples/VHbbPostNano/2018/V12/TTToSemiLeptonic_TuneCP5_13TeV-powheg-pythia8/5958ded8489edc6552ed9e0db0ff6da1bcf25baf5f29076ac5cee012/000000_000000/0000/tree_70.root
/store/group/phys_higgs/hbb/ntuples/VHbbPostNano/2018/V12/TTToSemiLeptonic_TuneCP5_13TeV-powheg-pythia8/d5dbc86608cac78e3bfe13f7d8f884e00e16789ae4f2c26851a804e2/000000_000000/0000/tree_71.root
/store/group/phys_higgs/hbb/ntuples/VHbbPostNano/2018/V12/TTToSemiLeptonic_TuneCP5_13TeV-powheg-pythia8/74f713efa43c34436595317e4f284e5d4ae36f4ab9031314dcac5b66/000000_000000/0000/tree_72.root
/store/group/phys_higgs/hbb/ntuples/VHbbPostNano/2018/V12/TTToSemiLeptonic_TuneCP5_13TeV-powheg-pythia8/de64d5be03e0d11a5a680da4ccd331d53cc9bcaff9affa8988986c15/000000_000000/0000/tree_73.root
/store/group/phys_higgs/hbb/ntuples/VHbbPostNano/2018/V12/TTToSemiLeptonic_TuneCP5_13TeV-powheg-pythia8/e833662c019c4c6373c7b4c36a5023f9738712928e9b4b97243a396f/000000_000000/0000/tree_74.root
/store/group/phys_higgs/hbb/ntuples/VHbbPostNano/2018/V12/TTToSemiLeptonic_TuneCP5_13TeV-powheg-pythia8/bbdd9e16c18b737ce863029a3d1213cb0a9c180e7de9a08164f1060a/000000_000000/0000/tree_75.root
/store/group/phys_higgs/hbb/ntuples/VHbbPostNano/2018/V12/TTToSemiLeptonic_TuneCP5_13TeV-powheg-pythia8/fb4f5f2b1d5b89bab5a3d941e76b030ad67e4df54acf0a6ca51830d4/000000_000000/0000/tree_76.root
/store/group/phys_higgs/hbb/ntuples/VHbbPostNano/2018/V12/TTToSemiLeptonic_TuneCP5_13TeV-powheg-pythia8/a59a1050d019d8c66aa94a215eb39c5de8dbbf5de95bfa5232e84ae8/000000_000000/0000/tree_77.root
/store/group/phys_higgs/hbb/ntuples/VHbbPostNano/2018/V12/TTToSemiLeptonic_TuneCP5_13TeV-powheg-pythia8/3ca715b83b66fe194c04c6a25c496aaea96f30d5a052f00d72cc5218/000000_000000/0000/tree_78.root
/store/group/phys_higgs/hbb/ntuples/VHbbPostNano/2018/V12/TTToSemiLeptonic_TuneCP5_13TeV-powheg-pythia8/79da0f8f9f61d89e59e8b8bfb9cfe47873dcec9840e4c60d7eb7eef6/000000_000000/0000/tree_79.root
/store/group/phys_higgs/hbb/ntuples/VHbbPostNano/2018/V12/TTToSemiLeptonic_TuneCP5_13TeV-powheg-pythia8/6981102dc37986ca75312d341c584e89c2e5354093e1dc6bfd83f801/000000_000000/0000/tree_80.root
/store/group/phys_higgs/hbb/ntuples/VHbbPostNano/2018/V12/TTToSemiLeptonic_TuneCP5_13TeV-powheg-pythia8/7e30b28d1a0276c1a79cc898caad188f96312b4b7d0b2f456296d320/000000_000000/0000/tree_81.root
/store/group/phys_higgs/hbb/ntuples/VHbbPostNano/2018/V12/TTToSemiLeptonic_TuneCP5_13TeV-powheg-pythia8/882c30e46c738ed93097b8d4796e9ef06b3d9ce6bc248d49d64aadea/000000_000000/0000/tree_82.root
/store/group/phys_higgs/hbb/ntuples/VHbbPostNano/2018/V12/TTToSemiLeptonic_TuneCP5_13TeV-powheg-pythia8/57dfdc7c6f7e8c0a30a7186f31cbfd2eccc4b118643fb4d481a7608c/000000_000000/0000/tree_83.root
/store/group/phys_higgs/hbb/ntuples/VHbbPostNano/2018/V12/TTToSemiLeptonic_TuneCP5_13TeV-powheg-pythia8/e3135c0f0ddd2d4f4b3313019203b9720748b9c50667105d3b0b58e3/000000_000000/0000/tree_84.root
/store/group/phys_higgs/hbb/ntuples/VHbbPostNano/2018/V12/TTToSemiLeptonic_TuneCP5_13TeV-powheg-pythia8/4f4a956fcbd43c759140df4b85c03dfcf85d660c50f6f9745118f621/000000_000000/0000/tree_85.root
/store/group/phys_higgs/hbb/ntuples/VHbbPostNano/2018/V12/TTToSemiLeptonic_TuneCP5_13TeV-powheg-pythia8/5ef319a157773e69f6ead8991af6250e76a55d8e461abac3117bb659/000000_000000/0000/tree_86.root
/store/group/phys_higgs/hbb/ntuples/VHbbPostNano/2018/V12/TTToSemiLeptonic_TuneCP5_13TeV-powheg-pythia8/fe4e16d32613a17cdaea88e3314f97a9f3d1b9ad62c9d4b233376ff6/000000_000000/0000/tree_87.root
/store/group/phys_higgs/hbb/ntuples/VHbbPostNano/2018/V12/TTToSemiLeptonic_TuneCP5_13TeV-powheg-pythia8/ec71448e87ca4fb062f3dd808d9fcc03284beb9c8899baa4cfa747c7/000000_000000/0000/tree_88.root
/store/group/phys_higgs/hbb/ntuples/VHbbPostNano/2018/V12/TTToSemiLeptonic_TuneCP5_13TeV-powheg-pythia8/ab857c39465689b32ab97ed53dd38015724692664693b81118392f80/000000_000000/0000/tree_89.root
/store/group/phys_higgs/hbb/ntuples/VHbbPostNano/2018/V12/TTToSemiLeptonic_TuneCP5_13TeV-powheg-pythia8/d7df78088c1db1480aea99a7c7e27ef9375d8ba58fd37f2a398ba8c7/000000_000000/0000/tree_90.root
/store/group/phys_higgs/hbb/ntuples/VHbbPostNano/2018/V12/TTToSemiLeptonic_TuneCP5_13TeV-powheg-pythia8/550a77a639b137ba26f1c3b3fa706848e69ad380536dccd3886528d1/000000_000000/0000/tree_91.root
/store/group/phys_higgs/hbb/ntuples/VHbbPostNano/2018/V12/TTToSemiLeptonic_TuneCP5_13TeV-powheg-pythia8/253d52a35112fde0e9b5308cdf579d805b8539c235d27c1cb3086530/000000_000000/0000/tree_92.root
/store/group/phys_higgs/hbb/ntuples/VHbbPostNano/2018/V12/TTToSemiLeptonic_TuneCP5_13TeV-powheg-pythia8/2791451bc39ab5413f25489737ac6e4d98ef011d0b4777ecc17bb668/000000_000000/0000/tree_93.root
/store/group/phys_higgs/hbb/ntuples/VHbbPostNano/2018/V12/TTToSemiLeptonic_TuneCP5_13TeV-powheg-pythia8/d90dd394de3fa3f8c9a3f3b8dee61036c8cf6b02a84532b24c0b563a/000000_000000/0000/tree_94.root
/store/group/phys_higgs/hbb/ntuples/VHbbPostNano/2018/V12/TTToSemiLeptonic_TuneCP5_13TeV-powheg-pythia8/c2ce499e5751f74d4a88c7312307acc9c6b5d41f5c6d455c9b5d3c0b/000000_000000/0000/tree_95.root
/store/group/phys_higgs/hbb/ntuples/VHbbPostNano/2018/V12/TTToSemiLeptonic_TuneCP5_13TeV-powheg-pythia8/a3e44f5dc6a5da84eb46b2ff5749866bed851495b8f038ca291d4835/000000_000000/0000/tree_96.root
/store/group/phys_higgs/hbb/ntuples/VHbbPostNano/2018/V12/TTToSemiLeptonic_TuneCP5_13TeV-powheg-pythia8/7423813bd882873348549a018f02bc4b425dfe6ec50ec32b85996460/000000_000000/0000/tree_97.root
/store/group/phys_higgs/hbb/ntuples/VHbbPostNano/2018/V12/TTToSemiLeptonic_TuneCP5_13TeV-powheg-pythia8/5548f9e5c7d4348674b1ef3bca917ec8ac05e67efbbb301496bc7d19/000000_000000/0000/tree_98.root
/store/group/phys_higgs/hbb/ntuples/VHbbPostNano/2018/V12/TTToSemiLeptonic_TuneCP5_13TeV-powheg-pythia8/f53aa74928814fb0cb5ef67ac7abaaf9c5f23d0776949f3522d94db4/000000_000000/0000/tree_99.root
/store/group/phys_higgs/hbb/ntuples/VHbbPostNano/2018/V12/TTToSemiLeptonic_TuneCP5_13TeV-powheg-pythia8/4ae991a80945a98bea564ca0cd8ad81619092b2eb4fcf17039386d92/000000_000000/0000/tree_100.root
/store/group/phys_higgs/hbb/ntuples/VHbbPostNano/2018/V12/TTToSemiLeptonic_TuneCP5_13TeV-powheg-pythia8/331a36b6573a90929e1af0193625b7b332a9c8062e44c3c6d4a4e5bd/000000_000000/0000/tree_101.root
/store/group/phys_higgs/hbb/ntuples/VHbbPostNano/2018/V12/TTToSemiLeptonic_TuneCP5_13TeV-powheg-pythia8/5bece3baec47570a645c94f917ee852449572db5913c5f1d1054abea/000000_000000/0000/tree_102.root
/store/group/phys_higgs/hbb/ntuples/VHbbPostNano/2018/V12/TTToSemiLeptonic_TuneCP5_13TeV-powheg-pythia8/3888745565615a6d1944523d8ba5a6b76af4c46dd78edfddb410140c/000000_000000/0000/tree_103.root
/store/group/phys_higgs/hbb/ntuples/VHbbPostNano/2018/V12/TTToSemiLeptonic_TuneCP5_13TeV-powheg-pythia8/59db85a6fb9aa829fe81b4cddf76b2bddab7690f4c051f9d72fb593e/000000_000000/0000/tree_104.root
/store/group/phys_higgs/hbb/ntuples/VHbbPostNano/2018/V12/TTToSemiLeptonic_TuneCP5_13TeV-powheg-pythia8/4f112e5c89ce839040556d897a6d18c81fc36739b096fbf1b11b792a/000000_000000/0000/tree_105.root
/store/group/phys_higgs/hbb/ntuples/VHbbPostNano/2018/V12/TTToSemiLeptonic_TuneCP5_13TeV-powheg-pythia8/f2c04eece97447a3991dcfd60f32cbb73b3a70752b210edc25204809/000000_000000/0000/tree_106.root
/store/group/phys_higgs/hbb/ntuples/VHbbPostNano/2018/V12/TTToSemiLeptonic_TuneCP5_13TeV-powheg-pythia8/0c0a2f9e57ebdb6b8ac92902b51fc7f38229bfa08177b977987c7805/000000_000000/0000/tree_107.root
/store/group/phys_higgs/hbb/ntuples/VHbbPostNano/2018/V12/TTToSemiLeptonic_TuneCP5_13TeV-powheg-pythia8/0fdf5ae27b8d9a8d620b60820c3dd1e18929cee76fb0ff7d77d508dc/000000_000000/0000/tree_108.root
/store/group/phys_higgs/hbb/ntuples/VHbbPostNano/2018/V12/TTToSemiLeptonic_TuneCP5_13TeV-powheg-pythia8/7015b63fb0e7316ca24fbb07d54292c1eaa9945b25aa461126ac1798/000000_000000/0000/tree_109.root
/store/group/phys_higgs/hbb/ntuples/VHbbPostNano/2018/V12/TTToSemiLeptonic_TuneCP5_13TeV-powheg-pythia8/4c9fdcd9543159ccd324811118e306c14641d751087e6be35cbd51f7/000000_000000/0000/tree_110.root
/store/group/phys_higgs/hbb/ntuples/VHbbPostNano/2018/V12/TTToSemiLeptonic_TuneCP5_13TeV-powheg-pythia8/fd61efe7fc8714cfe11f52867b980a5f400f2118d75c7ea255535b83/000000_000000/0000/tree_111.root
/store/group/phys_higgs/hbb/ntuples/VHbbPostNano/2018/V12/TTToSemiLeptonic_TuneCP5_13TeV-powheg-pythia8/47ad3b5f4554997a15c7352fd8bedfd39122f280df62df8929b22823/000000_000000/0000/tree_112.root
/store/group/phys_higgs/hbb/ntuples/VHbbPostNano/2018/V12/TTToSemiLeptonic_TuneCP5_13TeV-powheg-pythia8/942280a2ef262c0b962e5817180d876b5e3c94a43a7636cf67e6752b/000000_000000/0000/tree_113.root
/store/group/phys_higgs/hbb/ntuples/VHbbPostNano/2018/V12/TTToSemiLeptonic_TuneCP5_13TeV-powheg-pythia8/6440a0841f023700609fbc0660dbf1bdda5346e0c016924dfc593184/000000_000000/0000/tree_114.root
/store/group/phys_higgs/hbb/ntuples/VHbbPostNano/2018/V12/TTToSemiLeptonic_TuneCP5_13TeV-powheg-pythia8/46146d39060810d8ec24f1dd9d14a264f1b2b7e0874581ffbea86cc0/000000_000000/0000/tree_115.root
/store/group/phys_higgs/hbb/ntuples/VHbbPostNano/2018/V12/TTToSemiLeptonic_TuneCP5_13TeV-powheg-pythia8/e64ff149dcc10524ec9b4a306937582bdf5dfff52938fa13efb830da/000000_000000/0000/tree_116.root
/store/group/phys_higgs/hbb/ntuples/VHbbPostNano/2018/V12/TTToSemiLeptonic_TuneCP5_13TeV-powheg-pythia8/254efd4eaf9ed6b9034c6d1242ba175392e358d3198f9f88d49821e2/000000_000000/0000/tree_117.root
/store/group/phys_higgs/hbb/ntuples/VHbbPostNano/2018/V12/TTToSemiLeptonic_TuneCP5_13TeV-powheg-pythia8/be6f31fb136f0c1a5ce6043a80c135b786899c3233ae1a47d3a3f45d/000000_000000/0000/tree_118.root
/store/group/phys_higgs/hbb/ntuples/VHbbPostNano/2018/V12/TTToSemiLeptonic_TuneCP5_13TeV-powheg-pythia8/402ad10997c60daba5b4c01efa5400a32a7150d0757b6788c2f0e30f/000000_000000/0000/tree_119.root
/store/group/phys_higgs/hbb/ntuples/VHbbPostNano/2018/V12/TTToSemiLeptonic_TuneCP5_13TeV-powheg-pythia8/bc315dcde15a2932c2f0ad10ff5f19b020eee7548686abd1ee622cf8/000000_000000/0000/tree_120.root
/store/group/phys_higgs/hbb/ntuples/VHbbPostNano/2018/V12/TTToSemiLeptonic_TuneCP5_13TeV-powheg-pythia8/0c8a7ad010893f3156ea707b9f5cb73ac9fffd216ccbb4ed55599162/000000_000000/0000/tree_121.root
/store/group/phys_higgs/hbb/ntuples/VHbbPostNano/2018/V12/TTToSemiLeptonic_TuneCP5_13TeV-powheg-pythia8/ea81b04b840c2e9a24da93e3a26fca78c85a2b8c0aa67f433f993413/000000_000000/0000/tree_122.root
/store/group/phys_higgs/hbb/ntuples/VHbbPostNano/2018/V12/TTToSemiLeptonic_TuneCP5_13TeV-powheg-pythia8/c7f2b82979feb291a7700886ee9b542136ff45ccefac079f208dada8/000000_000000/0000/tree_123.root
/store/group/phys_higgs/hbb/ntuples/VHbbPostNano/2018/V12/TTToSemiLeptonic_TuneCP5_13TeV-powheg-pythia8/f307ed60b0dc9155d9106a12e0a6efa1db9fc897e2aca1d84e199ddb/000000_000000/0000/tree_124.root
/store/group/phys_higgs/hbb/ntuples/VHbbPostNano/2018/V12/TTToSemiLeptonic_TuneCP5_13TeV-powheg-pythia8/f714aa693cf29746f9caa9c4cfe952e463b501f625445f83b2287304/000000_000000/0000/tree_125.root
/store/group/phys_higgs/hbb/ntuples/VHbbPostNano/2018/V12/TTToSemiLeptonic_TuneCP5_13TeV-powheg-pythia8/805b29902f655474a6fe34a7cdd1b2f094f5246c9f22993ec4be337d/000000_000000/0000/tree_126.root
/store/group/phys_higgs/hbb/ntuples/VHbbPostNano/2018/V12/TTToSemiLeptonic_TuneCP5_13TeV-powheg-pythia8/ae49869fd035da721fb79b5a4bddab8d05d7779f95b9aad5722bae54/000000_000000/0000/tree_127.root
/store/group/phys_higgs/hbb/ntuples/VHbbPostNano/2018/V12/TTToSemiLeptonic_TuneCP5_13TeV-powheg-pythia8/7c16c9e99c4228d63aee4dcf229089e09dcc623b824e80e1f82402c0/000000_000000/0000/tree_128.root
/store/group/phys_higgs/hbb/ntuples/VHbbPostNano/2018/V12/TTToSemiLeptonic_TuneCP5_13TeV-powheg-pythia8/8a57eeb88ba9a6696d377bddcd7b7704fa32cd0af86cf286580269dc/000000_000000/0000/tree_129.root
/store/group/phys_higgs/hbb/ntuples/VHbbPostNano/2018/V12/TTToSemiLeptonic_TuneCP5_13TeV-powheg-pythia8/81e37f172287f20c4df32ca27060fc5155e7cfb5a2c9db99e2197724/000000_000000/0000/tree_130.root
/store/group/phys_higgs/hbb/ntuples/VHbbPostNano/2018/V12/TTToSemiLeptonic_TuneCP5_13TeV-powheg-pythia8/e0fdd5a6748483a10c0bd5bc209a6da67f28b6714ebccdfc13062b54/000000_000000/0000/tree_131.root
/store/group/phys_higgs/hbb/ntuples/VHbbPostNano/2018/V12/TTToSemiLeptonic_TuneCP5_13TeV-powheg-pythia8/2e92f9d33ee98968cd4f165a67c6b4f740317be353ee34360884a2eb/000000_000000/0000/tree_132.root
/store/group/phys_higgs/hbb/ntuples/VHbbPostNano/2018/V12/TTToSemiLeptonic_TuneCP5_13TeV-powheg-pythia8/c640d5bd9552e0c6614d6a82c39cb6bf4fb9e5175172d50e1e76d4b8/000000_000000/0000/tree_133.root
/store/group/phys_higgs/hbb/ntuples/VHbbPostNano/2018/V12/TTToSemiLeptonic_TuneCP5_13TeV-powheg-pythia8/00f985ba0dfc9edfb92c3236390b7fd0c647cba6c9cf460fb9abae77/000000_000000/0000/tree_134.root
/store/group/phys_higgs/hbb/ntuples/VHbbPostNano/2018/V12/TTToSemiLeptonic_TuneCP5_13TeV-powheg-pythia8/1aab30ec7cd528b5849a7187b71b836cdf3ddf96a0b1c957c972ab03/000000_000000/0000/tree_135.root
/store/group/phys_higgs/hbb/ntuples/VHbbPostNano/2018/V12/TTToSemiLeptonic_TuneCP5_13TeV-powheg-pythia8/abf3982bb5c738da3c520bb33c3d6e072562155e8015047747fa94c8/000000_000000/0000/tree_136.root
/store/group/phys_higgs/hbb/ntuples/VHbbPostNano/2018/V12/TTToSemiLeptonic_TuneCP5_13TeV-powheg-pythia8/46a80579a3840451a1ba71a74c254566baff409968d9a0cb5b2d4214/000000_000000/0000/tree_137.root
/store/group/phys_higgs/hbb/ntuples/VHbbPostNano/2018/V12/TTToSemiLeptonic_TuneCP5_13TeV-powheg-pythia8/f2604bf85c5feee7eff086c3e577ee0e440c67c09e3bb201ec4bcda6/000000_000000/0000/tree_138.root
/store/group/phys_higgs/hbb/ntuples/VHbbPostNano/2018/V12/TTToSemiLeptonic_TuneCP5_13TeV-powheg-pythia8/2cc449423beae3d557e0e40b75c3f04c081e18a3ee3869d425b90232/000000_000000/0000/tree_139.root
/store/group/phys_higgs/hbb/ntuples/VHbbPostNano/2018/V12/TTToSemiLeptonic_TuneCP5_13TeV-powheg-pythia8/9ae02a34c9910627122105c60174357bd8632ba825e02800d465c947/000000_000000/0000/tree_140.root
/store/group/phys_higgs/hbb/ntuples/VHbbPostNano/2018/V12/TTToSemiLeptonic_TuneCP5_13TeV-powheg-pythia8/73d0f7a11974aa0324ad093a8acea570f50fbaaa48b9d0eb66837e52/000000_000000/0000/tree_141.root
/store/group/phys_higgs/hbb/ntuples/VHbbPostNano/2018/V12/TTToSemiLeptonic_TuneCP5_13TeV-powheg-pythia8/dc499e3451472b2a2e6e4700eb2dce4d69f1ccbd202afb330a012994/000000_000000/0000/tree_142.root
/store/group/phys_higgs/hbb/ntuples/VHbbPostNano/2018/V12/TTToSemiLeptonic_TuneCP5_13TeV-powheg-pythia8/ca1c01b7f366f14d995970fa68ca028f3d2d13df6e0fab94497cc499/000000_000000/0000/tree_143.root
/store/group/phys_higgs/hbb/ntuples/VHbbPostNano/2018/V12/TTToSemiLeptonic_TuneCP5_13TeV-powheg-pythia8/d67e92c0828a728a2b75300be42f503dab364401ea544883a2bef5f9/000000_000000/0000/tree_144.root
/store/group/phys_higgs/hbb/ntuples/VHbbPostNano/2018/V12/TTToSemiLeptonic_TuneCP5_13TeV-powheg-pythia8/3fb60be81ad5613774b5f6a4577a65dc3e59365ac67a4a4d93e94156/000000_000000/0000/tree_145.root
/store/group/phys_higgs/hbb/ntuples/VHbbPostNano/2018/V12/TTToSemiLeptonic_TuneCP5_13TeV-powheg-pythia8/585407b5bc8420030fbfa94083bb75243d863c2a57d72b0e8c139291/000000_000000/0000/tree_146.root
/store/group/phys_higgs/hbb/ntuples/VHbbPostNano/2018/V12/TTToSemiLeptonic_TuneCP5_13TeV-powheg-pythia8/d58ae377890570e5dd388e274e3448ce7b30fa7c385932db1752338b/000000_000000/0000/tree_147.root
/store/group/phys_higgs/hbb/ntuples/VHbbPostNano/2018/V12/TTToSemiLeptonic_TuneCP5_13TeV-powheg-pythia8/ab82463ae9bc449f042e73819a0758cd483a8f8a71e103f61e5bcb38/000000_000000/0000/tree_148.root
/store/group/phys_higgs/hbb/ntuples/VHbbPostNano/2018/V12/TTToSemiLeptonic_TuneCP5_13TeV-powheg-pythia8/70eb0a32ca71f72ff3eed54012313023b767f35f197fcdd6d305fb9d/000000_000000/0000/tree_149.root
/store/group/phys_higgs/hbb/ntuples/VHbbPostNano/2018/V12/TTToSemiLeptonic_TuneCP5_13TeV-powheg-pythia8/6c0cf433199a122b18d7d7c2d456d03ea027af47f50e2d25175364ce/000000_000000/0000/tree_150.root
/store/group/phys_higgs/hbb/ntuples/VHbbPostNano/2018/V12/TTToSemiLeptonic_TuneCP5_13TeV-powheg-pythia8/2c01a941587dc55a861398a84a5f70531e782c7981f02f7c33a4a6c2/000000_000000/0000/tree_151.root
/store/group/phys_higgs/hbb/ntuples/VHbbPostNano/2018/V12/TTToSemiLeptonic_TuneCP5_13TeV-powheg-pythia8/f3ddefc708526e69156442c8a06236657e1e8115937961a5ea178ec1/000000_000000/0000/tree_152.root
/store/group/phys_higgs/hbb/ntuples/VHbbPostNano/2018/V12/TTToSemiLeptonic_TuneCP5_13TeV-powheg-pythia8/18558843159bb53c42fdb64f0ee7459a736167be243f8c44ff0cd969/000000_000000/0000/tree_153.root
/store/group/phys_higgs/hbb/ntuples/VHbbPostNano/2018/V12/TTToSemiLeptonic_TuneCP5_13TeV-powheg-pythia8/4bdfafed32e7d498811dae193a55c39e2ba21b7b0f658e26ce718b74/000000_000000/0000/tree_154.root
/store/group/phys_higgs/hbb/ntuples/VHbbPostNano/2018/V12/TTToSemiLeptonic_TuneCP5_13TeV-powheg-pythia8/e8aee1d28701c979dbcd3ba938b1e3c00a9be20c085560b175f427e9/000000_000000/0000/tree_155.root
/store/group/phys_higgs/hbb/ntuples/VHbbPostNano/2018/V12/TTToSemiLeptonic_TuneCP5_13TeV-powheg-pythia8/0b0335c89cfee2cd566c42d1dfc68a348ddaa404b9ba32559996d02c/000000_000000/0000/tree_156.root
/store/group/phys_higgs/hbb/ntuples/VHbbPostNano/2018/V12/TTToSemiLeptonic_TuneCP5_13TeV-powheg-pythia8/29584547f53f942fe952d120821547fcfccf1878dc7825ebfb9be023/000000_000000/0000/tree_157.root
/store/group/phys_higgs/hbb/ntuples/VHbbPostNano/2018/V12/TTToSemiLeptonic_TuneCP5_13TeV-powheg-pythia8/23e2ff7ff6212fa9c4cd536ae38b69a2c4d6fdcb1512e1b9e7ab2f33/000000_000000/0000/tree_158.root
/store/group/phys_higgs/hbb/ntuples/VHbbPostNano/2018/V12/TTToSemiLeptonic_TuneCP5_13TeV-powheg-pythia8/d1c07c3dd07fc931a57286fa350166b3588b609b858b7d384b7a5567/000000_000000/0000/tree_159.root
/store/group/phys_higgs/hbb/ntuples/VHbbPostNano/2018/V12/TTToSemiLeptonic_TuneCP5_13TeV-powheg-pythia8/6de9c31fb31080bb8e31e03fc83ca921f89f72133b18cdb52ed4b8d1/000000_000000/0000/tree_160.root
/store/group/phys_higgs/hbb/ntuples/VHbbPostNano/2018/V12/TTToSemiLeptonic_TuneCP5_13TeV-powheg-pythia8/ba75515ee0e76419753538369188563e474f617ccfa495c7e62e6e28/000000_000000/0000/tree_161.root
/store/group/phys_higgs/hbb/ntuples/VHbbPostNano/2018/V12/TTToSemiLeptonic_TuneCP5_13TeV-powheg-pythia8/c8c2e65f346c275f11d68f7aa01b5e7671ce5f4dc7a1fb80a4d295b7/000000_000000/0000/tree_162.root
/store/group/phys_higgs/hbb/ntuples/VHbbPostNano/2018/V12/TTToSemiLeptonic_TuneCP5_13TeV-powheg-pythia8/e2003e5b266af0c989c1dd1372d10a6abd2a35a284d5a004f1b001b0/000000_000000/0000/tree_163.root
/store/group/phys_higgs/hbb/ntuples/VHbbPostNano/2018/V12/TTToSemiLeptonic_TuneCP5_13TeV-powheg-pythia8/744d665bff926f1a45500c40d16e632acd1eb2e629431895470b8590/000000_000000/0000/tree_164.root
/store/group/phys_higgs/hbb/ntuples/VHbbPostNano/2018/V12/TTToSemiLeptonic_TuneCP5_13TeV-powheg-pythia8/1b297d9eb8bd370d00f69bd21dbb5bcb75943b0b2701679ab508a3fc/000000_000000/0000/tree_165.root
/store/group/phys_higgs/hbb/ntuples/VHbbPostNano/2018/V12/TTToSemiLeptonic_TuneCP5_13TeV-powheg-pythia8/c804ef387127a4872209315d3ab60ab66406548ecf7e97eb1da6a0f3/000000_000000/0000/tree_166.root
/store/group/phys_higgs/hbb/ntuples/VHbbPostNano/2018/V12/TTToSemiLeptonic_TuneCP5_13TeV-powheg-pythia8/976793efca27a509aac46142302ac038d8253585da55308a3a0f2114/000000_000000/0000/tree_167.root
/store/group/phys_higgs/hbb/ntuples/VHbbPostNano/2018/V12/TTToSemiLeptonic_TuneCP5_13TeV-powheg-pythia8/ee8db58271b2c1482240bc0a7a02650af0ad11d86d0a26ea9fc89dd9/000000_000000/0000/tree_168.root
/store/group/phys_higgs/hbb/ntuples/VHbbPostNano/2018/V12/TTToSemiLeptonic_TuneCP5_13TeV-powheg-pythia8/1507d92f596e0b264c575176408d1f712a7b08d4f248b28bec87d965/000000_000000/0000/tree_169.root
/store/group/phys_higgs/hbb/ntuples/VHbbPostNano/2018/V12/TTToSemiLeptonic_TuneCP5_13TeV-powheg-pythia8/fb651297b59e323046f489a517a2cc564d7f3c53f8c4582e47aa67d3/000000_000000/0000/tree_170.root
/store/group/phys_higgs/hbb/ntuples/VHbbPostNano/2018/V12/TTToSemiLeptonic_TuneCP5_13TeV-powheg-pythia8/e5f337e7616e7a50794fb232b6fe2ecbabb8e014714db2dfd14439f1/000000_000000/0000/tree_171.root
/store/group/phys_higgs/hbb/ntuples/VHbbPostNano/2018/V12/TTToSemiLeptonic_TuneCP5_13TeV-powheg-pythia8/b74eb26a18f98cad9e67b0f489d276ea5a3c913287354a479d66c818/000000_000000/0000/tree_172.root
/store/group/phys_higgs/hbb/ntuples/VHbbPostNano/2018/V12/TTToSemiLeptonic_TuneCP5_13TeV-powheg-pythia8/682d8ed987f0bc3b66f9eadcd25580677d3bbe6ab68fd88d97638eab/000000_000000/0000/tree_173.root
/store/group/phys_higgs/hbb/ntuples/VHbbPostNano/2018/V12/TTToSemiLeptonic_TuneCP5_13TeV-powheg-pythia8/6b1b97af5b4ae304f533d99fea6ae605453871ae61d4ca9d37a67df7/000000_000000/0000/tree_174.root
/store/group/phys_higgs/hbb/ntuples/VHbbPostNano/2018/V12/TTToSemiLeptonic_TuneCP5_13TeV-powheg-pythia8/a5c880c3fb9a8d317e26a643bbdf60945a458a4df3f51a67fddcaf88/000000_000000/0000/tree_175.root
/store/group/phys_higgs/hbb/ntuples/VHbbPostNano/2018/V12/TTToSemiLeptonic_TuneCP5_13TeV-powheg-pythia8/b276e1ac95a499d0af9f556c7ab6a1a3a89ce9021ee926fea5e8961a/000000_000000/0000/tree_176.root
/store/group/phys_higgs/hbb/ntuples/VHbbPostNano/2018/V12/TTToSemiLeptonic_TuneCP5_13TeV-powheg-pythia8/383b5650821ae1f9df11221d2e88716646a5754d4e56c53f92da0062/000000_000000/0000/tree_177.root
/store/group/phys_higgs/hbb/ntuples/VHbbPostNano/2018/V12/TTToSemiLeptonic_TuneCP5_13TeV-powheg-pythia8/5f184885ef11293d7396db3181becc6d2ec66f4332fff1c9da1f1720/000000_000000/0000/tree_178.root
/store/group/phys_higgs/hbb/ntuples/VHbbPostNano/2018/V12/TTToSemiLeptonic_TuneCP5_13TeV-powheg-pythia8/6cdc12d731fe6807217e84f45dc6bcf1ea2ac2d0d1b90bd03c63d826/000000_000000/0000/tree_179.root
/store/group/phys_higgs/hbb/ntuples/VHbbPostNano/2018/V12/TTToSemiLeptonic_TuneCP5_13TeV-powheg-pythia8/b6fd2481cbf61c8c498d7ebf87c723c88225d13f5795d95303cc6ed7/000000_000000/0000/tree_180.root
/store/group/phys_higgs/hbb/ntuples/VHbbPostNano/2018/V12/TTToSemiLeptonic_TuneCP5_13TeV-powheg-pythia8/3b9b33d9b09574b60fe1d6f1042c8d60da3a7f7261d3ba925484045c/000000_000000/0000/tree_181.root
/store/group/phys_higgs/hbb/ntuples/VHbbPostNano/2018/V12/TTToSemiLeptonic_TuneCP5_13TeV-powheg-pythia8/2d813f5859da90f3f439dfb3b46c1f8d01fe504c0970272d9b41de17/000000_000000/0000/tree_182.root
/store/group/phys_higgs/hbb/ntuples/VHbbPostNano/2018/V12/TTToSemiLeptonic_TuneCP5_13TeV-powheg-pythia8/3dfd472f4faa045998f8754a7b2e53ace2957f40e690d102b40de86d/000000_000000/0000/tree_183.root
/store/group/phys_higgs/hbb/ntuples/VHbbPostNano/2018/V12/TTToSemiLeptonic_TuneCP5_13TeV-powheg-pythia8/7526ba7cc85d0f98be27c543556227aae4d90e883cd44076253aa3b8/000000_000000/0000/tree_184.root
/store/group/phys_higgs/hbb/ntuples/VHbbPostNano/2018/V12/TTToSemiLeptonic_TuneCP5_13TeV-powheg-pythia8/0709bba1aecefca29e4896e167ee2d2f68ae947e0febc59b09671267/000000_000000/0000/tree_185.root
/store/group/phys_higgs/hbb/ntuples/VHbbPostNano/2018/V12/TTToSemiLeptonic_TuneCP5_13TeV-powheg-pythia8/cb01f0e1a12b089d5fb79a2a88e4e9e6c7347e90be0af84a54bda9d2/000000_000000/0000/tree_186.root
/store/group/phys_higgs/hbb/ntuples/VHbbPostNano/2018/V12/TTToSemiLeptonic_TuneCP5_13TeV-powheg-pythia8/1916f87218b194f487329a53c9e53c1f6489cd27073b2bdb58062d2d/000000_000000/0000/tree_187.root
/store/group/phys_higgs/hbb/ntuples/VHbbPostNano/2018/V12/TTToSemiLeptonic_TuneCP5_13TeV-powheg-pythia8/6d65072577d4b8bb4200355012464c8a9b35ed5c462f75910b23f489/000000_000000/0000/tree_188.root
/store/group/phys_higgs/hbb/ntuples/VHbbPostNano/2018/V12/TTToSemiLeptonic_TuneCP5_13TeV-powheg-pythia8/8844c031f636d36dc2690a978e762017dea6e0b88a412d0ff2f89f76/000000_000000/0000/tree_189.root
/store/group/phys_higgs/hbb/ntuples/VHbbPostNano/2018/V12/TTToSemiLeptonic_TuneCP5_13TeV-powheg-pythia8/8ebb1c4e6144f485f0b817a19f32ab0a133c18b822f800615c2af7c3/000000_000000/0000/tree_190.root
/store/group/phys_higgs/hbb/ntuples/VHbbPostNano/2018/V12/TTToSemiLeptonic_TuneCP5_13TeV-powheg-pythia8/05894e949aea1fc7bc6b3510027da245788c5f17754cbf882cd30d03/000000_000000/0000/tree_191.root
/store/group/phys_higgs/hbb/ntuples/VHbbPostNano/2018/V12/TTToSemiLeptonic_TuneCP5_13TeV-powheg-pythia8/f46c79de0dccb6fa1cb3528b90cc77ee7b210a012c48ad99b44cc68a/000000_000000/0000/tree_192.root
/store/group/phys_higgs/hbb/ntuples/VHbbPostNano/2018/V12/TTToSemiLeptonic_TuneCP5_13TeV-powheg-pythia8/50f95864f1734c2e3c2d9ca7b38339e402954422211b1be25df036a4/000000_000000/0000/tree_193.root
/store/group/phys_higgs/hbb/ntuples/VHbbPostNano/2018/V12/TTToSemiLeptonic_TuneCP5_13TeV-powheg-pythia8/78f1a44d4123e96de14ed3da75a59685929c8b1e85b04df1db817015/000000_000000/0000/tree_194.root
/store/group/phys_higgs/hbb/ntuples/VHbbPostNano/2018/V12/TTToSemiLeptonic_TuneCP5_13TeV-powheg-pythia8/790b1cd1e227e415a293145546de89c3a85f8507b462a761afb12549/000000_000000/0000/tree_195.root
/store/group/phys_higgs/hbb/ntuples/VHbbPostNano/2018/V12/TTToSemiLeptonic_TuneCP5_13TeV-powheg-pythia8/5bf25a6f055c5ab624eadf27effa9601d0fd3f173aaa6da37d1e9aee/000000_000000/0000/tree_196.root
/store/group/phys_higgs/hbb/ntuples/VHbbPostNano/2018/V12/TTToSemiLeptonic_TuneCP5_13TeV-powheg-pythia8/2f2fe1f3c07a955b2ea13ea025f3d89350c83908e300b6fc18c66315/000000_000000/0000/tree_197.root
/store/group/phys_higgs/hbb/ntuples/VHbbPostNano/2018/V12/TTToSemiLeptonic_TuneCP5_13TeV-powheg-pythia8/f14fd252416450611faeac6a049f4e8c26e80c462e6828d951ca3b85/000000_000000/0000/tree_198.root
/store/group/phys_higgs/hbb/ntuples/VHbbPostNano/2018/V12/TTToSemiLeptonic_TuneCP5_13TeV-powheg-pythia8/8244d3c0aef8dce54875df83eab2ca54ff4cffee8517a2bf83083d82/000000_000000/0000/tree_199.root
/store/group/phys_higgs/hbb/ntuples/VHbbPostNano/2018/V12/TTToSemiLeptonic_TuneCP5_13TeV-powheg-pythia8/bf55a7a663f8fe6e7e8385fb95528316d75de37570dbf0d1e14f0405/000000_000000/0000/tree_200.root
/store/group/phys_higgs/hbb/ntuples/VHbbPostNano/2018/V12/TTToSemiLeptonic_TuneCP5_13TeV-powheg-pythia8/3995c6f4c9fec6da207b7293b9903e4c1fb5f6aa528ee14675d4c338/000000_000000/0000/tree_201.root
/store/group/phys_higgs/hbb/ntuples/VHbbPostNano/2018/V12/TTToSemiLeptonic_TuneCP5_13TeV-powheg-pythia8/d2dc4f3e32debb68c018cc14180f31965fa88eacc1ff3f94f28e831d/000000_000000/0000/tree_202.root
/store/group/phys_higgs/hbb/ntuples/VHbbPostNano/2018/V12/TTToSemiLeptonic_TuneCP5_13TeV-powheg-pythia8/6755c08d9a36b9a425b4bd7142ddb9ebefdd7278782ac872b259a3aa/000000_000000/0000/tree_203.root
/store/group/phys_higgs/hbb/ntuples/VHbbPostNano/2018/V12/TTToSemiLeptonic_TuneCP5_13TeV-powheg-pythia8/9a73718854e14e671986d79486c72dad46d3dd50494f4f568756923c/000000_000000/0000/tree_204.root
/store/group/phys_higgs/hbb/ntuples/VHbbPostNano/2018/V12/TTToSemiLeptonic_TuneCP5_13TeV-powheg-pythia8/517b5d33149d474784a7a2187ab01f218dd346964a019ad9d78e096d/000000_000000/0000/tree_205.root
/store/group/phys_higgs/hbb/ntuples/VHbbPostNano/2018/V12/TTToSemiLeptonic_TuneCP5_13TeV-powheg-pythia8/a23631afa024efb10bf03a15dbe99645a934d003fe6f5d944105abd6/000000_000000/0000/tree_206.root
/store/group/phys_higgs/hbb/ntuples/VHbbPostNano/2018/V12/TTToSemiLeptonic_TuneCP5_13TeV-powheg-pythia8/d90e63ade305143fbf9b4f49f16ec15c0e2660143c4fa512240bf972/000000_000000/0000/tree_207.root
/store/group/phys_higgs/hbb/ntuples/VHbbPostNano/2018/V12/TTToSemiLeptonic_TuneCP5_13TeV-powheg-pythia8/a2e0ac94a13f672b4d54eff7748396754db3adb2dd08b24634744cb1/000000_000000/0000/tree_208.root
/store/group/phys_higgs/hbb/ntuples/VHbbPostNano/2018/V12/TTToSemiLeptonic_TuneCP5_13TeV-powheg-pythia8/ca94446917a92755828a64136f87d955dc3db84d0915990257efc33c/000000_000000/0000/tree_209.root
/store/group/phys_higgs/hbb/ntuples/VHbbPostNano/2018/V12/TTToSemiLeptonic_TuneCP5_13TeV-powheg-pythia8/a2369ec9b92d394dc500feef8ff9de445c0131e3feb420177da462dd/000000_000000/0000/tree_210.root
/store/group/phys_higgs/hbb/ntuples/VHbbPostNano/2018/V12/TTToSemiLeptonic_TuneCP5_13TeV-powheg-pythia8/3d6ae52877d5156d718c3d92135506a1fc42802afceece24ba522228/000000_000000/0000/tree_211.root
/store/group/phys_higgs/hbb/ntuples/VHbbPostNano/2018/V12/TTToSemiLeptonic_TuneCP5_13TeV-powheg-pythia8/4ef4db3d6233e96999d3892101fabec6597e08c469a18c0ad455022d/000000_000000/0000/tree_212.root
/store/group/phys_higgs/hbb/ntuples/VHbbPostNano/2018/V12/TTToSemiLeptonic_TuneCP5_13TeV-powheg-pythia8/168c32074334015f47fec40fccd4ce84a6cb386db8ee1fb82c2ac1a8/000000_000000/0000/tree_213.root
/store/group/phys_higgs/hbb/ntuples/VHbbPostNano/2018/V12/TTToSemiLeptonic_TuneCP5_13TeV-powheg-pythia8/62a3ab42830878a35a6d4f8f93b22a59356702b2e4ce1b940a6f34d4/000000_000000/0000/tree_214.root
/store/group/phys_higgs/hbb/ntuples/VHbbPostNano/2018/V12/TTToSemiLeptonic_TuneCP5_13TeV-powheg-pythia8/993e36fac792f20fbddab958efeb8aeaf618117e3245a2c342b5379a/000000_000000/0000/tree_215.root
/store/group/phys_higgs/hbb/ntuples/VHbbPostNano/2018/V12/TTToSemiLeptonic_TuneCP5_13TeV-powheg-pythia8/ea474f5d6110a659c9e31f2839dea5120c0f42e6b1040be634686c0a/000000_000000/0000/tree_216.root
/store/group/phys_higgs/hbb/ntuples/VHbbPostNano/2018/V12/TTToSemiLeptonic_TuneCP5_13TeV-powheg-pythia8/126c6bf4ab0bdc7d6cd18dd24187e1c0b04f08e2a10995818aa74ec5/000000_000000/0000/tree_217.root
/store/group/phys_higgs/hbb/ntuples/VHbbPostNano/2018/V12/TTToSemiLeptonic_TuneCP5_13TeV-powheg-pythia8/757b5ec53d2cb6a5fe158c279b69e7376a6c100bdaa973e5c4f77821/000000_000000/0000/tree_218.root
/store/group/phys_higgs/hbb/ntuples/VHbbPostNano/2018/V12/TTToSemiLeptonic_TuneCP5_13TeV-powheg-pythia8/dab027b1319e8f2a12dc4009ae4b27f245c82b04ecc71ae75ef08f74/000000_000000/0000/tree_219.root
/store/group/phys_higgs/hbb/ntuples/VHbbPostNano/2018/V12/TTToSemiLeptonic_TuneCP5_13TeV-powheg-pythia8/c2d014744af54b7d9e259b46fc9661a38c2ba790760020a2486956c2/000000_000000/0000/tree_220.root
/store/group/phys_higgs/hbb/ntuples/VHbbPostNano/2018/V12/TTToSemiLeptonic_TuneCP5_13TeV-powheg-pythia8/69498a46f5e004c54975b56e264c767ee6b2002537037760d30d2b2c/000000_000000/0000/tree_221.root
/store/group/phys_higgs/hbb/ntuples/VHbbPostNano/2018/V12/TTToSemiLeptonic_TuneCP5_13TeV-powheg-pythia8/dc2a6fa20dc66ff888ccf72ed68ff4f4bef4f009715972c0a3cd0e51/000000_000000/0000/tree_222.root
/store/group/phys_higgs/hbb/ntuples/VHbbPostNano/2018/V12/TTToSemiLeptonic_TuneCP5_13TeV-powheg-pythia8/6f4b36c0baf09b35c11a3bd9932852cdc0ff4320fa03f6a81a324b5a/000000_000000/0000/tree_223.root
/store/group/phys_higgs/hbb/ntuples/VHbbPostNano/2018/V12/TTToSemiLeptonic_TuneCP5_13TeV-powheg-pythia8/1654c5e317ed4849bfd4f012b65efa0f1b9de905e4ace240dbdd40f8/000000_000000/0000/tree_224.root
/store/group/phys_higgs/hbb/ntuples/VHbbPostNano/2018/V12/TTToSemiLeptonic_TuneCP5_13TeV-powheg-pythia8/cc413602ae8ee47a0acf3a04733db346145df41a241ba7177a7240fe/000000_000000/0000/tree_225.root
/store/group/phys_higgs/hbb/ntuples/VHbbPostNano/2018/V12/TTToSemiLeptonic_TuneCP5_13TeV-powheg-pythia8/cc7ebae16e8a3a105206142733c7678945c5b5a82a5626d5efaeb8e4/000000_000000/0000/tree_226.root
/store/group/phys_higgs/hbb/ntuples/VHbbPostNano/2018/V12/TTToSemiLeptonic_TuneCP5_13TeV-powheg-pythia8/aeb3f554ad9e50b9f09cb9f54f6800829238e35fcd62b9e13dea463f/000000_000000/0000/tree_227.root
/store/group/phys_higgs/hbb/ntuples/VHbbPostNano/2018/V12/TTToSemiLeptonic_TuneCP5_13TeV-powheg-pythia8/1d3f3b7a9c7bf82d0e413430b68d70f6a0a65347420c7d966a48933c/000000_000000/0000/tree_228.root
/store/group/phys_higgs/hbb/ntuples/VHbbPostNano/2018/V12/TTToSemiLeptonic_TuneCP5_13TeV-powheg-pythia8/b2b7d4736eba648e4c00374eb2653c4d7637af1889b304739b44cd88/000000_000000/0000/tree_229.root
/store/group/phys_higgs/hbb/ntuples/VHbbPostNano/2018/V12/TTToSemiLeptonic_TuneCP5_13TeV-powheg-pythia8/13b1ed3479dfdb136a117da8575df5ce978175c7cda51fb750ae0557/000000_000000/0000/tree_230.root
/store/group/phys_higgs/hbb/ntuples/VHbbPostNano/2018/V12/TTToSemiLeptonic_TuneCP5_13TeV-powheg-pythia8/17ca61a9a5d3df771599488c2f39d1133fc837413d2c4dd800ba90b9/000000_000000/0000/tree_231.root
/store/group/phys_higgs/hbb/ntuples/VHbbPostNano/2018/V12/TTToSemiLeptonic_TuneCP5_13TeV-powheg-pythia8/5205628b48a3f5900ca1e7c5c2986cf3ee062a9d67a8a30825eb7e9a/000000_000000/0000/tree_232.root
/store/group/phys_higgs/hbb/ntuples/VHbbPostNano/2018/V12/TTToSemiLeptonic_TuneCP5_13TeV-powheg-pythia8/3cad3e4dbfa86f8dd7389ae93eeafbe4ce8384fdffce58d9324f616e/000000_000000/0000/tree_233.root
/store/group/phys_higgs/hbb/ntuples/VHbbPostNano/2018/V12/TTToSemiLeptonic_TuneCP5_13TeV-powheg-pythia8/93b68eb49e8568635af761025a11854e1c3702d6a8c26aa44a48d0c1/000000_000000/0000/tree_234.root
/store/group/phys_higgs/hbb/ntuples/VHbbPostNano/2018/V12/TTToSemiLeptonic_TuneCP5_13TeV-powheg-pythia8/d44a7abd0f24614f6a31d9dbe1eaeea3c7d40a5cb3dc4dd4e589367b/000000_000000/0000/tree_235.root
/store/group/phys_higgs/hbb/ntuples/VHbbPostNano/2018/V12/TTToSemiLeptonic_TuneCP5_13TeV-powheg-pythia8/c28c257867769469c8d8598954197fc2f20f815596a95232d408262d/000000_000000/0000/tree_236.root
/store/group/phys_higgs/hbb/ntuples/VHbbPostNano/2018/V12/TTToSemiLeptonic_TuneCP5_13TeV-powheg-pythia8/8e04806a4b35be3aa0528bfdf884578502da34fdaeb3a6587ddf702b/000000_000000/0000/tree_237.root
/store/group/phys_higgs/hbb/ntuples/VHbbPostNano/2018/V12/TTToSemiLeptonic_TuneCP5_13TeV-powheg-pythia8/80cbfccf607413834880050a94e13acf652640e3a7527101a8454226/000000_000000/0000/tree_238.root
/store/group/phys_higgs/hbb/ntuples/VHbbPostNano/2018/V12/TTToSemiLeptonic_TuneCP5_13TeV-powheg-pythia8/7985aeba76c30706483f95f2c47d98cd8ec8f4352fbf234efadac398/000000_000000/0000/tree_239.root
/store/group/phys_higgs/hbb/ntuples/VHbbPostNano/2018/V12/TTToSemiLeptonic_TuneCP5_13TeV-powheg-pythia8/255888bfc894ff13dca5f94f49b9e8f538e8c47846de98ec29b9cec0/000000_000000/0000/tree_240.root
/store/group/phys_higgs/hbb/ntuples/VHbbPostNano/2018/V12/TTToSemiLeptonic_TuneCP5_13TeV-powheg-pythia8/54b307bd4fbb740f9f196438e4a17aaaecd4a845a48d0d86770c7e12/000000_000000/0000/tree_241.root
/store/group/phys_higgs/hbb/ntuples/VHbbPostNano/2018/V12/TTToSemiLeptonic_TuneCP5_13TeV-powheg-pythia8/24205979669fa994a1a27e6e401f478ec01ffec02a82c4f37b83fbd6/000000_000000/0000/tree_242.root
/store/group/phys_higgs/hbb/ntuples/VHbbPostNano/2018/V12/TTToSemiLeptonic_TuneCP5_13TeV-powheg-pythia8/cfcda3ba6257a925389a36c4370167cf82a4ddcf1976b80d558848d9/000000_000000/0000/tree_243.root
/store/group/phys_higgs/hbb/ntuples/VHbbPostNano/2018/V12/TTToSemiLeptonic_TuneCP5_13TeV-powheg-pythia8/a8b4e042bf32ba13aed3a7260d9737b96e7836fd826565a2c7b98c40/000000_000000/0000/tree_244.root
/store/group/phys_higgs/hbb/ntuples/VHbbPostNano/2018/V12/TTToSemiLeptonic_TuneCP5_13TeV-powheg-pythia8/450982828eb4f9d5c124c44ba1afc4688a3324487d78adc4544b3d88/000000_000000/0000/tree_245.root
/store/group/phys_higgs/hbb/ntuples/VHbbPostNano/2018/V12/TTToSemiLeptonic_TuneCP5_13TeV-powheg-pythia8/ba49d5e246891ce468001b7766a5f0c9d5ee85f1d5db12104b14f574/000000_000000/0000/tree_246.root
/store/group/phys_higgs/hbb/ntuples/VHbbPostNano/2018/V12/TTToSemiLeptonic_TuneCP5_13TeV-powheg-pythia8/3b4c734c2435d9db8c837cd338ee6dfa464882f484b640af4db3780e/000000_000000/0000/tree_247.root
/store/group/phys_higgs/hbb/ntuples/VHbbPostNano/2018/V12/TTToSemiLeptonic_TuneCP5_13TeV-powheg-pythia8/df4d1d06dd869b111d69ae347fb70da67f100d7d707b658e99a729e3/000000_000000/0000/tree_248.root
/store/group/phys_higgs/hbb/ntuples/VHbbPostNano/2018/V12/TTToSemiLeptonic_TuneCP5_13TeV-powheg-pythia8/008e11fa4111e905866c1076a24b56708ae28eb3ffd834f0064fdfb1/000000_000000/0000/tree_249.root
/store/group/phys_higgs/hbb/ntuples/VHbbPostNano/2018/V12/TTToSemiLeptonic_TuneCP5_13TeV-powheg-pythia8/f2be4082d7cad370ba3dc67279e15cab0c3d499901cf6d8d1a49739c/000000_000000/0000/tree_250.root
/store/group/phys_higgs/hbb/ntuples/VHbbPostNano/2018/V12/TTToSemiLeptonic_TuneCP5_13TeV-powheg-pythia8/92e2974ecff143b5e858303e74a60b17d38c6d4e88f9ed94b343b055/000000_000000/0000/tree_251.root
/store/group/phys_higgs/hbb/ntuples/VHbbPostNano/2018/V12/TTToSemiLeptonic_TuneCP5_13TeV-powheg-pythia8/040ececa221c3786858fbe0a03460c0d4f56824eb9003f0c7abbd4f2/000000_000000/0000/tree_252.root
/store/group/phys_higgs/hbb/ntuples/VHbbPostNano/2018/V12/TTToSemiLeptonic_TuneCP5_13TeV-powheg-pythia8/0a05a2412893074c1b1f2a2cf384d1202a4c17784e89c5ea2e3077b8/000000_000000/0000/tree_253.root
/store/group/phys_higgs/hbb/ntuples/VHbbPostNano/2018/V12/TTToSemiLeptonic_TuneCP5_13TeV-powheg-pythia8/e6690542613c2568b2950a9ed7b501979ea170051299ed3d906e148b/000000_000000/0000/tree_254.root
/store/group/phys_higgs/hbb/ntuples/VHbbPostNano/2018/V12/TTToSemiLeptonic_TuneCP5_13TeV-powheg-pythia8/85e2f145f4626a0b5b8703daa8df8cd1ad19862d453f1b310f1508a8/000000_000000/0000/tree_255.root
/store/group/phys_higgs/hbb/ntuples/VHbbPostNano/2018/V12/TTToSemiLeptonic_TuneCP5_13TeV-powheg-pythia8/41749118089adcb3c0d28ddde5cf86e2a797018f08d87841f2b7afb9/000000_000000/0000/tree_256.root
/store/group/phys_higgs/hbb/ntuples/VHbbPostNano/2018/V12/TTToSemiLeptonic_TuneCP5_13TeV-powheg-pythia8/a0d6be6af781716470ee3a07867b900f25eb0ac839b886ee467136c9/000000_000000/0000/tree_257.root
/store/group/phys_higgs/hbb/ntuples/VHbbPostNano/2018/V12/TTToSemiLeptonic_TuneCP5_13TeV-powheg-pythia8/963bcccceeae69e571135417a6076de1a23353df9b9d68ef15037d90/000000_000000/0000/tree_258.root
/store/group/phys_higgs/hbb/ntuples/VHbbPostNano/2018/V12/TTToSemiLeptonic_TuneCP5_13TeV-powheg-pythia8/d0c8286d12843cb08dc345083d1e4a91d0dce6b281b61c853dfc8df3/000000_000000/0000/tree_259.root
/store/group/phys_higgs/hbb/ntuples/VHbbPostNano/2018/V12/TTToSemiLeptonic_TuneCP5_13TeV-powheg-pythia8/1b28bb029a70799aca58503b9d00f07a8dfebfcc658c494317880e84/000000_000000/0000/tree_260.root
/store/group/phys_higgs/hbb/ntuples/VHbbPostNano/2018/V12/TTToSemiLeptonic_TuneCP5_13TeV-powheg-pythia8/e7b58e613c22421a55e33ba0ce97c0a0df82387c0c81310caf55aa7f/000000_000000/0000/tree_261.root
/store/group/phys_higgs/hbb/ntuples/VHbbPostNano/2018/V12/TTToSemiLeptonic_TuneCP5_13TeV-powheg-pythia8/6eb7e9d856ca84f8c1de7f90258f1d6c1379d7ebf0ea994bf58969a0/000000_000000/0000/tree_262.root
/store/group/phys_higgs/hbb/ntuples/VHbbPostNano/2018/V12/TTToSemiLeptonic_TuneCP5_13TeV-powheg-pythia8/d3eb009d0e065dd0eb4fee2d17c86cdfa2e90275bcf954bd60949342/000000_000000/0000/tree_263.root
/store/group/phys_higgs/hbb/ntuples/VHbbPostNano/2018/V12/TTToSemiLeptonic_TuneCP5_13TeV-powheg-pythia8/2808225de64ee86668ef9e5044e3e44efe5580f31b87fc2b684ac672/000000_000000/0000/tree_264.root
/store/group/phys_higgs/hbb/ntuples/VHbbPostNano/2018/V12/TTToSemiLeptonic_TuneCP5_13TeV-powheg-pythia8/949cab80f4ecac021ff66afc3ba932a983fb41269efce89882782c90/000000_000000/0000/tree_265.root
/store/group/phys_higgs/hbb/ntuples/VHbbPostNano/2018/V12/TTToSemiLeptonic_TuneCP5_13TeV-powheg-pythia8/b478a6db85d2999c13f805c92e5683e49893edaf358c455cba8eea48/000000_000000/0000/tree_266.root
/store/group/phys_higgs/hbb/ntuples/VHbbPostNano/2018/V12/TTToSemiLeptonic_TuneCP5_13TeV-powheg-pythia8/312d87d9da013421e9ecd52682d5f172678d5cb10efa25e0881ac315/000000_000000/0000/tree_267.root
/store/group/phys_higgs/hbb/ntuples/VHbbPostNano/2018/V12/TTToSemiLeptonic_TuneCP5_13TeV-powheg-pythia8/a5785e51a54728e5faae7cc9698fcc08a66fee262af546891fb5e689/000000_000000/0000/tree_268.root
/store/group/phys_higgs/hbb/ntuples/VHbbPostNano/2018/V12/TTToSemiLeptonic_TuneCP5_13TeV-powheg-pythia8/28a0d57180344833f6a9b0b4d9260cf9393078a0e204662fb29adeae/000000_000000/0000/tree_269.root
/store/group/phys_higgs/hbb/ntuples/VHbbPostNano/2018/V12/TTToSemiLeptonic_TuneCP5_13TeV-powheg-pythia8/1727e71aaa9335b606961c1725af81a3be8befae1bc3b75a43513474/000000_000000/0000/tree_270.root
/store/group/phys_higgs/hbb/ntuples/VHbbPostNano/2018/V12/TTToSemiLeptonic_TuneCP5_13TeV-powheg-pythia8/17740f464611c45cd5ea8850e382efaa90792687fdf5df0fa390007e/000000_000000/0000/tree_271.root
/store/group/phys_higgs/hbb/ntuples/VHbbPostNano/2018/V12/TTToSemiLeptonic_TuneCP5_13TeV-powheg-pythia8/fcea1a4f3f8e603636c44c47f9773e399a810dd89e834cabe0a3aeac/000000_000000/0000/tree_272.root
/store/group/phys_higgs/hbb/ntuples/VHbbPostNano/2018/V12/TTToSemiLeptonic_TuneCP5_13TeV-powheg-pythia8/2ed841a91f857cd6df996ca7c4b2c0283b48ff32f198aa66957f2118/000000_000000/0000/tree_273.root
/store/group/phys_higgs/hbb/ntuples/VHbbPostNano/2018/V12/TTToSemiLeptonic_TuneCP5_13TeV-powheg-pythia8/cdc8f17967bc347f36a8815eb469ceb9b4eb5f68f5bb89e7e2b264fa/000000_000000/0000/tree_274.root
/store/group/phys_higgs/hbb/ntuples/VHbbPostNano/2018/V12/TTToSemiLeptonic_TuneCP5_13TeV-powheg-pythia8/913c025da897098ce4b9d0e9e65c4b3d84f662d4ec4b10dfab3372a2/000000_000000/0000/tree_275.root
/store/group/phys_higgs/hbb/ntuples/VHbbPostNano/2018/V12/TTToSemiLeptonic_TuneCP5_13TeV-powheg-pythia8/66734e35a23b69c681559837998b02708ccb31f25613efa0f8b9a364/000000_000000/0000/tree_276.root
/store/group/phys_higgs/hbb/ntuples/VHbbPostNano/2018/V12/TTToSemiLeptonic_TuneCP5_13TeV-powheg-pythia8/8c59e13929997a2fa39292a31cbede70f676ec244c53fbac7ba8d180/000000_000000/0000/tree_277.root
/store/group/phys_higgs/hbb/ntuples/VHbbPostNano/2018/V12/TTToSemiLeptonic_TuneCP5_13TeV-powheg-pythia8/3b6acc7ea1009c7077070964022a93ab984f92bae38fa53cb80d6ecd/000000_000000/0000/tree_278.root
/store/group/phys_higgs/hbb/ntuples/VHbbPostNano/2018/V12/TTToSemiLeptonic_TuneCP5_13TeV-powheg-pythia8/3059eed8346c17ea195c3f53f2f767a95915eff7813ed3823a5b1eca/000000_000000/0000/tree_279.root
/store/group/phys_higgs/hbb/ntuples/VHbbPostNano/2018/V12/TTToSemiLeptonic_TuneCP5_13TeV-powheg-pythia8/09f538171f5b13a6ec749d56e4730a44fdb8480ff2fe2078e376f82a/000000_000000/0000/tree_280.root
/store/group/phys_higgs/hbb/ntuples/VHbbPostNano/2018/V12/TTToSemiLeptonic_TuneCP5_13TeV-powheg-pythia8/81e3498e8ed6509b4d958246edb9d72ce339ecf57f641fe2e6374f58/000000_000000/0000/tree_281.root
/store/group/phys_higgs/hbb/ntuples/VHbbPostNano/2018/V12/TTToSemiLeptonic_TuneCP5_13TeV-powheg-pythia8/9bdb51bb8de9ac80d9371061660f2afa8d05fa8250a4307f3c5cd9f8/000000_000000/0000/tree_282.root
/store/group/phys_higgs/hbb/ntuples/VHbbPostNano/2018/V12/TTToSemiLeptonic_TuneCP5_13TeV-powheg-pythia8/2ae928c6b7db7d1bb6204361c2e74b9ba035c369f85d8d9162e6cfc1/000000_000000/0000/tree_283.root
/store/group/phys_higgs/hbb/ntuples/VHbbPostNano/2018/V12/TTToSemiLeptonic_TuneCP5_13TeV-powheg-pythia8/fbccf78ed8df2bd2f7e4125e0da96e3ced2410f2a09fd39aef93053d/000000_000000/0000/tree_284.root
/store/group/phys_higgs/hbb/ntuples/VHbbPostNano/2018/V12/TTToSemiLeptonic_TuneCP5_13TeV-powheg-pythia8/04ec353f4f56ef1ddcc67a7e01b717a34d8ab6a380a1a41ecf5bc1bf/000000_000000/0000/tree_285.root
/store/group/phys_higgs/hbb/ntuples/VHbbPostNano/2018/V12/TTToSemiLeptonic_TuneCP5_13TeV-powheg-pythia8/cbbd28b4b0ea05c4ce6383cb199b1d5956ac23a09fbc4a418f0648a3/000000_000000/0000/tree_286.root
/store/group/phys_higgs/hbb/ntuples/VHbbPostNano/2018/V12/TTToSemiLeptonic_TuneCP5_13TeV-powheg-pythia8/4e473364c076df00bd93d39c0612ac3278c19c25ebe1c63edac42b99/000000_000000/0000/tree_287.root
/store/group/phys_higgs/hbb/ntuples/VHbbPostNano/2018/V12/TTToSemiLeptonic_TuneCP5_13TeV-powheg-pythia8/bd0a351a36292cba0ee901c45ee82a0ef2b9d5cc6d8b1700fb1fc207/000000_000000/0000/tree_288.root
/store/group/phys_higgs/hbb/ntuples/VHbbPostNano/2018/V12/TTToSemiLeptonic_TuneCP5_13TeV-powheg-pythia8/b2a00fe6c202722a12eb1c06a86af8cc4058b21a19fa0dbf1e9e8144/000000_000000/0000/tree_289.root
/store/group/phys_higgs/hbb/ntuples/VHbbPostNano/2018/V12/TTToSemiLeptonic_TuneCP5_13TeV-powheg-pythia8/696f705216520a2eaf2be95f9d7a0549a9f64b3a70400c80d2f8de2a/000000_000000/0000/tree_290.root
/store/group/phys_higgs/hbb/ntuples/VHbbPostNano/2018/V12/TTToSemiLeptonic_TuneCP5_13TeV-powheg-pythia8/2e04bde76833acb9f7a99363a31e81901b0c6a2827e707841b7c4f20/000000_000000/0000/tree_291.root
/store/group/phys_higgs/hbb/ntuples/VHbbPostNano/2018/V12/TTToSemiLeptonic_TuneCP5_13TeV-powheg-pythia8/bde393593850572818ec1e90aea79d1e7beca034c6092252846fff3c/000000_000000/0000/tree_292.root
/store/group/phys_higgs/hbb/ntuples/VHbbPostNano/2018/V12/TTToSemiLeptonic_TuneCP5_13TeV-powheg-pythia8/78428883e937cfa3c635afdd3c29edcf33ff54183a8096a8256de9d6/000000_000000/0000/tree_293.root
/store/group/phys_higgs/hbb/ntuples/VHbbPostNano/2018/V12/TTToSemiLeptonic_TuneCP5_13TeV-powheg-pythia8/1ce39f9b883542ce78057aeb3ce25daf8b8d5fa2d04e75651159e461/000000_000000/0000/tree_294.root
/store/group/phys_higgs/hbb/ntuples/VHbbPostNano/2018/V12/TTToSemiLeptonic_TuneCP5_13TeV-powheg-pythia8/8e286d2947b52cc7ebcc6afc1a9451646a5155e0bd2604e576c6398e/000000_000000/0000/tree_295.root
/store/group/phys_higgs/hbb/ntuples/VHbbPostNano/2018/V12/TTToSemiLeptonic_TuneCP5_13TeV-powheg-pythia8/76c3b9173ba4b35b49da83b2da66841de5c8bd705eaeec950de600b8/000000_000000/0000/tree_296.root
/store/group/phys_higgs/hbb/ntuples/VHbbPostNano/2018/V12/TTToSemiLeptonic_TuneCP5_13TeV-powheg-pythia8/2b460432492384f12a584f1dfb4166db7f8626de14f87b5cd76387aa/000000_000000/0000/tree_297.root
/store/group/phys_higgs/hbb/ntuples/VHbbPostNano/2018/V12/TTToSemiLeptonic_TuneCP5_13TeV-powheg-pythia8/be72309a3bc1c227872cdcb7fe909f51f144c167e46055fa16b2d44a/000000_000000/0000/tree_298.root
/store/group/phys_higgs/hbb/ntuples/VHbbPostNano/2018/V12/TTToSemiLeptonic_TuneCP5_13TeV-powheg-pythia8/ed7344e32f5df4f43e5e214a7a43b9bd6aceb76c20cb4bc2f8aa2220/000000_000000/0000/tree_299.root
/store/group/phys_higgs/hbb/ntuples/VHbbPostNano/2018/V12/TTToSemiLeptonic_TuneCP5_13TeV-powheg-pythia8/9f0e1c3b23a0096d6644f79e4ab3ecb50d7d6a767c29b761e4ddd8da/000000_000000/0000/tree_300.root
/store/group/phys_higgs/hbb/ntuples/VHbbPostNano/2018/V12/TTToSemiLeptonic_TuneCP5_13TeV-powheg-pythia8/463038fb3f0e89f9d7f1d222f19b3490e1ba61b9a2d732539deee8db/000000_000000/0000/tree_301.root
/store/group/phys_higgs/hbb/ntuples/VHbbPostNano/2018/V12/TTToSemiLeptonic_TuneCP5_13TeV-powheg-pythia8/74310b91d08f7590435fc3299caa14b64625e1850422c0b4185ee1a1/000000_000000/0000/tree_302.root
/store/group/phys_higgs/hbb/ntuples/VHbbPostNano/2018/V12/TTToSemiLeptonic_TuneCP5_13TeV-powheg-pythia8/5f1d07f54ec3962f6eb94e091edc3a25e4e33c6147d176b113c1cca6/000000_000000/0000/tree_303.root
/store/group/phys_higgs/hbb/ntuples/VHbbPostNano/2018/V12/TTToSemiLeptonic_TuneCP5_13TeV-powheg-pythia8/761904c0b663c9a560175e6ab57ff0d840adcc31ea72fd83f12b7363/000000_000000/0000/tree_304.root
/store/group/phys_higgs/hbb/ntuples/VHbbPostNano/2018/V12/TTToSemiLeptonic_TuneCP5_13TeV-powheg-pythia8/5a0e3882d3f90255c523be570e8075846a50984509e7d44db618edd9/000000_000000/0000/tree_305.root
/store/group/phys_higgs/hbb/ntuples/VHbbPostNano/2018/V12/TTToSemiLeptonic_TuneCP5_13TeV-powheg-pythia8/31a794d74cfa3bd0d70d45352d325961ee24e7639818359ef219f317/000000_000000/0000/tree_306.root
/store/group/phys_higgs/hbb/ntuples/VHbbPostNano/2018/V12/TTToSemiLeptonic_TuneCP5_13TeV-powheg-pythia8/ddaf6a9191c27718e6f2bf9f398d4bcc932d27cb2d5b706fba70cfe7/000000_000000/0000/tree_307.root
/store/group/phys_higgs/hbb/ntuples/VHbbPostNano/2018/V12/TTToSemiLeptonic_TuneCP5_13TeV-powheg-pythia8/659c5060b347cd814a52cd948ff812723791cd434479576773df6d57/000000_000000/0000/tree_308.root
/store/group/phys_higgs/hbb/ntuples/VHbbPostNano/2018/V12/TTToSemiLeptonic_TuneCP5_13TeV-powheg-pythia8/1f80f9ba4eadb66be16100ddde7f77982dae81536005bd4233b15f3b/000000_000000/0000/tree_309.root
/store/group/phys_higgs/hbb/ntuples/VHbbPostNano/2018/V12/TTToSemiLeptonic_TuneCP5_13TeV-powheg-pythia8/a53f2e5acf33a58d38822fdfc7db2100da13503900c58b34626dd02e/000000_000000/0000/tree_310.root
/store/group/phys_higgs/hbb/ntuples/VHbbPostNano/2018/V12/TTToSemiLeptonic_TuneCP5_13TeV-powheg-pythia8/4d72c4968dd9e1eb3230b64f199be2c6d0cd36222d7836f4f515eaca/000000_000000/0000/tree_311.root
/store/group/phys_higgs/hbb/ntuples/VHbbPostNano/2018/V12/TTToSemiLeptonic_TuneCP5_13TeV-powheg-pythia8/52474b4570eb7abe82391203073bf05c0e15814fe8f4835c67b2e108/000000_000000/0000/tree_312.root
/store/group/phys_higgs/hbb/ntuples/VHbbPostNano/2018/V12/TTToSemiLeptonic_TuneCP5_13TeV-powheg-pythia8/6fa301a85a8bd68060bd1bc35dd7a8f3c0442ed9052cfb721397e94f/000000_000000/0000/tree_313.root
/store/group/phys_higgs/hbb/ntuples/VHbbPostNano/2018/V12/TTToSemiLeptonic_TuneCP5_13TeV-powheg-pythia8/30d76ca5890d81af13b1092ae2db8fc634621d19a6782eeb410fa4c6/000000_000000/0000/tree_314.root
/store/group/phys_higgs/hbb/ntuples/VHbbPostNano/2018/V12/TTToSemiLeptonic_TuneCP5_13TeV-powheg-pythia8/d8af5aabbdd9ed9253a3e7080db643574296a337bf11ef60491579e0/000000_000000/0000/tree_315.root
/store/group/phys_higgs/hbb/ntuples/VHbbPostNano/2018/V12/TTToSemiLeptonic_TuneCP5_13TeV-powheg-pythia8/09fa88f055a301a5aa1a0eeaeef7337ecaf0fc91607807cf89a51dee/000000_000000/0000/tree_316.root
/store/group/phys_higgs/hbb/ntuples/VHbbPostNano/2018/V12/TTToSemiLeptonic_TuneCP5_13TeV-powheg-pythia8/d4bb3f6a27b5c04b4105aa9275f9d06a1fd5268eda1b9782fa04a25b/000000_000000/0000/tree_317.root
/store/group/phys_higgs/hbb/ntuples/VHbbPostNano/2018/V12/TTToSemiLeptonic_TuneCP5_13TeV-powheg-pythia8/3fbc180891991463e0ea7496773f5fa5cbebccc368f1aeda1fbd1e1a/000000_000000/0000/tree_318.root
/store/group/phys_higgs/hbb/ntuples/VHbbPostNano/2018/V12/TTToSemiLeptonic_TuneCP5_13TeV-powheg-pythia8/08d5076acc9daaeb67823be12bc6affbc09835a979efb46ad4ba08e2/000000_000000/0000/tree_319.root
/store/group/phys_higgs/hbb/ntuples/VHbbPostNano/2018/V12/TTToSemiLeptonic_TuneCP5_13TeV-powheg-pythia8/a3f023c1887cb1023075e18f8e00b434d5b0f54befd9ac1233605670/000000_000000/0000/tree_320.root
/store/group/phys_higgs/hbb/ntuples/VHbbPostNano/2018/V12/TTToSemiLeptonic_TuneCP5_13TeV-powheg-pythia8/0af6e451780936946798c2c8d6d357aedaa5e19c0404b1fe11753b5f/000000_000000/0000/tree_321.root
/store/group/phys_higgs/hbb/ntuples/VHbbPostNano/2018/V12/TTToSemiLeptonic_TuneCP5_13TeV-powheg-pythia8/7ea5af52bd1018f100a5fd342d732cb67b864e7f2ca3b9519b135314/000000_000000/0000/tree_322.root
/store/group/phys_higgs/hbb/ntuples/VHbbPostNano/2018/V12/TTToSemiLeptonic_TuneCP5_13TeV-powheg-pythia8/3e5fc93fa78900f4e527710ac30b047ee05ecc28bf6dc83f705e32c1/000000_000000/0000/tree_323.root
/store/group/phys_higgs/hbb/ntuples/VHbbPostNano/2018/V12/TTToSemiLeptonic_TuneCP5_13TeV-powheg-pythia8/b4eb420730b3c4e9179b357c3ee91a3e53198cbaa3f057d9bb61bb06/000000_000000/0000/tree_324.root
/store/group/phys_higgs/hbb/ntuples/VHbbPostNano/2018/V12/TTToSemiLeptonic_TuneCP5_13TeV-powheg-pythia8/2f3115cca0b7c3faf246259e096e45e2825be85058370bddeb1eb6d2/000000_000000/0000/tree_325.root
/store/group/phys_higgs/hbb/ntuples/VHbbPostNano/2018/V12/TTToSemiLeptonic_TuneCP5_13TeV-powheg-pythia8/792ac03eee46e7d469acfe10f6c7e770e91fafd922d72bdfaf7bf431/000000_000000/0000/tree_326.root
/store/group/phys_higgs/hbb/ntuples/VHbbPostNano/2018/V12/TTToSemiLeptonic_TuneCP5_13TeV-powheg-pythia8/525c59a725433420fee0aee2d6797b8b668fc2fb1b597784e1cc33ff/000000_000000/0000/tree_327.root
/store/group/phys_higgs/hbb/ntuples/VHbbPostNano/2018/V12/TTToSemiLeptonic_TuneCP5_13TeV-powheg-pythia8/83c86afdc7d3251a7325f82df6938728a694b857978943235c702ea2/000000_000000/0000/tree_328.root
/store/group/phys_higgs/hbb/ntuples/VHbbPostNano/2018/V12/TTToSemiLeptonic_TuneCP5_13TeV-powheg-pythia8/5a2a099778115795ff81df4c99504c96b89c4aa92496553cd1fbc5fe/000000_000000/0000/tree_329.root
/store/group/phys_higgs/hbb/ntuples/VHbbPostNano/2018/V12/TTToSemiLeptonic_TuneCP5_13TeV-powheg-pythia8/e0df58c2b759ccb8d75e69c2923cdacd1402b3601201fa829a4855ae/000000_000000/0000/tree_330.root
/store/group/phys_higgs/hbb/ntuples/VHbbPostNano/2018/V12/TTToSemiLeptonic_TuneCP5_13TeV-powheg-pythia8/aeae81214f050d251a16abc4b99bc09285180efde15f851957095e6f/000000_000000/0000/tree_331.root
/store/group/phys_higgs/hbb/ntuples/VHbbPostNano/2018/V12/TTToSemiLeptonic_TuneCP5_13TeV-powheg-pythia8/89460f8848cb01f639e398d5e1c67acb01554ad7b79c2fa1380e780c/000000_000000/0000/tree_332.root
/store/group/phys_higgs/hbb/ntuples/VHbbPostNano/2018/V12/TTToSemiLeptonic_TuneCP5_13TeV-powheg-pythia8/90d5b55a43a7544f1b6a1906bdce4748cb7691732ac098746187463a/000000_000000/0000/tree_333.root
/store/group/phys_higgs/hbb/ntuples/VHbbPostNano/2018/V12/TTToSemiLeptonic_TuneCP5_13TeV-powheg-pythia8/6277ec6027a20bf1e69d9b77cf476fcd7b79e23a53cb9b284eefbc2d/000000_000000/0000/tree_334.root
/store/group/phys_higgs/hbb/ntuples/VHbbPostNano/2018/V12/TTToSemiLeptonic_TuneCP5_13TeV-powheg-pythia8/56534d92d1aa4a3ef8b3c31c06ec373f7e2b818c5909b2364612301a/000000_000000/0000/tree_335.root
/store/group/phys_higgs/hbb/ntuples/VHbbPostNano/2018/V12/TTToSemiLeptonic_TuneCP5_13TeV-powheg-pythia8/cebb713b428d688e0f9f24b88a74791c038c14c517decbac628daa57/000000_000000/0000/tree_336.root
/store/group/phys_higgs/hbb/ntuples/VHbbPostNano/2018/V12/TTToSemiLeptonic_TuneCP5_13TeV-powheg-pythia8/143e68574d505069f0f0ff5aac13859fbe7a6e530ad6882341c31cee/000000_000000/0000/tree_337.root
/store/group/phys_higgs/hbb/ntuples/VHbbPostNano/2018/V12/TTToSemiLeptonic_TuneCP5_13TeV-powheg-pythia8/64b5ec05ffd3ad01796fa804c85df69ef633ae696f67bbe0dc5dc9e3/000000_000000/0000/tree_338.root
/store/group/phys_higgs/hbb/ntuples/VHbbPostNano/2018/V12/TTToSemiLeptonic_TuneCP5_13TeV-powheg-pythia8/2b799cf83f66857d2b44cd8a4a7c6fadada79491425b1266141e130b/000000_000000/0000/tree_339.root
/store/group/phys_higgs/hbb/ntuples/VHbbPostNano/2018/V12/TTToSemiLeptonic_TuneCP5_13TeV-powheg-pythia8/754396fa81079d289991aed4c4c82f6f57ce7c69cf9f4450ea0ea56b/000000_000000/0000/tree_340.root
/store/group/phys_higgs/hbb/ntuples/VHbbPostNano/2018/V12/TTToSemiLeptonic_TuneCP5_13TeV-powheg-pythia8/e125df2f607f72382a616e7e0dca9664746b6bb5a6fc691852393a3b/000000_000000/0000/tree_341.root
/store/group/phys_higgs/hbb/ntuples/VHbbPostNano/2018/V12/TTToSemiLeptonic_TuneCP5_13TeV-powheg-pythia8/8fab54def26fd6ac40cb46e7d73ffbdd5227efdb4a7eab1516f35239/000000_000000/0000/tree_342.root
/store/group/phys_higgs/hbb/ntuples/VHbbPostNano/2018/V12/TTToSemiLeptonic_TuneCP5_13TeV-powheg-pythia8/2bc34866efb4b665322b6affca8355b4bfe3b5c8ceb665a7aae9d43d/000000_000000/0000/tree_343.root
/store/group/phys_higgs/hbb/ntuples/VHbbPostNano/2018/V12/TTToSemiLeptonic_TuneCP5_13TeV-powheg-pythia8/8b5cee47cd4975e23d88301941b038ad6546f755410dbb05b90a0145/000000_000000/0000/tree_344.root
/store/group/phys_higgs/hbb/ntuples/VHbbPostNano/2018/V12/TTToSemiLeptonic_TuneCP5_13TeV-powheg-pythia8/fac889f9ee686096aff04819e853a2e3b1c8cef5d8e64a8778060b20/000000_000000/0000/tree_345.root
/store/group/phys_higgs/hbb/ntuples/VHbbPostNano/2018/V12/TTToSemiLeptonic_TuneCP5_13TeV-powheg-pythia8/ef2769b4497505b3b8858a038dd012d18a437354f3d9e05880d80f1a/000000_000000/0000/tree_346.root
/store/group/phys_higgs/hbb/ntuples/VHbbPostNano/2018/V12/TTToSemiLeptonic_TuneCP5_13TeV-powheg-pythia8/ad2f8e7138698721eeb3bce2c8ac766134f9177a67c675345e98b8f3/000000_000000/0000/tree_347.root
/store/group/phys_higgs/hbb/ntuples/VHbbPostNano/2018/V12/TTToSemiLeptonic_TuneCP5_13TeV-powheg-pythia8/9440ea99705ea4e2f999f8e7c150799497ac13ff4b2d1b513a626a7f/000000_000000/0000/tree_348.root
/store/group/phys_higgs/hbb/ntuples/VHbbPostNano/2018/V12/TTToSemiLeptonic_TuneCP5_13TeV-powheg-pythia8/40bfcc3e356f565a3c14a5da2bdfa97aa2dd6e7a6bd385fa41e231d0/000000_000000/0000/tree_349.root
/store/group/phys_higgs/hbb/ntuples/VHbbPostNano/2018/V12/TTToSemiLeptonic_TuneCP5_13TeV-powheg-pythia8/44c7206974711510d5c45435df6e81ab57a8060cad46f6a1854b11f9/000000_000000/0000/tree_350.root
/store/group/phys_higgs/hbb/ntuples/VHbbPostNano/2018/V12/TTToSemiLeptonic_TuneCP5_13TeV-powheg-pythia8/0bbaac7ec7712a7dd5060cd0246fc2b4d250d1f78b24f5a222825534/000000_000000/0000/tree_351.root
/store/group/phys_higgs/hbb/ntuples/VHbbPostNano/2018/V12/TTToSemiLeptonic_TuneCP5_13TeV-powheg-pythia8/dfd5b5b7a28f57b12b4ce9299e6ec254f4e51d294097bfc5d6a93530/000000_000000/0000/tree_352.root
/store/group/phys_higgs/hbb/ntuples/VHbbPostNano/2018/V12/TTToSemiLeptonic_TuneCP5_13TeV-powheg-pythia8/638d9a22e02e35216c39ddd748425a0ecbc30ff7d994fd1ab9857eaa/000000_000000/0000/tree_353.root
/store/group/phys_higgs/hbb/ntuples/VHbbPostNano/2018/V12/TTToSemiLeptonic_TuneCP5_13TeV-powheg-pythia8/5527b04a15cf51551f09b8a1839ced27e28ab830118b0ae0d221e8e7/000000_000000/0000/tree_354.root
/store/group/phys_higgs/hbb/ntuples/VHbbPostNano/2018/V12/TTToSemiLeptonic_TuneCP5_13TeV-powheg-pythia8/3b03c6538e34fce35c10eaa87a706289610b91b3e12290aacb2c65b3/000000_000000/0000/tree_355.root
/store/group/phys_higgs/hbb/ntuples/VHbbPostNano/2018/V12/TTToSemiLeptonic_TuneCP5_13TeV-powheg-pythia8/0bb93e052fcbe537fc302642efde9fca90a0c3b2412d68b9050004b2/000000_000000/0000/tree_356.root
/store/group/phys_higgs/hbb/ntuples/VHbbPostNano/2018/V12/TTToSemiLeptonic_TuneCP5_13TeV-powheg-pythia8/35e5d7e0f2c1d7947cf44aed035669463d0770bafc5cfa2085f5fd9c/000000_000000/0000/tree_357.root
/store/group/phys_higgs/hbb/ntuples/VHbbPostNano/2018/V12/TTToSemiLeptonic_TuneCP5_13TeV-powheg-pythia8/1c2a25b949db2c7e15af83681d52e57648043c5b2a3ada7a9f7f46d8/000000_000000/0000/tree_358.root
/store/group/phys_higgs/hbb/ntuples/VHbbPostNano/2018/V12/TTToSemiLeptonic_TuneCP5_13TeV-powheg-pythia8/67eecc8aab573dfb9e14a4e80a677e09f9ca37a429918eda4c170b6a/000000_000000/0000/tree_359.root
/store/group/phys_higgs/hbb/ntuples/VHbbPostNano/2018/V12/TTToSemiLeptonic_TuneCP5_13TeV-powheg-pythia8/16639cd12ea44478f331f54d763e3cb1a5a0c635ea8989f8cb5075f2/000000_000000/0000/tree_360.root
/store/group/phys_higgs/hbb/ntuples/VHbbPostNano/2018/V12/TTToSemiLeptonic_TuneCP5_13TeV-powheg-pythia8/49da494d87428ded2c1a548e04162f3955c9e3f408ba3a846e1d5943/000000_000000/0000/tree_361.root
/store/group/phys_higgs/hbb/ntuples/VHbbPostNano/2018/V12/TTToSemiLeptonic_TuneCP5_13TeV-powheg-pythia8/a67723cd9c83abe10e53d92c9c91dfe952451a9d7ecd0c6370f2b916/000000_000000/0000/tree_362.root
/store/group/phys_higgs/hbb/ntuples/VHbbPostNano/2018/V12/TTToSemiLeptonic_TuneCP5_13TeV-powheg-pythia8/f250031f6e8c907641c0c931ccf51b002af06ebcb63114e1fd7e68d2/000000_000000/0000/tree_363.root
/store/group/phys_higgs/hbb/ntuples/VHbbPostNano/2018/V12/TTToSemiLeptonic_TuneCP5_13TeV-powheg-pythia8/36a726f4ace5b655e48b6c88d4cfd293b23e6b5d81bb8285fee16614/000000_000000/0000/tree_364.root
/store/group/phys_higgs/hbb/ntuples/VHbbPostNano/2018/V12/TTToSemiLeptonic_TuneCP5_13TeV-powheg-pythia8/9f766f4e2b5ee9b1737fc1d226c3945261573618bb1bdbba618879e3/000000_000000/0000/tree_365.root
/store/group/phys_higgs/hbb/ntuples/VHbbPostNano/2018/V12/TTToSemiLeptonic_TuneCP5_13TeV-powheg-pythia8/ac8c35f8c3840f0e2eb327977dfb522f0fe7670ccc5e09d92be037fe/000000_000000/0000/tree_366.root
/store/group/phys_higgs/hbb/ntuples/VHbbPostNano/2018/V12/TTToSemiLeptonic_TuneCP5_13TeV-powheg-pythia8/ba21d73447b4a2e23cb9bc53c1378d50a20d07cc7ea7da2fc8df909f/000000_000000/0000/tree_367.root
/store/group/phys_higgs/hbb/ntuples/VHbbPostNano/2018/V12/TTToSemiLeptonic_TuneCP5_13TeV-powheg-pythia8/1fc69caeea238ecdc9a5e407ea85d47a967b23f5a7624150e786173a/000000_000000/0000/tree_368.root
/store/group/phys_higgs/hbb/ntuples/VHbbPostNano/2018/V12/TTToSemiLeptonic_TuneCP5_13TeV-powheg-pythia8/d346ec928512c8b848fb087dd640b9e1886f5ce443b247dd34ef3959/000000_000000/0000/tree_369.root
/store/group/phys_higgs/hbb/ntuples/VHbbPostNano/2018/V12/TTToSemiLeptonic_TuneCP5_13TeV-powheg-pythia8/2295f901b8dacdfec51d1962b9828cc1d6a367238e0812ab8a82199b/000000_000000/0000/tree_370.root
/store/group/phys_higgs/hbb/ntuples/VHbbPostNano/2018/V12/TTToSemiLeptonic_TuneCP5_13TeV-powheg-pythia8/fec2727cf8cdb31d21c875024ac7901e6194dc42ae2f8f4e19324a68/000000_000000/0000/tree_371.root
/store/group/phys_higgs/hbb/ntuples/VHbbPostNano/2018/V12/TTToSemiLeptonic_TuneCP5_13TeV-powheg-pythia8/5fb50b72c9085fb251dfe3bba2fc3891c8a182923373e399de93f463/000000_000000/0000/tree_372.root
/store/group/phys_higgs/hbb/ntuples/VHbbPostNano/2018/V12/TTToSemiLeptonic_TuneCP5_13TeV-powheg-pythia8/98b245ba6d102be96942b879673b717871f16c66b83fc1c120abd961/000000_000000/0000/tree_373.root
/store/group/phys_higgs/hbb/ntuples/VHbbPostNano/2018/V12/TTToSemiLeptonic_TuneCP5_13TeV-powheg-pythia8/c2c0002ffb9897b986c8276cae6b0d66107a9813fe3767d10ef611ad/000000_000000/0000/tree_374.root
/store/group/phys_higgs/hbb/ntuples/VHbbPostNano/2018/V12/TTToSemiLeptonic_TuneCP5_13TeV-powheg-pythia8/2e51bea4a1b4ae8789628b3472a3473683c0c76ade079daebc93a537/000000_000000/0000/tree_375.root
/store/group/phys_higgs/hbb/ntuples/VHbbPostNano/2018/V12/TTToSemiLeptonic_TuneCP5_13TeV-powheg-pythia8/a6b8c893a83321b18d160c565662b893435e8b04a9ec5a4cddb90609/000000_000000/0000/tree_376.root
/store/group/phys_higgs/hbb/ntuples/VHbbPostNano/2018/V12/TTToSemiLeptonic_TuneCP5_13TeV-powheg-pythia8/5f7ee38f0db01b2e288034e6e9d127b25700bd2e588fc0b6a61645d2/000000_000000/0000/tree_377.root
/store/group/phys_higgs/hbb/ntuples/VHbbPostNano/2018/V12/TTToSemiLeptonic_TuneCP5_13TeV-powheg-pythia8/2ca6aaaf6907b82ecd37f006cee4d363d3b6011a4213c18f24520c90/000000_000000/0000/tree_378.root
/store/group/phys_higgs/hbb/ntuples/VHbbPostNano/2018/V12/TTToSemiLeptonic_TuneCP5_13TeV-powheg-pythia8/f6c1a58525278497d85e9cc388ff43aa13a040bc6767226885301416/000000_000000/0000/tree_379.root
/store/group/phys_higgs/hbb/ntuples/VHbbPostNano/2018/V12/TTToSemiLeptonic_TuneCP5_13TeV-powheg-pythia8/0dc49192680ed9baae9de234b68ceb3612d4b76f4528527c023d5651/000000_000000/0000/tree_380.root
/store/group/phys_higgs/hbb/ntuples/VHbbPostNano/2018/V12/TTToSemiLeptonic_TuneCP5_13TeV-powheg-pythia8/ccc4c88909603a0b1725c6ee8a245bcbb3f4b7eecbeff638dc01219e/000000_000000/0000/tree_381.root
/store/group/phys_higgs/hbb/ntuples/VHbbPostNano/2018/V12/TTToSemiLeptonic_TuneCP5_13TeV-powheg-pythia8/263c1b701dadeed0f10e3d06eccb1462bbaac9c391e9669504f5fa7c/000000_000000/0000/tree_382.root
/store/group/phys_higgs/hbb/ntuples/VHbbPostNano/2018/V12/TTToSemiLeptonic_TuneCP5_13TeV-powheg-pythia8/c12813308952b088d1c4039be7f6aa3247bb6c4cc1b2a8c14e7c4ea7/000000_000000/0000/tree_383.root
/store/group/phys_higgs/hbb/ntuples/VHbbPostNano/2018/V12/TTToSemiLeptonic_TuneCP5_13TeV-powheg-pythia8/015cff9fb21774e1ed5b76c91c84f19bedc83670c5a1b12328d5e7eb/000000_000000/0000/tree_384.root
/store/group/phys_higgs/hbb/ntuples/VHbbPostNano/2018/V12/TTToSemiLeptonic_TuneCP5_13TeV-powheg-pythia8/b6a4646416fc538a3f85da7917d195c76805be9e427c67b028f5f5f4/000000_000000/0000/tree_385.root
/store/group/phys_higgs/hbb/ntuples/VHbbPostNano/2018/V12/TTToSemiLeptonic_TuneCP5_13TeV-powheg-pythia8/f0a5f6d8a32690f4ea00eda1ed1736a66c391505b3af8529130b0c4a/000000_000000/0000/tree_386.root
/store/group/phys_higgs/hbb/ntuples/VHbbPostNano/2018/V12/TTToSemiLeptonic_TuneCP5_13TeV-powheg-pythia8/237bb23afd004dd221dcfc81aa96fce5a132cfc80954d990d7bc07e2/000000_000000/0000/tree_387.root
/store/group/phys_higgs/hbb/ntuples/VHbbPostNano/2018/V12/TTToSemiLeptonic_TuneCP5_13TeV-powheg-pythia8/fe6dcddd5d5436fa9b86728aa76e68043e079d8abd505b503d54179c/000000_000000/0000/tree_388.root
/store/group/phys_higgs/hbb/ntuples/VHbbPostNano/2018/V12/TTToSemiLeptonic_TuneCP5_13TeV-powheg-pythia8/6575bede68a806af8c92e1daf9cc261bcaebd7226083f3e043b7a8d4/000000_000000/0000/tree_389.root
/store/group/phys_higgs/hbb/ntuples/VHbbPostNano/2018/V12/TTToSemiLeptonic_TuneCP5_13TeV-powheg-pythia8/d5df9c9fd4148d4005b64006e6f5ad40a6c0ca92fefec2ac6a1a16c6/000000_000000/0000/tree_390.root
/store/group/phys_higgs/hbb/ntuples/VHbbPostNano/2018/V12/TTToSemiLeptonic_TuneCP5_13TeV-powheg-pythia8/cbaa9b88043222186efff72ecd751ecb1a4c6af7716957fcc85015fd/000000_000000/0000/tree_391.root
/store/group/phys_higgs/hbb/ntuples/VHbbPostNano/2018/V12/TTToSemiLeptonic_TuneCP5_13TeV-powheg-pythia8/a6c6a717fc904fcab3ddc240f75c50da8a71221a618efc24b90aaf4b/000000_000000/0000/tree_392.root
/store/group/phys_higgs/hbb/ntuples/VHbbPostNano/2018/V12/TTToSemiLeptonic_TuneCP5_13TeV-powheg-pythia8/4c96aa25fc813d7f33091130673ffa8cfe7ea0e3b800190700a18683/000000_000000/0000/tree_393.root
/store/group/phys_higgs/hbb/ntuples/VHbbPostNano/2018/V12/TTToSemiLeptonic_TuneCP5_13TeV-powheg-pythia8/30a905fca194f0a0a1903e32ff5a6bd664aba7a6483d7c3367a86c29/000000_000000/0000/tree_394.root
/store/group/phys_higgs/hbb/ntuples/VHbbPostNano/2018/V12/TTToSemiLeptonic_TuneCP5_13TeV-powheg-pythia8/2fec13e52ec9159bf577df4fc632040d903972391e4f1b4e65d9c944/000000_000000/0000/tree_395.root
/store/group/phys_higgs/hbb/ntuples/VHbbPostNano/2018/V12/TTToSemiLeptonic_TuneCP5_13TeV-powheg-pythia8/2dbeccea37d4a81a6d5c8ebaa250744d34be93cf9fe18ba8b85380fe/000000_000000/0000/tree_396.root
/store/group/phys_higgs/hbb/ntuples/VHbbPostNano/2018/V12/TTToSemiLeptonic_TuneCP5_13TeV-powheg-pythia8/aef0c80a6788fab48b18e1642c3d48df0c68d049a0b35dd05354211c/000000_000000/0000/tree_397.root
/store/group/phys_higgs/hbb/ntuples/VHbbPostNano/2018/V12/TTToSemiLeptonic_TuneCP5_13TeV-powheg-pythia8/414a6aab63a321e974822468a8ce7f2d8cc669f8e6168e2cc6c5ebe0/000000_000000/0000/tree_398.root
/store/group/phys_higgs/hbb/ntuples/VHbbPostNano/2018/V12/TTToSemiLeptonic_TuneCP5_13TeV-powheg-pythia8/7ee1b8367417e526484c51809f3ae05ab12e7bb941b61ff616203614/000000_000000/0000/tree_399.root
/store/group/phys_higgs/hbb/ntuples/VHbbPostNano/2018/V12/TTToSemiLeptonic_TuneCP5_13TeV-powheg-pythia8/0314d199f59001d138ecb1c1f290349374c1f754db6365e49cf08f3c/000000_000000/0000/tree_400.root
/store/group/phys_higgs/hbb/ntuples/VHbbPostNano/2018/V12/TTToSemiLeptonic_TuneCP5_13TeV-powheg-pythia8/45074823d7eabe9921a32ef74bbf37bd618be9bbb28884bec312b817/000000_000000/0000/tree_401.root
/store/group/phys_higgs/hbb/ntuples/VHbbPostNano/2018/V12/TTToSemiLeptonic_TuneCP5_13TeV-powheg-pythia8/8892c83fa8d160534a1095b579f144b26a0a6d44f80850a028f58cde/000000_000000/0000/tree_402.root
/store/group/phys_higgs/hbb/ntuples/VHbbPostNano/2018/V12/TTToSemiLeptonic_TuneCP5_13TeV-powheg-pythia8/3acebef4bc5fb204fbf2a4de8d383114e984ee2cd650ec7ed24d7c50/000000_000000/0000/tree_403.root
/store/group/phys_higgs/hbb/ntuples/VHbbPostNano/2018/V12/TTToSemiLeptonic_TuneCP5_13TeV-powheg-pythia8/790eac8fb25f69782483ea3928294832e6712c39cf0d5c34512d7fad/000000_000000/0000/tree_404.root
/store/group/phys_higgs/hbb/ntuples/VHbbPostNano/2018/V12/TTToSemiLeptonic_TuneCP5_13TeV-powheg-pythia8/cf7fa32b312d289712ca118c13b62748989d979bbd7729bc398b163b/000000_000000/0000/tree_405.root
/store/group/phys_higgs/hbb/ntuples/VHbbPostNano/2018/V12/TTToSemiLeptonic_TuneCP5_13TeV-powheg-pythia8/9588cee71ebdc5f50b97e121b3c7f5401c7e810b90d0315fc5a74d2e/000000_000000/0000/tree_406.root
/store/group/phys_higgs/hbb/ntuples/VHbbPostNano/2018/V12/TTToSemiLeptonic_TuneCP5_13TeV-powheg-pythia8/afe06300a43092a773505555d58ee3a8d729f97d265757bfe6904805/000000_000000/0000/tree_407.root
/store/group/phys_higgs/hbb/ntuples/VHbbPostNano/2018/V12/TTToSemiLeptonic_TuneCP5_13TeV-powheg-pythia8/a756bfe399a3e28c5f8f5b5f066fd9b0fd83e7ac5ece7f8eda75cc8f/000000_000000/0000/tree_408.root
/store/group/phys_higgs/hbb/ntuples/VHbbPostNano/2018/V12/TTToSemiLeptonic_TuneCP5_13TeV-powheg-pythia8/db970ea24ae28a49497d12292fcfa7c1529f4bb751c0748261878edf/000000_000000/0000/tree_409.root
/store/group/phys_higgs/hbb/ntuples/VHbbPostNano/2018/V12/TTToSemiLeptonic_TuneCP5_13TeV-powheg-pythia8/9f85a453cadb8d797dca34f7e977e2ce3c0e050a893b88411232eac7/000000_000000/0000/tree_410.root
/store/group/phys_higgs/hbb/ntuples/VHbbPostNano/2018/V12/TTToSemiLeptonic_TuneCP5_13TeV-powheg-pythia8/5a95c7d7cd271ed71b6504986fd341a63f44f78f5c712a8a2efaf63e/000000_000000/0000/tree_411.root
/store/group/phys_higgs/hbb/ntuples/VHbbPostNano/2018/V12/TTToSemiLeptonic_TuneCP5_13TeV-powheg-pythia8/87674c590cdcad5b1a11aa8285cafbd424d124b5e3ab1de8a0c64e48/000000_000000/0000/tree_412.root
/store/group/phys_higgs/hbb/ntuples/VHbbPostNano/2018/V12/TTToSemiLeptonic_TuneCP5_13TeV-powheg-pythia8/b621cd200e71867bcc55f5f18538f7d90b31965821a8d240fabbf8a3/000000_000000/0000/tree_413.root
/store/group/phys_higgs/hbb/ntuples/VHbbPostNano/2018/V12/TTToSemiLeptonic_TuneCP5_13TeV-powheg-pythia8/5ddb6b584b131652db12da17a902235b2d82b628adf532a0a9015895/000000_000000/0000/tree_414.root
/store/group/phys_higgs/hbb/ntuples/VHbbPostNano/2018/V12/TTToSemiLeptonic_TuneCP5_13TeV-powheg-pythia8/d787c6e7b1e1ba0c3d8570e3a0d2d378f020aba6051999f4e4cb54b4/000000_000000/0000/tree_415.root
/store/group/phys_higgs/hbb/ntuples/VHbbPostNano/2018/V12/TTToSemiLeptonic_TuneCP5_13TeV-powheg-pythia8/1c47d5d4acba0ffb306ec668bc2273244facf1b12579002f6a7776f3/000000_000000/0000/tree_416.root
/store/group/phys_higgs/hbb/ntuples/VHbbPostNano/2018/V12/TTToSemiLeptonic_TuneCP5_13TeV-powheg-pythia8/74b4b2b0c5e6402455cac9e818e815b4c6c4e4ec290559d0dd5dc96e/000000_000000/0000/tree_417.root
/store/group/phys_higgs/hbb/ntuples/VHbbPostNano/2018/V12/TTToSemiLeptonic_TuneCP5_13TeV-powheg-pythia8/86616c50bb33e7ec0b8e0d824a62b0cd231791e2ab4780e19c5e8ab5/000000_000000/0000/tree_418.root
/store/group/phys_higgs/hbb/ntuples/VHbbPostNano/2018/V12/TTToSemiLeptonic_TuneCP5_13TeV-powheg-pythia8/e81e8bdefb808361e3278827b9789f1190439af05610db79a14e4d69/000000_000000/0000/tree_419.root
/store/group/phys_higgs/hbb/ntuples/VHbbPostNano/2018/V12/TTToSemiLeptonic_TuneCP5_13TeV-powheg-pythia8/b916b7ae2bab1619a34eb12349ff5664d65e5081887535e7f55a3323/000000_000000/0000/tree_420.root
/store/group/phys_higgs/hbb/ntuples/VHbbPostNano/2018/V12/TTToSemiLeptonic_TuneCP5_13TeV-powheg-pythia8/355cf5c0c3f0f4afc49f1f971da569acaae27b5b7d7b9b2ce7e450d0/000000_000000/0000/tree_421.root
/store/group/phys_higgs/hbb/ntuples/VHbbPostNano/2018/V12/TTToSemiLeptonic_TuneCP5_13TeV-powheg-pythia8/41e4138c1b1fe87593b77a901f25710a2e19aacc1b0ad50c187b9b48/000000_000000/0000/tree_422.root
/store/group/phys_higgs/hbb/ntuples/VHbbPostNano/2018/V12/TTToSemiLeptonic_TuneCP5_13TeV-powheg-pythia8/d574ed1493a9d23ff36eb93494a0d021bfb379e07afad08ad30b362c/000000_000000/0000/tree_423.root
/store/group/phys_higgs/hbb/ntuples/VHbbPostNano/2018/V12/TTToSemiLeptonic_TuneCP5_13TeV-powheg-pythia8/bf8c1118b8f613a6a5c512fab51a972039217700c8bffe768432488b/000000_000000/0000/tree_424.root
/store/group/phys_higgs/hbb/ntuples/VHbbPostNano/2018/V12/TTToSemiLeptonic_TuneCP5_13TeV-powheg-pythia8/55b55ae19017b6cc616104670a8964d1a307a1802723e82f08682ab2/000000_000000/0000/tree_425.root
/store/group/phys_higgs/hbb/ntuples/VHbbPostNano/2018/V12/TTToSemiLeptonic_TuneCP5_13TeV-powheg-pythia8/9122d0b9a1af55c94662e3a74c47c0b9b8e42fd42256b967a6b17ea1/000000_000000/0000/tree_426.root
/store/group/phys_higgs/hbb/ntuples/VHbbPostNano/2018/V12/TTToSemiLeptonic_TuneCP5_13TeV-powheg-pythia8/c0ff161d80ebefddd11214aac854deb860a56c7dda38ec519a3fc35a/000000_000000/0000/tree_427.root
/store/group/phys_higgs/hbb/ntuples/VHbbPostNano/2018/V12/TTToSemiLeptonic_TuneCP5_13TeV-powheg-pythia8/eb641d7c7a166c3513e6eb7a1d78320a5303065f3e798d0e31c239fa/000000_000000/0000/tree_428.root
/store/group/phys_higgs/hbb/ntuples/VHbbPostNano/2018/V12/TTToSemiLeptonic_TuneCP5_13TeV-powheg-pythia8/ff90a6e66e67538c6b6e40fbd0a4338fc09af88e3e3c4725289daab5/000000_000000/0000/tree_429.root
/store/group/phys_higgs/hbb/ntuples/VHbbPostNano/2018/V12/TTToSemiLeptonic_TuneCP5_13TeV-powheg-pythia8/f804a0ec8274cccf5e2a51d68084b367b64386d4606858fe7c7b9d98/000000_000000/0000/tree_430.root
/store/group/phys_higgs/hbb/ntuples/VHbbPostNano/2018/V12/TTToSemiLeptonic_TuneCP5_13TeV-powheg-pythia8/fc45b50f65066a9cb1555abcfb2520220057d581e045e6b2839fe61d/000000_000000/0000/tree_431.root
/store/group/phys_higgs/hbb/ntuples/VHbbPostNano/2018/V12/TTToSemiLeptonic_TuneCP5_13TeV-powheg-pythia8/2b8f72aa9c2eb00549a4b38e9d7f4594f6e84a2b5c7dc2ce794357ed/000000_000000/0000/tree_432.root
/store/group/phys_higgs/hbb/ntuples/VHbbPostNano/2018/V12/TTToSemiLeptonic_TuneCP5_13TeV-powheg-pythia8/d2c97ba6d6cae76dc369ea2732926d55848a0923b6ad3bac6b5a7c92/000000_000000/0000/tree_433.root
/store/group/phys_higgs/hbb/ntuples/VHbbPostNano/2018/V12/TTToSemiLeptonic_TuneCP5_13TeV-powheg-pythia8/7936be5c28c381327b67b72c22e4df7fc2bd193ce6405d0a81428a3b/000000_000000/0000/tree_434.root
/store/group/phys_higgs/hbb/ntuples/VHbbPostNano/2018/V12/TTToSemiLeptonic_TuneCP5_13TeV-powheg-pythia8/e667c242521f8cd29fd45236c504f7a308dd04111729d2e8e4b8279b/000000_000000/0000/tree_435.root
/store/group/phys_higgs/hbb/ntuples/VHbbPostNano/2018/V12/TTToSemiLeptonic_TuneCP5_13TeV-powheg-pythia8/677cd0dd897a546a53168bc52bfaf9f9ad9a33e80b631e5e13381198/000000_000000/0000/tree_436.root
/store/group/phys_higgs/hbb/ntuples/VHbbPostNano/2018/V12/TTToSemiLeptonic_TuneCP5_13TeV-powheg-pythia8/a11b739b861bf8ea49286db57b6a3fa58888efac5c1b98baf8ede014/000000_000000/0000/tree_437.root
/store/group/phys_higgs/hbb/ntuples/VHbbPostNano/2018/V12/TTToSemiLeptonic_TuneCP5_13TeV-powheg-pythia8/65461f12f22dbbc02e7665b3360894353f53717d04b5d50e25b3c0ed/000000_000000/0000/tree_438.root
/store/group/phys_higgs/hbb/ntuples/VHbbPostNano/2018/V12/TTToSemiLeptonic_TuneCP5_13TeV-powheg-pythia8/005fdb9b16d06d3e064242db0cad4d9dc817c17177ad214c18ef7aba/000000_000000/0000/tree_439.root
/store/group/phys_higgs/hbb/ntuples/VHbbPostNano/2018/V12/TTToSemiLeptonic_TuneCP5_13TeV-powheg-pythia8/006a36b9f8c52831bfff9f8922dc018e4b8122a7fcbac058485e830d/000000_000000/0000/tree_440.root
/store/group/phys_higgs/hbb/ntuples/VHbbPostNano/2018/V12/TTToSemiLeptonic_TuneCP5_13TeV-powheg-pythia8/ec038c4781114e20fe93c44361415af2eb062b79d7e6bddd27982e1c/000000_000000/0000/tree_441.root
/store/group/phys_higgs/hbb/ntuples/VHbbPostNano/2018/V12/TTToSemiLeptonic_TuneCP5_13TeV-powheg-pythia8/48c1e674786168d6606c12328ed5542fbf4d13470fab75c12d372d54/000000_000000/0000/tree_442.root
/store/group/phys_higgs/hbb/ntuples/VHbbPostNano/2018/V12/TTToSemiLeptonic_TuneCP5_13TeV-powheg-pythia8/a754295f84cc6a2796bb793f5adc2b56c0887a363d75213238c3d717/000000_000000/0000/tree_443.root
/store/group/phys_higgs/hbb/ntuples/VHbbPostNano/2018/V12/TTToSemiLeptonic_TuneCP5_13TeV-powheg-pythia8/66091d12b6bfd55ce5961f034adf341a889253f07bf4c3a9734f9502/000000_000000/0000/tree_444.root
/store/group/phys_higgs/hbb/ntuples/VHbbPostNano/2018/V12/TTToSemiLeptonic_TuneCP5_13TeV-powheg-pythia8/622476d35fe36bdb89a7c0c9cc184ed29a04e8929c4e7b88522f393e/000000_000000/0000/tree_445.root
/store/group/phys_higgs/hbb/ntuples/VHbbPostNano/2018/V12/TTToSemiLeptonic_TuneCP5_13TeV-powheg-pythia8/3c78b0f710f65eb8ea1cd695a1beb1554eb2b3b59d539e85683fd010/000000_000000/0000/tree_446.root
/store/group/phys_higgs/hbb/ntuples/VHbbPostNano/2018/V12/TTToSemiLeptonic_TuneCP5_13TeV-powheg-pythia8/691c79ce16685b54f4940447c32bc3952e650c5a3d655774d0f6a88c/000000_000000/0000/tree_447.root
/store/group/phys_higgs/hbb/ntuples/VHbbPostNano/2018/V12/TTToSemiLeptonic_TuneCP5_13TeV-powheg-pythia8/fe6cb1450700f801d4a35be181afa84b8cc0507dd9151e94d1c009b1/000000_000000/0000/tree_448.root
/store/group/phys_higgs/hbb/ntuples/VHbbPostNano/2018/V12/TTToSemiLeptonic_TuneCP5_13TeV-powheg-pythia8/b5d3bdfe3be2d04c96105c4388558b53d851b76b066c338541a60c44/000000_000000/0000/tree_449.root
/store/group/phys_higgs/hbb/ntuples/VHbbPostNano/2018/V12/TTToSemiLeptonic_TuneCP5_13TeV-powheg-pythia8/fd437dde88c46890b9cfee1fea90a372e6a362d3ab87a1c2ab01d8bb/000000_000000/0000/tree_450.root
/store/group/phys_higgs/hbb/ntuples/VHbbPostNano/2018/V12/TTToSemiLeptonic_TuneCP5_13TeV-powheg-pythia8/c7ff41ef25847e78632154ec39014a0805baa000d0d5c89c53004d19/000000_000000/0000/tree_451.root
/store/group/phys_higgs/hbb/ntuples/VHbbPostNano/2018/V12/TTToSemiLeptonic_TuneCP5_13TeV-powheg-pythia8/0e3a9866e671f302cee453b0cd5c4198eb964265581bb4626e101305/000000_000000/0000/tree_452.root
/store/group/phys_higgs/hbb/ntuples/VHbbPostNano/2018/V12/TTToSemiLeptonic_TuneCP5_13TeV-powheg-pythia8/ce6c547962f458e84612657db1f864d1ef203809373b81ebbd647224/000000_000000/0000/tree_453.root
/store/group/phys_higgs/hbb/ntuples/VHbbPostNano/2018/V12/TTToSemiLeptonic_TuneCP5_13TeV-powheg-pythia8/daef899fc7e287ccf2d146145c19549fbd58cba3176036e7e76c27f6/000000_000000/0000/tree_454.root
/store/group/phys_higgs/hbb/ntuples/VHbbPostNano/2018/V12/TTToSemiLeptonic_TuneCP5_13TeV-powheg-pythia8/2dbd36549b47770712e0463ec689009d8c24432d45324ee6e30e89ed/000000_000000/0000/tree_455.root
/store/group/phys_higgs/hbb/ntuples/VHbbPostNano/2018/V12/TTToSemiLeptonic_TuneCP5_13TeV-powheg-pythia8/01e653fcc11ffe04641aca068a8a5507196ae63878be88681d0630cd/000000_000000/0000/tree_456.root
/store/group/phys_higgs/hbb/ntuples/VHbbPostNano/2018/V12/TTToSemiLeptonic_TuneCP5_13TeV-powheg-pythia8/e058f3dff34aa10de63bd5a96aec607a68df8061ba9c7608c5dc1314/000000_000000/0000/tree_457.root
/store/group/phys_higgs/hbb/ntuples/VHbbPostNano/2018/V12/TTToSemiLeptonic_TuneCP5_13TeV-powheg-pythia8/3287d15757f7153d233093be3ade2995d47602ae913ccfb4e03f1547/000000_000000/0000/tree_458.root
/store/group/phys_higgs/hbb/ntuples/VHbbPostNano/2018/V12/TTToSemiLeptonic_TuneCP5_13TeV-powheg-pythia8/d25355affcee279fc3afdd080f80706b8ac45d1cd50a35fcc49150f9/000000_000000/0000/tree_459.root
/store/group/phys_higgs/hbb/ntuples/VHbbPostNano/2018/V12/TTToSemiLeptonic_TuneCP5_13TeV-powheg-pythia8/d11dc79f2b6ee2a2c94294dab7bbd53833f28a8dd51a8dde0df5604d/000000_000000/0000/tree_460.root
/store/group/phys_higgs/hbb/ntuples/VHbbPostNano/2018/V12/TTToSemiLeptonic_TuneCP5_13TeV-powheg-pythia8/8622047f27cce99cfe5dbb8ef4609e9fd23a39c880400cd017ea2e81/000000_000000/0000/tree_461.root
/store/group/phys_higgs/hbb/ntuples/VHbbPostNano/2018/V12/TTToSemiLeptonic_TuneCP5_13TeV-powheg-pythia8/37c001d862db689df86b1eeab4c0b41608150481ea1e82ccfc0bd2b7/000000_000000/0000/tree_462.root
/store/group/phys_higgs/hbb/ntuples/VHbbPostNano/2018/V12/TTToSemiLeptonic_TuneCP5_13TeV-powheg-pythia8/6aa602defc815ec2c20995b2d237c9cd52e278f199aad2ddcbd9f783/000000_000000/0000/tree_463.root
/store/group/phys_higgs/hbb/ntuples/VHbbPostNano/2018/V12/TTToSemiLeptonic_TuneCP5_13TeV-powheg-pythia8/64d79e9bf0036d7d9b7b44f99d2f47f53ba76a039329777dd5f16cfd/000000_000000/0000/tree_464.root
/store/group/phys_higgs/hbb/ntuples/VHbbPostNano/2018/V12/TTToSemiLeptonic_TuneCP5_13TeV-powheg-pythia8/79c26608c53bb2b1e01f4f76796adfd4de2a44396b0130a66b66502f/000000_000000/0000/tree_465.root
/store/group/phys_higgs/hbb/ntuples/VHbbPostNano/2018/V12/TTToSemiLeptonic_TuneCP5_13TeV-powheg-pythia8/bab94058af80732536f231801c5064224f1b067394f533d68983b97a/000000_000000/0000/tree_466.root
/store/group/phys_higgs/hbb/ntuples/VHbbPostNano/2018/V12/TTToSemiLeptonic_TuneCP5_13TeV-powheg-pythia8/84e2db107fc34731d432235b7f81d036a18b073c6120adf14ca2ee4b/000000_000000/0000/tree_467.root
/store/group/phys_higgs/hbb/ntuples/VHbbPostNano/2018/V12/TTToSemiLeptonic_TuneCP5_13TeV-powheg-pythia8/a50b691288dba5384e6b1875184e0bafaafa427d281324ac0d040587/000000_000000/0000/tree_468.root
/store/group/phys_higgs/hbb/ntuples/VHbbPostNano/2018/V12/TTToSemiLeptonic_TuneCP5_13TeV-powheg-pythia8/93d56efb68bccce805fa2d7565f2eedd866519de54740c582cd4170d/000000_000000/0000/tree_469.root
/store/group/phys_higgs/hbb/ntuples/VHbbPostNano/2018/V12/TTToSemiLeptonic_TuneCP5_13TeV-powheg-pythia8/58386a7689d7fdf01cc82a5e506ef8495e53e99402faa681629d631f/000000_000000/0000/tree_470.root
/store/group/phys_higgs/hbb/ntuples/VHbbPostNano/2018/V12/TTToSemiLeptonic_TuneCP5_13TeV-powheg-pythia8/76fc3efa12a3d7eeb5a4af7392438973b45ad1c221bc47f88fb4b895/000000_000000/0000/tree_471.root
/store/group/phys_higgs/hbb/ntuples/VHbbPostNano/2018/V12/TTToSemiLeptonic_TuneCP5_13TeV-powheg-pythia8/475e5b972e4fd5a80952ceaba2232d76713efcb7dce0e4242452ca73/000000_000000/0000/tree_472.root
/store/group/phys_higgs/hbb/ntuples/VHbbPostNano/2018/V12/TTToSemiLeptonic_TuneCP5_13TeV-powheg-pythia8/7522709e5308869804ac84225b8bd8d61a81ccd79cc776d06928409a/000000_000000/0000/tree_473.root
/store/group/phys_higgs/hbb/ntuples/VHbbPostNano/2018/V12/TTToSemiLeptonic_TuneCP5_13TeV-powheg-pythia8/86eb1637d35df1e943cac2f8b053d77022e3d8205decbed5facdf4b4/000000_000000/0000/tree_474.root
/store/group/phys_higgs/hbb/ntuples/VHbbPostNano/2018/V12/TTToSemiLeptonic_TuneCP5_13TeV-powheg-pythia8/de32c464afa352438277a15a4dcc7ba679e938fcaca3937fe97425dd/000000_000000/0000/tree_475.root
/store/group/phys_higgs/hbb/ntuples/VHbbPostNano/2018/V12/TTToSemiLeptonic_TuneCP5_13TeV-powheg-pythia8/e5f864c848c0a7b8c4409225234453f2b52c902fca168c6bb66b1ee7/000000_000000/0000/tree_476.root
/store/group/phys_higgs/hbb/ntuples/VHbbPostNano/2018/V12/TTToSemiLeptonic_TuneCP5_13TeV-powheg-pythia8/1d6ad03ca08e980d3c028424091c4dc371a68ae9c5032a14e0045153/000000_000000/0000/tree_477.root
/store/group/phys_higgs/hbb/ntuples/VHbbPostNano/2018/V12/TTToSemiLeptonic_TuneCP5_13TeV-powheg-pythia8/9e65625cdee76a4978fbcd64b6a7fb72d7359792f4e5dc05a2a16e19/000000_000000/0000/tree_478.root
/store/group/phys_higgs/hbb/ntuples/VHbbPostNano/2018/V12/TTToSemiLeptonic_TuneCP5_13TeV-powheg-pythia8/436d47f5ec3fcd7236df2611f882a2c1959e5d67fcb9323925198bb4/000000_000000/0000/tree_479.root
/store/group/phys_higgs/hbb/ntuples/VHbbPostNano/2018/V12/TTToSemiLeptonic_TuneCP5_13TeV-powheg-pythia8/0bff2c6c5285debd2039fcb435ec3111621ddefdd4bcdf0b164c4dda/000000_000000/0000/tree_480.root
/store/group/phys_higgs/hbb/ntuples/VHbbPostNano/2018/V12/TTToSemiLeptonic_TuneCP5_13TeV-powheg-pythia8/3ec9a9de3371b53824d38a7da6df406846bee4e6d29c8edf5a31cae1/000000_000000/0000/tree_481.root
/store/group/phys_higgs/hbb/ntuples/VHbbPostNano/2018/V12/TTToSemiLeptonic_TuneCP5_13TeV-powheg-pythia8/668eef9d2544ea077231395c046aa779df37579a35666f55d88c558c/000000_000000/0000/tree_482.root
/store/group/phys_higgs/hbb/ntuples/VHbbPostNano/2018/V12/TTToSemiLeptonic_TuneCP5_13TeV-powheg-pythia8/6efc1e0aede0466c7b8195ed092b7ff577d664040725c33cf8069a1e/000000_000000/0000/tree_483.root
/store/group/phys_higgs/hbb/ntuples/VHbbPostNano/2018/V12/TTToSemiLeptonic_TuneCP5_13TeV-powheg-pythia8/ee941c9aad67fdb3cb335c7f5b9d994e2b6407fdcb925cab32ec1b7a/000000_000000/0000/tree_484.root
/store/group/phys_higgs/hbb/ntuples/VHbbPostNano/2018/V12/TTToSemiLeptonic_TuneCP5_13TeV-powheg-pythia8/94c3ba71519cb9b3f701043c8d3249666dbb956bca9e7e8dcd1a8b4d/000000_000000/0000/tree_485.root
/store/group/phys_higgs/hbb/ntuples/VHbbPostNano/2018/V12/TTToSemiLeptonic_TuneCP5_13TeV-powheg-pythia8/f93650da0e79179ec6698af2560ff9d65f0a1dac9307652710b0903a/000000_000000/0000/tree_486.root
/store/group/phys_higgs/hbb/ntuples/VHbbPostNano/2018/V12/TTToSemiLeptonic_TuneCP5_13TeV-powheg-pythia8/66918ba07785c01da0d53116ab1ea7d18bce32f01450b6ca7c1b701b/000000_000000/0000/tree_487.root
/store/group/phys_higgs/hbb/ntuples/VHbbPostNano/2018/V12/TTToSemiLeptonic_TuneCP5_13TeV-powheg-pythia8/233faaeb82c060f77dce76007f6a8fe3616e3a0a59042b2d8c91a6ea/000000_000000/0000/tree_488.root
/store/group/phys_higgs/hbb/ntuples/VHbbPostNano/2018/V12/TTToSemiLeptonic_TuneCP5_13TeV-powheg-pythia8/cee835e466b63f3f44af67e88931114f590a49f1d4bd699edcc05236/000000_000000/0000/tree_489.root
/store/group/phys_higgs/hbb/ntuples/VHbbPostNano/2018/V12/TTToSemiLeptonic_TuneCP5_13TeV-powheg-pythia8/24adaf2616c2c4229d68d53d9410fff2e9d6d26b1e3cf2dddddf3647/000000_000000/0000/tree_490.root
/store/group/phys_higgs/hbb/ntuples/VHbbPostNano/2018/V12/TTToSemiLeptonic_TuneCP5_13TeV-powheg-pythia8/b34557893912b14fad45701ff811a4c666b8474f6c06ea016c493b6a/000000_000000/0000/tree_491.root
/store/group/phys_higgs/hbb/ntuples/VHbbPostNano/2018/V12/TTToSemiLeptonic_TuneCP5_13TeV-powheg-pythia8/a638be186f9989736191daca350bc72c261e5d10455625b950b76a59/000000_000000/0000/tree_492.root