/eos/cms/store/group/phys_higgs/hbb/ntuples/VHbbPostNano/UL/EFT/2016_preVFP/V1/ST_s-channel_4f_leptonDecays_TuneCP5_13TeV-amcatnlo-pythia8/30d9a69146ce5b60221dd406e085e24da0662baafe3806fdb32ae193/000000_000000/0000/tree_0.root
/eos/cms/store/group/phys_higgs/hbb/ntuples/VHbbPostNano/UL/EFT/2016_preVFP/V1/ST_s-channel_4f_leptonDecays_TuneCP5_13TeV-amcatnlo-pythia8/be5571aaeb5ba1a542d8b64ced1b3ae324e5e5a146599a3bdca8914b/000000_000000/0000/tree_1.root
/eos/cms/store/group/phys_higgs/hbb/ntuples/VHbbPostNano/UL/EFT/2016_preVFP/V1/ST_s-channel_4f_leptonDecays_TuneCP5_13TeV-amcatnlo-pythia8/baa6047b927274602202793d07f258ae8eee799218ffe2cbd40073b9/000000_000000/0000/tree_2.root
/eos/cms/store/group/phys_higgs/hbb/ntuples/VHbbPostNano/UL/EFT/2016_preVFP/V1/ST_s-channel_4f_leptonDecays_TuneCP5_13TeV-amcatnlo-pythia8/0c9f7d1ac87311c05aad88fd8ac855695208231b0938cb39835e9799/000000_000000/0000/tree_3.root