/eos/cms/store/group/phys_higgs/hbb/ntuples/VHbbPostNano/UL/EFT/2016_preVFP/V1/ST_t-channel_top_5f_InclusiveDecays_TuneCP5_13TeV-powheg-pythia8/f71dbd9779c6dd72d00991a72b8dd02a936e069f25171a66d4c82bec/000000_000000/0000/tree_0.root
/eos/cms/store/group/phys_higgs/hbb/ntuples/VHbbPostNano/UL/EFT/2016_preVFP/V1/ST_t-channel_top_5f_InclusiveDecays_TuneCP5_13TeV-powheg-pythia8/44692adb76b895367cbee8ae54644e818df76fa5f719cb5e98b6047d/000000_000000/0000/tree_1.root
/eos/cms/store/group/phys_higgs/hbb/ntuples/VHbbPostNano/UL/EFT/2016_preVFP/V1/ST_t-channel_top_5f_InclusiveDecays_TuneCP5_13TeV-powheg-pythia8/00910226d5bcb7cf974b97df2c247c79b9b3dda1c2208b42506b1ee2/000000_000000/0000/tree_2.root
/eos/cms/store/group/phys_higgs/hbb/ntuples/VHbbPostNano/UL/EFT/2016_preVFP/V1/ST_t-channel_top_5f_InclusiveDecays_TuneCP5_13TeV-powheg-pythia8/a9236d3f84915757daa90d4d57641d40f4bb673ead594b9b2b05c2b7/000000_000000/0000/tree_3.root
/eos/cms/store/group/phys_higgs/hbb/ntuples/VHbbPostNano/UL/EFT/2016_preVFP/V1/ST_t-channel_top_5f_InclusiveDecays_TuneCP5_13TeV-powheg-pythia8/ce3d20d3d79ef7c9207a3005231805779ee8e417e2ebce5dea7c3641/000000_000000/0000/tree_4.root
/eos/cms/store/group/phys_higgs/hbb/ntuples/VHbbPostNano/UL/EFT/2016_preVFP/V1/ST_t-channel_top_5f_InclusiveDecays_TuneCP5_13TeV-powheg-pythia8/7c827b31684fc8968d11b10abf45fe38d1c110c5cee0b580048b9faa/000000_000000/0000/tree_5.root
/eos/cms/store/group/phys_higgs/hbb/ntuples/VHbbPostNano/UL/EFT/2016_preVFP/V1/ST_t-channel_top_5f_InclusiveDecays_TuneCP5_13TeV-powheg-pythia8/1c29ed758297104707afad568cb485e14e5b6ba4efcb2d01ae5e5c75/000000_000000/0000/tree_6.root