/eos/cms/store/group/phys_higgs/hbb/ntuples/VHbbPostNano/UL/EFT/2016_preVFP/V1/WJetsToLNu_2J_TuneCP5_13TeV-amcatnloFXFX-pythia8/5a650c083ff336e780ea75d414a5aa699db5600638ca031f0dd44403/000000_000000/0000/tree_0.root
/eos/cms/store/group/phys_higgs/hbb/ntuples/VHbbPostNano/UL/EFT/2016_preVFP/V1/WJetsToLNu_2J_TuneCP5_13TeV-amcatnloFXFX-pythia8/79548af9aa19fa43a6e86eaac3670632913bf0effd339c3134efae26/000000_000000/0000/tree_1.root
/eos/cms/store/group/phys_higgs/hbb/ntuples/VHbbPostNano/UL/EFT/2016_preVFP/V1/WJetsToLNu_2J_TuneCP5_13TeV-amcatnloFXFX-pythia8/67aa15f9bc0c527ee41ae4c6079f5fdaf8459808af5717601b51442f/000000_000000/0000/tree_2.root
/eos/cms/store/group/phys_higgs/hbb/ntuples/VHbbPostNano/UL/EFT/2016_preVFP/V1/WJetsToLNu_2J_TuneCP5_13TeV-amcatnloFXFX-pythia8/a2f8cb66b28cdbb26ab34b99463771a5b4ddb94a42e2d791eefa5edc/000000_000000/0000/tree_3.root
/eos/cms/store/group/phys_higgs/hbb/ntuples/VHbbPostNano/UL/EFT/2016_preVFP/V1/WJetsToLNu_2J_TuneCP5_13TeV-amcatnloFXFX-pythia8/39b4efdb6f759aa69aca2c5e445e2417a7944a13619c31883235831b/000000_000000/0000/tree_4.root
/eos/cms/store/group/phys_higgs/hbb/ntuples/VHbbPostNano/UL/EFT/2016_preVFP/V1/WJetsToLNu_2J_TuneCP5_13TeV-amcatnloFXFX-pythia8/965f5447495556d9bcf3dd7e4174809bc98d89975b276c379a166e97/000000_000000/0000/tree_5.root
/eos/cms/store/group/phys_higgs/hbb/ntuples/VHbbPostNano/UL/EFT/2016_preVFP/V1/WJetsToLNu_2J_TuneCP5_13TeV-amcatnloFXFX-pythia8/e2fe91e77f782bddb7cf46b9ab2e8895938b7baf3bfc521d82bbc8c5/000000_000000/0000/tree_6.root
/eos/cms/store/group/phys_higgs/hbb/ntuples/VHbbPostNano/UL/EFT/2016_preVFP/V1/WJetsToLNu_2J_TuneCP5_13TeV-amcatnloFXFX-pythia8/1408e07bf797a90d875ac5ad3652d908305e2ad60c914759f9974c58/000000_000000/0000/tree_7.root
/eos/cms/store/group/phys_higgs/hbb/ntuples/VHbbPostNano/UL/EFT/2016_preVFP/V1/WJetsToLNu_2J_TuneCP5_13TeV-amcatnloFXFX-pythia8/4ede4af678e1d9d1452dd6fd4cb2509a79164789d62f52fabf1a6097/000000_000000/0000/tree_8.root
/eos/cms/store/group/phys_higgs/hbb/ntuples/VHbbPostNano/UL/EFT/2016_preVFP/V1/WJetsToLNu_2J_TuneCP5_13TeV-amcatnloFXFX-pythia8/6d42d18ec7a03956d92b9252dfdc01b0c196854728d24e33aea0497e/000000_000000/0000/tree_9.root
/eos/cms/store/group/phys_higgs/hbb/ntuples/VHbbPostNano/UL/EFT/2016_preVFP/V1/WJetsToLNu_2J_TuneCP5_13TeV-amcatnloFXFX-pythia8/92d4ea5700460036a54096685d1040b04460a39918f10a60c26c7fab/000000_000000/0000/tree_10.root
/eos/cms/store/group/phys_higgs/hbb/ntuples/VHbbPostNano/UL/EFT/2016_preVFP/V1/WJetsToLNu_2J_TuneCP5_13TeV-amcatnloFXFX-pythia8/633a2df24653a4dd3b9fa84791f04414e7213d53b1ad1c0db989cbc7/000000_000000/0000/tree_11.root
/eos/cms/store/group/phys_higgs/hbb/ntuples/VHbbPostNano/UL/EFT/2016_preVFP/V1/WJetsToLNu_2J_TuneCP5_13TeV-amcatnloFXFX-pythia8/f8d0e17582a48b2e8792e6bc47625398366d1a50258b77ec9adb8e3f/000000_000000/0000/tree_12.root
/eos/cms/store/group/phys_higgs/hbb/ntuples/VHbbPostNano/UL/EFT/2016_preVFP/V1/WJetsToLNu_2J_TuneCP5_13TeV-amcatnloFXFX-pythia8/616a5b40b941df35ab57fc09ca47578045da3389c846a97e56c2d518/000000_000000/0000/tree_13.root