/eos/cms/store/group/phys_higgs/hbb/ntuples/VHbbPostNano/UL/EFT/2016_preVFP/V1/WJetsToLNu_Pt-100To250_MatchEWPDG20_TuneCP5_13TeV-amcatnloFXFX-pythia8/bb3063cf0e458bc519ac1307086cfd0c2d666f76c0db2f9678e9703c/000000_000000/0000/tree_0.root
/eos/cms/store/group/phys_higgs/hbb/ntuples/VHbbPostNano/UL/EFT/2016_preVFP/V1/WJetsToLNu_Pt-100To250_MatchEWPDG20_TuneCP5_13TeV-amcatnloFXFX-pythia8/4d46eb7de761fef3cddee1e4d10ef4b3a268d8df692a9c8e8d9f6bf1/000000_000000/0000/tree_1.root
/eos/cms/store/group/phys_higgs/hbb/ntuples/VHbbPostNano/UL/EFT/2016_preVFP/V1/WJetsToLNu_Pt-100To250_MatchEWPDG20_TuneCP5_13TeV-amcatnloFXFX-pythia8/3ed0e349a9008f3c9d40ae875742e14ba5ef4ea6f487544786b611d1/000000_000000/0000/tree_2.root
/eos/cms/store/group/phys_higgs/hbb/ntuples/VHbbPostNano/UL/EFT/2016_preVFP/V1/WJetsToLNu_Pt-100To250_MatchEWPDG20_TuneCP5_13TeV-amcatnloFXFX-pythia8/3abc599b2672f28fb56024a720e3c1d9e8ef4e3e6a7ee8ac8330d970/000000_000000/0000/tree_3.root
/eos/cms/store/group/phys_higgs/hbb/ntuples/VHbbPostNano/UL/EFT/2016_preVFP/V1/WJetsToLNu_Pt-100To250_MatchEWPDG20_TuneCP5_13TeV-amcatnloFXFX-pythia8/333229bea9b0e0f05303deaf8f56666f4a9bd0e75bc431f7c3e76506/000000_000000/0000/tree_4.root
/eos/cms/store/group/phys_higgs/hbb/ntuples/VHbbPostNano/UL/EFT/2016_preVFP/V1/WJetsToLNu_Pt-100To250_MatchEWPDG20_TuneCP5_13TeV-amcatnloFXFX-pythia8/f929a0a0c76036756bb13eb27f6a670149b0755dd52537c4d3b20d80/000000_000000/0000/tree_5.root
/eos/cms/store/group/phys_higgs/hbb/ntuples/VHbbPostNano/UL/EFT/2016_preVFP/V1/WJetsToLNu_Pt-100To250_MatchEWPDG20_TuneCP5_13TeV-amcatnloFXFX-pythia8/fdf1ee8a583c4344986b13e4aa7cb3dd03ff88b984b27c45093ad2a5/000000_000000/0000/tree_6.root
/eos/cms/store/group/phys_higgs/hbb/ntuples/VHbbPostNano/UL/EFT/2016_preVFP/V1/WJetsToLNu_Pt-100To250_MatchEWPDG20_TuneCP5_13TeV-amcatnloFXFX-pythia8/d3637bfcbbec10e8b37b6c37722281987d4cfde1c7ae3ce8d44c1ebf/000000_000000/0000/tree_7.root
/eos/cms/store/group/phys_higgs/hbb/ntuples/VHbbPostNano/UL/EFT/2016_preVFP/V1/WJetsToLNu_Pt-100To250_MatchEWPDG20_TuneCP5_13TeV-amcatnloFXFX-pythia8/d6605f489f0a84c55b042a7837146bf77ac9a11b8818af54a1bbcf4e/000000_000000/0000/tree_8.root
/eos/cms/store/group/phys_higgs/hbb/ntuples/VHbbPostNano/UL/EFT/2016_preVFP/V1/WJetsToLNu_Pt-100To250_MatchEWPDG20_TuneCP5_13TeV-amcatnloFXFX-pythia8/a14b3fed4c8053fb9e1dbb9e77944862d761b789259f5093e0cf6b3e/000000_000000/0000/tree_9.root
/eos/cms/store/group/phys_higgs/hbb/ntuples/VHbbPostNano/UL/EFT/2016_preVFP/V1/WJetsToLNu_Pt-100To250_MatchEWPDG20_TuneCP5_13TeV-amcatnloFXFX-pythia8/ce9570f966a17cfc0c68f9b75ad2a3f12f3f4a5a58718287ea5b66e0/000000_000000/0000/tree_10.root
/eos/cms/store/group/phys_higgs/hbb/ntuples/VHbbPostNano/UL/EFT/2016_preVFP/V1/WJetsToLNu_Pt-100To250_MatchEWPDG20_TuneCP5_13TeV-amcatnloFXFX-pythia8/2881349bfec845743270f537d67a7ff3fb0bdc7000028b91f07d3dc1/000000_000000/0000/tree_11.root
/eos/cms/store/group/phys_higgs/hbb/ntuples/VHbbPostNano/UL/EFT/2016_preVFP/V1/WJetsToLNu_Pt-100To250_MatchEWPDG20_TuneCP5_13TeV-amcatnloFXFX-pythia8/5f7bd7232ef26cf10b4d5d6b6697ad012106475620a5c30fc2244d42/000000_000000/0000/tree_12.root
/eos/cms/store/group/phys_higgs/hbb/ntuples/VHbbPostNano/UL/EFT/2016_preVFP/V1/WJetsToLNu_Pt-100To250_MatchEWPDG20_TuneCP5_13TeV-amcatnloFXFX-pythia8/230beafc88f1e06752c50eaceca68c360f86637d5512c7acf623fc7e/000000_000000/0000/tree_13.root
/eos/cms/store/group/phys_higgs/hbb/ntuples/VHbbPostNano/UL/EFT/2016_preVFP/V1/WJetsToLNu_Pt-100To250_MatchEWPDG20_TuneCP5_13TeV-amcatnloFXFX-pythia8/3121cce53573810bd80893269cac28cdfcadfeed1b38403684757822/000000_000000/0000/tree_14.root
/eos/cms/store/group/phys_higgs/hbb/ntuples/VHbbPostNano/UL/EFT/2016_preVFP/V1/WJetsToLNu_Pt-100To250_MatchEWPDG20_TuneCP5_13TeV-amcatnloFXFX-pythia8/1c0371e5daa138b13a1d102e6be1b689e22f752ef9f2b50fdf2e24c8/000000_000000/0000/tree_15.root
/eos/cms/store/group/phys_higgs/hbb/ntuples/VHbbPostNano/UL/EFT/2016_preVFP/V1/WJetsToLNu_Pt-100To250_MatchEWPDG20_TuneCP5_13TeV-amcatnloFXFX-pythia8/cb66ea3b35d1916805f951497b9e624b45756be70763948961668b20/000000_000000/0000/tree_16.root
/eos/cms/store/group/phys_higgs/hbb/ntuples/VHbbPostNano/UL/EFT/2016_preVFP/V1/WJetsToLNu_Pt-100To250_MatchEWPDG20_TuneCP5_13TeV-amcatnloFXFX-pythia8/c83f9ea46c2b996fb5d526a96187000f11188e7fb5f67a8956966919/000000_000000/0000/tree_17.root
/eos/cms/store/group/phys_higgs/hbb/ntuples/VHbbPostNano/UL/EFT/2016_preVFP/V1/WJetsToLNu_Pt-100To250_MatchEWPDG20_TuneCP5_13TeV-amcatnloFXFX-pythia8/e5b63abcd509386803526fc85b9b171ef0d744690e3492eb4410b31d/000000_000000/0000/tree_18.root
/eos/cms/store/group/phys_higgs/hbb/ntuples/VHbbPostNano/UL/EFT/2016_preVFP/V1/WJetsToLNu_Pt-100To250_MatchEWPDG20_TuneCP5_13TeV-amcatnloFXFX-pythia8/9a14ebb8d980591a31d831d2f0b4bbf5f10305010d4963ff2df498a6/000000_000000/0000/tree_19.root
/eos/cms/store/group/phys_higgs/hbb/ntuples/VHbbPostNano/UL/EFT/2016_preVFP/V1/WJetsToLNu_Pt-100To250_MatchEWPDG20_TuneCP5_13TeV-amcatnloFXFX-pythia8/ba5e6aac4e8b246e738638d154100c843f0c2ca371ba93ae924a48aa/000000_000000/0000/tree_20.root
/eos/cms/store/group/phys_higgs/hbb/ntuples/VHbbPostNano/UL/EFT/2016_preVFP/V1/WJetsToLNu_Pt-100To250_MatchEWPDG20_TuneCP5_13TeV-amcatnloFXFX-pythia8/1334c85446dfca2324740e8b517650ddbc4be3f9f855da0c7fb2ba85/000000_000000/0000/tree_21.root
/eos/cms/store/group/phys_higgs/hbb/ntuples/VHbbPostNano/UL/EFT/2016_preVFP/V1/WJetsToLNu_Pt-100To250_MatchEWPDG20_TuneCP5_13TeV-amcatnloFXFX-pythia8/198a1d8873b036327f4e6f1de5612167ee5069661e0e3b2188c2c2ab/000000_000000/0000/tree_22.root
/eos/cms/store/group/phys_higgs/hbb/ntuples/VHbbPostNano/UL/EFT/2016_preVFP/V1/WJetsToLNu_Pt-100To250_MatchEWPDG20_TuneCP5_13TeV-amcatnloFXFX-pythia8/e1f5a8146f37ac9d5dfcdb98406967b6dbddd1243fb75ed0ef69d560/000000_000000/0000/tree_23.root
/eos/cms/store/group/phys_higgs/hbb/ntuples/VHbbPostNano/UL/EFT/2016_preVFP/V1/WJetsToLNu_Pt-100To250_MatchEWPDG20_TuneCP5_13TeV-amcatnloFXFX-pythia8/0a74b8d05bad8dd5f6c5482a4e172c2a665da26fd3160bc582d37bd1/000000_000000/0000/tree_24.root
/eos/cms/store/group/phys_higgs/hbb/ntuples/VHbbPostNano/UL/EFT/2016_preVFP/V1/WJetsToLNu_Pt-100To250_MatchEWPDG20_TuneCP5_13TeV-amcatnloFXFX-pythia8/36e327f8450bf82333bee955ec1d901b3cee6e8cb2524050a606ccfd/000000_000000/0000/tree_25.root
/eos/cms/store/group/phys_higgs/hbb/ntuples/VHbbPostNano/UL/EFT/2016_preVFP/V1/WJetsToLNu_Pt-100To250_MatchEWPDG20_TuneCP5_13TeV-amcatnloFXFX-pythia8/ecb510efda2c3797b66107071ef749ad28351dbeb999ae5657189ec5/000000_000000/0000/tree_26.root
/eos/cms/store/group/phys_higgs/hbb/ntuples/VHbbPostNano/UL/EFT/2016_preVFP/V1/WJetsToLNu_Pt-100To250_MatchEWPDG20_TuneCP5_13TeV-amcatnloFXFX-pythia8/63514c1e39883f5e8799822536586ecc6cf5c217b3ed9aac54d3bff3/000000_000000/0000/tree_27.root
/eos/cms/store/group/phys_higgs/hbb/ntuples/VHbbPostNano/UL/EFT/2016_preVFP/V1/WJetsToLNu_Pt-100To250_MatchEWPDG20_TuneCP5_13TeV-amcatnloFXFX-pythia8/6be6518c52c1a1db1be2f7c960343dcf26a7aac01c91d3b6cf78d1ba/000000_000000/0000/tree_28.root
/eos/cms/store/group/phys_higgs/hbb/ntuples/VHbbPostNano/UL/EFT/2016_preVFP/V1/WJetsToLNu_Pt-100To250_MatchEWPDG20_TuneCP5_13TeV-amcatnloFXFX-pythia8/a10da19fa9fd3309ba0e39e96c36e806c2e17c68a931c12a13f602ec/000000_000000/0000/tree_29.root
/eos/cms/store/group/phys_higgs/hbb/ntuples/VHbbPostNano/UL/EFT/2016_preVFP/V1/WJetsToLNu_Pt-100To250_MatchEWPDG20_TuneCP5_13TeV-amcatnloFXFX-pythia8/4ea59ee7c9444594a17ec98d811378ad1ed7c7d0afa3f97e03a70f29/000000_000000/0000/tree_30.root
/eos/cms/store/group/phys_higgs/hbb/ntuples/VHbbPostNano/UL/EFT/2016_preVFP/V1/WJetsToLNu_Pt-100To250_MatchEWPDG20_TuneCP5_13TeV-amcatnloFXFX-pythia8/8990bf417dba64cd4e8fd063ebca661844e13203a27ada192d35f6bd/000000_000000/0000/tree_31.root
/eos/cms/store/group/phys_higgs/hbb/ntuples/VHbbPostNano/UL/EFT/2016_preVFP/V1/WJetsToLNu_Pt-100To250_MatchEWPDG20_TuneCP5_13TeV-amcatnloFXFX-pythia8/b268d3244ce025ec8c90424947f01a4284d677080b3b5feedd4b78cf/000000_000000/0000/tree_32.root
/eos/cms/store/group/phys_higgs/hbb/ntuples/VHbbPostNano/UL/EFT/2016_preVFP/V1/WJetsToLNu_Pt-100To250_MatchEWPDG20_TuneCP5_13TeV-amcatnloFXFX-pythia8/168cb547a3670dd86152b9d40de4530c8150e9daaaf51f2851789d65/000000_000000/0000/tree_33.root
/eos/cms/store/group/phys_higgs/hbb/ntuples/VHbbPostNano/UL/EFT/2016_preVFP/V1/WJetsToLNu_Pt-100To250_MatchEWPDG20_TuneCP5_13TeV-amcatnloFXFX-pythia8/907528a0b6c8d80bc31dddc1420fea614ee78e21a3e7d3cb50eb6daf/000000_000000/0000/tree_34.root
/eos/cms/store/group/phys_higgs/hbb/ntuples/VHbbPostNano/UL/EFT/2016_preVFP/V1/WJetsToLNu_Pt-100To250_MatchEWPDG20_TuneCP5_13TeV-amcatnloFXFX-pythia8/ec353d6399bf60034993548d8dd371399aebd9eeb6eec6a38da19732/000000_000000/0000/tree_35.root
/eos/cms/store/group/phys_higgs/hbb/ntuples/VHbbPostNano/UL/EFT/2016_preVFP/V1/WJetsToLNu_Pt-100To250_MatchEWPDG20_TuneCP5_13TeV-amcatnloFXFX-pythia8/bfff91d71eaab8812b218b4816a5eae13d405cd3f8a56cba0691820c/000000_000000/0000/tree_36.root
/eos/cms/store/group/phys_higgs/hbb/ntuples/VHbbPostNano/UL/EFT/2016_preVFP/V1/WJetsToLNu_Pt-100To250_MatchEWPDG20_TuneCP5_13TeV-amcatnloFXFX-pythia8/3e13acaf6685826abf81808a5fddafa6fb9bb0d20edcd919eccabdff/000000_000000/0000/tree_37.root
/eos/cms/store/group/phys_higgs/hbb/ntuples/VHbbPostNano/UL/EFT/2016_preVFP/V1/WJetsToLNu_Pt-100To250_MatchEWPDG20_TuneCP5_13TeV-amcatnloFXFX-pythia8/35ed86278f0ed29dcb70473d41963842aaaf78b8a2d61ed7415d2af6/000000_000000/0000/tree_38.root
/eos/cms/store/group/phys_higgs/hbb/ntuples/VHbbPostNano/UL/EFT/2016_preVFP/V1/WJetsToLNu_Pt-100To250_MatchEWPDG20_TuneCP5_13TeV-amcatnloFXFX-pythia8/6dc29ebc8a5dd234c3aed2b178dd0f0a3a47ad30b273dc53817334d8/000000_000000/0000/tree_39.root
/eos/cms/store/group/phys_higgs/hbb/ntuples/VHbbPostNano/UL/EFT/2016_preVFP/V1/WJetsToLNu_Pt-100To250_MatchEWPDG20_TuneCP5_13TeV-amcatnloFXFX-pythia8/8cc9bab87081faa5a52fb149d54626f0e4c8ed56a79858279b37f880/000000_000000/0000/tree_40.root
/eos/cms/store/group/phys_higgs/hbb/ntuples/VHbbPostNano/UL/EFT/2016_preVFP/V1/WJetsToLNu_Pt-100To250_MatchEWPDG20_TuneCP5_13TeV-amcatnloFXFX-pythia8/a7f9ec34ee85b9425b1da055781252f06a5e02cb923ebec74479c853/000000_000000/0000/tree_41.root
/eos/cms/store/group/phys_higgs/hbb/ntuples/VHbbPostNano/UL/EFT/2016_preVFP/V1/WJetsToLNu_Pt-100To250_MatchEWPDG20_TuneCP5_13TeV-amcatnloFXFX-pythia8/361f525cf91558edb3dd5650ce1c0440ad6d937bdcf45cbe9d814598/000000_000000/0000/tree_42.root
/eos/cms/store/group/phys_higgs/hbb/ntuples/VHbbPostNano/UL/EFT/2016_preVFP/V1/WJetsToLNu_Pt-100To250_MatchEWPDG20_TuneCP5_13TeV-amcatnloFXFX-pythia8/b930d04e07d1e2f51abf53898ffad2ccd431b4f2932e1fa2931fafc5/000000_000000/0000/tree_43.root
/eos/cms/store/group/phys_higgs/hbb/ntuples/VHbbPostNano/UL/EFT/2016_preVFP/V1/WJetsToLNu_Pt-100To250_MatchEWPDG20_TuneCP5_13TeV-amcatnloFXFX-pythia8/73133330f6c6d492f7bd3522e6c686dfd6c3d264ce690b01cea8c31c/000000_000000/0000/tree_44.root
/eos/cms/store/group/phys_higgs/hbb/ntuples/VHbbPostNano/UL/EFT/2016_preVFP/V1/WJetsToLNu_Pt-100To250_MatchEWPDG20_TuneCP5_13TeV-amcatnloFXFX-pythia8/84ede5d1172f7c3550ae4678f76b3768b52ecdf585dc7d83e4b9e5b1/000000_000000/0000/tree_45.root
/eos/cms/store/group/phys_higgs/hbb/ntuples/VHbbPostNano/UL/EFT/2016_preVFP/V1/WJetsToLNu_Pt-100To250_MatchEWPDG20_TuneCP5_13TeV-amcatnloFXFX-pythia8/5b0aea198e9e148e100e02296e3f04e456bdea0df9358599da6762aa/000000_000000/0000/tree_46.root
/eos/cms/store/group/phys_higgs/hbb/ntuples/VHbbPostNano/UL/EFT/2016_preVFP/V1/WJetsToLNu_Pt-100To250_MatchEWPDG20_TuneCP5_13TeV-amcatnloFXFX-pythia8/5132567d6c079c1b2f620bb9ac39d9b1a5c3603e5119e59d16295eb2/000000_000000/0000/tree_47.root
/eos/cms/store/group/phys_higgs/hbb/ntuples/VHbbPostNano/UL/EFT/2016_preVFP/V1/WJetsToLNu_Pt-100To250_MatchEWPDG20_TuneCP5_13TeV-amcatnloFXFX-pythia8/f897ab572aabe0e1a603467a44c0230241bc4e78653f4bb4e332254c/000000_000000/0000/tree_48.root
/eos/cms/store/group/phys_higgs/hbb/ntuples/VHbbPostNano/UL/EFT/2016_preVFP/V1/WJetsToLNu_Pt-100To250_MatchEWPDG20_TuneCP5_13TeV-amcatnloFXFX-pythia8/60d7ccf2acfbb4ff3e066df7e21523cbda50f638b58350d8afeb927c/000000_000000/0000/tree_49.root
/eos/cms/store/group/phys_higgs/hbb/ntuples/VHbbPostNano/UL/EFT/2016_preVFP/V1/WJetsToLNu_Pt-100To250_MatchEWPDG20_TuneCP5_13TeV-amcatnloFXFX-pythia8/95f5c7f7d4f2a58cd78bf37d89d41ba5a47f2b5fd70eff17ca9806b8/000000_000000/0000/tree_50.root
/eos/cms/store/group/phys_higgs/hbb/ntuples/VHbbPostNano/UL/EFT/2016_preVFP/V1/WJetsToLNu_Pt-100To250_MatchEWPDG20_TuneCP5_13TeV-amcatnloFXFX-pythia8/a5de48d23a41e763ae03a7720af7a02eaba64ae347b40ca14e88cc45/000000_000000/0000/tree_51.root
/eos/cms/store/group/phys_higgs/hbb/ntuples/VHbbPostNano/UL/EFT/2016_preVFP/V1/WJetsToLNu_Pt-100To250_MatchEWPDG20_TuneCP5_13TeV-amcatnloFXFX-pythia8/02520ae0e3cb8c4d54bfebfeb3c9e79302fb20af0db850217e2052c9/000000_000000/0000/tree_52.root
/eos/cms/store/group/phys_higgs/hbb/ntuples/VHbbPostNano/UL/EFT/2016_preVFP/V1/WJetsToLNu_Pt-100To250_MatchEWPDG20_TuneCP5_13TeV-amcatnloFXFX-pythia8/8826645fd7672fe289a926c732b6352f00ed1ef69ed3e3581dcca568/000000_000000/0000/tree_53.root
/eos/cms/store/group/phys_higgs/hbb/ntuples/VHbbPostNano/UL/EFT/2016_preVFP/V1/WJetsToLNu_Pt-100To250_MatchEWPDG20_TuneCP5_13TeV-amcatnloFXFX-pythia8/7ddc41d4667f8c7ffd567bcf368d2a3a40fcb44562beabac40dbc792/000000_000000/0000/tree_54.root
/eos/cms/store/group/phys_higgs/hbb/ntuples/VHbbPostNano/UL/EFT/2016_preVFP/V1/WJetsToLNu_Pt-100To250_MatchEWPDG20_TuneCP5_13TeV-amcatnloFXFX-pythia8/3b1b66d53c6b46dd0a39f8fd851cd6324ae1b17295735c49678e5e73/000000_000000/0000/tree_55.root
/eos/cms/store/group/phys_higgs/hbb/ntuples/VHbbPostNano/UL/EFT/2016_preVFP/V1/WJetsToLNu_Pt-100To250_MatchEWPDG20_TuneCP5_13TeV-amcatnloFXFX-pythia8/eb38fe6d5b6339a0c45eb9514416083547020dccff1bf2067bb847cb/000000_000000/0000/tree_56.root
/eos/cms/store/group/phys_higgs/hbb/ntuples/VHbbPostNano/UL/EFT/2016_preVFP/V1/WJetsToLNu_Pt-100To250_MatchEWPDG20_TuneCP5_13TeV-amcatnloFXFX-pythia8/3166ed461df50729758b181f311abec6232cfd6c17b998dc7b809a6c/000000_000000/0000/tree_57.root
/eos/cms/store/group/phys_higgs/hbb/ntuples/VHbbPostNano/UL/EFT/2016_preVFP/V1/WJetsToLNu_Pt-100To250_MatchEWPDG20_TuneCP5_13TeV-amcatnloFXFX-pythia8/081e3602dc173c556e4e6eac96316a6d6f6d171b488aa1c609521561/000000_000000/0000/tree_58.root
/eos/cms/store/group/phys_higgs/hbb/ntuples/VHbbPostNano/UL/EFT/2016_preVFP/V1/WJetsToLNu_Pt-100To250_MatchEWPDG20_TuneCP5_13TeV-amcatnloFXFX-pythia8/b5e137e88a4573d2dc251759db531ea2f39f4edb19c0cee86fa10926/000000_000000/0000/tree_59.root
/eos/cms/store/group/phys_higgs/hbb/ntuples/VHbbPostNano/UL/EFT/2016_preVFP/V1/WJetsToLNu_Pt-100To250_MatchEWPDG20_TuneCP5_13TeV-amcatnloFXFX-pythia8/d3c97782a2f5492244f58a0a2a82a86d98614d987e81586e1b2b87dd/000000_000000/0000/tree_60.root
/eos/cms/store/group/phys_higgs/hbb/ntuples/VHbbPostNano/UL/EFT/2016_preVFP/V1/WJetsToLNu_Pt-100To250_MatchEWPDG20_TuneCP5_13TeV-amcatnloFXFX-pythia8/3ae33ac8cc63ba3bf61dca65d7ebbd98398bbadc6f2de87fb2e97d64/000000_000000/0000/tree_61.root
/eos/cms/store/group/phys_higgs/hbb/ntuples/VHbbPostNano/UL/EFT/2016_preVFP/V1/WJetsToLNu_Pt-100To250_MatchEWPDG20_TuneCP5_13TeV-amcatnloFXFX-pythia8/e8632fc90024e9f3ba1dbe9972652441ac1d7fa49bf6ce66bf00efb3/000000_000000/0000/tree_62.root
/eos/cms/store/group/phys_higgs/hbb/ntuples/VHbbPostNano/UL/EFT/2016_preVFP/V1/WJetsToLNu_Pt-100To250_MatchEWPDG20_TuneCP5_13TeV-amcatnloFXFX-pythia8/3ab2acd9be775766d6f59257b3f3d3ba53c7b7b214f00c1044b7884a/000000_000000/0000/tree_63.root
/eos/cms/store/group/phys_higgs/hbb/ntuples/VHbbPostNano/UL/EFT/2016_preVFP/V1/WJetsToLNu_Pt-100To250_MatchEWPDG20_TuneCP5_13TeV-amcatnloFXFX-pythia8/5bcf206ceb481f6bf7e4e30f1d53b16fab8bb0d001090fdf2826e8af/000000_000000/0000/tree_64.root
/eos/cms/store/group/phys_higgs/hbb/ntuples/VHbbPostNano/UL/EFT/2016_preVFP/V1/WJetsToLNu_Pt-100To250_MatchEWPDG20_TuneCP5_13TeV-amcatnloFXFX-pythia8/6630f577d830fc806703aa67ac210c50a17c3deb1410abc9e3a495ce/000000_000000/0000/tree_65.root
/eos/cms/store/group/phys_higgs/hbb/ntuples/VHbbPostNano/UL/EFT/2016_preVFP/V1/WJetsToLNu_Pt-100To250_MatchEWPDG20_TuneCP5_13TeV-amcatnloFXFX-pythia8/09850a1c74ef7f5519c0ed732ae25106de6e44a97e5409407aed4887/000000_000000/0000/tree_66.root
/eos/cms/store/group/phys_higgs/hbb/ntuples/VHbbPostNano/UL/EFT/2016_preVFP/V1/WJetsToLNu_Pt-100To250_MatchEWPDG20_TuneCP5_13TeV-amcatnloFXFX-pythia8/76de8e22627481261f55b79d5e354e2ecf51b2b617e2f4a47654bdf9/000000_000000/0000/tree_67.root
/eos/cms/store/group/phys_higgs/hbb/ntuples/VHbbPostNano/UL/EFT/2016_preVFP/V1/WJetsToLNu_Pt-100To250_MatchEWPDG20_TuneCP5_13TeV-amcatnloFXFX-pythia8/0a563a41a4fc9b644b6254be3dbaee7365842de2f7be3bcae457a8c6/000000_000000/0000/tree_68.root
/eos/cms/store/group/phys_higgs/hbb/ntuples/VHbbPostNano/UL/EFT/2016_preVFP/V1/WJetsToLNu_Pt-100To250_MatchEWPDG20_TuneCP5_13TeV-amcatnloFXFX-pythia8/a0680aae9f6c9417b533775188ee250dc31dbb6052faa251f6e678b3/000000_000000/0000/tree_69.root
/eos/cms/store/group/phys_higgs/hbb/ntuples/VHbbPostNano/UL/EFT/2016_preVFP/V1/WJetsToLNu_Pt-100To250_MatchEWPDG20_TuneCP5_13TeV-amcatnloFXFX-pythia8/6246ae67a7b1510580ebd4f50f4021fcf7a6ee15b5b731c5d863977d/000000_000000/0000/tree_70.root
/eos/cms/store/group/phys_higgs/hbb/ntuples/VHbbPostNano/UL/EFT/2016_preVFP/V1/WJetsToLNu_Pt-100To250_MatchEWPDG20_TuneCP5_13TeV-amcatnloFXFX-pythia8/a4ed070922337fe53f1d2d634052f1a03bf50bd4672cac3c2bcfe7f1/000000_000000/0000/tree_71.root
/eos/cms/store/group/phys_higgs/hbb/ntuples/VHbbPostNano/UL/EFT/2016_preVFP/V1/WJetsToLNu_Pt-100To250_MatchEWPDG20_TuneCP5_13TeV-amcatnloFXFX-pythia8/67ab408337e52d1d3ac396c480c20cb08d613244e6a4dd9894b93076/000000_000000/0000/tree_72.root
/eos/cms/store/group/phys_higgs/hbb/ntuples/VHbbPostNano/UL/EFT/2016_preVFP/V1/WJetsToLNu_Pt-100To250_MatchEWPDG20_TuneCP5_13TeV-amcatnloFXFX-pythia8/c15365f7f4733d782b89dbd3ad5e8d5a18be1fe97eee444eaf21b7fa/000000_000000/0000/tree_73.root
/eos/cms/store/group/phys_higgs/hbb/ntuples/VHbbPostNano/UL/EFT/2016_preVFP/V1/WJetsToLNu_Pt-100To250_MatchEWPDG20_TuneCP5_13TeV-amcatnloFXFX-pythia8/a56d5f655e0ece7f0afc4f453a9911d07d4a87a0e82619e4b7b50dfa/000000_000000/0000/tree_74.root
/eos/cms/store/group/phys_higgs/hbb/ntuples/VHbbPostNano/UL/EFT/2016_preVFP/V1/WJetsToLNu_Pt-100To250_MatchEWPDG20_TuneCP5_13TeV-amcatnloFXFX-pythia8/b927d3e0987bcaf62815b6c4199142f16c69ff9d4a6bb81b5dada86e/000000_000000/0000/tree_75.root
/eos/cms/store/group/phys_higgs/hbb/ntuples/VHbbPostNano/UL/EFT/2016_preVFP/V1/WJetsToLNu_Pt-100To250_MatchEWPDG20_TuneCP5_13TeV-amcatnloFXFX-pythia8/ecaeb92b04ee59b7b2f9c2e036a386e72e58cdd39f9564f55b63d74e/000000_000000/0000/tree_76.root
/eos/cms/store/group/phys_higgs/hbb/ntuples/VHbbPostNano/UL/EFT/2016_preVFP/V1/WJetsToLNu_Pt-100To250_MatchEWPDG20_TuneCP5_13TeV-amcatnloFXFX-pythia8/1f6f1b3ae93b395fad4db3226dc8e30d5b27f53f70616f38f6e8b1bb/000000_000000/0000/tree_77.root
/eos/cms/store/group/phys_higgs/hbb/ntuples/VHbbPostNano/UL/EFT/2016_preVFP/V1/WJetsToLNu_Pt-100To250_MatchEWPDG20_TuneCP5_13TeV-amcatnloFXFX-pythia8/16e692b18a70564e55d67f580839e123172e21786d428eb43f7d17a9/000000_000000/0000/tree_78.root
/eos/cms/store/group/phys_higgs/hbb/ntuples/VHbbPostNano/UL/EFT/2016_preVFP/V1/WJetsToLNu_Pt-100To250_MatchEWPDG20_TuneCP5_13TeV-amcatnloFXFX-pythia8/7ef6a1d25005bc5ea9df94f0b6f441b2dd89f83d2c276900da734249/000000_000000/0000/tree_79.root
/eos/cms/store/group/phys_higgs/hbb/ntuples/VHbbPostNano/UL/EFT/2016_preVFP/V1/WJetsToLNu_Pt-100To250_MatchEWPDG20_TuneCP5_13TeV-amcatnloFXFX-pythia8/799abc6eaf32f1c6ea9af1e163c9396d566b3bc15201c6612f36cb64/000000_000000/0000/tree_80.root
/eos/cms/store/group/phys_higgs/hbb/ntuples/VHbbPostNano/UL/EFT/2016_preVFP/V1/WJetsToLNu_Pt-100To250_MatchEWPDG20_TuneCP5_13TeV-amcatnloFXFX-pythia8/770f4fa43bc297b223433e9cc6bd3b4224df28f90ec480e244868074/000000_000000/0000/tree_81.root
/eos/cms/store/group/phys_higgs/hbb/ntuples/VHbbPostNano/UL/EFT/2016_preVFP/V1/WJetsToLNu_Pt-100To250_MatchEWPDG20_TuneCP5_13TeV-amcatnloFXFX-pythia8/951260986a4f2d30369458467312ab11e66ff689e7cfd6ab80d9ff34/000000_000000/0000/tree_82.root
/eos/cms/store/group/phys_higgs/hbb/ntuples/VHbbPostNano/UL/EFT/2016_preVFP/V1/WJetsToLNu_Pt-100To250_MatchEWPDG20_TuneCP5_13TeV-amcatnloFXFX-pythia8/5bd81cf062026a12d0403e44a29b608b32c5fb206e71c0a8e263f071/000000_000000/0000/tree_83.root
/eos/cms/store/group/phys_higgs/hbb/ntuples/VHbbPostNano/UL/EFT/2016_preVFP/V1/WJetsToLNu_Pt-100To250_MatchEWPDG20_TuneCP5_13TeV-amcatnloFXFX-pythia8/e3b938f30cabbbe3b02402bf4cbf4b5a696eba3e09f33d40f89e5d93/000000_000000/0000/tree_84.root
/eos/cms/store/group/phys_higgs/hbb/ntuples/VHbbPostNano/UL/EFT/2016_preVFP/V1/WJetsToLNu_Pt-100To250_MatchEWPDG20_TuneCP5_13TeV-amcatnloFXFX-pythia8/112342d959400d7079672bcc3764a604154114ee28ee2c37a4ea1a30/000000_000000/0000/tree_85.root
/eos/cms/store/group/phys_higgs/hbb/ntuples/VHbbPostNano/UL/EFT/2016_preVFP/V1/WJetsToLNu_Pt-100To250_MatchEWPDG20_TuneCP5_13TeV-amcatnloFXFX-pythia8/7f8d0c21ee7c45dedc44c75e07721978e4dd6921c4a27075c0bd374e/000000_000000/0000/tree_86.root
/eos/cms/store/group/phys_higgs/hbb/ntuples/VHbbPostNano/UL/EFT/2016_preVFP/V1/WJetsToLNu_Pt-100To250_MatchEWPDG20_TuneCP5_13TeV-amcatnloFXFX-pythia8/f7007384983cdd1433ef308b67f3426c7cd57fc80e25d4410888915d/000000_000000/0000/tree_87.root
/eos/cms/store/group/phys_higgs/hbb/ntuples/VHbbPostNano/UL/EFT/2016_preVFP/V1/WJetsToLNu_Pt-100To250_MatchEWPDG20_TuneCP5_13TeV-amcatnloFXFX-pythia8/a7c41be0db67ec4095302b60fd26bb9c0ff593fcc4f6f6b0c58d1b94/000000_000000/0000/tree_88.root
/eos/cms/store/group/phys_higgs/hbb/ntuples/VHbbPostNano/UL/EFT/2016_preVFP/V1/WJetsToLNu_Pt-100To250_MatchEWPDG20_TuneCP5_13TeV-amcatnloFXFX-pythia8/57d7147be0cb2a3d5d3eaef0b5fdf451e4507dc3cdf6580900746202/000000_000000/0000/tree_89.root
/eos/cms/store/group/phys_higgs/hbb/ntuples/VHbbPostNano/UL/EFT/2016_preVFP/V1/WJetsToLNu_Pt-100To250_MatchEWPDG20_TuneCP5_13TeV-amcatnloFXFX-pythia8/7d5e4d0ddd73ef0355af4203abe39573c6b76b89cbba350b3a9e3282/000000_000000/0000/tree_90.root
/eos/cms/store/group/phys_higgs/hbb/ntuples/VHbbPostNano/UL/EFT/2016_preVFP/V1/WJetsToLNu_Pt-100To250_MatchEWPDG20_TuneCP5_13TeV-amcatnloFXFX-pythia8/eb0c46147d886baf4bd3149a69c4b9505fcb8a88c1403f0dbf409bd4/000000_000000/0000/tree_91.root
/eos/cms/store/group/phys_higgs/hbb/ntuples/VHbbPostNano/UL/EFT/2016_preVFP/V1/WJetsToLNu_Pt-100To250_MatchEWPDG20_TuneCP5_13TeV-amcatnloFXFX-pythia8/a017ae140e82cc17c78fefa221357fc8d85d329fe8bc404a3167404b/000000_000000/0000/tree_92.root
/eos/cms/store/group/phys_higgs/hbb/ntuples/VHbbPostNano/UL/EFT/2016_preVFP/V1/WJetsToLNu_Pt-100To250_MatchEWPDG20_TuneCP5_13TeV-amcatnloFXFX-pythia8/272190f6d291c3aa8c61863f8fc2866efb5e105fdbc38345b299b3ae/000000_000000/0000/tree_93.root
/eos/cms/store/group/phys_higgs/hbb/ntuples/VHbbPostNano/UL/EFT/2016_preVFP/V1/WJetsToLNu_Pt-100To250_MatchEWPDG20_TuneCP5_13TeV-amcatnloFXFX-pythia8/57b64e1267c13f56f0e9fab1844876816b1643ad75355bb7495cf899/000000_000000/0000/tree_94.root
/eos/cms/store/group/phys_higgs/hbb/ntuples/VHbbPostNano/UL/EFT/2016_preVFP/V1/WJetsToLNu_Pt-100To250_MatchEWPDG20_TuneCP5_13TeV-amcatnloFXFX-pythia8/ca31e86ffe56389ff724a9ec21e7aa39896b64486cde1a0bc5c904a8/000000_000000/0000/tree_95.root
/eos/cms/store/group/phys_higgs/hbb/ntuples/VHbbPostNano/UL/EFT/2016_preVFP/V1/WJetsToLNu_Pt-100To250_MatchEWPDG20_TuneCP5_13TeV-amcatnloFXFX-pythia8/8cf3ecdc4fb95031f3b69f8aaffaf25427c3f16196e6be1a5e86d8ee/000000_000000/0000/tree_96.root
/eos/cms/store/group/phys_higgs/hbb/ntuples/VHbbPostNano/UL/EFT/2016_preVFP/V1/WJetsToLNu_Pt-100To250_MatchEWPDG20_TuneCP5_13TeV-amcatnloFXFX-pythia8/a1777509f3248a4ea45880685903cb8e7e3716a6a4440c7012757c45/000000_000000/0000/tree_97.root
/eos/cms/store/group/phys_higgs/hbb/ntuples/VHbbPostNano/UL/EFT/2016_preVFP/V1/WJetsToLNu_Pt-100To250_MatchEWPDG20_TuneCP5_13TeV-amcatnloFXFX-pythia8/1eda369bf05be38a6a3f5b0a3f4d4523ce476f8d3d45bde2d283d513/000000_000000/0000/tree_98.root
/eos/cms/store/group/phys_higgs/hbb/ntuples/VHbbPostNano/UL/EFT/2016_preVFP/V1/WJetsToLNu_Pt-100To250_MatchEWPDG20_TuneCP5_13TeV-amcatnloFXFX-pythia8/506288d054f05d00fc8c267e8dd51a0a07e480a3ac57c0f400c81a92/000000_000000/0000/tree_99.root
/eos/cms/store/group/phys_higgs/hbb/ntuples/VHbbPostNano/UL/EFT/2016_preVFP/V1/WJetsToLNu_Pt-100To250_MatchEWPDG20_TuneCP5_13TeV-amcatnloFXFX-pythia8/059f67a6485c2e3e6e234370fe24b0b61bcba3fbbdf6136e9241cddc/000000_000000/0000/tree_100.root
/eos/cms/store/group/phys_higgs/hbb/ntuples/VHbbPostNano/UL/EFT/2016_preVFP/V1/WJetsToLNu_Pt-100To250_MatchEWPDG20_TuneCP5_13TeV-amcatnloFXFX-pythia8/cf4d1891af46bc93bfd51087f08a9b59d82fec3a0d1d67e23b07810a/000000_000000/0000/tree_101.root
/eos/cms/store/group/phys_higgs/hbb/ntuples/VHbbPostNano/UL/EFT/2016_preVFP/V1/WJetsToLNu_Pt-100To250_MatchEWPDG20_TuneCP5_13TeV-amcatnloFXFX-pythia8/7eb9563aec31aa57d1794fe8db5c04e3713caccde9d0609e1c5a9014/000000_000000/0000/tree_102.root
/eos/cms/store/group/phys_higgs/hbb/ntuples/VHbbPostNano/UL/EFT/2016_preVFP/V1/WJetsToLNu_Pt-100To250_MatchEWPDG20_TuneCP5_13TeV-amcatnloFXFX-pythia8/5d197ef4cb0cd3135c92b278dee70b8cb5737cce4bec5abb3954416d/000000_000000/0000/tree_103.root
/eos/cms/store/group/phys_higgs/hbb/ntuples/VHbbPostNano/UL/EFT/2016_preVFP/V1/WJetsToLNu_Pt-100To250_MatchEWPDG20_TuneCP5_13TeV-amcatnloFXFX-pythia8/852168d7dcd8a705df1ff58450fb9aebd376bd30993454d0d223a49a/000000_000000/0000/tree_104.root
/eos/cms/store/group/phys_higgs/hbb/ntuples/VHbbPostNano/UL/EFT/2016_preVFP/V1/WJetsToLNu_Pt-100To250_MatchEWPDG20_TuneCP5_13TeV-amcatnloFXFX-pythia8/e65953bf8b8225ab5ddd511b2ced9a9ea88578d2b281ed9f7a1d1b61/000000_000000/0000/tree_105.root
/eos/cms/store/group/phys_higgs/hbb/ntuples/VHbbPostNano/UL/EFT/2016_preVFP/V1/WJetsToLNu_Pt-100To250_MatchEWPDG20_TuneCP5_13TeV-amcatnloFXFX-pythia8/05eb1825cbf6044f013b269bc3d9660fc4cc7b95a9979dbe615ebbb5/000000_000000/0000/tree_106.root
/eos/cms/store/group/phys_higgs/hbb/ntuples/VHbbPostNano/UL/EFT/2016_preVFP/V1/WJetsToLNu_Pt-100To250_MatchEWPDG20_TuneCP5_13TeV-amcatnloFXFX-pythia8/ab70794a7677bdf1468cc536cab8f786775e572af50c89e1511ac90d/000000_000000/0000/tree_107.root
/eos/cms/store/group/phys_higgs/hbb/ntuples/VHbbPostNano/UL/EFT/2016_preVFP/V1/WJetsToLNu_Pt-100To250_MatchEWPDG20_TuneCP5_13TeV-amcatnloFXFX-pythia8/9ae2a49d9a1e72758b79f04dac2ca1f544ffd9b425acabb98cff6174/000000_000000/0000/tree_108.root
/eos/cms/store/group/phys_higgs/hbb/ntuples/VHbbPostNano/UL/EFT/2016_preVFP/V1/WJetsToLNu_Pt-100To250_MatchEWPDG20_TuneCP5_13TeV-amcatnloFXFX-pythia8/73dff41ad707db1f3678b87ce9bcc0ffc3259d2109444a9a72547f2e/000000_000000/0000/tree_109.root
/eos/cms/store/group/phys_higgs/hbb/ntuples/VHbbPostNano/UL/EFT/2016_preVFP/V1/WJetsToLNu_Pt-100To250_MatchEWPDG20_TuneCP5_13TeV-amcatnloFXFX-pythia8/460ef5b1b36cfb119be07fd5ca62aca4b603cc7543a140308198ac98/000000_000000/0000/tree_110.root
/eos/cms/store/group/phys_higgs/hbb/ntuples/VHbbPostNano/UL/EFT/2016_preVFP/V1/WJetsToLNu_Pt-100To250_MatchEWPDG20_TuneCP5_13TeV-amcatnloFXFX-pythia8/4d19735b8e2f132263f5d3d3d33858d6d6e9926f06f1eb140e9ca4b8/000000_000000/0000/tree_111.root
/eos/cms/store/group/phys_higgs/hbb/ntuples/VHbbPostNano/UL/EFT/2016_preVFP/V1/WJetsToLNu_Pt-100To250_MatchEWPDG20_TuneCP5_13TeV-amcatnloFXFX-pythia8/2df26d6b45b4d27cc7cbff5086631814275ebbdffa8436663ef7c2ae/000000_000000/0000/tree_112.root
/eos/cms/store/group/phys_higgs/hbb/ntuples/VHbbPostNano/UL/EFT/2016_preVFP/V1/WJetsToLNu_Pt-100To250_MatchEWPDG20_TuneCP5_13TeV-amcatnloFXFX-pythia8/11715d44ca39561b15f3ebf2bc411dcd69c83d42d7e502377a89ac7c/000000_000000/0000/tree_113.root
/eos/cms/store/group/phys_higgs/hbb/ntuples/VHbbPostNano/UL/EFT/2016_preVFP/V1/WJetsToLNu_Pt-100To250_MatchEWPDG20_TuneCP5_13TeV-amcatnloFXFX-pythia8/8a188abe12357ac97fc37ad665f7c7e5be768f18d4e670384e286d3a/000000_000000/0000/tree_114.root
/eos/cms/store/group/phys_higgs/hbb/ntuples/VHbbPostNano/UL/EFT/2016_preVFP/V1/WJetsToLNu_Pt-100To250_MatchEWPDG20_TuneCP5_13TeV-amcatnloFXFX-pythia8/681da16f8ba3205aa4f32843795cde4730f5863e69fc9c8d07ad6f89/000000_000000/0000/tree_115.root
/eos/cms/store/group/phys_higgs/hbb/ntuples/VHbbPostNano/UL/EFT/2016_preVFP/V1/WJetsToLNu_Pt-100To250_MatchEWPDG20_TuneCP5_13TeV-amcatnloFXFX-pythia8/fb919ab2852a9ca6822aa41aaf207c7ecf07af2709fedede31a1e80c/000000_000000/0000/tree_116.root
/eos/cms/store/group/phys_higgs/hbb/ntuples/VHbbPostNano/UL/EFT/2016_preVFP/V1/WJetsToLNu_Pt-100To250_MatchEWPDG20_TuneCP5_13TeV-amcatnloFXFX-pythia8/eeb9d36fca5728b22b737a57c7c36e0a843e2ffd59fbddd643fe645b/000000_000000/0000/tree_117.root