/eos/cms/store/group/phys_higgs/hbb/ntuples/VHbbPostNano/UL/EFT/2016_preVFP/V1/ZJetsToNuNu_HT-200To400_TuneCP5_13TeV-madgraphMLM-pythia8/f7f454a2d3fc58b5deeb097e4acf31e7b232d5714415a4f4b3e63aa5/000000_000000/0000/tree_0.root
/eos/cms/store/group/phys_higgs/hbb/ntuples/VHbbPostNano/UL/EFT/2016_preVFP/V1/ZJetsToNuNu_HT-200To400_TuneCP5_13TeV-madgraphMLM-pythia8/2fcc51f57765f566b98bff91d8ccf819d8cd4b7bd6dbef9de758334a/000000_000000/0000/tree_1.root
/eos/cms/store/group/phys_higgs/hbb/ntuples/VHbbPostNano/UL/EFT/2016_preVFP/V1/ZJetsToNuNu_HT-200To400_TuneCP5_13TeV-madgraphMLM-pythia8/c3373b8bf9a6c068d9e1d3f98704cc35c42033f2b186fe654ffdadd7/000000_000000/0000/tree_2.root
/eos/cms/store/group/phys_higgs/hbb/ntuples/VHbbPostNano/UL/EFT/2016_preVFP/V1/ZJetsToNuNu_HT-200To400_TuneCP5_13TeV-madgraphMLM-pythia8/6a23352d246054dbfbe884e4cec1525d933b66ad924c7d539ecea53e/000000_000000/0000/tree_3.root
/eos/cms/store/group/phys_higgs/hbb/ntuples/VHbbPostNano/UL/EFT/2016_preVFP/V1/ZJetsToNuNu_HT-200To400_TuneCP5_13TeV-madgraphMLM-pythia8/a5a51081636a1e1a198736a17a1f114323aad1fdb17ef19cf199db29/000000_000000/0000/tree_4.root
/eos/cms/store/group/phys_higgs/hbb/ntuples/VHbbPostNano/UL/EFT/2016_preVFP/V1/ZJetsToNuNu_HT-200To400_TuneCP5_13TeV-madgraphMLM-pythia8/fdac2bfc6d8f58174e28be91184445d92a9ecae184547b08d9cab073/000000_000000/0000/tree_5.root
/eos/cms/store/group/phys_higgs/hbb/ntuples/VHbbPostNano/UL/EFT/2016_preVFP/V1/ZJetsToNuNu_HT-200To400_TuneCP5_13TeV-madgraphMLM-pythia8/8138f405c8fda8870ac81405fd6b6e4638e161fb55db7a80b12fd56c/000000_000000/0000/tree_6.root
/eos/cms/store/group/phys_higgs/hbb/ntuples/VHbbPostNano/UL/EFT/2016_preVFP/V1/ZJetsToNuNu_HT-200To400_TuneCP5_13TeV-madgraphMLM-pythia8/9b3401681156d6673138a9a6d1e0a728c409ca855e71e8c112b4af8d/000000_000000/0000/tree_7.root
/eos/cms/store/group/phys_higgs/hbb/ntuples/VHbbPostNano/UL/EFT/2016_preVFP/V1/ZJetsToNuNu_HT-200To400_TuneCP5_13TeV-madgraphMLM-pythia8/c4031e8fb3212d92d14241e9e166e6fe93e7b470f5d44885e43c5634/000000_000000/0000/tree_8.root
/eos/cms/store/group/phys_higgs/hbb/ntuples/VHbbPostNano/UL/EFT/2016_preVFP/V1/ZJetsToNuNu_HT-200To400_TuneCP5_13TeV-madgraphMLM-pythia8/c2f2bd29e620d783d25d8e41ce53b03f438d768851e22874dd9c1ab3/000000_000000/0000/tree_9.root
/eos/cms/store/group/phys_higgs/hbb/ntuples/VHbbPostNano/UL/EFT/2016_preVFP/V1/ZJetsToNuNu_HT-200To400_TuneCP5_13TeV-madgraphMLM-pythia8/415d3be4c336f93a9e7d43d42097ac1c0039384ed69656dbe958ba83/000000_000000/0000/tree_10.root
/eos/cms/store/group/phys_higgs/hbb/ntuples/VHbbPostNano/UL/EFT/2016_preVFP/V1/ZJetsToNuNu_HT-200To400_TuneCP5_13TeV-madgraphMLM-pythia8/cd0373745e2729d8af4b7ef761d5069e9acd9c5373aafae89e1b5103/000000_000000/0000/tree_11.root
/eos/cms/store/group/phys_higgs/hbb/ntuples/VHbbPostNano/UL/EFT/2016_preVFP/V1/ZJetsToNuNu_HT-200To400_TuneCP5_13TeV-madgraphMLM-pythia8/2c09317b9c6471f0db32865d62439289b672644ae882c23c21a85050/000000_000000/0000/tree_12.root
/eos/cms/store/group/phys_higgs/hbb/ntuples/VHbbPostNano/UL/EFT/2016_preVFP/V1/ZJetsToNuNu_HT-200To400_TuneCP5_13TeV-madgraphMLM-pythia8/9fc72aded0b8da9b6d2f88a4b8e4d00d942ee3c1d5e18d4b1e39f16c/000000_000000/0000/tree_13.root
/eos/cms/store/group/phys_higgs/hbb/ntuples/VHbbPostNano/UL/EFT/2016_preVFP/V1/ZJetsToNuNu_HT-200To400_TuneCP5_13TeV-madgraphMLM-pythia8/72d85d33dc4361ae92f042d98845423b47bb949736643896af9f37b2/000000_000000/0000/tree_14.root
/eos/cms/store/group/phys_higgs/hbb/ntuples/VHbbPostNano/UL/EFT/2016_preVFP/V1/ZJetsToNuNu_HT-200To400_TuneCP5_13TeV-madgraphMLM-pythia8/3f24d3082645f68653d68fca61a3ed17d41c6e5e1f0e009addb0f4ef/000000_000000/0000/tree_15.root
/eos/cms/store/group/phys_higgs/hbb/ntuples/VHbbPostNano/UL/EFT/2016_preVFP/V1/ZJetsToNuNu_HT-200To400_TuneCP5_13TeV-madgraphMLM-pythia8/18c8d1c7cb866774734a5d2ac57ad1f4f9cb142635473573855df815/000000_000000/0000/tree_16.root
/eos/cms/store/group/phys_higgs/hbb/ntuples/VHbbPostNano/UL/EFT/2016_preVFP/V1/ZJetsToNuNu_HT-200To400_TuneCP5_13TeV-madgraphMLM-pythia8/c693e9ce7f84ea90912ab79d5287aa3d3b500f00e3d7556909695ba2/000000_000000/0000/tree_17.root
/eos/cms/store/group/phys_higgs/hbb/ntuples/VHbbPostNano/UL/EFT/2016_preVFP/V1/ZJetsToNuNu_HT-200To400_TuneCP5_13TeV-madgraphMLM-pythia8/5498dfc0b7bef7a959f1c76a254fad82a4ff4472ff037f3d4e046298/000000_000000/0000/tree_18.root
/eos/cms/store/group/phys_higgs/hbb/ntuples/VHbbPostNano/UL/EFT/2016_preVFP/V1/ZJetsToNuNu_HT-200To400_TuneCP5_13TeV-madgraphMLM-pythia8/f3d1173c8c659005a94fb7da965fc996a5508b0f98f72e0d447b4407/000000_000000/0000/tree_19.root
/eos/cms/store/group/phys_higgs/hbb/ntuples/VHbbPostNano/UL/EFT/2016_preVFP/V1/ZJetsToNuNu_HT-200To400_TuneCP5_13TeV-madgraphMLM-pythia8/13ff5736d96d2c932b105b4ca9fbd9f0f395f5cece9182493dbcfe5e/000000_000000/0000/tree_20.root
/eos/cms/store/group/phys_higgs/hbb/ntuples/VHbbPostNano/UL/EFT/2016_preVFP/V1/ZJetsToNuNu_HT-200To400_TuneCP5_13TeV-madgraphMLM-pythia8/f224f6f013f6da26570742f9a11a692602f9d5ed582713e2945aa93d/000000_000000/0000/tree_21.root