4007	12111125769	3022492	2	DYJetsToLL_LHEFilterPtZ-0To50_MatchEWPDG20_TuneCP5_13TeV-amcatnloFXFX-pythia8
1633	202501312514	124005702	1	DYJetsToLL_LHEFilterPtZ-100To250_MatchEWPDG20_TuneCP5_13TeV-amcatnloFXFX-pythia8
92	15680545869	170440715	1	DYJetsToLL_LHEFilterPtZ-400To650_MatchEWPDG20_TuneCP5_13TeV-amcatnloFXFX-pythia8
22591	27797955990	1230488	12	EGamma
2137	245061270	114675	2	QCD_HT100to200_TuneCP5_PSWeights_13TeV-madgraph-pythia8
261	109666269	420177	1	QCD_HT1500to2000_TuneCP5_PSWeights_13TeV-madgraph-pythia8
135	62703984	464473	1	QCD_HT2000toInf_TuneCP5_PSWeights_13TeV-madgraph-pythia8
1448	224581054	155097	1	QCD_HT200to300_TuneCP5_PSWeights_13TeV-madgraph-pythia8
1240	372310776	300250	1	QCD_HT500to700_TuneCP5_PSWeights_13TeV-madgraph-pythia8
982	106924898	108884	1	QCD_HT50to100_TuneCP5_PSWeights_13TeV-madgraph-pythia8
778	14751851040	18961248	1	ST_s-channel_4f_leptonDecays_TuneCP5_13TeV-amcatnlo-pythia8
3838	29917254745	7795011	2	ST_t-channel_antitop_4f_InclusiveDecays_TuneCP5_13TeV-powheg-madspin-pythia8
2509	25907664894	10325892	1	ST_t-channel_antitop_5f_InclusiveDecays_TuneCP5_13TeV-powheg-pythia8
7138	57167456298	8008889	7	ST_t-channel_top_4f_InclusiveDecays_TuneCP5_13TeV-powheg-madspin-pythia8
316	9556253562	30241308	1	ST_tW_antitop_5f_inclusiveDecays_TuneCP5_13TeV-powheg-pythia8
340	9823472373	28892565	1	ST_tW_top_5f_inclusiveDecays_TuneCP5_13TeV-powheg-pythia8
640	5624849919	8788827	1	WW_TuneCP5_13TeV-pythia8
325	2064671372	6352834	1	WZ_TuneCP5_13TeV-pythia8
81	1793173646	22137946	1	ZHJet_HToBB_ZToLL_M-125_TuneCP5_SMEFTsim_topU3l_13TeV-madgraphMLM-pythia8
604	99378831	164534	1	ZJetsToNuNu_HT-100To200_TuneCP5_13TeV-madgraphMLM-pythia8
11	4239885	385444	1	ZJetsToNuNu_HT-1200To2500_TuneCP5_13TeV-madgraphMLM-pythia8
123	53182644	432379	1	ZJetsToNuNu_HT-600To800_TuneCP5_13TeV-madgraphMLM-pythia8
45	20615180	458115	1	ZJetsToNuNu_HT-800To1200_TuneCP5_13TeV-madgraphMLM-pythia8
143	414820718	2900844	1	ZZ_TuneCP5_13TeV-pythia8
1867	21177890174	11343272	1	DYJetsToLL_1J_TuneCP5_13TeV-amcatnloFXFX-pythia8
905	29452361631	32544046	1	DYJetsToLL_2J_TuneCP5_13TeV-amcatnloFXFX-pythia8
3972	28438461882	7159733	2	DYJetsToLL_M-50_TuneCP5_13TeV-amcatnloFXFX-pythia8
1928	67202101647	34855861	1	WJetsToLNu_2J_TuneCP5_13TeV-amcatnloFXFX-pythia8
9764	1618712405717	165783736	4	WJetsToLNu_Pt-100To250_MatchEWPDG20_TuneCP5_13TeV-amcatnloFXFX-pythia8
2079	803121637565	386301893	2	WJetsToLNu_Pt-250To400_MatchEWPDG20_TuneCP5_13TeV-amcatnloFXFX-pythia8
87	37660706726	432881686	1	WJetsToLNu_Pt-600ToInf_MatchEWPDG20_TuneCP5_13TeV-amcatnloFXFX-pythia8
612	3770173672	6160414	1	WJetsToLNu_TuneCP5_13TeV-amcatnloFXFX-pythia8
2493	53815844532	21586780	1	DYJetsToLL_LHEFilterPtZ-50To100_MatchEWPDG20_TuneCP5_13TeV-amcatnloFXFX-pythia8
1617	354811005	219425	1	QCD_HT300to500_TuneCP5_PSWeights_13TeV-madgraph-pythia8
461	138806207	301098	1	ZJetsToNuNu_HT-200To400_TuneCP5_13TeV-madgraphMLM-pythia8
3645	302752126590	83059568	3	TTTo2L2Nu_TuneCP5_13TeV-powheg-pythia8
1918	936888504	488471	1	DYJetsToLL_M-10to50_TuneCP5_13TeV-madgraphMLM-pythia8
22562	35762151510	1585061	19	SingleMuon
6707	3052459340	455115	4	TTToHadronic_TuneCP5_13TeV-powheg-pythia8
1237	416281217	336524	1	QCD_HT700to1000_TuneCP5_PSWeights_13TeV-madgraph-pythia8
454	25633231412	56460862	1	ST_tW_top_5f_NoFullyHadronicDecays_TuneCP5_13TeV-powheg-pythia8
253	113542588548	448784934	1	WJetsToLNu_Pt-400To600_MatchEWPDG20_TuneCP5_13TeV-amcatnloFXFX-pythia8
191	8818618412	46170777	1	WHJet_HToBB_WToLNu_M-125_TuneCP5_SMEFTsim_topU3l_13TeV-madgraphMLM-pythia8
7	3872893	553270	1	ZJetsToNuNu_HT-2500ToInf_TuneCP5_13TeV-madgraphMLM-pythia8
400	159226570	398066	1	ZJetsToNuNu_HT-400To600_TuneCP5_13TeV-madgraphMLM-pythia8
391	1115527983728	2853012746	1	TTToSemiLeptonic_TuneCP5_13TeV-powheg-pythia8
444	24923805647	56134697	1	ST_tW_antitop_5f_NoFullyHadronicDecays_TuneCP5_13TeV-powheg-pythia8
85	672916995	7916670	1	WJetsToLNu_0J_TuneCP5_13TeV-amcatnloFXFX-pythia8
377	143312993	380140	1	QCD_HT1000to1500_TuneCP5_PSWeights_13TeV-madgraph-pythia8
1766	1931233626	1093563	1	DYJetsToLL_0J_TuneCP5_13TeV-amcatnloFXFX-pythia8
103	9491658889	92152028	1	DYJetsToLL_LHEFilterPtZ-650ToInf_MatchEWPDG20_TuneCP5_13TeV-amcatnloFXFX-pythia8
3753	37780825109	10066833	3	WJetsToLNu_1J_TuneCP5_13TeV-amcatnloFXFX-pythia8
507	105679351972	208440536	1	DYJetsToLL_LHEFilterPtZ-250To400_MatchEWPDG20_TuneCP5_13TeV-amcatnloFXFX-pythia8
