/store/group/phys_higgs/hbb/ntuples/VHbbPostNano/2018/V12/DYJetsToLL_M-50_HT-400to600_TuneCP5_PSweights_13TeV-madgraphMLM-pythia8/25aecdbb4631b493508a6bdb5d9af2ae02769f07ce7d0fde25332058/000000_000000/0000/tree_0.root
/store/group/phys_higgs/hbb/ntuples/VHbbPostNano/2018/V12/DYJetsToLL_M-50_HT-400to600_TuneCP5_PSweights_13TeV-madgraphMLM-pythia8/eafc2a317aff37ace78f46d55f77ebdc069ef7d8a95f8ff5737e7e36/000000_000000/0000/tree_1.root
/store/group/phys_higgs/hbb/ntuples/VHbbPostNano/2018/V12/DYJetsToLL_M-50_HT-400to600_TuneCP5_PSweights_13TeV-madgraphMLM-pythia8/e6b75da1a3a7390eda0775b0d35b27eabf63d9daf56b9354a678fe49/000000_000000/0000/tree_2.root
/store/group/phys_higgs/hbb/ntuples/VHbbPostNano/2018/V12/DYJetsToLL_M-50_HT-400to600_TuneCP5_PSweights_13TeV-madgraphMLM-pythia8/b7e806e4fdad4265cdaa324dbe1c26c9741465d307ca53f015c7a602/000000_000000/0000/tree_3.root
/store/group/phys_higgs/hbb/ntuples/VHbbPostNano/2018/V12/DYJetsToLL_M-50_HT-400to600_TuneCP5_PSweights_13TeV-madgraphMLM-pythia8/ca0792c554ad3ac5e389a985a90c6f9d0e1029d2d28d5b894429542a/000000_000000/0000/tree_4.root
/store/group/phys_higgs/hbb/ntuples/VHbbPostNano/2018/V12/DYJetsToLL_M-50_HT-400to600_TuneCP5_PSweights_13TeV-madgraphMLM-pythia8/8264db9e10ee5c0b0634c446ec663b11c11c1ac9beef1d0908fba0b5/000000_000000/0000/tree_5.root
/store/group/phys_higgs/hbb/ntuples/VHbbPostNano/2018/V12/DYJetsToLL_M-50_HT-400to600_TuneCP5_PSweights_13TeV-madgraphMLM-pythia8/9d27bcae909e8969639d5a7031eda31db5161dbe7c82244792a66dc2/000000_000000/0000/tree_6.root
/store/group/phys_higgs/hbb/ntuples/VHbbPostNano/2018/V12/DYJetsToLL_M-50_HT-400to600_TuneCP5_PSweights_13TeV-madgraphMLM-pythia8/747daee9fa59ab2e3a5b9a61d20f06ceab668e23e01a9b26a849b603/000000_000000/0000/tree_7.root
/store/group/phys_higgs/hbb/ntuples/VHbbPostNano/2018/V12/DYJetsToLL_M-50_HT-400to600_TuneCP5_PSweights_13TeV-madgraphMLM-pythia8/1c977104174fe18352038f34cba5d247c1aaaedce72f1638b3fef190/000000_000000/0000/tree_8.root
/store/group/phys_higgs/hbb/ntuples/VHbbPostNano/2018/V12/DYJetsToLL_M-50_HT-400to600_TuneCP5_PSweights_13TeV-madgraphMLM-pythia8/b6f62cae720136e966ded37b0e436cc3146ebc170ce78568e793debd/000000_000000/0000/tree_9.root
/store/group/phys_higgs/hbb/ntuples/VHbbPostNano/2018/V12/DYJetsToLL_M-50_HT-400to600_TuneCP5_PSweights_13TeV-madgraphMLM-pythia8/0291c4bca89ce1e2a213b6a0d79c3093507bf0dba5309cc15f3158bf/000000_000000/0000/tree_10.root
/store/group/phys_higgs/hbb/ntuples/VHbbPostNano/2018/V12/DYJetsToLL_M-50_HT-400to600_TuneCP5_PSweights_13TeV-madgraphMLM-pythia8/4e49cc11f9522770d78c425411914dda832be99eb28ce5adbe1f9a13/000000_000000/0000/tree_11.root
/store/group/phys_higgs/hbb/ntuples/VHbbPostNano/2018/V12/DYJetsToLL_M-50_HT-400to600_TuneCP5_PSweights_13TeV-madgraphMLM-pythia8/e2ea5ebbf2b209d8ae2fb67deb3cf98ce88667f90ff38b96c44c9a2b/000000_000000/0000/tree_12.root
/store/group/phys_higgs/hbb/ntuples/VHbbPostNano/2018/V12/DYJetsToLL_M-50_HT-400to600_TuneCP5_PSweights_13TeV-madgraphMLM-pythia8/080301a6d4027545b10c26bd77a3e6f113adf2963abad8f8abfa5b8a/000000_000000/0000/tree_13.root
/store/group/phys_higgs/hbb/ntuples/VHbbPostNano/2018/V12/DYJetsToLL_M-50_HT-400to600_TuneCP5_PSweights_13TeV-madgraphMLM-pythia8/eeae96443586f74d79e5f739f32d79d400fce39a948e14ffc97d22a8/000000_000000/0000/tree_14.root
/store/group/phys_higgs/hbb/ntuples/VHbbPostNano/2018/V12/DYJetsToLL_M-50_HT-400to600_TuneCP5_PSweights_13TeV-madgraphMLM-pythia8/6675badf85f43aa7a8c9aaa328eebed41d267fdbecb792a73355f19f/000000_000000/0000/tree_15.root
/store/group/phys_higgs/hbb/ntuples/VHbbPostNano/2018/V12/DYJetsToLL_M-50_HT-400to600_TuneCP5_PSweights_13TeV-madgraphMLM-pythia8/f0d8e374aeada0a41085e7feeefa79044c437996f0db5739d790728b/000000_000000/0000/tree_16.root
/store/group/phys_higgs/hbb/ntuples/VHbbPostNano/2018/V12/DYJetsToLL_M-50_HT-400to600_TuneCP5_PSweights_13TeV-madgraphMLM-pythia8/bccbb221838434ac86eac6325e8beb67f9f4410180fee034f4b544d9/000000_000000/0000/tree_17.root
/store/group/phys_higgs/hbb/ntuples/VHbbPostNano/2018/V12/DYJetsToLL_M-50_HT-400to600_TuneCP5_PSweights_13TeV-madgraphMLM-pythia8/f2c5fa55211d3161c96f62ef05d2f476be69fe81ea0d5c932098766a/000000_000000/0000/tree_18.root
/store/group/phys_higgs/hbb/ntuples/VHbbPostNano/2018/V12/DYJetsToLL_M-50_HT-400to600_TuneCP5_PSweights_13TeV-madgraphMLM-pythia8/8d302b824a9450b8050bf1997a3f6e4604ae15638940afa40649a5ba/000000_000000/0000/tree_19.root
/store/group/phys_higgs/hbb/ntuples/VHbbPostNano/2018/V12/DYJetsToLL_M-50_HT-400to600_TuneCP5_PSweights_13TeV-madgraphMLM-pythia8/2724aec896d1dcb8aa24d4f445969b142b823634cd82dd93b19b4cc0/000000_000000/0000/tree_20.root
/store/group/phys_higgs/hbb/ntuples/VHbbPostNano/2018/V12/DYJetsToLL_M-50_HT-400to600_TuneCP5_PSweights_13TeV-madgraphMLM-pythia8/4404cbc6dbadde03a11ea1500e7f69808ad9d2117df23fa1e5b46222/000000_000000/0000/tree_21.root
/store/group/phys_higgs/hbb/ntuples/VHbbPostNano/2018/V12/DYJetsToLL_M-50_HT-400to600_TuneCP5_PSweights_13TeV-madgraphMLM-pythia8/71e33d5008e4e7f08251376838ffc2c93c675a5bdef24746767e1214/000000_000000/0000/tree_22.root
/store/group/phys_higgs/hbb/ntuples/VHbbPostNano/2018/V12/DYJetsToLL_M-50_HT-400to600_TuneCP5_PSweights_13TeV-madgraphMLM-pythia8/9e11380809bdac89f32017b3a1926cf3a18c336cc77ab85d021ba40e/000000_000000/0000/tree_23.root
/store/group/phys_higgs/hbb/ntuples/VHbbPostNano/2018/V12/DYJetsToLL_M-50_HT-400to600_TuneCP5_PSweights_13TeV-madgraphMLM-pythia8/3269193a885323fda2748005c1a4d0bd42f0b425fd56794471ea88ea/000000_000000/0000/tree_24.root
/store/group/phys_higgs/hbb/ntuples/VHbbPostNano/2018/V12/DYJetsToLL_M-50_HT-400to600_TuneCP5_PSweights_13TeV-madgraphMLM-pythia8/66fd5f2752d8fcf85d05e53759b0935c8841b2ed24fa8b5aa93d9a63/000000_000000/0000/tree_25.root
/store/group/phys_higgs/hbb/ntuples/VHbbPostNano/2018/V12/DYJetsToLL_M-50_HT-400to600_TuneCP5_PSweights_13TeV-madgraphMLM-pythia8/32feaa252f31ca7c38901ee4250ccadc716c1c6d19fa89e363b0d767/000000_000000/0000/tree_26.root
/store/group/phys_higgs/hbb/ntuples/VHbbPostNano/2018/V12/DYJetsToLL_M-50_HT-400to600_TuneCP5_PSweights_13TeV-madgraphMLM-pythia8/c1d3b7498ce0910d3d47d047fc941926cc6b3b8cb10891560afe5716/000000_000000/0000/tree_27.root
/store/group/phys_higgs/hbb/ntuples/VHbbPostNano/2018/V12/DYJetsToLL_M-50_HT-400to600_TuneCP5_PSweights_13TeV-madgraphMLM-pythia8/f7b5cd025331862ae03b4f227693d7a02d06381ec7d5ac7a089f706b/000000_000000/0000/tree_28.root
/store/group/phys_higgs/hbb/ntuples/VHbbPostNano/2018/V12/DYJetsToLL_M-50_HT-400to600_TuneCP5_PSweights_13TeV-madgraphMLM-pythia8/ae90a7c59db2f0cca6479492d81a1f930d55b1c02595117e3c15bf0c/000000_000000/0000/tree_29.root
/store/group/phys_higgs/hbb/ntuples/VHbbPostNano/2018/V12/DYJetsToLL_M-50_HT-400to600_TuneCP5_PSweights_13TeV-madgraphMLM-pythia8/b39b30b491d11a2d3e864d6cce26019e6e5d0bdbb757f18d3bb8eced/000000_000000/0000/tree_30.root
/store/group/phys_higgs/hbb/ntuples/VHbbPostNano/2018/V12/DYJetsToLL_M-50_HT-400to600_TuneCP5_PSweights_13TeV-madgraphMLM-pythia8/1a97032688ac8010d84af4a5fc51a45a52dd54d345ca9095b2173dc3/000000_000000/0000/tree_31.root
/store/group/phys_higgs/hbb/ntuples/VHbbPostNano/2018/V12/DYJetsToLL_M-50_HT-400to600_TuneCP5_PSweights_13TeV-madgraphMLM-pythia8/5c474d6e3c007e3ddae6daba54beea03ddc21b7621ed701cabf16bf6/000000_000000/0000/tree_32.root
/store/group/phys_higgs/hbb/ntuples/VHbbPostNano/2018/V12/DYJetsToLL_M-50_HT-400to600_TuneCP5_PSweights_13TeV-madgraphMLM-pythia8/e25b67fd1581d8e26b65e893790ae1ea21164cb3d749e5985b4ee38a/000000_000000/0000/tree_33.root
/store/group/phys_higgs/hbb/ntuples/VHbbPostNano/2018/V12/DYJetsToLL_M-50_HT-400to600_TuneCP5_PSweights_13TeV-madgraphMLM-pythia8/55bed48365412e2eb7914d58c8f42a9fe0530a23b7c750e2ce092e6b/000000_000000/0000/tree_34.root
/store/group/phys_higgs/hbb/ntuples/VHbbPostNano/2018/V12/DYJetsToLL_M-50_HT-400to600_TuneCP5_PSweights_13TeV-madgraphMLM-pythia8/f3aa762044df1b1c71d5e23ad8d5319082718582a6b0ab1b57a867fa/000000_000000/0000/tree_35.root
/store/group/phys_higgs/hbb/ntuples/VHbbPostNano/2018/V12/DYJetsToLL_M-50_HT-400to600_TuneCP5_PSweights_13TeV-madgraphMLM-pythia8/2cd89703e03a290f2612be5550dc0c9f9bd944a872738f5171fea0c1/000000_000000/0000/tree_36.root
/store/group/phys_higgs/hbb/ntuples/VHbbPostNano/2018/V12/DYJetsToLL_M-50_HT-400to600_TuneCP5_PSweights_13TeV-madgraphMLM-pythia8/5e6d6d41faf6d7d7ada8cd31bb7258501b2480796742cdfde1b2293d/000000_000000/0000/tree_37.root
/store/group/phys_higgs/hbb/ntuples/VHbbPostNano/2018/V12/DYJetsToLL_M-50_HT-400to600_TuneCP5_PSweights_13TeV-madgraphMLM-pythia8/8805b499a459f772cb16b945448e567b82b3a589dbfe1b8cfb2dbe90/000000_000000/0000/tree_38.root
/store/group/phys_higgs/hbb/ntuples/VHbbPostNano/2018/V12/DYJetsToLL_M-50_HT-400to600_TuneCP5_PSweights_13TeV-madgraphMLM-pythia8/8f6d82d644214a9d16e96e621610faad9f827bd9005c8a0cef8321a1/000000_000000/0000/tree_39.root
/store/group/phys_higgs/hbb/ntuples/VHbbPostNano/2018/V12/DYJetsToLL_M-50_HT-400to600_TuneCP5_PSweights_13TeV-madgraphMLM-pythia8/049cdd8d9aaa116f4772a4b46251c1d55832395852a7ef03b7bec56d/000000_000000/0000/tree_40.root
/store/group/phys_higgs/hbb/ntuples/VHbbPostNano/2018/V12/DYJetsToLL_M-50_HT-400to600_TuneCP5_PSweights_13TeV-madgraphMLM-pythia8/5b3401290815dff7663c090207875316ffd86524fb14e4603c609605/000000_000000/0000/tree_41.root
/store/group/phys_higgs/hbb/ntuples/VHbbPostNano/2018/V12/DYJetsToLL_M-50_HT-400to600_TuneCP5_PSweights_13TeV-madgraphMLM-pythia8/48f5651af340de6c2cde0b7977b9da2d517f7fe6797f67843782aefa/000000_000000/0000/tree_42.root
/store/group/phys_higgs/hbb/ntuples/VHbbPostNano/2018/V12/DYJetsToLL_M-50_HT-400to600_TuneCP5_PSweights_13TeV-madgraphMLM-pythia8/7966982362b7aded440887a07fc7e78422be6853ccda5638bcdbce0d/000000_000000/0000/tree_43.root
/store/group/phys_higgs/hbb/ntuples/VHbbPostNano/2018/V12/DYJetsToLL_M-50_HT-400to600_TuneCP5_PSweights_13TeV-madgraphMLM-pythia8/3538ff3f8f3b3e5c5ab6a92a6d8ae7a25ab4cbd4bdcf3f6e0908c31e/000000_000000/0000/tree_44.root
/store/group/phys_higgs/hbb/ntuples/VHbbPostNano/2018/V12/DYJetsToLL_M-50_HT-400to600_TuneCP5_PSweights_13TeV-madgraphMLM-pythia8/738a267815bba1b4b61b9846cb230d2ef56c94b3d7bc96b24d420bb6/000000_000000/0000/tree_45.root
/store/group/phys_higgs/hbb/ntuples/VHbbPostNano/2018/V12/DYJetsToLL_M-50_HT-400to600_TuneCP5_PSweights_13TeV-madgraphMLM-pythia8/d7f376e4ba13f504891477e6c0b7fa128b4ba1ab809e9efa92aee0a2/000000_000000/0000/tree_46.root
/store/group/phys_higgs/hbb/ntuples/VHbbPostNano/2018/V12/DYJetsToLL_M-50_HT-400to600_TuneCP5_PSweights_13TeV-madgraphMLM-pythia8/79e6199cf8540d49b7bd8b288ab5e89324625e5df70cceb7a4e7483f/000000_000000/0000/tree_47.root
/store/group/phys_higgs/hbb/ntuples/VHbbPostNano/2018/V12/DYJetsToLL_M-50_HT-400to600_TuneCP5_PSweights_13TeV-madgraphMLM-pythia8/e5eeacb11b7f050d5268a1f59ae0065b05f82ac468cc0566c7d5da3d/000000_000000/0000/tree_48.root
/store/group/phys_higgs/hbb/ntuples/VHbbPostNano/2018/V12/DYJetsToLL_M-50_HT-400to600_TuneCP5_PSweights_13TeV-madgraphMLM-pythia8/de61835cc89daf2d04ee974dd578b97fea82b282dd67f431b50a88f5/000000_000000/0000/tree_49.root
/store/group/phys_higgs/hbb/ntuples/VHbbPostNano/2018/V12/DYJetsToLL_M-50_HT-400to600_TuneCP5_PSweights_13TeV-madgraphMLM-pythia8/b3c9abc3e000e4367df6e0d0597b838ec5c0b28dd63dc92ef890e847/000000_000000/0000/tree_50.root
/store/group/phys_higgs/hbb/ntuples/VHbbPostNano/2018/V12/DYJetsToLL_M-50_HT-400to600_TuneCP5_PSweights_13TeV-madgraphMLM-pythia8/9d3425eeb24f53213ef7985c7ebc9c2aa75b1bf07e3fbe6cb4dedbcf/000000_000000/0000/tree_51.root
/store/group/phys_higgs/hbb/ntuples/VHbbPostNano/2018/V12/DYJetsToLL_M-50_HT-400to600_TuneCP5_PSweights_13TeV-madgraphMLM-pythia8/957e4e5f8d397ad97a627e6b5f504dd7c11939d24f87b129bf5173dc/000000_000000/0000/tree_52.root
/store/group/phys_higgs/hbb/ntuples/VHbbPostNano/2018/V12/DYJetsToLL_M-50_HT-400to600_TuneCP5_PSweights_13TeV-madgraphMLM-pythia8/9feb2a2154bd1e001e79f0dafb80deb3bec990f61aa284728d159dd7/000000_000000/0000/tree_53.root
/store/group/phys_higgs/hbb/ntuples/VHbbPostNano/2018/V12/DYJetsToLL_M-50_HT-400to600_TuneCP5_PSweights_13TeV-madgraphMLM-pythia8/8ed6ba6ac985f14382d29e0352f3d5ed3855c228850bcc12390042ac/000000_000000/0000/tree_54.root
/store/group/phys_higgs/hbb/ntuples/VHbbPostNano/2018/V12/DYJetsToLL_M-50_HT-400to600_TuneCP5_PSweights_13TeV-madgraphMLM-pythia8/9fc2d9a88b20a8308b5f8b4d0b3dfa21aad76484933519f0643fcd38/000000_000000/0000/tree_55.root
/store/group/phys_higgs/hbb/ntuples/VHbbPostNano/2018/V12/DYJetsToLL_M-50_HT-400to600_TuneCP5_PSweights_13TeV-madgraphMLM-pythia8/83515df8863cb4922a90136bc2469837f6ab6c61a0110354e2b00303/000000_000000/0000/tree_56.root
/store/group/phys_higgs/hbb/ntuples/VHbbPostNano/2018/V12/DYJetsToLL_M-50_HT-400to600_TuneCP5_PSweights_13TeV-madgraphMLM-pythia8/3b04026fccb2cb8d26c75065360d85ae3a662b9693a8030b8612ed2c/000000_000000/0000/tree_57.root
/store/group/phys_higgs/hbb/ntuples/VHbbPostNano/2018/V12/DYJetsToLL_M-50_HT-400to600_TuneCP5_PSweights_13TeV-madgraphMLM-pythia8/2f398d99f9f72cfb61bebd9297615785a1b3d53d4633b1aa84fefa02/000000_000000/0000/tree_58.root
/store/group/phys_higgs/hbb/ntuples/VHbbPostNano/2018/V12/DYJetsToLL_M-50_HT-400to600_TuneCP5_PSweights_13TeV-madgraphMLM-pythia8/bad5c5df80e24d6d5e4905d94c4f323ac9f5be6f9bbaea9319197d1b/000000_000000/0000/tree_59.root
/store/group/phys_higgs/hbb/ntuples/VHbbPostNano/2018/V12/DYJetsToLL_M-50_HT-400to600_TuneCP5_PSweights_13TeV-madgraphMLM-pythia8/464e287ea2392b19ebce852a4d7ec657e2b0223b7a6e0605d622c345/000000_000000/0000/tree_60.root
/store/group/phys_higgs/hbb/ntuples/VHbbPostNano/2018/V12/DYJetsToLL_M-50_HT-400to600_TuneCP5_PSweights_13TeV-madgraphMLM-pythia8/9a3c11d8360f4f74f5f9d6e66697f9b33f9ea7d344949b1ad4b5a82a/000000_000000/0000/tree_61.root
/store/group/phys_higgs/hbb/ntuples/VHbbPostNano/2018/V12/DYJetsToLL_M-50_HT-400to600_TuneCP5_PSweights_13TeV-madgraphMLM-pythia8/ec428783d8502564ef8c56545ddfb7c228ab7b4e2eac711ea065f48f/000000_000000/0000/tree_62.root
/store/group/phys_higgs/hbb/ntuples/VHbbPostNano/2018/V12/DYJetsToLL_M-50_HT-400to600_TuneCP5_PSweights_13TeV-madgraphMLM-pythia8/0fc515104e766cd8574eaf7e3f9b113f167165414b1f15305e3b162a/000000_000000/0000/tree_63.root
/store/group/phys_higgs/hbb/ntuples/VHbbPostNano/2018/V12/DYJetsToLL_M-50_HT-400to600_TuneCP5_PSweights_13TeV-madgraphMLM-pythia8/640a8195c4b5731b9c0c521e748ab082a9a8e1c457f0f72e20c2cad3/000000_000000/0000/tree_64.root
/store/group/phys_higgs/hbb/ntuples/VHbbPostNano/2018/V12/DYJetsToLL_M-50_HT-400to600_TuneCP5_PSweights_13TeV-madgraphMLM-pythia8/714ef6b800a66cce380550d35f97c76b260b3207748705ee9cdea7d2/000000_000000/0000/tree_65.root
/store/group/phys_higgs/hbb/ntuples/VHbbPostNano/2018/V12/DYJetsToLL_M-50_HT-400to600_TuneCP5_PSweights_13TeV-madgraphMLM-pythia8/f42ad2fba5a01ea5b3fb617fe6a429ea5c23a857fc404ad0f7fd6c5c/000000_000000/0000/tree_66.root
/store/group/phys_higgs/hbb/ntuples/VHbbPostNano/2018/V12/DYJetsToLL_M-50_HT-400to600_TuneCP5_PSweights_13TeV-madgraphMLM-pythia8/b1fe5e8ea79d5823384aa53b3e6287ae92bec62dfdddff73d2012e81/000000_000000/0000/tree_67.root
/store/group/phys_higgs/hbb/ntuples/VHbbPostNano/2018/V12/DYJetsToLL_M-50_HT-400to600_TuneCP5_PSweights_13TeV-madgraphMLM-pythia8/fa0f3c33095cf15e25c0e152ae806bcc74369a5c55fc100888ceae41/000000_000000/0000/tree_68.root
/store/group/phys_higgs/hbb/ntuples/VHbbPostNano/2018/V12/DYJetsToLL_M-50_HT-400to600_TuneCP5_PSweights_13TeV-madgraphMLM-pythia8/765e13ede7a3fbd71d905fe6a97ac7e16d20acbf0227c3afc7183161/000000_000000/0000/tree_69.root
/store/group/phys_higgs/hbb/ntuples/VHbbPostNano/2018/V12/DYJetsToLL_M-50_HT-400to600_TuneCP5_PSweights_13TeV-madgraphMLM-pythia8/a0988a74ef63f1ad8ced712b4b6335a8fdd1c924a3e437b2f5ae0821/000000_000000/0000/tree_70.root
/store/group/phys_higgs/hbb/ntuples/VHbbPostNano/2018/V12/DYJetsToLL_M-50_HT-400to600_TuneCP5_PSweights_13TeV-madgraphMLM-pythia8/c5c41b5d1a8f83d198f444421cd28d7b4881f74d3a57a9520caef760/000000_000000/0000/tree_71.root