/store/group/phys_higgs/hbb/ntuples/VHbbPostNano/2018/V12/TTTo2L2Nu_TuneCP5_13TeV-powheg-pythia8/da542fe58c8d19b17dd2066abfb15e9ad5a41c128a92525dfa0ecce6/000000_000000/0000/tree_0.root
/store/group/phys_higgs/hbb/ntuples/VHbbPostNano/2018/V12/TTTo2L2Nu_TuneCP5_13TeV-powheg-pythia8/d0d81add0d5728839acfa0481f5b3eb2ff06fb6495a4ebc1a3986cbc/000000_000000/0000/tree_1.root
/store/group/phys_higgs/hbb/ntuples/VHbbPostNano/2018/V12/TTTo2L2Nu_TuneCP5_13TeV-powheg-pythia8/69613a9294db401cf0624d5c0983eb1038f8b8c37dae9f52ebdbd7a0/000000_000000/0000/tree_2.root
/store/group/phys_higgs/hbb/ntuples/VHbbPostNano/2018/V12/TTTo2L2Nu_TuneCP5_13TeV-powheg-pythia8/930e50914e4303a99cfe02f29b55a029c82b2ecd4c7479f85c07f8fa/000000_000000/0000/tree_3.root
/store/group/phys_higgs/hbb/ntuples/VHbbPostNano/2018/V12/TTTo2L2Nu_TuneCP5_13TeV-powheg-pythia8/c897a73df51bd9254b0c9e8d0f77d840096935e9623dbfd038e02271/000000_000000/0000/tree_4.root
/store/group/phys_higgs/hbb/ntuples/VHbbPostNano/2018/V12/TTTo2L2Nu_TuneCP5_13TeV-powheg-pythia8/d3ec8ccec167970ea716f2752619bcfb0a24ee3f63dd0247340ba48a/000000_000000/0000/tree_5.root
/store/group/phys_higgs/hbb/ntuples/VHbbPostNano/2018/V12/TTTo2L2Nu_TuneCP5_13TeV-powheg-pythia8/fb568d8898fedf67f8d667c9e1a6087a8d54c3f0b1dc5e6f98854c5a/000000_000000/0000/tree_6.root
/store/group/phys_higgs/hbb/ntuples/VHbbPostNano/2018/V12/TTTo2L2Nu_TuneCP5_13TeV-powheg-pythia8/3875c24bcffa856ae201421d28708151468a4b0ce527e6e459a92caa/000000_000000/0000/tree_7.root
/store/group/phys_higgs/hbb/ntuples/VHbbPostNano/2018/V12/TTTo2L2Nu_TuneCP5_13TeV-powheg-pythia8/e7824dc10fd23a7be977d82fafb2909f9b3be0a95aba346c55fb5289/000000_000000/0000/tree_8.root
/store/group/phys_higgs/hbb/ntuples/VHbbPostNano/2018/V12/TTTo2L2Nu_TuneCP5_13TeV-powheg-pythia8/bd7378031750b9ea2206986ddd459f6394e2dfc10d35015d1a91e28c/000000_000000/0000/tree_9.root
/store/group/phys_higgs/hbb/ntuples/VHbbPostNano/2018/V12/TTTo2L2Nu_TuneCP5_13TeV-powheg-pythia8/861af733cbdb459059bb94c3e7a532a67ffdb75c5246be86e2b70aae/000000_000000/0000/tree_10.root
/store/group/phys_higgs/hbb/ntuples/VHbbPostNano/2018/V12/TTTo2L2Nu_TuneCP5_13TeV-powheg-pythia8/62d5215e8a6cb4a97eb9d23290e01672fd72cf688ca0e66a99d9c9b3/000000_000000/0000/tree_11.root
/store/group/phys_higgs/hbb/ntuples/VHbbPostNano/2018/V12/TTTo2L2Nu_TuneCP5_13TeV-powheg-pythia8/cec5847142d71ba984627588d2e96a3d706d9c2b424137dfa4f2a60e/000000_000000/0000/tree_12.root
/store/group/phys_higgs/hbb/ntuples/VHbbPostNano/2018/V12/TTTo2L2Nu_TuneCP5_13TeV-powheg-pythia8/faccd71f150aa2ec984cba554c92edb10b451e29a0631535fa561360/000000_000000/0000/tree_13.root
/store/group/phys_higgs/hbb/ntuples/VHbbPostNano/2018/V12/TTTo2L2Nu_TuneCP5_13TeV-powheg-pythia8/41cd4e33f9e37cd1d2897dfe58404dde65e0acda99b9dce1259658d1/000000_000000/0000/tree_14.root
/store/group/phys_higgs/hbb/ntuples/VHbbPostNano/2018/V12/TTTo2L2Nu_TuneCP5_13TeV-powheg-pythia8/f0f5911ebf832abc94666140d5aff786e57e6d90d9298b25f3a6f17b/000000_000000/0000/tree_15.root
/store/group/phys_higgs/hbb/ntuples/VHbbPostNano/2018/V12/TTTo2L2Nu_TuneCP5_13TeV-powheg-pythia8/92d607d007a716d64b7bd8c87985cf4c82ca22980e52fc7d844e77a5/000000_000000/0000/tree_16.root
/store/group/phys_higgs/hbb/ntuples/VHbbPostNano/2018/V12/TTTo2L2Nu_TuneCP5_13TeV-powheg-pythia8/90689f6526682e2232c34a58160ac345d5f6c60be3b77849a329e418/000000_000000/0000/tree_17.root
/store/group/phys_higgs/hbb/ntuples/VHbbPostNano/2018/V12/TTTo2L2Nu_TuneCP5_13TeV-powheg-pythia8/dfdd31a4faa1a027eeb397ab8b3748cf78127ac8c7d78d0456a98fdf/000000_000000/0000/tree_18.root
/store/group/phys_higgs/hbb/ntuples/VHbbPostNano/2018/V12/TTTo2L2Nu_TuneCP5_13TeV-powheg-pythia8/2591142b8e8e0b5cd2ed6a7ed3aa0398975960bf49b168d1a0878228/000000_000000/0000/tree_19.root
/store/group/phys_higgs/hbb/ntuples/VHbbPostNano/2018/V12/TTTo2L2Nu_TuneCP5_13TeV-powheg-pythia8/54b09b01d805fc6dc8644163864bb0aec22c991a82132b3bdfc0ed8e/000000_000000/0000/tree_20.root
/store/group/phys_higgs/hbb/ntuples/VHbbPostNano/2018/V12/TTTo2L2Nu_TuneCP5_13TeV-powheg-pythia8/79b08c3aa009641e52c5ab6cc3345f2df6e6492bce5900cf93a305f5/000000_000000/0000/tree_21.root
/store/group/phys_higgs/hbb/ntuples/VHbbPostNano/2018/V12/TTTo2L2Nu_TuneCP5_13TeV-powheg-pythia8/6d54cbab03d61ffc0cc86e903cccaf1e53520d11e6b1921cc8f9fa8c/000000_000000/0000/tree_22.root
/store/group/phys_higgs/hbb/ntuples/VHbbPostNano/2018/V12/TTTo2L2Nu_TuneCP5_13TeV-powheg-pythia8/3ee8075ae5c60dc31c2f951e728004865b73026afb6e33a03cb4614e/000000_000000/0000/tree_23.root
/store/group/phys_higgs/hbb/ntuples/VHbbPostNano/2018/V12/TTTo2L2Nu_TuneCP5_13TeV-powheg-pythia8/393b20ad9206900a1c911348bacfe3854750f93aea4b01dc4640820c/000000_000000/0000/tree_24.root
/store/group/phys_higgs/hbb/ntuples/VHbbPostNano/2018/V12/TTTo2L2Nu_TuneCP5_13TeV-powheg-pythia8/7d4812184117a5f507d2fc82126397a7b9ec5a4b7df4621a070e5377/000000_000000/0000/tree_25.root
/store/group/phys_higgs/hbb/ntuples/VHbbPostNano/2018/V12/TTTo2L2Nu_TuneCP5_13TeV-powheg-pythia8/97771d38728469b31c8fb88fab550f341ce45959adab66f33c8cea79/000000_000000/0000/tree_26.root
/store/group/phys_higgs/hbb/ntuples/VHbbPostNano/2018/V12/TTTo2L2Nu_TuneCP5_13TeV-powheg-pythia8/7b7c5d6fb221dbad2f3868faa0b122258882971fe30075b3c5bcff8e/000000_000000/0000/tree_27.root
/store/group/phys_higgs/hbb/ntuples/VHbbPostNano/2018/V12/TTTo2L2Nu_TuneCP5_13TeV-powheg-pythia8/dde96506093455acc2243d65678e1011b44af53543a9c10d04aff850/000000_000000/0000/tree_28.root
/store/group/phys_higgs/hbb/ntuples/VHbbPostNano/2018/V12/TTTo2L2Nu_TuneCP5_13TeV-powheg-pythia8/f33e187298d645951dff3b027656af7f562e2a3efc56a6c2e6747a4a/000000_000000/0000/tree_29.root
/store/group/phys_higgs/hbb/ntuples/VHbbPostNano/2018/V12/TTTo2L2Nu_TuneCP5_13TeV-powheg-pythia8/f6d79950c701f95939a9d816e7b5b88ba6cba1714633de4d0fe17867/000000_000000/0000/tree_30.root
/store/group/phys_higgs/hbb/ntuples/VHbbPostNano/2018/V12/TTTo2L2Nu_TuneCP5_13TeV-powheg-pythia8/4a452330e097bc919b56bb82c1074290671e2c85555fc63eac77341e/000000_000000/0000/tree_31.root
/store/group/phys_higgs/hbb/ntuples/VHbbPostNano/2018/V12/TTTo2L2Nu_TuneCP5_13TeV-powheg-pythia8/c6dfe82888d99a6fb3eed00a7388ee0f06cb574530320aa8e99ff675/000000_000000/0000/tree_32.root
/store/group/phys_higgs/hbb/ntuples/VHbbPostNano/2018/V12/TTTo2L2Nu_TuneCP5_13TeV-powheg-pythia8/88da793df9aa40699ade2ee3ce9d333e317798a353dbb616c4474465/000000_000000/0000/tree_33.root
/store/group/phys_higgs/hbb/ntuples/VHbbPostNano/2018/V12/TTTo2L2Nu_TuneCP5_13TeV-powheg-pythia8/655d8252c42b897ad2fa74732500a8691a2f84b16e4a0f6659c514ba/000000_000000/0000/tree_34.root
/store/group/phys_higgs/hbb/ntuples/VHbbPostNano/2018/V12/TTTo2L2Nu_TuneCP5_13TeV-powheg-pythia8/d528691f2ed185bdfa0ffe9649c746db34dcc1ea75e7b4ada195e4d3/000000_000000/0000/tree_35.root
/store/group/phys_higgs/hbb/ntuples/VHbbPostNano/2018/V12/TTTo2L2Nu_TuneCP5_13TeV-powheg-pythia8/975cda616aa431873bf3c1bd96e69e62a4ef5ec04753f49ed9c0e137/000000_000000/0000/tree_36.root
/store/group/phys_higgs/hbb/ntuples/VHbbPostNano/2018/V12/TTTo2L2Nu_TuneCP5_13TeV-powheg-pythia8/f01b5d4fd283140714f7d6aec425f848d72e7f8769267428dd044256/000000_000000/0000/tree_37.root
/store/group/phys_higgs/hbb/ntuples/VHbbPostNano/2018/V12/TTTo2L2Nu_TuneCP5_13TeV-powheg-pythia8/51092334297b7aeb4af2b381c92aab803aadd4579da19d97c0bd918a/000000_000000/0000/tree_38.root
/store/group/phys_higgs/hbb/ntuples/VHbbPostNano/2018/V12/TTTo2L2Nu_TuneCP5_13TeV-powheg-pythia8/aaf021ec948e88a64c06c265264eba173b97d1f0223986c29d654c74/000000_000000/0000/tree_39.root
/store/group/phys_higgs/hbb/ntuples/VHbbPostNano/2018/V12/TTTo2L2Nu_TuneCP5_13TeV-powheg-pythia8/3e78fd4a31d001aeb10b6d0696b257f1518fb15f3022bbcf8c6c8d27/000000_000000/0000/tree_40.root
/store/group/phys_higgs/hbb/ntuples/VHbbPostNano/2018/V12/TTTo2L2Nu_TuneCP5_13TeV-powheg-pythia8/8b9747ad4c3e1918a22c362a0cedc7bb6448be2dcb27d987318042e6/000000_000000/0000/tree_41.root
/store/group/phys_higgs/hbb/ntuples/VHbbPostNano/2018/V12/TTTo2L2Nu_TuneCP5_13TeV-powheg-pythia8/c8f1e4a44c948ddf73ee1e7c9c42c26ba37c0b3727b9d8c718ad0033/000000_000000/0000/tree_42.root
/store/group/phys_higgs/hbb/ntuples/VHbbPostNano/2018/V12/TTTo2L2Nu_TuneCP5_13TeV-powheg-pythia8/b4effe4dc48c6791c23f64749dab35e2def978d22eed7035223758b1/000000_000000/0000/tree_43.root
/store/group/phys_higgs/hbb/ntuples/VHbbPostNano/2018/V12/TTTo2L2Nu_TuneCP5_13TeV-powheg-pythia8/1df5ca33a2887fffdc0fd4448c23a32bac47a6e2e62fe886fbca2913/000000_000000/0000/tree_44.root
/store/group/phys_higgs/hbb/ntuples/VHbbPostNano/2018/V12/TTTo2L2Nu_TuneCP5_13TeV-powheg-pythia8/238e3853453fefdb4c99b041dea6b7c9bba96a0975078a93392254a4/000000_000000/0000/tree_45.root
/store/group/phys_higgs/hbb/ntuples/VHbbPostNano/2018/V12/TTTo2L2Nu_TuneCP5_13TeV-powheg-pythia8/86c07cf0324abee5be74a2bb510bb7df00d3151d2a150e312f0251b4/000000_000000/0000/tree_46.root
/store/group/phys_higgs/hbb/ntuples/VHbbPostNano/2018/V12/TTTo2L2Nu_TuneCP5_13TeV-powheg-pythia8/8c4bf0a9e3ba72280e6ca6bc5fc8d391c9410e66ef484bd82af6e9c9/000000_000000/0000/tree_47.root
/store/group/phys_higgs/hbb/ntuples/VHbbPostNano/2018/V12/TTTo2L2Nu_TuneCP5_13TeV-powheg-pythia8/1b7d12a16988cef063c220b7dbdaa7b21d1807b16e971318e11e78b9/000000_000000/0000/tree_48.root
/store/group/phys_higgs/hbb/ntuples/VHbbPostNano/2018/V12/TTTo2L2Nu_TuneCP5_13TeV-powheg-pythia8/b9c34d8c55b30e511ba6a39ade8b654f46def7c2fba0882ee932d709/000000_000000/0000/tree_49.root
/store/group/phys_higgs/hbb/ntuples/VHbbPostNano/2018/V12/TTTo2L2Nu_TuneCP5_13TeV-powheg-pythia8/460a2f6c2f9779e58eb0314640e115ebecf4c70f0dad8f4833be9b54/000000_000000/0000/tree_50.root
/store/group/phys_higgs/hbb/ntuples/VHbbPostNano/2018/V12/TTTo2L2Nu_TuneCP5_13TeV-powheg-pythia8/cfb85ad0624244a942d521f1738f7c7d8d0bb4681140e91cd1b92acc/000000_000000/0000/tree_51.root
/store/group/phys_higgs/hbb/ntuples/VHbbPostNano/2018/V12/TTTo2L2Nu_TuneCP5_13TeV-powheg-pythia8/416fe3e34681097be9044411cdbddd17fe09ca99142358e5be13da20/000000_000000/0000/tree_52.root
/store/group/phys_higgs/hbb/ntuples/VHbbPostNano/2018/V12/TTTo2L2Nu_TuneCP5_13TeV-powheg-pythia8/225bfd5bf60c0633b500dd96349b2d6dc3b7c3c2633ddc53264b5ab5/000000_000000/0000/tree_53.root
/store/group/phys_higgs/hbb/ntuples/VHbbPostNano/2018/V12/TTTo2L2Nu_TuneCP5_13TeV-powheg-pythia8/2456d8ac1aab0501d43352c0a76aed848563aef51fc733958ef6ff56/000000_000000/0000/tree_54.root
/store/group/phys_higgs/hbb/ntuples/VHbbPostNano/2018/V12/TTTo2L2Nu_TuneCP5_13TeV-powheg-pythia8/68d6917c1172dead5d3fb02a8e7086fc0c7184a2ad9e6a68e85124e6/000000_000000/0000/tree_55.root
/store/group/phys_higgs/hbb/ntuples/VHbbPostNano/2018/V12/TTTo2L2Nu_TuneCP5_13TeV-powheg-pythia8/9d477cafeb8caec9ff98d22dc166d224f4ada9700f1b5b426ef3fb29/000000_000000/0000/tree_56.root
/store/group/phys_higgs/hbb/ntuples/VHbbPostNano/2018/V12/TTTo2L2Nu_TuneCP5_13TeV-powheg-pythia8/f8af4531183b03d00a139000a1077beab34c09508293852e9398f3dc/000000_000000/0000/tree_57.root
/store/group/phys_higgs/hbb/ntuples/VHbbPostNano/2018/V12/TTTo2L2Nu_TuneCP5_13TeV-powheg-pythia8/a75df2a1e9825b634eb45bbc53e23f4f4f59b41786bf0453755e2033/000000_000000/0000/tree_58.root
/store/group/phys_higgs/hbb/ntuples/VHbbPostNano/2018/V12/TTTo2L2Nu_TuneCP5_13TeV-powheg-pythia8/1b60d87d71c1332f632a11c17840d26edc20c15dfb508776590b43a5/000000_000000/0000/tree_59.root
/store/group/phys_higgs/hbb/ntuples/VHbbPostNano/2018/V12/TTTo2L2Nu_TuneCP5_13TeV-powheg-pythia8/2842477d9294fed7b7537e0c897899d16943fe5ae6a03760366654f0/000000_000000/0000/tree_60.root
/store/group/phys_higgs/hbb/ntuples/VHbbPostNano/2018/V12/TTTo2L2Nu_TuneCP5_13TeV-powheg-pythia8/42f3a677001c09d1527a11bc6cb2cd3b79462ee501b1568f4a9ab3a9/000000_000000/0000/tree_61.root
/store/group/phys_higgs/hbb/ntuples/VHbbPostNano/2018/V12/TTTo2L2Nu_TuneCP5_13TeV-powheg-pythia8/c78efa58472222587cada309c060f167f0af93e3121d8650945eb24e/000000_000000/0000/tree_62.root
/store/group/phys_higgs/hbb/ntuples/VHbbPostNano/2018/V12/TTTo2L2Nu_TuneCP5_13TeV-powheg-pythia8/eeaa5b1f58f4c829d430f9710f29c5195c68dfef3fd39e9d102e8f57/000000_000000/0000/tree_63.root
/store/group/phys_higgs/hbb/ntuples/VHbbPostNano/2018/V12/TTTo2L2Nu_TuneCP5_13TeV-powheg-pythia8/30f530dc5a7099506a28874a33eb4fa290c6d3051713b36a219dbefe/000000_000000/0000/tree_64.root
/store/group/phys_higgs/hbb/ntuples/VHbbPostNano/2018/V12/TTTo2L2Nu_TuneCP5_13TeV-powheg-pythia8/25b2eb7142eba0af971e5711d408717e801df17038e02e023af256ff/000000_000000/0000/tree_65.root
/store/group/phys_higgs/hbb/ntuples/VHbbPostNano/2018/V12/TTTo2L2Nu_TuneCP5_13TeV-powheg-pythia8/c3f6bb794725a0b99d09423ee506abca7fe0bdfea2000b7e640ea888/000000_000000/0000/tree_66.root
/store/group/phys_higgs/hbb/ntuples/VHbbPostNano/2018/V12/TTTo2L2Nu_TuneCP5_13TeV-powheg-pythia8/dbf1614fd5acd4856281328af150620eb54cb5985857e37e9de2b071/000000_000000/0000/tree_67.root
/store/group/phys_higgs/hbb/ntuples/VHbbPostNano/2018/V12/TTTo2L2Nu_TuneCP5_13TeV-powheg-pythia8/ed581b01aa1abe6e281db9b0f52104abd7214b60041a4dca343b415f/000000_000000/0000/tree_68.root
/store/group/phys_higgs/hbb/ntuples/VHbbPostNano/2018/V12/TTTo2L2Nu_TuneCP5_13TeV-powheg-pythia8/ce0d5ea3c2f5e98241d48a961b54f384013afcc7f0c0fced25693f3b/000000_000000/0000/tree_69.root
/store/group/phys_higgs/hbb/ntuples/VHbbPostNano/2018/V12/TTTo2L2Nu_TuneCP5_13TeV-powheg-pythia8/17374aaf7e43056b67130b72d9fe11537f48836145737345fba97cc8/000000_000000/0000/tree_70.root
/store/group/phys_higgs/hbb/ntuples/VHbbPostNano/2018/V12/TTTo2L2Nu_TuneCP5_13TeV-powheg-pythia8/d3f429e3ac3cf034dcf6b5afcf6ab3c69905643eb3c13c79d425268e/000000_000000/0000/tree_71.root
/store/group/phys_higgs/hbb/ntuples/VHbbPostNano/2018/V12/TTTo2L2Nu_TuneCP5_13TeV-powheg-pythia8/c7d3576cbaa957bec186dda6b7c9d227db2cbac7974d11a57b83b89f/000000_000000/0000/tree_72.root
/store/group/phys_higgs/hbb/ntuples/VHbbPostNano/2018/V12/TTTo2L2Nu_TuneCP5_13TeV-powheg-pythia8/57ae29d0b8b25842ab87ee5c466201ad254c7cfcc0ad3ac1e3a8f653/000000_000000/0000/tree_73.root
/store/group/phys_higgs/hbb/ntuples/VHbbPostNano/2018/V12/TTTo2L2Nu_TuneCP5_13TeV-powheg-pythia8/bff6ad28c71bcdf09956709ce69d834518ae904df29fd62a8fe54f13/000000_000000/0000/tree_74.root
/store/group/phys_higgs/hbb/ntuples/VHbbPostNano/2018/V12/TTTo2L2Nu_TuneCP5_13TeV-powheg-pythia8/f89f18c1900739e8a03e9c269a409bb95b0cecb5697919bfb1683303/000000_000000/0000/tree_75.root
/store/group/phys_higgs/hbb/ntuples/VHbbPostNano/2018/V12/TTTo2L2Nu_TuneCP5_13TeV-powheg-pythia8/f371700859f98fb0831897b9995010d9bcb30a8e1626fc56d2a9f7c4/000000_000000/0000/tree_76.root
/store/group/phys_higgs/hbb/ntuples/VHbbPostNano/2018/V12/TTTo2L2Nu_TuneCP5_13TeV-powheg-pythia8/06ea5eee7156c78deb75a36f2f9ee081cae0d143b62e40b6e615232a/000000_000000/0000/tree_77.root
/store/group/phys_higgs/hbb/ntuples/VHbbPostNano/2018/V12/TTTo2L2Nu_TuneCP5_13TeV-powheg-pythia8/81b63b8b3e10a2aaf18c670839bdcff0a4d7ac2a96227cbdf070352f/000000_000000/0000/tree_78.root
/store/group/phys_higgs/hbb/ntuples/VHbbPostNano/2018/V12/TTTo2L2Nu_TuneCP5_13TeV-powheg-pythia8/989e9cc9865c8fe74dbc3002aed1d4cc1c9e2709e640ce41c8e11f60/000000_000000/0000/tree_79.root
/store/group/phys_higgs/hbb/ntuples/VHbbPostNano/2018/V12/TTTo2L2Nu_TuneCP5_13TeV-powheg-pythia8/39dc435c1df5bd8fae452a1917fb08d9597f0ae28d639653892289a0/000000_000000/0000/tree_80.root
/store/group/phys_higgs/hbb/ntuples/VHbbPostNano/2018/V12/TTTo2L2Nu_TuneCP5_13TeV-powheg-pythia8/0c25a3084fb87721ba4d46445b59153b37b5414a3d906ac7bdb62f5d/000000_000000/0000/tree_81.root
/store/group/phys_higgs/hbb/ntuples/VHbbPostNano/2018/V12/TTTo2L2Nu_TuneCP5_13TeV-powheg-pythia8/89e05e1119e54ffcade2f8d5bca61d440d1a10072799ff4a93c0a330/000000_000000/0000/tree_82.root
/store/group/phys_higgs/hbb/ntuples/VHbbPostNano/2018/V12/TTTo2L2Nu_TuneCP5_13TeV-powheg-pythia8/eeb67feab295271461c6b43688f87f6453f376ac22e0f51900480531/000000_000000/0000/tree_83.root
/store/group/phys_higgs/hbb/ntuples/VHbbPostNano/2018/V12/TTTo2L2Nu_TuneCP5_13TeV-powheg-pythia8/e7929dd75eb8182a8879c01cf67a18fc5a0b576ff5d25754a668928e/000000_000000/0000/tree_84.root
/store/group/phys_higgs/hbb/ntuples/VHbbPostNano/2018/V12/TTTo2L2Nu_TuneCP5_13TeV-powheg-pythia8/f9440501afbc865b2f129759f7d938b1f0af0b539d878cc376f2939a/000000_000000/0000/tree_85.root
/store/group/phys_higgs/hbb/ntuples/VHbbPostNano/2018/V12/TTTo2L2Nu_TuneCP5_13TeV-powheg-pythia8/c6fc07c47ec7e0045c12279d1d45b94f9ee93bbb256b0293e12300a5/000000_000000/0000/tree_86.root
/store/group/phys_higgs/hbb/ntuples/VHbbPostNano/2018/V12/TTTo2L2Nu_TuneCP5_13TeV-powheg-pythia8/de623ab100b1b61b785db99f61acebe4e44457ecd6455ba183af7ffc/000000_000000/0000/tree_87.root
/store/group/phys_higgs/hbb/ntuples/VHbbPostNano/2018/V12/TTTo2L2Nu_TuneCP5_13TeV-powheg-pythia8/fa0f130d59216ef96b0d2acc059ce88336f9c2a7f76114fec58c7511/000000_000000/0000/tree_88.root
/store/group/phys_higgs/hbb/ntuples/VHbbPostNano/2018/V12/TTTo2L2Nu_TuneCP5_13TeV-powheg-pythia8/0e923f4e97461e0e19bd8b46099a9711b67846af0a4d5740e87a5066/000000_000000/0000/tree_89.root
/store/group/phys_higgs/hbb/ntuples/VHbbPostNano/2018/V12/TTTo2L2Nu_TuneCP5_13TeV-powheg-pythia8/c07f2aa65acd320e949182237c0057ca665fa653a7531314f547e296/000000_000000/0000/tree_90.root
/store/group/phys_higgs/hbb/ntuples/VHbbPostNano/2018/V12/TTTo2L2Nu_TuneCP5_13TeV-powheg-pythia8/9a7f7e7545a69cfd55ddbc64a1d60266705d20dc513d329cf13dcb89/000000_000000/0000/tree_91.root
/store/group/phys_higgs/hbb/ntuples/VHbbPostNano/2018/V12/TTTo2L2Nu_TuneCP5_13TeV-powheg-pythia8/ce36b5d48b2be365e6981f47c6edaaa20b2cf861946de2af8623b218/000000_000000/0000/tree_92.root
/store/group/phys_higgs/hbb/ntuples/VHbbPostNano/2018/V12/TTTo2L2Nu_TuneCP5_13TeV-powheg-pythia8/a174a8a05318d9b657f9a1efb72675e30d84ab2bde9c7d7df0a66985/000000_000000/0000/tree_93.root
/store/group/phys_higgs/hbb/ntuples/VHbbPostNano/2018/V12/TTTo2L2Nu_TuneCP5_13TeV-powheg-pythia8/a30ee7a25b11b1b8a81ba122002ba745b1545b28cbe926631771586a/000000_000000/0000/tree_94.root
/store/group/phys_higgs/hbb/ntuples/VHbbPostNano/2018/V12/TTTo2L2Nu_TuneCP5_13TeV-powheg-pythia8/2606b94591f144d0404e170119cd8699231463abc6c7bfea07350cfa/000000_000000/0000/tree_95.root
/store/group/phys_higgs/hbb/ntuples/VHbbPostNano/2018/V12/TTTo2L2Nu_TuneCP5_13TeV-powheg-pythia8/05bebeb02ce9a35e192271fa53eee8abd2631b7546dfd471aaea8e34/000000_000000/0000/tree_96.root
/store/group/phys_higgs/hbb/ntuples/VHbbPostNano/2018/V12/TTTo2L2Nu_TuneCP5_13TeV-powheg-pythia8/d4fef3877b8fe5e7ce53c61e16694ac9a9eb9a3554e4ac6e62fb5fcc/000000_000000/0000/tree_97.root
/store/group/phys_higgs/hbb/ntuples/VHbbPostNano/2018/V12/TTTo2L2Nu_TuneCP5_13TeV-powheg-pythia8/b9542e69965c1c6f70baabe91ec6564408e3290a716b3d600c01cbcc/000000_000000/0000/tree_98.root
/store/group/phys_higgs/hbb/ntuples/VHbbPostNano/2018/V12/TTTo2L2Nu_TuneCP5_13TeV-powheg-pythia8/0ed752b4f7c3f255607bcbebd574735b1b1d00b013ee1ea0deb3f3ca/000000_000000/0000/tree_99.root
/store/group/phys_higgs/hbb/ntuples/VHbbPostNano/2018/V12/TTTo2L2Nu_TuneCP5_13TeV-powheg-pythia8/523c4acf0755c56fcb6a87674bbbab7cebc1d8143cf7f8099bce887f/000000_000000/0000/tree_100.root
/store/group/phys_higgs/hbb/ntuples/VHbbPostNano/2018/V12/TTTo2L2Nu_TuneCP5_13TeV-powheg-pythia8/a9d02413b0e79e1d4b3c9c2f996d104ba5320edd365f4ce7f422e868/000000_000000/0000/tree_101.root
/store/group/phys_higgs/hbb/ntuples/VHbbPostNano/2018/V12/TTTo2L2Nu_TuneCP5_13TeV-powheg-pythia8/49be9a0591d345c55454fa85b494ff62aa7036c2b677f95dee2c0dba/000000_000000/0000/tree_102.root
/store/group/phys_higgs/hbb/ntuples/VHbbPostNano/2018/V12/TTTo2L2Nu_TuneCP5_13TeV-powheg-pythia8/4110000e25b5fb2dcb1dc9d08a338f019611acbe741680cf0f860aba/000000_000000/0000/tree_103.root
/store/group/phys_higgs/hbb/ntuples/VHbbPostNano/2018/V12/TTTo2L2Nu_TuneCP5_13TeV-powheg-pythia8/8e384f025db9c506037cd942499078e8fd4ebcaed4a6a78c7d357d5f/000000_000000/0000/tree_104.root
/store/group/phys_higgs/hbb/ntuples/VHbbPostNano/2018/V12/TTTo2L2Nu_TuneCP5_13TeV-powheg-pythia8/0167e188d6230f10660ae85612ab08c68d232cc5ca0de9f172b1443a/000000_000000/0000/tree_105.root
/store/group/phys_higgs/hbb/ntuples/VHbbPostNano/2018/V12/TTTo2L2Nu_TuneCP5_13TeV-powheg-pythia8/637fff7621849c8ea219c54dafa120b860ba8228afcce8d455ea4058/000000_000000/0000/tree_106.root
/store/group/phys_higgs/hbb/ntuples/VHbbPostNano/2018/V12/TTTo2L2Nu_TuneCP5_13TeV-powheg-pythia8/d464efbe802e65b14a13b69333e5b5fc0aa32ad8022ddb48d4dca1c1/000000_000000/0000/tree_107.root
/store/group/phys_higgs/hbb/ntuples/VHbbPostNano/2018/V12/TTTo2L2Nu_TuneCP5_13TeV-powheg-pythia8/b23b5288304fc03237322241bf5a8384e7b387420ea67b03078a4beb/000000_000000/0000/tree_108.root
/store/group/phys_higgs/hbb/ntuples/VHbbPostNano/2018/V12/TTTo2L2Nu_TuneCP5_13TeV-powheg-pythia8/40188b2f6052b294260c2d1a673cffccdc45905fc4cf2570d95c3681/000000_000000/0000/tree_109.root
/store/group/phys_higgs/hbb/ntuples/VHbbPostNano/2018/V12/TTTo2L2Nu_TuneCP5_13TeV-powheg-pythia8/d1f4855f12d27ce4db3c5e7e17477ab80d6bbc79b723e6a0b76f3af4/000000_000000/0000/tree_110.root
/store/group/phys_higgs/hbb/ntuples/VHbbPostNano/2018/V12/TTTo2L2Nu_TuneCP5_13TeV-powheg-pythia8/60db5d48cacccc3d530531b91e355774f4aecddf6b438f4760aaa1ea/000000_000000/0000/tree_111.root
/store/group/phys_higgs/hbb/ntuples/VHbbPostNano/2018/V12/TTTo2L2Nu_TuneCP5_13TeV-powheg-pythia8/911aa7d171ba5ae4dcb8912adad423227652caf55ca1cc09e5836d9d/000000_000000/0000/tree_112.root
/store/group/phys_higgs/hbb/ntuples/VHbbPostNano/2018/V12/TTTo2L2Nu_TuneCP5_13TeV-powheg-pythia8/e895bc957f7e131fa451ea7c51318a03ea9f4bfe76a7eb84e740d10d/000000_000000/0000/tree_113.root
/store/group/phys_higgs/hbb/ntuples/VHbbPostNano/2018/V12/TTTo2L2Nu_TuneCP5_13TeV-powheg-pythia8/89e95f0264d3818379c83b7391c968bf85f7e8fe947af7cf18b6c18a/000000_000000/0000/tree_114.root
/store/group/phys_higgs/hbb/ntuples/VHbbPostNano/2018/V12/TTTo2L2Nu_TuneCP5_13TeV-powheg-pythia8/e5df2d73bac097defd1dd71ec05f5322c6ddca9a6de54cf3ddb9fa5d/000000_000000/0000/tree_115.root
/store/group/phys_higgs/hbb/ntuples/VHbbPostNano/2018/V12/TTTo2L2Nu_TuneCP5_13TeV-powheg-pythia8/7cbf4ef038ab9ade21a4eab93d2f17799b4a7af1be76c5052bf05554/000000_000000/0000/tree_116.root
/store/group/phys_higgs/hbb/ntuples/VHbbPostNano/2018/V12/TTTo2L2Nu_TuneCP5_13TeV-powheg-pythia8/48470420f00cfca272657e6ee1923596fdb261083c9a5385b7135de2/000000_000000/0000/tree_117.root
/store/group/phys_higgs/hbb/ntuples/VHbbPostNano/2018/V12/TTTo2L2Nu_TuneCP5_13TeV-powheg-pythia8/0ad2c7ab5e0df4c9a9bab2a415c622699372e71badab6eea74a6e8d1/000000_000000/0000/tree_118.root
/store/group/phys_higgs/hbb/ntuples/VHbbPostNano/2018/V12/TTTo2L2Nu_TuneCP5_13TeV-powheg-pythia8/abe2aa8b2301edd319fbfb0365c0bd239c51c2ddf4f66828a4db188e/000000_000000/0000/tree_119.root
/store/group/phys_higgs/hbb/ntuples/VHbbPostNano/2018/V12/TTTo2L2Nu_TuneCP5_13TeV-powheg-pythia8/82ee5624831ce2ab4af56a782f4d92cc26a87021a0959e8ec9823bc3/000000_000000/0000/tree_120.root
/store/group/phys_higgs/hbb/ntuples/VHbbPostNano/2018/V12/TTTo2L2Nu_TuneCP5_13TeV-powheg-pythia8/017ef710c16c15fb24fbf0fd64b963424f517fb8aad20fd66b8c904f/000000_000000/0000/tree_121.root
/store/group/phys_higgs/hbb/ntuples/VHbbPostNano/2018/V12/TTTo2L2Nu_TuneCP5_13TeV-powheg-pythia8/ecaa0e2faf8584e42ab5c541401d6f6c3b2966aa4a1c18e0a21f470d/000000_000000/0000/tree_122.root
/store/group/phys_higgs/hbb/ntuples/VHbbPostNano/2018/V12/TTTo2L2Nu_TuneCP5_13TeV-powheg-pythia8/b53fa24ef4f31e6d4dbd6a851d3536a0d30f05489bff72600655772d/000000_000000/0000/tree_123.root
/store/group/phys_higgs/hbb/ntuples/VHbbPostNano/2018/V12/TTTo2L2Nu_TuneCP5_13TeV-powheg-pythia8/ee6e7fc83356011d7fa81ebbb079808494b660b563cdda19d25c4fdd/000000_000000/0000/tree_124.root
/store/group/phys_higgs/hbb/ntuples/VHbbPostNano/2018/V12/TTTo2L2Nu_TuneCP5_13TeV-powheg-pythia8/bf9ad42b239dbe7e8a58feeea96b2ebe80810626842a3e795b250a6e/000000_000000/0000/tree_125.root