/eos/cms/store/group/phys_higgs/hbb/ntuples/VHbbPostNano/UL/EFT/2016/V1/DYJetsToLL_2J_TuneCP5_13TeV-amcatnloFXFX-pythia8/c18387665f97c4194c51a45a71fa0196d2b12f8d5220cfc0a744770a/000000_000000/0000/tree_0.root
/eos/cms/store/group/phys_higgs/hbb/ntuples/VHbbPostNano/UL/EFT/2016/V1/DYJetsToLL_2J_TuneCP5_13TeV-amcatnloFXFX-pythia8/5c0bb8c30fbb1a959110d2ea93ac08d22190be8f5ef46affedd65a92/000000_000000/0000/tree_1.root
/eos/cms/store/group/phys_higgs/hbb/ntuples/VHbbPostNano/UL/EFT/2016/V1/DYJetsToLL_2J_TuneCP5_13TeV-amcatnloFXFX-pythia8/904659f067e6b2f7a6fcb0c8c6b017400b632b38d0bb4c13b9aadb5f/000000_000000/0000/tree_2.root
/eos/cms/store/group/phys_higgs/hbb/ntuples/VHbbPostNano/UL/EFT/2016/V1/DYJetsToLL_2J_TuneCP5_13TeV-amcatnloFXFX-pythia8/7ac33a2c4d4ab6dc53e05d9e1620c58ced3520a526bf574102c2223f/000000_000000/0000/tree_3.root
/eos/cms/store/group/phys_higgs/hbb/ntuples/VHbbPostNano/UL/EFT/2016/V1/DYJetsToLL_2J_TuneCP5_13TeV-amcatnloFXFX-pythia8/d4ec2664d316e6e3d4942c05a45c3c92f8b86305884b1353bb24c423/000000_000000/0000/tree_4.root
/eos/cms/store/group/phys_higgs/hbb/ntuples/VHbbPostNano/UL/EFT/2016/V1/DYJetsToLL_2J_TuneCP5_13TeV-amcatnloFXFX-pythia8/499835775e33836cb56567cd8ab83449816d31404174f8417ead3951/000000_000000/0000/tree_5.root
/eos/cms/store/group/phys_higgs/hbb/ntuples/VHbbPostNano/UL/EFT/2016/V1/DYJetsToLL_2J_TuneCP5_13TeV-amcatnloFXFX-pythia8/a8dcfca025188ef801efcd5cfb4bb563f598fd843ebc84d4e069ed62/000000_000000/0000/tree_6.root
/eos/cms/store/group/phys_higgs/hbb/ntuples/VHbbPostNano/UL/EFT/2016/V1/DYJetsToLL_2J_TuneCP5_13TeV-amcatnloFXFX-pythia8/4ac3845756c53bcee61af3160c654921c40fbd398f5f996f6c099d48/000000_000000/0000/tree_7.root
/eos/cms/store/group/phys_higgs/hbb/ntuples/VHbbPostNano/UL/EFT/2016/V1/DYJetsToLL_2J_TuneCP5_13TeV-amcatnloFXFX-pythia8/d9e5406aebbeffd9d00e2370811ebeab6b2a4e619dfea57405e4f477/000000_000000/0000/tree_8.root
/eos/cms/store/group/phys_higgs/hbb/ntuples/VHbbPostNano/UL/EFT/2016/V1/DYJetsToLL_2J_TuneCP5_13TeV-amcatnloFXFX-pythia8/7a6d455ccd976e7fe3ed025d5a79827fb9dbcbd7dd81f1cfc399282d/000000_000000/0000/tree_9.root
/eos/cms/store/group/phys_higgs/hbb/ntuples/VHbbPostNano/UL/EFT/2016/V1/DYJetsToLL_2J_TuneCP5_13TeV-amcatnloFXFX-pythia8/137dd666a44c352c53329f7fa2b66ef9bc6b386865e0e6a9ad399b1c/000000_000000/0000/tree_10.root
/eos/cms/store/group/phys_higgs/hbb/ntuples/VHbbPostNano/UL/EFT/2016/V1/DYJetsToLL_2J_TuneCP5_13TeV-amcatnloFXFX-pythia8/bd63346981ef1ddce2967b9633335edf653a73c828de40de69268652/000000_000000/0000/tree_11.root
/eos/cms/store/group/phys_higgs/hbb/ntuples/VHbbPostNano/UL/EFT/2016/V1/DYJetsToLL_2J_TuneCP5_13TeV-amcatnloFXFX-pythia8/38f0688c53ea5917cdbf3f86c35b2eab049b0ec17bdece6e0233f29f/000000_000000/0000/tree_12.root