/eos/cms/store/group/phys_higgs/ec/hbb/ntuples/VHbbPostNano/UL/EFT/2016/V1/SingleMuon/f8d386dd21b4a3a980e2e14f27e3cc193677f52050f93988e6772374/000000_000000/0000/tree_0.root
/eos/cms/store/group/phys_higgs/ec/hbb/ntuples/VHbbPostNano/UL/EFT/2016/V1/SingleMuon/7fa6f03b3256f00cfcb7f00c7629197df7c9d71160ad2f3444278f9a/000000_000000/0000/tree_1.root
/eos/cms/store/group/phys_higgs/ec/hbb/ntuples/VHbbPostNano/UL/EFT/2016/V1/SingleMuon/064267423f5554f3f657477838b829f58dfcbd3649517853a8532871/000000_000000/0000/tree_2.root
/eos/cms/store/group/phys_higgs/ec/hbb/ntuples/VHbbPostNano/UL/EFT/2016/V1/SingleMuon/fa551c1730763d717cb50a1fec10c91e52c96e304784f21a7cdc89c3/000000_000000/0000/tree_3.root
/eos/cms/store/group/phys_higgs/ec/hbb/ntuples/VHbbPostNano/UL/EFT/2016/V1/SingleMuon/0efabd116d9255263ab721a61f5f399b1a3bd556417c23d2b3af5faa/000000_000000/0000/tree_4.root
/eos/cms/store/group/phys_higgs/ec/hbb/ntuples/VHbbPostNano/UL/EFT/2016/V1/SingleMuon/10dbe3a4d92fa9f78cab62561bd37122c9c02262d80c1c85e8f52e3f/000000_000000/0000/tree_5.root
/eos/cms/store/group/phys_higgs/ec/hbb/ntuples/VHbbPostNano/UL/EFT/2016/V1/SingleMuon/4f55407750fd003c18609d6f79b9baf3060626d863824e7203ef80bc/000000_000000/0000/tree_6.root
/eos/cms/store/group/phys_higgs/ec/hbb/ntuples/VHbbPostNano/UL/EFT/2016/V1/SingleMuon/6e30f5a4eef662c5901608754ba0cfd1d8a1f390e6aaa437e52d6130/000000_000000/0000/tree_7.root
/eos/cms/store/group/phys_higgs/ec/hbb/ntuples/VHbbPostNano/UL/EFT/2016/V1/SingleMuon/969ba29908e65885caf84feb76635e6eb367aa638e7cba8e62cd8916/000000_000000/0000/tree_8.root
/eos/cms/store/group/phys_higgs/ec/hbb/ntuples/VHbbPostNano/UL/EFT/2016/V1/SingleMuon/a129fd01c6af8daec1c7f8719b4b6a5d02c7baae31030c5f3cf008b9/000000_000000/0000/tree_9.root
/eos/cms/store/group/phys_higgs/ec/hbb/ntuples/VHbbPostNano/UL/EFT/2016/V1/SingleMuon/a3a1c523085aab9411423c54d05bb79a81ad279ae334bd00783198f8/000000_000000/0000/tree_10.root
/eos/cms/store/group/phys_higgs/ec/hbb/ntuples/VHbbPostNano/UL/EFT/2016/V1/SingleMuon/f31dc58a4908d314b3430ce9a900fd6f6f2d30bc63650d8ea47af54f/000000_000000/0000/tree_11.root
/eos/cms/store/group/phys_higgs/ec/hbb/ntuples/VHbbPostNano/UL/EFT/2016/V1/SingleMuon/e669880b3597fc110ef939e6845d7d0a7f312bbba9e54cc526cc70a8/000000_000000/0000/tree_12.root
/eos/cms/store/group/phys_higgs/ec/hbb/ntuples/VHbbPostNano/UL/EFT/2016/V1/SingleMuon/acc82e03943800a781b35c8aa81da4b6bcb2fbb936bba6b301bb112d/000000_000000/0000/tree_13.root
/eos/cms/store/group/phys_higgs/ec/hbb/ntuples/VHbbPostNano/UL/EFT/2016/V1/SingleMuon/3375297af2ae30d569ac49c2cfc93288e584f8f77ea73d14930e3008/000000_000000/0000/tree_14.root
/eos/cms/store/group/phys_higgs/ec/hbb/ntuples/VHbbPostNano/UL/EFT/2016/V1/SingleMuon/28d15e6b7f060df98eddfbe1230561c51a7bfb36e52c49dc91f512a3/000000_000000/0000/tree_15.root
/eos/cms/store/group/phys_higgs/ec/hbb/ntuples/VHbbPostNano/UL/EFT/2016/V1/SingleMuon/bb994418e182bbb13eb926d1bffa0b68ae5f846c4af96fa5c4723a68/000000_000000/0000/tree_16.root
/eos/cms/store/group/phys_higgs/ec/hbb/ntuples/VHbbPostNano/UL/EFT/2016/V1/SingleMuon/f27849c89eedbe9e7d767e50f7720eb6037abcb9608de9bf9f2365b2/000000_000000/0000/tree_17.root
/eos/cms/store/group/phys_higgs/ec/hbb/ntuples/VHbbPostNano/UL/EFT/2016/V1/SingleMuon/fd8d620f5aea8ef7ac390a6c9a70c0111e250f48390b05366bc85ef5/000000_000000/0000/tree_18.root
/eos/cms/store/group/phys_higgs/ec/hbb/ntuples/VHbbPostNano/UL/EFT/2016/V1/SingleMuon/f04f1c872153f9818fb06371bec931cb5954fedd100b8eaf57f41a2b/000000_000000/0000/tree_19.root
/eos/cms/store/group/phys_higgs/ec/hbb/ntuples/VHbbPostNano/UL/EFT/2016/V1/SingleMuon/8dd478573392c4907df711e847fbdc77039fb565a3fca39be45cd555/000000_000000/0000/tree_20.root
/eos/cms/store/group/phys_higgs/ec/hbb/ntuples/VHbbPostNano/UL/EFT/2016/V1/SingleMuon/894868ee6a142f78d480832b379ddd22d09e7bd97cff49ccf31acc5d/000000_000000/0000/tree_21.root
/eos/cms/store/group/phys_higgs/ec/hbb/ntuples/VHbbPostNano/UL/EFT/2016/V1/SingleMuon/42bc6c54880b3b2c9c28834755b2c37cce265fa943e37d2ca0bd9ee7/000000_000000/0000/tree_22.root
/eos/cms/store/group/phys_higgs/ec/hbb/ntuples/VHbbPostNano/UL/EFT/2016/V1/SingleMuon/1bbc68af39cfd775715e8b4ffe35cca14e48f504c82c146bc9e28d86/000000_000000/0000/tree_23.root
/eos/cms/store/group/phys_higgs/ec/hbb/ntuples/VHbbPostNano/UL/EFT/2016/V1/SingleMuon/e9d93027d4a46054d90f3386dc2b3ef747cee37bf0a0241233e6a9bb/000000_000000/0000/tree_24.root
/eos/cms/store/group/phys_higgs/ec/hbb/ntuples/VHbbPostNano/UL/EFT/2016/V1/SingleMuon/955aa953226d9ccda5782040dcc9d494bfa23c083c7aaf16118702bb/000000_000000/0000/tree_25.root
/eos/cms/store/group/phys_higgs/ec/hbb/ntuples/VHbbPostNano/UL/EFT/2016/V1/SingleMuon/b7b63f97512ee4e08ae2727e86f178006292ee42da82b9f8d223b0b0/000000_000000/0000/tree_26.root
/eos/cms/store/group/phys_higgs/ec/hbb/ntuples/VHbbPostNano/UL/EFT/2016/V1/SingleMuon/1defdddccfd0d02453436c2aade9093f13775a69919bdc6cb8714f03/000000_000000/0000/tree_27.root
/eos/cms/store/group/phys_higgs/ec/hbb/ntuples/VHbbPostNano/UL/EFT/2016/V1/SingleMuon/a85f09c3a13f77e97647ecdfa02971e66a037baccbbf66ab9c26c2d1/000000_000000/0000/tree_28.root
/eos/cms/store/group/phys_higgs/ec/hbb/ntuples/VHbbPostNano/UL/EFT/2016/V1/SingleMuon/1efaf127a18ec45d5110f36163aba3da9d3f953dc3d3ba03ca68b24c/000000_000000/0000/tree_29.root