/eos/cms/store/group/phys_higgs/ec/hbb/ntuples/VHbbPostNano/UL/EFT/2016/V1/SingleElectron/364663c120ebbc0396f6ec098700fc992e58d08ace0678420fb8de14/000000_000000/0000/tree_0.root
/eos/cms/store/group/phys_higgs/ec/hbb/ntuples/VHbbPostNano/UL/EFT/2016/V1/SingleElectron/031cc455e6b0a15ec240d0ecab8ca065d7859a46a61fa32b26aad27f/000000_000000/0000/tree_1.root
/eos/cms/store/group/phys_higgs/ec/hbb/ntuples/VHbbPostNano/UL/EFT/2016/V1/SingleElectron/c3d75e698c7ba69bf36e939e27bbf073b682add7a65a23ca51e171ff/000000_000000/0000/tree_2.root
/eos/cms/store/group/phys_higgs/ec/hbb/ntuples/VHbbPostNano/UL/EFT/2016/V1/SingleElectron/2a657bfa9205d9fbdca3f7281d13feafe72009669db9d1796929d42e/000000_000000/0000/tree_3.root
/eos/cms/store/group/phys_higgs/ec/hbb/ntuples/VHbbPostNano/UL/EFT/2016/V1/SingleElectron/db2cb78ac9289432c56bb82b5e3eee62b8450c1b08431b233b8c8774/000000_000000/0000/tree_4.root
/eos/cms/store/group/phys_higgs/ec/hbb/ntuples/VHbbPostNano/UL/EFT/2016/V1/SingleElectron/0541baf0b93ab9463f8a1c2bf0206de1910a17c45a4f40af54389266/000000_000000/0000/tree_5.root
/eos/cms/store/group/phys_higgs/ec/hbb/ntuples/VHbbPostNano/UL/EFT/2016/V1/SingleElectron/afa229844e3d495e40660c25a53b9fe997c1fa36830dd078c8e14493/000000_000000/0000/tree_6.root
/eos/cms/store/group/phys_higgs/ec/hbb/ntuples/VHbbPostNano/UL/EFT/2016/V1/SingleElectron/c802347ece2bc444ac9d8fb8e9f25e6205e229916ad4caa7bc18467b/000000_000000/0000/tree_7.root
/eos/cms/store/group/phys_higgs/ec/hbb/ntuples/VHbbPostNano/UL/EFT/2016/V1/SingleElectron/3f2ad1e4727032c41566e03a244405616cb80730315f6704756a53b8/000000_000000/0000/tree_8.root
/eos/cms/store/group/phys_higgs/ec/hbb/ntuples/VHbbPostNano/UL/EFT/2016/V1/SingleElectron/c3715a8e950bfcb4ed8e1d4a00242b89a3cfde737400b4bcb0233bb1/000000_000000/0000/tree_9.root
/eos/cms/store/group/phys_higgs/ec/hbb/ntuples/VHbbPostNano/UL/EFT/2016/V1/SingleElectron/2c441480e57b1c87c6792fca151a1c24177f9f134a9f8ec67439a56a/000000_000000/0000/tree_10.root
/eos/cms/store/group/phys_higgs/ec/hbb/ntuples/VHbbPostNano/UL/EFT/2016/V1/SingleElectron/8ea24f14b6a1d761831f6383b99362d26d5a0a41e6cf198803cb5887/000000_000000/0000/tree_11.root
/eos/cms/store/group/phys_higgs/ec/hbb/ntuples/VHbbPostNano/UL/EFT/2016/V1/SingleElectron/66352510c33155048a726d0ca05849066dfb6ca1931d9cc6f44d5dc7/000000_000000/0000/tree_12.root
/eos/cms/store/group/phys_higgs/ec/hbb/ntuples/VHbbPostNano/UL/EFT/2016/V1/SingleElectron/a2a8a24117ba48dc3496bb317abfa8c46e56588bae626e836a46c148/000000_000000/0000/tree_13.root
/eos/cms/store/group/phys_higgs/ec/hbb/ntuples/VHbbPostNano/UL/EFT/2016/V1/SingleElectron/c0fe614cc64072d9837022dcfe81cb6caf74245f906e5dad9fc56e4b/000000_000000/0000/tree_14.root
/eos/cms/store/group/phys_higgs/ec/hbb/ntuples/VHbbPostNano/UL/EFT/2016/V1/SingleElectron/f710954e4b5c75d03d3d3bfdc64f1f66d019c975186dee01110896b1/000000_000000/0000/tree_15.root
/eos/cms/store/group/phys_higgs/ec/hbb/ntuples/VHbbPostNano/UL/EFT/2016/V1/SingleElectron/36a7e2f6ecb6190492abae11cfa2504b8f91ea4a31157d27578120dd/000000_000000/0000/tree_16.root
/eos/cms/store/group/phys_higgs/ec/hbb/ntuples/VHbbPostNano/UL/EFT/2016/V1/SingleElectron/4e5c8644b3ab3b6c40ea5a94ab188e53ab491defd2b2f24434828004/000000_000000/0000/tree_17.root
/eos/cms/store/group/phys_higgs/ec/hbb/ntuples/VHbbPostNano/UL/EFT/2016/V1/SingleElectron/914cf29af7382fdf63219c6d869c42e3d5c6a9c53b7625b34e8e7190/000000_000000/0000/tree_18.root
/eos/cms/store/group/phys_higgs/ec/hbb/ntuples/VHbbPostNano/UL/EFT/2016/V1/SingleElectron/11a08fae00c0ca73d290adb5dcdf5971951fecf3218ab0e1d74cf841/000000_000000/0000/tree_19.root
/eos/cms/store/group/phys_higgs/ec/hbb/ntuples/VHbbPostNano/UL/EFT/2016/V1/SingleElectron/261f57bb47587f645d05a2b883fd4d1cc6d5ae6b8c1cc89eea2cfc1e/000000_000000/0000/tree_20.root
/eos/cms/store/group/phys_higgs/ec/hbb/ntuples/VHbbPostNano/UL/EFT/2016/V1/SingleElectron/3eb786cfe8dd61c8840b05a42fe4b9b64d7961942158785cfb5564bb/000000_000000/0000/tree_21.root
/eos/cms/store/group/phys_higgs/ec/hbb/ntuples/VHbbPostNano/UL/EFT/2016/V1/SingleElectron/69146c822c364c4593d4f52c913ca34b97f9b1eec8da3a9f0d3afb64/000000_000000/0000/tree_22.root