/eos/cms/store/group/phys_higgs/hbb/ntuples/VHbbPostNano/UL/EFT/2016/V1/ST_tW_antitop_5f_inclusiveDecays_TuneCP5_13TeV-powheg-pythia8/eb2eab28eb4f384b8e53f9aefe5e626cd99dcfe51bc5ccca7d78e082/000000_000000/0000/tree_0.root
/eos/cms/store/group/phys_higgs/hbb/ntuples/VHbbPostNano/UL/EFT/2016/V1/ST_tW_antitop_5f_inclusiveDecays_TuneCP5_13TeV-powheg-pythia8/668aa22c32b8f4103dee647d758ab4ced7f9e96f7c6bc3e7d6caa12a/000000_000000/0000/tree_1.root
/eos/cms/store/group/phys_higgs/hbb/ntuples/VHbbPostNano/UL/EFT/2016/V1/ST_tW_antitop_5f_inclusiveDecays_TuneCP5_13TeV-powheg-pythia8/5a141fe9cd37cea8ce6c7b83370be04ad70233c23aa92ea3937419ce/000000_000000/0000/tree_2.root
/eos/cms/store/group/phys_higgs/hbb/ntuples/VHbbPostNano/UL/EFT/2016/V1/ST_tW_antitop_5f_inclusiveDecays_TuneCP5_13TeV-powheg-pythia8/7005fecff997dd4752745deb8a7475e6bfd2b4d9efa0a49a35708a7c/000000_000000/0000/tree_3.root
/eos/cms/store/group/phys_higgs/hbb/ntuples/VHbbPostNano/UL/EFT/2016/V1/ST_tW_antitop_5f_inclusiveDecays_TuneCP5_13TeV-powheg-pythia8/9207ff51e6dafe01053d4f9b2dc42e062aa4db36b17a87496ba5065c/000000_000000/0000/tree_4.root
/eos/cms/store/group/phys_higgs/hbb/ntuples/VHbbPostNano/UL/EFT/2016/V1/ST_tW_antitop_5f_inclusiveDecays_TuneCP5_13TeV-powheg-pythia8/f7c5103732bc962777a906ccc497a674e69fe7249d8326be601a1e0f/000000_000000/0000/tree_5.root