/eos/cms/store/group/phys_higgs/hbb/ntuples/VHbbPostNano/UL/EFT/2016/V1/WJetsToLNu_2J_TuneCP5_13TeV-amcatnloFXFX-pythia8/decc15116952f10d02e95694c542c21bec2429b098698b8c956dbf6b/000000_000000/0000/tree_0.root
/eos/cms/store/group/phys_higgs/hbb/ntuples/VHbbPostNano/UL/EFT/2016/V1/WJetsToLNu_2J_TuneCP5_13TeV-amcatnloFXFX-pythia8/49eab626002a04a8336885d02940b160522816586c09e009e2c0e6c7/000000_000000/0000/tree_1.root
/eos/cms/store/group/phys_higgs/hbb/ntuples/VHbbPostNano/UL/EFT/2016/V1/WJetsToLNu_2J_TuneCP5_13TeV-amcatnloFXFX-pythia8/b2f2ae0aa08b4f8196e354a027ce4b385e4dcdbfb69655b9855810ee/000000_000000/0000/tree_2.root
/eos/cms/store/group/phys_higgs/hbb/ntuples/VHbbPostNano/UL/EFT/2016/V1/WJetsToLNu_2J_TuneCP5_13TeV-amcatnloFXFX-pythia8/13e574f0ff9d82ba2dd2c6feab261efe973a163d0dcf0fb4531e20ca/000000_000000/0000/tree_3.root
/eos/cms/store/group/phys_higgs/hbb/ntuples/VHbbPostNano/UL/EFT/2016/V1/WJetsToLNu_2J_TuneCP5_13TeV-amcatnloFXFX-pythia8/717836c8df74b30d0ba4643f9356d93da5b32b8935e727343b3e99ae/000000_000000/0000/tree_4.root
/eos/cms/store/group/phys_higgs/hbb/ntuples/VHbbPostNano/UL/EFT/2016/V1/WJetsToLNu_2J_TuneCP5_13TeV-amcatnloFXFX-pythia8/ad4f01d879000239e3366faa3b2e9170b8a2ec60e3f89e2a23f2a53b/000000_000000/0000/tree_5.root
/eos/cms/store/group/phys_higgs/hbb/ntuples/VHbbPostNano/UL/EFT/2016/V1/WJetsToLNu_2J_TuneCP5_13TeV-amcatnloFXFX-pythia8/d8811a830e9186a0e81b559a4f3f37d1dbc9acb86f98619d860fb250/000000_000000/0000/tree_6.root
/eos/cms/store/group/phys_higgs/hbb/ntuples/VHbbPostNano/UL/EFT/2016/V1/WJetsToLNu_2J_TuneCP5_13TeV-amcatnloFXFX-pythia8/837785039617a9afb53e09818e7aaf51cf8370ebaf4b9fa495c57439/000000_000000/0000/tree_7.root
/eos/cms/store/group/phys_higgs/hbb/ntuples/VHbbPostNano/UL/EFT/2016/V1/WJetsToLNu_2J_TuneCP5_13TeV-amcatnloFXFX-pythia8/a0bd45b4981714f01281c3929cedad44c431212f086c937790f6f70d/000000_000000/0000/tree_8.root
/eos/cms/store/group/phys_higgs/hbb/ntuples/VHbbPostNano/UL/EFT/2016/V1/WJetsToLNu_2J_TuneCP5_13TeV-amcatnloFXFX-pythia8/101d950ab01f099ad8e6a2d3a97ba8d1887b7ac729b06a04ebad36e4/000000_000000/0000/tree_9.root
/eos/cms/store/group/phys_higgs/hbb/ntuples/VHbbPostNano/UL/EFT/2016/V1/WJetsToLNu_2J_TuneCP5_13TeV-amcatnloFXFX-pythia8/6f203eeb07e14b9e4e1fa144c45a599352c1490c816d373b50b5fff9/000000_000000/0000/tree_10.root
/eos/cms/store/group/phys_higgs/hbb/ntuples/VHbbPostNano/UL/EFT/2016/V1/WJetsToLNu_2J_TuneCP5_13TeV-amcatnloFXFX-pythia8/0c9c3b6a37be57076ca54eb56bcae034775fd0fbae73489d36197e05/000000_000000/0000/tree_11.root
/eos/cms/store/group/phys_higgs/hbb/ntuples/VHbbPostNano/UL/EFT/2016/V1/WJetsToLNu_2J_TuneCP5_13TeV-amcatnloFXFX-pythia8/d8d9c03015f220da2a5851459a29b6e182f2af80efc8adfb7fbca7cf/000000_000000/0000/tree_12.root
/eos/cms/store/group/phys_higgs/hbb/ntuples/VHbbPostNano/UL/EFT/2016/V1/WJetsToLNu_2J_TuneCP5_13TeV-amcatnloFXFX-pythia8/b95a3ba7f9f1bab5114bb6f20632598fb56a3acf96a4f1947e5caee6/000000_000000/0000/tree_13.root
/eos/cms/store/group/phys_higgs/hbb/ntuples/VHbbPostNano/UL/EFT/2016/V1/WJetsToLNu_2J_TuneCP5_13TeV-amcatnloFXFX-pythia8/3abda03f4c7db93961662cb1681c3518e28e4374ccdcad641bf10057/000000_000000/0000/tree_14.root
/eos/cms/store/group/phys_higgs/hbb/ntuples/VHbbPostNano/UL/EFT/2016/V1/WJetsToLNu_2J_TuneCP5_13TeV-amcatnloFXFX-pythia8/8f9c556ba0ecf3601d15e39601c538ab241fee3cea886c90ca198867/000000_000000/0000/tree_15.root
/eos/cms/store/group/phys_higgs/hbb/ntuples/VHbbPostNano/UL/EFT/2016/V1/WJetsToLNu_2J_TuneCP5_13TeV-amcatnloFXFX-pythia8/f7d4743ee5716272b118bde6c32966433829eb9e589269f6b0b54b73/000000_000000/0000/tree_16.root
/eos/cms/store/group/phys_higgs/hbb/ntuples/VHbbPostNano/UL/EFT/2016/V1/WJetsToLNu_2J_TuneCP5_13TeV-amcatnloFXFX-pythia8/1db5857d3998fc01b0b59ac4d4c1f245e771eec81a119f1bbfa3a1db/000000_000000/0000/tree_17.root
/eos/cms/store/group/phys_higgs/hbb/ntuples/VHbbPostNano/UL/EFT/2016/V1/WJetsToLNu_2J_TuneCP5_13TeV-amcatnloFXFX-pythia8/d75e60dce16fa11812b11e833daa32d86e2d256b92a295489cbb4f63/000000_000000/0000/tree_18.root
/eos/cms/store/group/phys_higgs/hbb/ntuples/VHbbPostNano/UL/EFT/2016/V1/WJetsToLNu_2J_TuneCP5_13TeV-amcatnloFXFX-pythia8/8b163e5d7c3b044bbda8f9e516101e637aa7903fdc32515bf17b2fdc/000000_000000/0000/tree_19.root
/eos/cms/store/group/phys_higgs/hbb/ntuples/VHbbPostNano/UL/EFT/2016/V1/WJetsToLNu_2J_TuneCP5_13TeV-amcatnloFXFX-pythia8/2449f632fd1a392f0d46b3b9450e1166c8c9a1f150f02162a15e6220/000000_000000/0000/tree_20.root
/eos/cms/store/group/phys_higgs/hbb/ntuples/VHbbPostNano/UL/EFT/2016/V1/WJetsToLNu_2J_TuneCP5_13TeV-amcatnloFXFX-pythia8/4059d979364fe7db77135a85ba534b917a788f1f9ea154857a15a341/000000_000000/0000/tree_21.root
/eos/cms/store/group/phys_higgs/hbb/ntuples/VHbbPostNano/UL/EFT/2016/V1/WJetsToLNu_2J_TuneCP5_13TeV-amcatnloFXFX-pythia8/a0a87d56219bc83c6ee2790cd9a6570dd5d9d0e6f4e1ba9ff63940e9/000000_000000/0000/tree_22.root
/eos/cms/store/group/phys_higgs/hbb/ntuples/VHbbPostNano/UL/EFT/2016/V1/WJetsToLNu_2J_TuneCP5_13TeV-amcatnloFXFX-pythia8/81bf29ab67a37300b3c24f69c2a490a4248c18b4809f8e438b512b19/000000_000000/0000/tree_23.root
/eos/cms/store/group/phys_higgs/hbb/ntuples/VHbbPostNano/UL/EFT/2016/V1/WJetsToLNu_2J_TuneCP5_13TeV-amcatnloFXFX-pythia8/af5544313380b5f2ac2200ef0da9aa0061aa069664dec68427ee6339/000000_000000/0000/tree_24.root
/eos/cms/store/group/phys_higgs/hbb/ntuples/VHbbPostNano/UL/EFT/2016/V1/WJetsToLNu_2J_TuneCP5_13TeV-amcatnloFXFX-pythia8/2ea850336b30d78b03a261f28129fb01654378d4f049b7433e20bb6e/000000_000000/0000/tree_25.root
/eos/cms/store/group/phys_higgs/hbb/ntuples/VHbbPostNano/UL/EFT/2016/V1/WJetsToLNu_2J_TuneCP5_13TeV-amcatnloFXFX-pythia8/3cd2dded34e8c79f12e6803b4400218e5960d70e9b846d4f666373a9/000000_000000/0000/tree_26.root
/eos/cms/store/group/phys_higgs/hbb/ntuples/VHbbPostNano/UL/EFT/2016/V1/WJetsToLNu_2J_TuneCP5_13TeV-amcatnloFXFX-pythia8/a2b95daeb830bd23fc6a59f3d5359cb0324162f47332aa43715e84cb/000000_000000/0000/tree_27.root
/eos/cms/store/group/phys_higgs/hbb/ntuples/VHbbPostNano/UL/EFT/2016/V1/WJetsToLNu_2J_TuneCP5_13TeV-amcatnloFXFX-pythia8/cb99316a3481cbe60b716529e0265fd9784f230f34a2774d19fe7c34/000000_000000/0000/tree_28.root
/eos/cms/store/group/phys_higgs/hbb/ntuples/VHbbPostNano/UL/EFT/2016/V1/WJetsToLNu_2J_TuneCP5_13TeV-amcatnloFXFX-pythia8/52de2fb7c544f3caa01094f3b5299a6a5f5dd89a5220ef0c302a75a4/000000_000000/0000/tree_29.root