/eos/cms/store/group/phys_higgs/hbb/ntuples/VHbbPostNano/UL/EFT/2016/V1/WW_TuneCP5_13TeV-pythia8/d99a7495665fb734ef27a36bc92217cd43f0044ae99bb8076172865b/000000_000000/0000/tree_0.root
/eos/cms/store/group/phys_higgs/hbb/ntuples/VHbbPostNano/UL/EFT/2016/V1/WW_TuneCP5_13TeV-pythia8/d71d608a3af981c3b395c6e5f3cfe35cc0b49a86f39cfdb23b4788be/000000_000000/0000/tree_1.root
/eos/cms/store/group/phys_higgs/hbb/ntuples/VHbbPostNano/UL/EFT/2016/V1/WW_TuneCP5_13TeV-pythia8/43ba29c20261b3032d14e3aee4d6c7c32e32219be5387c9d104f47f2/000000_000000/0000/tree_2.root
/eos/cms/store/group/phys_higgs/hbb/ntuples/VHbbPostNano/UL/EFT/2016/V1/WW_TuneCP5_13TeV-pythia8/667a85e1313b1d1f1ec6d3eca1c6a99a615ce90a6789c23138d2a530/000000_000000/0000/tree_3.root