[dc:SR_med_Znn_0j]
rebin_method = list
rebin_list=[0.00000, 0.23083, 0.31412, 0.37359, 0.42584, 0.47000, 0.50756, 0.54600, 0.58603, 0.62121, 0.65236, 0.68141, 0.70834, 0.73260, 0.75493, 0.77556, 0.79350, 0.81014, 0.82701, 0.84208, 0.85615, 0.86854, 0.88156, 0.89301, 0.90429, 0.91534, 0.92579, 0.93626, 0.94614, 0.95734, 1.00001]
[dc:SR_med_Znn_ge1j]
rebin_method = list
rebin_list=[0.00000, 0.08694, 0.12702, 0.16075, 0.19284, 0.22051, 0.25055, 0.27801, 0.30449, 0.33157, 0.36067, 0.39111, 0.42392, 0.45771, 0.48794, 0.52102, 0.55374, 0.58332, 0.61579, 0.64701, 0.67516, 0.70253, 0.72701, 0.75297, 0.77543, 0.79936, 0.82108, 0.84345, 0.86708, 0.89418, 1.00001]
[dc:SR_high_Znn]
rebin_method = list
rebin_list=[0.00000, 0.24166, 0.32838, 0.39957, 0.46289, 0.51552, 0.56526, 0.61216, 0.65216, 0.68745, 0.71737, 0.74394, 0.76832, 0.79041, 0.80949, 0.82623, 0.84312, 0.85753, 0.87100, 0.88369, 0.89474, 0.90520, 0.91479, 0.92375, 0.93278, 0.94078, 0.94859, 0.95659, 0.96430, 0.97292, 1.00001]
[dc:SR_high1_Znn]
rebin_method = list
rebin_list=[0.00000, 0.23133, 0.31690, 0.38314, 0.44612, 0.49992, 0.54910, 0.59816, 0.63725, 0.67564, 0.70496, 0.73240, 0.75666, 0.78081, 0.80043, 0.81804, 0.83481, 0.85031, 0.86480, 0.87685, 0.88888, 0.89964, 0.90971, 0.91940, 0.92889, 0.93721, 0.94533, 0.95312, 0.96164, 0.97098, 1.00001]
[dc:SR_high2_Znn]
rebin_method = list
rebin_list=[0.00000, 0.46407, 0.59688, 0.70399, 0.77067, 0.81497, 0.85661, 0.88851, 0.91078, 0.92956, 0.94603, 0.96121, 0.97261, 1.00001]
[dc:SR_med_Wmn]
rebin_method = list
rebin_list=[0.00000, 0.14000, 0.20727, 0.26837, 0.32662, 0.38426, 0.43237, 0.46976, 0.50375, 0.53720, 0.57173, 0.60613, 0.64063, 0.67078, 0.70072, 0.72834, 0.75631, 0.78185, 0.80546, 0.82685, 0.84704, 0.86641, 0.88486, 0.90211, 0.91795, 0.93292, 0.94609, 0.95846, 0.96912, 0.97940, 1.00001]
[dc:SR_med_Wen]
rebin_method = list
rebin_list=[0.00000, 0.13931, 0.20809, 0.26691, 0.33389, 0.38762, 0.43454, 0.47224, 0.50211, 0.53610, 0.56966, 0.60540, 0.63787, 0.67135, 0.69869, 0.72780, 0.75522, 0.78051, 0.80409, 0.82629, 0.84786, 0.86782, 0.88727, 0.90367, 0.91940, 0.93339, 0.94658, 0.95819, 0.96895, 0.97960, 1.00001]
[dc:SR_high_Wmn]
rebin_method = list
rebin_list=[0.00000, 0.28267, 0.40255, 0.49330, 0.56104, 0.61512, 0.66062, 0.69959, 0.73668, 0.77188, 0.79887, 0.82406, 0.84540, 0.86467, 0.88231, 0.89848, 0.91078, 0.92173, 0.93208, 0.94199, 0.95030, 0.95764, 0.96401, 0.97029, 0.97531, 0.98065, 0.98399, 0.98735, 0.99044, 0.99344, 1.00001]
[dc:SR_high_Wen]
rebin_method = list
rebin_list=[0.00000, 0.28405, 0.41919, 0.49332, 0.55909, 0.61765, 0.66131, 0.70112, 0.73959, 0.77170, 0.80084, 0.82571, 0.84742, 0.86436, 0.87947, 0.89346, 0.90682, 0.91924, 0.92974, 0.93918, 0.94860, 0.95627, 0.96321, 0.96988, 0.97478, 0.97963, 0.98380, 0.98712, 0.99024, 0.99320, 1.00001]
[dc:SR_high1_Wmn]
rebin_method = list
rebin_list=[0.00000, 0.25346, 0.37471, 0.46794, 0.53341, 0.59561, 0.63695, 0.67815, 0.71658, 0.75222, 0.78125, 0.80739, 0.82955, 0.85168, 0.87033, 0.88833, 0.90379, 0.91566, 0.92637, 0.93567, 0.94535, 0.95361, 0.96078, 0.96714, 0.97317, 0.97839, 0.98267, 0.98631, 0.98989, 0.99303, 1.00001]
[dc:SR_high1_Wen]
rebin_method = list
rebin_list=[0.00000, 0.26698, 0.38831, 0.47146, 0.53054, 0.58775, 0.63694, 0.67573, 0.71816, 0.75168, 0.78287, 0.81241, 0.83603, 0.85515, 0.86999, 0.88465, 0.89930, 0.91180, 0.92401, 0.93465, 0.94446, 0.95265, 0.96101, 0.96762, 0.97315, 0.97828, 0.98293, 0.98636, 0.98975, 0.99293, 1.00001]
[dc:SR_high2_Wmn]
rebin_method = list
rebin_list=[0.00000, 0.57855, 0.72707, 0.82041, 0.86992, 0.90105, 0.92867, 0.95301, 0.96549, 0.97745, 0.98527, 0.99135, 1.00001]
[dc:SR_high2_Wen]
rebin_method = list
rebin_list=[0.00000, 0.68262, 0.78295, 0.85005, 0.89705, 0.92892, 0.95088, 0.96891, 0.98157, 0.98950, 1.00001]
[dc:SR_low_Zmm]
rebin_method = list
rebin_list=[0.00000, 0.21442, 0.30218, 0.36705, 0.42028, 0.46589, 0.50516, 0.54299, 0.57850, 0.61230, 0.64380, 0.67349, 0.70125, 0.72625, 0.74943, 0.77044, 0.78913, 0.80713, 0.82341, 0.83814, 0.85208, 0.86574, 0.87845, 0.89059, 0.90198, 0.91353, 0.92475, 0.93627, 0.94853, 0.96226, 1.00001]
[dc:SR_low_Zee]
rebin_method = list
rebin_list=[0.00000, 0.21810, 0.30752, 0.37343, 0.42528, 0.47120, 0.50970, 0.54652, 0.58255, 0.61652, 0.64765, 0.67646, 0.70336, 0.72764, 0.75031, 0.77166, 0.79110, 0.80878, 0.82488, 0.83966, 0.85412, 0.86710, 0.87967, 0.89145, 0.90319, 0.91498, 0.92635, 0.93768, 0.94946, 0.96313, 1.00001]
[dc:SR_med_Zmm_0j]
rebin_method = list
rebin_list=[0.00000, 0.23201, 0.33662, 0.41850, 0.48482, 0.53972, 0.58409, 0.62543, 0.66643, 0.70225, 0.73222, 0.75817, 0.78187, 0.80143, 0.81989, 0.83615, 0.85099, 0.86356, 0.87551, 0.88593, 0.89611, 0.90555, 0.91421, 0.92268, 0.93043, 0.93790, 0.94546, 0.95278, 0.96044, 0.96968, 1.00001]
[dc:SR_med_Zee_0j]
rebin_method = list
rebin_list=[0.00000, 0.25261, 0.37076, 0.46194, 0.53130, 0.58797, 0.63790, 0.68335, 0.72199, 0.75580, 0.78402, 0.80702, 0.82799, 0.84760, 0.86444, 0.87828, 0.89057, 0.90217, 0.91212, 0.92227, 0.93160, 0.94042, 0.94986, 0.95863, 0.96866, 1.00001]
[dc:SR_med_Zmm_ge1j]
rebin_method = list
rebin_list=[0.00000, 0.17894, 0.27746, 0.36245, 0.42753, 0.48788, 0.53683, 0.58173, 0.62692, 0.67122, 0.71224, 0.74963, 0.78328, 0.81437, 0.84119, 0.86793, 0.89294, 0.91582, 0.94116, 1.00001]
[dc:SR_med_Zee_ge1j]
rebin_method = list
rebin_list=[0.00000, 0.21848, 0.33781, 0.43185, 0.50911, 0.56954, 0.63039, 0.69056, 0.74405, 0.79224, 0.83182, 0.86818, 0.89982, 0.93346, 1.00001]
[dc:SR_high_Zmm]
rebin_method = list
rebin_list=[0.00000, 0.33092, 0.50433, 0.61247, 0.70689, 0.77327, 0.82013, 0.85698, 0.88432, 0.90508, 0.92314, 0.93666, 0.94739, 0.95768, 0.96648, 0.97486, 0.98285, 1.00001]
[dc:SR_high_Zee]
rebin_method = list
rebin_list=[0.00000, 0.40014, 0.58546, 0.70464, 0.78616, 0.83996, 0.87767, 0.90392, 0.92522, 0.94126, 0.95529, 0.96588, 0.97553, 0.98401, 1.00001]
[dc:SR_high1_Zmm]
rebin_method = list
rebin_list=[0.00000, 0.35516, 0.52860, 0.64149, 0.73587, 0.79575, 0.84258, 0.87451, 0.89991, 0.92030, 0.93583, 0.94778, 0.95947, 0.96912, 0.97892, 1.00001]
[dc:SR_high1_Zee]
rebin_method = list
rebin_list=[0.00000, 0.42083, 0.61270, 0.73177, 0.81123, 0.86129, 0.89548, 0.92064, 0.93946, 0.95535, 0.96772, 0.97914, 1.00001]
[dc:SR_high2_Zmm]
rebin_method = list
rebin_list=[0.00000, 0.51253, 0.72240, 0.84147, 0.90079, 0.93384, 0.95306, 0.96855, 0.97978, 0.98831, 1.00001]
[dc:SR_high2_Zee]
rebin_method = list
rebin_list=[0.00000, 0.61678, 0.80998, 0.88334, 0.92380, 0.95408, 0.96780, 0.97814, 0.98457, 0.99043, 1.00001]
[dc:SR_high_Znn_BOOST]
rebin_method = list
rebin_list=[-1.00000, -0.45203, -0.34367, -0.24556, -0.17443, -0.10577, -0.04815, 0.01306, 0.06835, 0.12078, 0.16378, 0.19982, 0.23126, 0.26139, 0.29073, 0.32212, 0.35494, 0.39287, 0.43921, 0.49402, 0.56226, 1.00001]
[dc:SR_high1_Znn_BOOST]
rebin_method = list
rebin_list=[-1.00000, -0.40898, -0.27416, -0.16926, -0.07246, 0.02393, 0.12946, 0.19471, 0.24747, 0.30310, 0.36044, 0.44870, 1.00001]
[dc:SR_high2_Znn_BOOST]
rebin_method = list
rebin_list=[-1.00000, -0.18928, -0.01093, 0.08794, 0.18797, 0.25429, 0.31533, 0.37993, 0.46995, 0.54451, 1.00001]
[dc:SR_high_Wmn_BOOST]
rebin_method = list
rebin_list=[-1.00000, -0.33885, -0.23664, -0.16159, -0.10564, -0.05260, -0.01013, 0.03376, 0.07519, 0.11117, 0.15648, 0.19653, 0.23730, 0.27673, 0.32308, 0.37142, 0.43696, 1.00001]
[dc:SR_high_Wen_BOOST]
rebin_method = list
rebin_list=[-1.00000, -0.32828, -0.21783, -0.14456, -0.07143, -0.01571, 0.03494, 0.08475, 0.13241, 0.18648, 0.24702, 0.30411, 0.37145, 0.44776, 1.00001]
[dc:SR_high1_Wmn_BOOST]
rebin_method = list
rebin_list=[-1.00000, -0.32366, -0.20996, -0.11862, -0.04598, 0.02098, 0.07998, 0.14876, 0.23029, 0.32032, 1.00001]
[dc:SR_high1_Wen_BOOST]
rebin_method = list
rebin_list=[-1.00000, -0.34323, -0.22527, -0.14118, -0.05710, 0.00196, 0.06048, 0.12940, 0.21999, 0.32691, 1.00001]
[dc:SR_high2_Wmn_BOOST]
rebin_method = list
rebin_list=[-1.00000, -0.14168, -0.02848, 0.05046, 0.12347, 0.18479, 0.24872, 0.30401, 0.36812, 0.43539, 1.00001]
[dc:SR_high2_Wen_BOOST]
rebin_method = list
rebin_list=[-1.00000, -0.15890, -0.04909, 0.06013, 0.11941, 0.19232, 0.25673, 0.32159, 0.38469, 0.46534, 1.00001]
[dc:SR_high_Zmm_BOOST]
rebin_method = list
rebin_list=[-1.00000, -0.15482, -0.05785, 0.01193, 0.07277, 0.13387, 0.18623, 0.24018, 0.28974, 0.35901, 1.00001]
[dc:SR_high_Zee_BOOST]
rebin_method = list
rebin_list=[-1.00000, -0.16118, -0.05499, 0.01445, 0.08163, 0.13460, 0.18706, 0.23718, 0.28346, 0.35789, 1.00001]
[dc:SR_high1_Zmm_BOOST]
rebin_method = list
rebin_list=[-1.00000, -0.19187, -0.10441, -0.03633, 0.01958, 0.07178, 0.12657, 0.18028, 0.23747, 0.29574, 1.00001]
[dc:SR_high1_Zee_BOOST]
rebin_method = list
rebin_list=[-1.00000, -0.19613, -0.10565, -0.03456, 0.02376, 0.08049, 0.13439, 0.18878, 0.24597, 0.29667, 1.00001]
[dc:SR_high2_Zmm_BOOST]
rebin_method = list
rebin_list=[-1.00000, -0.07143, 0.02357, 0.10481, 0.17016, 0.21356, 0.25663, 0.29991, 0.34753, 0.40322, 1.00001]
[dc:SR_high2_Zee_BOOST]
rebin_method = list
rebin_list=[-1.00000, -0.05653, 0.04904, 0.11172, 0.16499, 0.20624, 0.24496, 0.28838, 0.35381, 0.41701, 1.00001]
