/eos/cms/store/group/phys_higgs/hbb/ntuples/VHbbPostNano/UL/EFT/2016/V1/TTTo2L2Nu_TuneCP5_13TeV-powheg-pythia8/fbd6d2473697bdeafb94d99fa22d65c7b284f4707a6c519dd2153561/000000_000000/0000/tree_0.root
/eos/cms/store/group/phys_higgs/hbb/ntuples/VHbbPostNano/UL/EFT/2016/V1/TTTo2L2Nu_TuneCP5_13TeV-powheg-pythia8/628aa455ad8e51b185bccc2ee9bcfc673a084854a43186d3d140922e/000000_000000/0000/tree_1.root
/eos/cms/store/group/phys_higgs/hbb/ntuples/VHbbPostNano/UL/EFT/2016/V1/TTTo2L2Nu_TuneCP5_13TeV-powheg-pythia8/ecaf70f973b6279b75a068e9df27442b4347fa357495abaf9a423fa7/000000_000000/0000/tree_2.root
/eos/cms/store/group/phys_higgs/hbb/ntuples/VHbbPostNano/UL/EFT/2016/V1/TTTo2L2Nu_TuneCP5_13TeV-powheg-pythia8/f72405361bbf2e93761450e4c994bf7837fbb5d7bc54b6f7c2ba2524/000000_000000/0000/tree_3.root
/eos/cms/store/group/phys_higgs/hbb/ntuples/VHbbPostNano/UL/EFT/2016/V1/TTTo2L2Nu_TuneCP5_13TeV-powheg-pythia8/dcb735c8c7f5061a0d1f60e5af20d6df9594c59bc57b57918644f0e9/000000_000000/0000/tree_4.root
/eos/cms/store/group/phys_higgs/hbb/ntuples/VHbbPostNano/UL/EFT/2016/V1/TTTo2L2Nu_TuneCP5_13TeV-powheg-pythia8/39601f4c4afb8e6e19806ed805b7838e2e0cdda4e325fddc2172d559/000000_000000/0000/tree_5.root
/eos/cms/store/group/phys_higgs/hbb/ntuples/VHbbPostNano/UL/EFT/2016/V1/TTTo2L2Nu_TuneCP5_13TeV-powheg-pythia8/37a390a1e8756c0107a7ed482696332c22c834f195a9b6677e60a597/000000_000000/0000/tree_6.root
/eos/cms/store/group/phys_higgs/hbb/ntuples/VHbbPostNano/UL/EFT/2016/V1/TTTo2L2Nu_TuneCP5_13TeV-powheg-pythia8/cdf7beae817c4393424c18f9ee930826e0f7d271cd6ed4ab271f8b99/000000_000000/0000/tree_7.root
/eos/cms/store/group/phys_higgs/hbb/ntuples/VHbbPostNano/UL/EFT/2016/V1/TTTo2L2Nu_TuneCP5_13TeV-powheg-pythia8/a311c1a16545c52a7f7eb7f5a9a888729b4fa7f0da27762e1bb61b47/000000_000000/0000/tree_8.root
/eos/cms/store/group/phys_higgs/hbb/ntuples/VHbbPostNano/UL/EFT/2016/V1/TTTo2L2Nu_TuneCP5_13TeV-powheg-pythia8/f7a5a79496bcce37d153acd0f7d40397b531178ffbf8b5916dedd140/000000_000000/0000/tree_9.root
/eos/cms/store/group/phys_higgs/hbb/ntuples/VHbbPostNano/UL/EFT/2016/V1/TTTo2L2Nu_TuneCP5_13TeV-powheg-pythia8/f26edb238b5544b57ddd6e32270091ca5ff9df9ab53e82adc6b7ae43/000000_000000/0000/tree_10.root
/eos/cms/store/group/phys_higgs/hbb/ntuples/VHbbPostNano/UL/EFT/2016/V1/TTTo2L2Nu_TuneCP5_13TeV-powheg-pythia8/f63953d9f9f26c11ea23da954d01ea6db0e578528d7db1118a1c2f56/000000_000000/0000/tree_11.root
/eos/cms/store/group/phys_higgs/hbb/ntuples/VHbbPostNano/UL/EFT/2016/V1/TTTo2L2Nu_TuneCP5_13TeV-powheg-pythia8/fa04e6b569bc4e3d04fbf5d2e613a606c8a5785aa703a4f4b6b8b9a8/000000_000000/0000/tree_12.root
/eos/cms/store/group/phys_higgs/hbb/ntuples/VHbbPostNano/UL/EFT/2016/V1/TTTo2L2Nu_TuneCP5_13TeV-powheg-pythia8/a7ff23a21b5c460093de08fbe4d02da3d60831974ba98dd8e8e46b82/000000_000000/0000/tree_13.root
/eos/cms/store/group/phys_higgs/hbb/ntuples/VHbbPostNano/UL/EFT/2016/V1/TTTo2L2Nu_TuneCP5_13TeV-powheg-pythia8/9234d3784fa7a08c004ef25d44b0d202c02fb25504c7a1c97421f070/000000_000000/0000/tree_14.root
/eos/cms/store/group/phys_higgs/hbb/ntuples/VHbbPostNano/UL/EFT/2016/V1/TTTo2L2Nu_TuneCP5_13TeV-powheg-pythia8/fcf66ea591e4b475cc4d108087f25f4c978c3c8126f65b78fe1b6ae7/000000_000000/0000/tree_15.root
/eos/cms/store/group/phys_higgs/hbb/ntuples/VHbbPostNano/UL/EFT/2016/V1/TTTo2L2Nu_TuneCP5_13TeV-powheg-pythia8/2484a6814777ce27f21bd36b634d72aa4a7560ad7a56416d361cecc3/000000_000000/0000/tree_16.root
/eos/cms/store/group/phys_higgs/hbb/ntuples/VHbbPostNano/UL/EFT/2016/V1/TTTo2L2Nu_TuneCP5_13TeV-powheg-pythia8/3bf9001c768afdcce73c35e5ece98aa7e3f70905569aa4969830cc38/000000_000000/0000/tree_17.root
/eos/cms/store/group/phys_higgs/hbb/ntuples/VHbbPostNano/UL/EFT/2016/V1/TTTo2L2Nu_TuneCP5_13TeV-powheg-pythia8/900c1f1058f8bed5a53c0d42378d9a5228b381907275a8fd8fbf63a0/000000_000000/0000/tree_18.root
/eos/cms/store/group/phys_higgs/hbb/ntuples/VHbbPostNano/UL/EFT/2016/V1/TTTo2L2Nu_TuneCP5_13TeV-powheg-pythia8/9639116b39e0cdeb6fa0b687b8955d5e24e35f3fa2ada76c55700268/000000_000000/0000/tree_19.root
/eos/cms/store/group/phys_higgs/hbb/ntuples/VHbbPostNano/UL/EFT/2016/V1/TTTo2L2Nu_TuneCP5_13TeV-powheg-pythia8/1e18f44ad12c84c8aa0e76238f1ac3f4981a27624a9bfa463a675809/000000_000000/0000/tree_20.root
/eos/cms/store/group/phys_higgs/hbb/ntuples/VHbbPostNano/UL/EFT/2016/V1/TTTo2L2Nu_TuneCP5_13TeV-powheg-pythia8/642accf6b6d4456838b5d56afc3f4fc4eb2e8ee61808dc803f25c3bd/000000_000000/0000/tree_21.root
/eos/cms/store/group/phys_higgs/hbb/ntuples/VHbbPostNano/UL/EFT/2016/V1/TTTo2L2Nu_TuneCP5_13TeV-powheg-pythia8/dec87c15ac33edd3198fea59297706dab3f595104b7b744994d50312/000000_000000/0000/tree_22.root
/eos/cms/store/group/phys_higgs/hbb/ntuples/VHbbPostNano/UL/EFT/2016/V1/TTTo2L2Nu_TuneCP5_13TeV-powheg-pythia8/42f1b00e14f130a16222d7421a3754a70b5efd86d3c6c5eea278d263/000000_000000/0000/tree_23.root
/eos/cms/store/group/phys_higgs/hbb/ntuples/VHbbPostNano/UL/EFT/2016/V1/TTTo2L2Nu_TuneCP5_13TeV-powheg-pythia8/1d1f91e0adaa8556d47c56664be9b60a8d984eb51e46177d8a6ac783/000000_000000/0000/tree_24.root
/eos/cms/store/group/phys_higgs/hbb/ntuples/VHbbPostNano/UL/EFT/2016/V1/TTTo2L2Nu_TuneCP5_13TeV-powheg-pythia8/9c59622e05f5a75750667defa2c4f597190b022e9eb9ccc65753b225/000000_000000/0000/tree_25.root
/eos/cms/store/group/phys_higgs/hbb/ntuples/VHbbPostNano/UL/EFT/2016/V1/TTTo2L2Nu_TuneCP5_13TeV-powheg-pythia8/f4632798903671940b9bd8bb3f62f5386ad7bfd98a2185add7a381e1/000000_000000/0000/tree_26.root
/eos/cms/store/group/phys_higgs/hbb/ntuples/VHbbPostNano/UL/EFT/2016/V1/TTTo2L2Nu_TuneCP5_13TeV-powheg-pythia8/810330f562c142081a643b0ead19447cddfab1eacdb360157b2bb224/000000_000000/0000/tree_27.root
/eos/cms/store/group/phys_higgs/hbb/ntuples/VHbbPostNano/UL/EFT/2016/V1/TTTo2L2Nu_TuneCP5_13TeV-powheg-pythia8/1ab150dc8033614255aea3b86e57e420609b043c80a08779c21b3ed7/000000_000000/0000/tree_28.root
/eos/cms/store/group/phys_higgs/hbb/ntuples/VHbbPostNano/UL/EFT/2016/V1/TTTo2L2Nu_TuneCP5_13TeV-powheg-pythia8/d8e3b1da07c64e53f300c7115122702dcb522176b2e376c3ce53cfd3/000000_000000/0000/tree_29.root
/eos/cms/store/group/phys_higgs/hbb/ntuples/VHbbPostNano/UL/EFT/2016/V1/TTTo2L2Nu_TuneCP5_13TeV-powheg-pythia8/f6c2146dd55bbe46ab9207b1f83488ae9f8a6095df101835f4dc696a/000000_000000/0000/tree_30.root
/eos/cms/store/group/phys_higgs/hbb/ntuples/VHbbPostNano/UL/EFT/2016/V1/TTTo2L2Nu_TuneCP5_13TeV-powheg-pythia8/2902e2750d03eadc14d76151dc37abce57f834a92b8073195c3d7acd/000000_000000/0000/tree_31.root
/eos/cms/store/group/phys_higgs/hbb/ntuples/VHbbPostNano/UL/EFT/2016/V1/TTTo2L2Nu_TuneCP5_13TeV-powheg-pythia8/44821c3c41bd0d8c37097dc6203202dcc69f060cdcb4d22b7ee77522/000000_000000/0000/tree_32.root
/eos/cms/store/group/phys_higgs/hbb/ntuples/VHbbPostNano/UL/EFT/2016/V1/TTTo2L2Nu_TuneCP5_13TeV-powheg-pythia8/c55f2ac90700eef1ad54e598a8446122f7a3ec36a649d812f6144358/000000_000000/0000/tree_33.root
/eos/cms/store/group/phys_higgs/hbb/ntuples/VHbbPostNano/UL/EFT/2016/V1/TTTo2L2Nu_TuneCP5_13TeV-powheg-pythia8/27846edb5e96ba5fbc03d14117c7d6cd943cec0ac9bf08eb69b094f2/000000_000000/0000/tree_34.root
/eos/cms/store/group/phys_higgs/hbb/ntuples/VHbbPostNano/UL/EFT/2016/V1/TTTo2L2Nu_TuneCP5_13TeV-powheg-pythia8/89eae96175d24c1ed28b81ab87f6edc17793f62cc748db17a7fcbe43/000000_000000/0000/tree_35.root
/eos/cms/store/group/phys_higgs/hbb/ntuples/VHbbPostNano/UL/EFT/2016/V1/TTTo2L2Nu_TuneCP5_13TeV-powheg-pythia8/048912b8c8239201e9da8efaffadb33d2b8fc21928d3a80f5e20d75a/000000_000000/0000/tree_36.root
/eos/cms/store/group/phys_higgs/hbb/ntuples/VHbbPostNano/UL/EFT/2016/V1/TTTo2L2Nu_TuneCP5_13TeV-powheg-pythia8/866b0ac9ae7c4d8da0e3216034adbff61ddb22506240cb434a33502f/000000_000000/0000/tree_37.root
/eos/cms/store/group/phys_higgs/hbb/ntuples/VHbbPostNano/UL/EFT/2016/V1/TTTo2L2Nu_TuneCP5_13TeV-powheg-pythia8/3566b752fbe986d089a652707b4e544da85c207fdf948abd2945ecc8/000000_000000/0000/tree_38.root
/eos/cms/store/group/phys_higgs/hbb/ntuples/VHbbPostNano/UL/EFT/2016/V1/TTTo2L2Nu_TuneCP5_13TeV-powheg-pythia8/9a36149592e1ed2f7e74bdda5e2af8e73fecc213cb9e934fcfc8e89b/000000_000000/0000/tree_39.root
/eos/cms/store/group/phys_higgs/hbb/ntuples/VHbbPostNano/UL/EFT/2016/V1/TTTo2L2Nu_TuneCP5_13TeV-powheg-pythia8/555eaf4becfb73f2c0d41b2cfe93124b73470dddb957229a28b14a4f/000000_000000/0000/tree_40.root
/eos/cms/store/group/phys_higgs/hbb/ntuples/VHbbPostNano/UL/EFT/2016/V1/TTTo2L2Nu_TuneCP5_13TeV-powheg-pythia8/5dc83713a29cd3b0b8788795624588cd35cd505eb47b409a8bdb9ebc/000000_000000/0000/tree_41.root
/eos/cms/store/group/phys_higgs/hbb/ntuples/VHbbPostNano/UL/EFT/2016/V1/TTTo2L2Nu_TuneCP5_13TeV-powheg-pythia8/976470bcbfe886e6e09aad70ecabbdca48e30bc93bcaf2b5d55d20a6/000000_000000/0000/tree_42.root
/eos/cms/store/group/phys_higgs/hbb/ntuples/VHbbPostNano/UL/EFT/2016/V1/TTTo2L2Nu_TuneCP5_13TeV-powheg-pythia8/6227e8630be2b5b4b9a8c49c69596f4c7e788d5cc3bb08df17670669/000000_000000/0000/tree_43.root
/eos/cms/store/group/phys_higgs/hbb/ntuples/VHbbPostNano/UL/EFT/2016/V1/TTTo2L2Nu_TuneCP5_13TeV-powheg-pythia8/5ff92709274a57d43533e52970b308c6329ae7c0c9d3571250a810ef/000000_000000/0000/tree_44.root
/eos/cms/store/group/phys_higgs/hbb/ntuples/VHbbPostNano/UL/EFT/2016/V1/TTTo2L2Nu_TuneCP5_13TeV-powheg-pythia8/833b8e149c1a81f0b5b22afb9de44557487e4234e62442dafde9ba49/000000_000000/0000/tree_45.root
/eos/cms/store/group/phys_higgs/hbb/ntuples/VHbbPostNano/UL/EFT/2016/V1/TTTo2L2Nu_TuneCP5_13TeV-powheg-pythia8/01d68ac78b3cb04f31edd4464cc552eda09014ead88026d94d007b13/000000_000000/0000/tree_46.root
/eos/cms/store/group/phys_higgs/hbb/ntuples/VHbbPostNano/UL/EFT/2016/V1/TTTo2L2Nu_TuneCP5_13TeV-powheg-pythia8/e449d80d95cc19bbf556479e2b4a2ae221d36ad815b56acfe72b00fd/000000_000000/0000/tree_47.root
/eos/cms/store/group/phys_higgs/hbb/ntuples/VHbbPostNano/UL/EFT/2016/V1/TTTo2L2Nu_TuneCP5_13TeV-powheg-pythia8/6281d12d4b08b7723996b8e1972d543c71993401182c8ba9f58c66cf/000000_000000/0000/tree_48.root
/eos/cms/store/group/phys_higgs/hbb/ntuples/VHbbPostNano/UL/EFT/2016/V1/TTTo2L2Nu_TuneCP5_13TeV-powheg-pythia8/b37a91191694f3ca3958c6d74ad0434366ab53692d17f76f02ec9348/000000_000000/0000/tree_49.root
/eos/cms/store/group/phys_higgs/hbb/ntuples/VHbbPostNano/UL/EFT/2016/V1/TTTo2L2Nu_TuneCP5_13TeV-powheg-pythia8/1bfe8d03765b054c750187e28ca7b2d46ac14b6b189c62914b895afa/000000_000000/0000/tree_50.root
/eos/cms/store/group/phys_higgs/hbb/ntuples/VHbbPostNano/UL/EFT/2016/V1/TTTo2L2Nu_TuneCP5_13TeV-powheg-pythia8/af54e7a577c6336dd4f8c74f9466fb9e9e031a4145434b1cadbb26b3/000000_000000/0000/tree_51.root
/eos/cms/store/group/phys_higgs/hbb/ntuples/VHbbPostNano/UL/EFT/2016/V1/TTTo2L2Nu_TuneCP5_13TeV-powheg-pythia8/b15d690d9b0f2f48b2e3fd6a8060b5af5fb9af8219fb129301a39fa5/000000_000000/0000/tree_52.root
/eos/cms/store/group/phys_higgs/hbb/ntuples/VHbbPostNano/UL/EFT/2016/V1/TTTo2L2Nu_TuneCP5_13TeV-powheg-pythia8/945790eb37745eb39b9c19e10103f644d55154c58196dc54e10a7a50/000000_000000/0000/tree_53.root
/eos/cms/store/group/phys_higgs/hbb/ntuples/VHbbPostNano/UL/EFT/2016/V1/TTTo2L2Nu_TuneCP5_13TeV-powheg-pythia8/cde433d3017a7d39c9a3679a5a97f42f188e1ff2df36140e57f1ad33/000000_000000/0000/tree_54.root
/eos/cms/store/group/phys_higgs/hbb/ntuples/VHbbPostNano/UL/EFT/2016/V1/TTTo2L2Nu_TuneCP5_13TeV-powheg-pythia8/5b946e9c7507c39b84b6c67a0b8d526e04f59b343573da0d433bb99c/000000_000000/0000/tree_55.root
/eos/cms/store/group/phys_higgs/hbb/ntuples/VHbbPostNano/UL/EFT/2016/V1/TTTo2L2Nu_TuneCP5_13TeV-powheg-pythia8/dd31d02f1fd0751e11c479b0e4a95a0e4fee139ff3478e56edb103d9/000000_000000/0000/tree_56.root
/eos/cms/store/group/phys_higgs/hbb/ntuples/VHbbPostNano/UL/EFT/2016/V1/TTTo2L2Nu_TuneCP5_13TeV-powheg-pythia8/e2177560087da475d23677d781d312a5b31229d80603d719a13ee41d/000000_000000/0000/tree_57.root
/eos/cms/store/group/phys_higgs/hbb/ntuples/VHbbPostNano/UL/EFT/2016/V1/TTTo2L2Nu_TuneCP5_13TeV-powheg-pythia8/8f3cedfc7d79e58a16f4e1a2add0c441ef003dc97fbd049ed3769955/000000_000000/0000/tree_58.root
/eos/cms/store/group/phys_higgs/hbb/ntuples/VHbbPostNano/UL/EFT/2016/V1/TTTo2L2Nu_TuneCP5_13TeV-powheg-pythia8/39719946648c01e8811754f2eee11dccc6a116cdc9c029ae7eb51235/000000_000000/0000/tree_59.root
/eos/cms/store/group/phys_higgs/hbb/ntuples/VHbbPostNano/UL/EFT/2016/V1/TTTo2L2Nu_TuneCP5_13TeV-powheg-pythia8/dd64dc53a684b5bcc841b6eb9fc7bd56df999a7a29327e8fbd06b708/000000_000000/0000/tree_60.root
/eos/cms/store/group/phys_higgs/hbb/ntuples/VHbbPostNano/UL/EFT/2016/V1/TTTo2L2Nu_TuneCP5_13TeV-powheg-pythia8/d4d991b630be80c7f1d4f0d6ba135cbff8a30dd4519184e0f7d679d1/000000_000000/0000/tree_61.root
/eos/cms/store/group/phys_higgs/hbb/ntuples/VHbbPostNano/UL/EFT/2016/V1/TTTo2L2Nu_TuneCP5_13TeV-powheg-pythia8/f117b1d838333a1b0e129f34d1ccfcc470f9b9145f6f9d8e73ad7f0f/000000_000000/0000/tree_62.root
/eos/cms/store/group/phys_higgs/hbb/ntuples/VHbbPostNano/UL/EFT/2016/V1/TTTo2L2Nu_TuneCP5_13TeV-powheg-pythia8/bc01fd352d7a1d232b837951a9f1488bd17bd80cae9a8678caf34c15/000000_000000/0000/tree_63.root
/eos/cms/store/group/phys_higgs/hbb/ntuples/VHbbPostNano/UL/EFT/2016/V1/TTTo2L2Nu_TuneCP5_13TeV-powheg-pythia8/99ea24fbd559ebf2ef15ed8a76186ec9717ff5469c1c671d1df36207/000000_000000/0000/tree_64.root
/eos/cms/store/group/phys_higgs/hbb/ntuples/VHbbPostNano/UL/EFT/2016/V1/TTTo2L2Nu_TuneCP5_13TeV-powheg-pythia8/8eb675b2e295269c85365b7dabcb8c110e052d7ede210bd3850d9e91/000000_000000/0000/tree_65.root
/eos/cms/store/group/phys_higgs/hbb/ntuples/VHbbPostNano/UL/EFT/2016/V1/TTTo2L2Nu_TuneCP5_13TeV-powheg-pythia8/09b1f5cbdffd01e8089b90ff01dba0bb754fe9e4a5c68596381a1565/000000_000000/0000/tree_66.root
/eos/cms/store/group/phys_higgs/hbb/ntuples/VHbbPostNano/UL/EFT/2016/V1/TTTo2L2Nu_TuneCP5_13TeV-powheg-pythia8/fa9eef1fc327049d5ee392cd3cd3e114b30757970084b67a412285b8/000000_000000/0000/tree_67.root
/eos/cms/store/group/phys_higgs/hbb/ntuples/VHbbPostNano/UL/EFT/2016/V1/TTTo2L2Nu_TuneCP5_13TeV-powheg-pythia8/cba9adad922ad388fbc9fefd89712061a66a0ea5a34f9ef281792f19/000000_000000/0000/tree_68.root
/eos/cms/store/group/phys_higgs/hbb/ntuples/VHbbPostNano/UL/EFT/2016/V1/TTTo2L2Nu_TuneCP5_13TeV-powheg-pythia8/c5a7f06e25874271acc7ed246aef2432215b25661aef2baa591d5a57/000000_000000/0000/tree_69.root
/eos/cms/store/group/phys_higgs/hbb/ntuples/VHbbPostNano/UL/EFT/2016/V1/TTTo2L2Nu_TuneCP5_13TeV-powheg-pythia8/ca6978ebe2db982ec475e0874664e5416862fb6d05d6966497afdbe9/000000_000000/0000/tree_70.root
/eos/cms/store/group/phys_higgs/hbb/ntuples/VHbbPostNano/UL/EFT/2016/V1/TTTo2L2Nu_TuneCP5_13TeV-powheg-pythia8/14d0bbeab87c90cc3b6ee7beaf2cb3ce30dc614d73d28d464cbbf2a6/000000_000000/0000/tree_71.root
/eos/cms/store/group/phys_higgs/hbb/ntuples/VHbbPostNano/UL/EFT/2016/V1/TTTo2L2Nu_TuneCP5_13TeV-powheg-pythia8/97bd44bcca66d9ab85167a048dbe06577844b29435bacf37ef088c8b/000000_000000/0000/tree_72.root
/eos/cms/store/group/phys_higgs/hbb/ntuples/VHbbPostNano/UL/EFT/2016/V1/TTTo2L2Nu_TuneCP5_13TeV-powheg-pythia8/0c438d487b6df93e91d4d5da5b96be7aef8aa161b4243dd4f8d38869/000000_000000/0000/tree_73.root
/eos/cms/store/group/phys_higgs/hbb/ntuples/VHbbPostNano/UL/EFT/2016/V1/TTTo2L2Nu_TuneCP5_13TeV-powheg-pythia8/f76f72ccdd51af4bc8247dffa0766bd6af2228c18d78a73d71a001a8/000000_000000/0000/tree_74.root
/eos/cms/store/group/phys_higgs/hbb/ntuples/VHbbPostNano/UL/EFT/2016/V1/TTTo2L2Nu_TuneCP5_13TeV-powheg-pythia8/6822439e3f001abf3036f29d5b7f91d607adfea4a7c60aa6722ec6f0/000000_000000/0000/tree_75.root
/eos/cms/store/group/phys_higgs/hbb/ntuples/VHbbPostNano/UL/EFT/2016/V1/TTTo2L2Nu_TuneCP5_13TeV-powheg-pythia8/8489c84c5eb2f85ea47097f9cd2c109692875447103849764f0d9007/000000_000000/0000/tree_76.root
/eos/cms/store/group/phys_higgs/hbb/ntuples/VHbbPostNano/UL/EFT/2016/V1/TTTo2L2Nu_TuneCP5_13TeV-powheg-pythia8/360bd89529914ec55d4aefa1ddba47a61905ad48b6d904ee4d71f49f/000000_000000/0000/tree_77.root
/eos/cms/store/group/phys_higgs/hbb/ntuples/VHbbPostNano/UL/EFT/2016/V1/TTTo2L2Nu_TuneCP5_13TeV-powheg-pythia8/523f49eee2fad61646323a15d6e0304ee95a35a9de64a3aa826080b8/000000_000000/0000/tree_78.root
/eos/cms/store/group/phys_higgs/hbb/ntuples/VHbbPostNano/UL/EFT/2016/V1/TTTo2L2Nu_TuneCP5_13TeV-powheg-pythia8/d7c5c8e5e9f1cdd16327468c7b67cf071288d310cd32883693ae49a5/000000_000000/0000/tree_79.root
/eos/cms/store/group/phys_higgs/hbb/ntuples/VHbbPostNano/UL/EFT/2016/V1/TTTo2L2Nu_TuneCP5_13TeV-powheg-pythia8/92b32e626d91b1521acab42f89733e06b5adde8b182edb7fd76778f9/000000_000000/0000/tree_80.root
/eos/cms/store/group/phys_higgs/hbb/ntuples/VHbbPostNano/UL/EFT/2016/V1/TTTo2L2Nu_TuneCP5_13TeV-powheg-pythia8/73b4b8fa5f33e3c0cc146832a0cfb72711198fc2d622a8fc6eb954ba/000000_000000/0000/tree_81.root
/eos/cms/store/group/phys_higgs/hbb/ntuples/VHbbPostNano/UL/EFT/2016/V1/TTTo2L2Nu_TuneCP5_13TeV-powheg-pythia8/84b2883aff0667d340284c370c29c97fbf8fe13d57e23ee1123cba45/000000_000000/0000/tree_82.root
/eos/cms/store/group/phys_higgs/hbb/ntuples/VHbbPostNano/UL/EFT/2016/V1/TTTo2L2Nu_TuneCP5_13TeV-powheg-pythia8/b6a6daffc1d24f3de429d0a72d75e2bab8b7691153559b2170eea785/000000_000000/0000/tree_83.root
/eos/cms/store/group/phys_higgs/hbb/ntuples/VHbbPostNano/UL/EFT/2016/V1/TTTo2L2Nu_TuneCP5_13TeV-powheg-pythia8/6db949966d41f360936d45a716a17893be60833322b3280e773a412e/000000_000000/0000/tree_84.root
/eos/cms/store/group/phys_higgs/hbb/ntuples/VHbbPostNano/UL/EFT/2016/V1/TTTo2L2Nu_TuneCP5_13TeV-powheg-pythia8/87a3cdc4ffc30dca5a18a59050b3c483afa4b0c6659ddafd11a68abf/000000_000000/0000/tree_85.root
/eos/cms/store/group/phys_higgs/hbb/ntuples/VHbbPostNano/UL/EFT/2016/V1/TTTo2L2Nu_TuneCP5_13TeV-powheg-pythia8/2dc81f4b2464dad592be97ec062f0768d5a254b7dc165e2bafe5b98a/000000_000000/0000/tree_86.root
/eos/cms/store/group/phys_higgs/hbb/ntuples/VHbbPostNano/UL/EFT/2016/V1/TTTo2L2Nu_TuneCP5_13TeV-powheg-pythia8/5b532533067017aaa76d8363f5a49538f4fb97386f38c02f283b4bfe/000000_000000/0000/tree_87.root
/eos/cms/store/group/phys_higgs/hbb/ntuples/VHbbPostNano/UL/EFT/2016/V1/TTTo2L2Nu_TuneCP5_13TeV-powheg-pythia8/0ec998606ad104d544e5f3e3fee4d058755dbb4363dd5c16e4cd7f28/000000_000000/0000/tree_88.root
/eos/cms/store/group/phys_higgs/hbb/ntuples/VHbbPostNano/UL/EFT/2016/V1/TTTo2L2Nu_TuneCP5_13TeV-powheg-pythia8/a97b8bcf80673fb3171c09e48a6f90a746bd7002b77289ac7c1fa42f/000000_000000/0000/tree_89.root
/eos/cms/store/group/phys_higgs/hbb/ntuples/VHbbPostNano/UL/EFT/2016/V1/TTTo2L2Nu_TuneCP5_13TeV-powheg-pythia8/3666559a1f91890fd3a1a27728b327947056d8769ba60889e5ff4a26/000000_000000/0000/tree_90.root
/eos/cms/store/group/phys_higgs/hbb/ntuples/VHbbPostNano/UL/EFT/2016/V1/TTTo2L2Nu_TuneCP5_13TeV-powheg-pythia8/599a0ad61626f365b188307144d551387526c425730aeede235ef0d1/000000_000000/0000/tree_91.root
/eos/cms/store/group/phys_higgs/hbb/ntuples/VHbbPostNano/UL/EFT/2016/V1/TTTo2L2Nu_TuneCP5_13TeV-powheg-pythia8/309b1b11a44ae1eb3a5ea989ab8c00cc15a440212c95ca366a3f6b2d/000000_000000/0000/tree_92.root
/eos/cms/store/group/phys_higgs/hbb/ntuples/VHbbPostNano/UL/EFT/2016/V1/TTTo2L2Nu_TuneCP5_13TeV-powheg-pythia8/b23b627164fb0fb20fea348bbb544a3b09273c855736c1a09f3e11a0/000000_000000/0000/tree_93.root
/eos/cms/store/group/phys_higgs/hbb/ntuples/VHbbPostNano/UL/EFT/2016/V1/TTTo2L2Nu_TuneCP5_13TeV-powheg-pythia8/485eb6d08b028e015620420ea0aad09f5af151e4aafbdf82319b464c/000000_000000/0000/tree_94.root
/eos/cms/store/group/phys_higgs/hbb/ntuples/VHbbPostNano/UL/EFT/2016/V1/TTTo2L2Nu_TuneCP5_13TeV-powheg-pythia8/918a13027a9cb4dbcdfa45d3473812c168d5993f5a8a2632e2279222/000000_000000/0000/tree_95.root
/eos/cms/store/group/phys_higgs/hbb/ntuples/VHbbPostNano/UL/EFT/2016/V1/TTTo2L2Nu_TuneCP5_13TeV-powheg-pythia8/b85afaca8142860b7ab82570a7b084099ddaf2d0c55613c21f13d4e1/000000_000000/0000/tree_96.root
/eos/cms/store/group/phys_higgs/hbb/ntuples/VHbbPostNano/UL/EFT/2016/V1/TTTo2L2Nu_TuneCP5_13TeV-powheg-pythia8/4624a82b5da7cbdc57a84474735548d83cad157f83d9ebe6e7149c8c/000000_000000/0000/tree_97.root
/eos/cms/store/group/phys_higgs/hbb/ntuples/VHbbPostNano/UL/EFT/2016/V1/TTTo2L2Nu_TuneCP5_13TeV-powheg-pythia8/09ef441e5de253b538ff310d8658d9eacbc86ae57be4d711da8ad2d4/000000_000000/0000/tree_98.root
/eos/cms/store/group/phys_higgs/hbb/ntuples/VHbbPostNano/UL/EFT/2016/V1/TTTo2L2Nu_TuneCP5_13TeV-powheg-pythia8/4b9ed20667aa4fe31bb7a15a67d654dc25d3a64416cc90294b4457e5/000000_000000/0000/tree_99.root