/eos/cms/store/group/phys_higgs/hbb/ntuples/VHbbPostNano/UL/EFT/2016/V1/ZHJet_HToBB_ZToLL_M-125_TuneCP5_SMEFTsim_topU3l_13TeV-madgraphMLM-pythia8/144bf65988663f6c527f2e50f393b8cea50f215234f61394de036297/000000_000000/0000/tree_0.root
/eos/cms/store/group/phys_higgs/hbb/ntuples/VHbbPostNano/UL/EFT/2016/V1/ZHJet_HToBB_ZToLL_M-125_TuneCP5_SMEFTsim_topU3l_13TeV-madgraphMLM-pythia8/3339c71e9c3131a876db88c2f818ffbd89b58b795de75f60f37f23cd/000000_000000/0000/tree_1.root
/eos/cms/store/group/phys_higgs/hbb/ntuples/VHbbPostNano/UL/EFT/2016/V1/ZHJet_HToBB_ZToLL_M-125_TuneCP5_SMEFTsim_topU3l_13TeV-madgraphMLM-pythia8/65b0e2ce73ff097a642e0964699291678dedb141315a64759207dd61/000000_000000/0000/tree_2.root
/eos/cms/store/group/phys_higgs/hbb/ntuples/VHbbPostNano/UL/EFT/2016/V1/ZHJet_HToBB_ZToLL_M-125_TuneCP5_SMEFTsim_topU3l_13TeV-madgraphMLM-pythia8/50a57bd89d7dcf3438a65140e99aff7b9ca55089dec4f7577dd04020/000000_000000/0000/tree_3.root
/eos/cms/store/group/phys_higgs/hbb/ntuples/VHbbPostNano/UL/EFT/2016/V1/ZHJet_HToBB_ZToLL_M-125_TuneCP5_SMEFTsim_topU3l_13TeV-madgraphMLM-pythia8/413a006f905c4521e12153f171c63a00c21fb11e1ce0bbd8d2664cac/000000_000000/0000/tree_4.root
/eos/cms/store/group/phys_higgs/hbb/ntuples/VHbbPostNano/UL/EFT/2016/V1/ZHJet_HToBB_ZToLL_M-125_TuneCP5_SMEFTsim_topU3l_13TeV-madgraphMLM-pythia8/cb90a458c0d820784a42ce7888c4a123c31dba20240c7edfef04ace8/000000_000000/0000/tree_5.root
/eos/cms/store/group/phys_higgs/hbb/ntuples/VHbbPostNano/UL/EFT/2016/V1/ZHJet_HToBB_ZToLL_M-125_TuneCP5_SMEFTsim_topU3l_13TeV-madgraphMLM-pythia8/944c9a9deca4a24cada3b5d9904c93fc8150f6da1b03f599b97482c0/000000_000000/0000/tree_6.root
/eos/cms/store/group/phys_higgs/hbb/ntuples/VHbbPostNano/UL/EFT/2016/V1/ZHJet_HToBB_ZToLL_M-125_TuneCP5_SMEFTsim_topU3l_13TeV-madgraphMLM-pythia8/382c3c592bd544e320ebb3363b10923d856bb682b312ba78475e2424/000000_000000/0000/tree_7.root
/eos/cms/store/group/phys_higgs/hbb/ntuples/VHbbPostNano/UL/EFT/2016/V1/ZHJet_HToBB_ZToLL_M-125_TuneCP5_SMEFTsim_topU3l_13TeV-madgraphMLM-pythia8/d755dff1a99487422866677643aa06ac601e519d67dd0c8dbd72d041/000000_000000/0000/tree_8.root