/store/group/phys_higgs/hbb/ntuples/VHbbPostNano/2018/V13/ggZH_HToBB_ZToLL_M125_13TeV_powheg_pythia8/RunIIAutumn18NanoAODv7-Nano02A80/200731_154729/89ded15eba429a772ddd289f8ca53e7f61843d425fc0ac9cd60ca2e5/000000_000000/0000/tree_0.root
/store/group/phys_higgs/hbb/ntuples/VHbbPostNano/2018/V13/ggZH_HToBB_ZToLL_M125_13TeV_powheg_pythia8/RunIIAutumn18NanoAODv7-Nano02A80/200731_154729/298d44f83ac73f13e5f1d64618ae863a7ed03b670e6004ce80b9e9a5/000000_000000/0000/tree_1.root
/store/group/phys_higgs/hbb/ntuples/VHbbPostNano/2018/V13/ggZH_HToBB_ZToLL_M125_13TeV_powheg_pythia8/RunIIAutumn18NanoAODv7-Nano02A80/200731_154729/ec024ea92eb8a5814075e077b7055b961806a63249f54e16b83962a8/000000_000000/0000/tree_2.root
/store/group/phys_higgs/hbb/ntuples/VHbbPostNano/2018/V13/ggZH_HToBB_ZToLL_M125_13TeV_powheg_pythia8/RunIIAutumn18NanoAODv7-Nano02A80/200731_154729/d40cc804def3507ced76fb4e8d2922fa54e7c27ea5c79918bf7baa8e/000000_000000/0000/tree_3.root
/store/group/phys_higgs/hbb/ntuples/VHbbPostNano/2018/V13/ggZH_HToBB_ZToLL_M125_13TeV_powheg_pythia8/RunIIAutumn18NanoAODv7-Nano02A80/200731_154729/a5ef148b9c09b810681184c69699e19f9fab4105b8dda4e537a6ff58/000000_000000/0000/tree_4.root
/store/group/phys_higgs/hbb/ntuples/VHbbPostNano/2018/V13/ggZH_HToBB_ZToLL_M125_13TeV_powheg_pythia8/RunIIAutumn18NanoAODv7-Nano02A80/200731_154729/9ffbc13114c5496e3a38c7aeb9cec01c300325f87030302035dca654/000000_000000/0000/tree_5.root
/store/group/phys_higgs/hbb/ntuples/VHbbPostNano/2018/V13/ggZH_HToBB_ZToLL_M125_13TeV_powheg_pythia8/RunIIAutumn18NanoAODv7-Nano02A80/200731_154729/13c507971503c26487a04bfd0198a8457207c398a735d21ae56382b4/000000_000000/0000/tree_6.root
/store/group/phys_higgs/hbb/ntuples/VHbbPostNano/2018/V13/ggZH_HToBB_ZToLL_M125_13TeV_powheg_pythia8/RunIIAutumn18NanoAODv7-Nano02A80/200731_154729/765e065e21fcb9b3e277c63d0a5e466b8b4aa6966faee1771761ad22/000000_000000/0000/tree_7.root
/store/group/phys_higgs/hbb/ntuples/VHbbPostNano/2018/V13/ggZH_HToBB_ZToLL_M125_13TeV_powheg_pythia8/RunIIAutumn18NanoAODv7-Nano02A80/200731_154729/d10e724f93ee7652563817b429e54ca55b53eb5225a34c8c42348880/000000_000000/0000/tree_8.root
/store/group/phys_higgs/hbb/ntuples/VHbbPostNano/2018/V13/ggZH_HToBB_ZToLL_M125_13TeV_powheg_pythia8/RunIIAutumn18NanoAODv7-Nano02A80/200731_154729/a5dbf61b36c20a1be59f07b14fc4e02bdd85e64522564518e2ece425/000000_000000/0000/tree_9.root