/store/group/phys_higgs/hbb/ntuples/VHbbPostNano/2018/V13/WBJetsToLNu_Wpt-100to200_TuneCP5_13TeV-madgraphMLM-pythia8/RunIIAutumn18NanoAODv7-Nano02A80/200708_080905/2bd10fe8efe4c325363a5ca01d7dc16ecbc89083fe3016303d46adaf/000000_000000/0000/tree_0.root
/store/group/phys_higgs/hbb/ntuples/VHbbPostNano/2018/V13/WBJetsToLNu_Wpt-100to200_TuneCP5_13TeV-madgraphMLM-pythia8/RunIIAutumn18NanoAODv7-Nano02A80/200708_080905/1a4d62453827a8f775eb92a1ecbca0647305a6ee87c37cc07587e8a1/000000_000000/0000/tree_1.root
/store/group/phys_higgs/hbb/ntuples/VHbbPostNano/2018/V13/WBJetsToLNu_Wpt-100to200_TuneCP5_13TeV-madgraphMLM-pythia8/RunIIAutumn18NanoAODv7-Nano02A80/200708_080905/273374803ee8ad743e267763be26920c240e5c64822081b55a50006e/000000_000000/0000/tree_2.root
/store/group/phys_higgs/hbb/ntuples/VHbbPostNano/2018/V13/WBJetsToLNu_Wpt-100to200_TuneCP5_13TeV-madgraphMLM-pythia8/RunIIAutumn18NanoAODv7-Nano02A80/200708_080905/a036b35f09a4cee5da7271f82e251cfec97bb895b1174345ad19f4fa/000000_000000/0000/tree_3.root
/store/group/phys_higgs/hbb/ntuples/VHbbPostNano/2018/V13/WBJetsToLNu_Wpt-100to200_TuneCP5_13TeV-madgraphMLM-pythia8/RunIIAutumn18NanoAODv7-Nano02A80/200708_080905/5cb2173fe185689a5847bdd193c71955fb4b69e8fe9c4a6818b6470c/000000_000000/0000/tree_4.root
/store/group/phys_higgs/hbb/ntuples/VHbbPostNano/2018/V13/WBJetsToLNu_Wpt-100to200_TuneCP5_13TeV-madgraphMLM-pythia8/RunIIAutumn18NanoAODv7-Nano02A80/200708_080905/fc03f6670b5308d464077ce948120e0eaca119ea9f743a28eaeed7d0/000000_000000/0000/tree_5.root
/store/group/phys_higgs/hbb/ntuples/VHbbPostNano/2018/V13/WBJetsToLNu_Wpt-100to200_TuneCP5_13TeV-madgraphMLM-pythia8/RunIIAutumn18NanoAODv7-Nano02A80/200708_080905/d04524fef60eadc710fa56db37a08b4b5c0326b88c7337d348cf9ce9/000000_000000/0000/tree_6.root
/store/group/phys_higgs/hbb/ntuples/VHbbPostNano/2018/V13/WBJetsToLNu_Wpt-100to200_TuneCP5_13TeV-madgraphMLM-pythia8/RunIIAutumn18NanoAODv7-Nano02A80/200708_080905/d5906d974fa7cf9106e94b7671d8f95128bcf4957a98060920914922/000000_000000/0000/tree_7.root
/store/group/phys_higgs/hbb/ntuples/VHbbPostNano/2018/V13/WBJetsToLNu_Wpt-100to200_TuneCP5_13TeV-madgraphMLM-pythia8/RunIIAutumn18NanoAODv7-Nano02A80/200708_080905/ca46c625279c3cf1b724c078519ce9c64e441e468af682e882423670/000000_000000/0000/tree_8.root
/store/group/phys_higgs/hbb/ntuples/VHbbPostNano/2018/V13/WBJetsToLNu_Wpt-100to200_TuneCP5_13TeV-madgraphMLM-pythia8/RunIIAutumn18NanoAODv7-Nano02A80/200708_080905/c166cbc547b67099bb6496d370c30704ab2b39b4a2d862d8757737a5/000000_000000/0000/tree_9.root
/store/group/phys_higgs/hbb/ntuples/VHbbPostNano/2018/V13/WBJetsToLNu_Wpt-100to200_TuneCP5_13TeV-madgraphMLM-pythia8/RunIIAutumn18NanoAODv7-Nano02A80/200708_080905/b19db902247fb67896842da3833554841bb7eedbdbe1fd747b194d6b/000000_000000/0000/tree_10.root
/store/group/phys_higgs/hbb/ntuples/VHbbPostNano/2018/V13/WBJetsToLNu_Wpt-100to200_TuneCP5_13TeV-madgraphMLM-pythia8/RunIIAutumn18NanoAODv7-Nano02A80/200708_080905/09ce1563d72ea0b2010dcada080c5644a36d37ae658a794b668fa389/000000_000000/0000/tree_11.root
/store/group/phys_higgs/hbb/ntuples/VHbbPostNano/2018/V13/WBJetsToLNu_Wpt-100to200_TuneCP5_13TeV-madgraphMLM-pythia8/RunIIAutumn18NanoAODv7-Nano02A80/200708_080905/593c7717f929db170abc1d0e59dddff65d3f170379d3cefbdf715b02/000000_000000/0000/tree_12.root
/store/group/phys_higgs/hbb/ntuples/VHbbPostNano/2018/V13/WBJetsToLNu_Wpt-100to200_TuneCP5_13TeV-madgraphMLM-pythia8/RunIIAutumn18NanoAODv7-Nano02A80/200708_080905/1052de80783b233f6825a4f09a20c777c5113206712dec130decaf38/000000_000000/0000/tree_13.root
/store/group/phys_higgs/hbb/ntuples/VHbbPostNano/2018/V13/WBJetsToLNu_Wpt-100to200_TuneCP5_13TeV-madgraphMLM-pythia8/RunIIAutumn18NanoAODv7-Nano02A80/200708_080905/8662b3c88b8c2019953b5fe3eb862a452833678074deb8ae412e3941/000000_000000/0000/tree_14.root
/store/group/phys_higgs/hbb/ntuples/VHbbPostNano/2018/V13/WBJetsToLNu_Wpt-100to200_TuneCP5_13TeV-madgraphMLM-pythia8/RunIIAutumn18NanoAODv7-Nano02A80/200708_080905/25b202a7b0c0670ebbc2e28490600ddfc72fb4be9551c5649aec36fe/000000_000000/0000/tree_15.root
/store/group/phys_higgs/hbb/ntuples/VHbbPostNano/2018/V13/WBJetsToLNu_Wpt-100to200_TuneCP5_13TeV-madgraphMLM-pythia8/RunIIAutumn18NanoAODv7-Nano02A80/200708_080905/47bc49f7d6c32f00b952c70f019160a078dc0e33c95f659d4f86825a/000000_000000/0000/tree_16.root