/store/group/phys_higgs/hbb/ntuples/VHbbPostNano/2018/V13/WJetsToLNu_HT-800To1200_TuneCP5_13TeV-madgraphMLM-pythia8/RunIIAutumn18NanoAODv7-Nano02A86/200708_081337/3609614fc35e9efbecc1a9ab9963379c07eb84aafb0bcdb3f1bc7f80/000000_000000/0000/tree_0.root
/store/group/phys_higgs/hbb/ntuples/VHbbPostNano/2018/V13/WJetsToLNu_HT-800To1200_TuneCP5_13TeV-madgraphMLM-pythia8/RunIIAutumn18NanoAODv7-Nano02A86/200708_081337/812899442f3fb8af0920c013dd88053a7abf651abebce242321fc27c/000000_000000/0000/tree_1.root
/store/group/phys_higgs/hbb/ntuples/VHbbPostNano/2018/V13/WJetsToLNu_HT-800To1200_TuneCP5_13TeV-madgraphMLM-pythia8/RunIIAutumn18NanoAODv7-Nano02A86/200708_081337/78e2ef5e0bf3a6c642dc5ea777c8d2505c878a8995effbb63c094a4a/000000_000000/0000/tree_2.root
/store/group/phys_higgs/hbb/ntuples/VHbbPostNano/2018/V13/WJetsToLNu_HT-800To1200_TuneCP5_13TeV-madgraphMLM-pythia8/RunIIAutumn18NanoAODv7-Nano02A86/200708_081337/b1b3682009bc5d50684462df793e42f2c4615f134fb8c76213f4e916/000000_000000/0000/tree_3.root
/store/group/phys_higgs/hbb/ntuples/VHbbPostNano/2018/V13/WJetsToLNu_HT-800To1200_TuneCP5_13TeV-madgraphMLM-pythia8/RunIIAutumn18NanoAODv7-Nano02A86/200708_081337/10dde4780f9f415c53939d1c5a2bf3ef5f6586046a4fb96c53aac519/000000_000000/0000/tree_4.root
/store/group/phys_higgs/hbb/ntuples/VHbbPostNano/2018/V13/WJetsToLNu_HT-800To1200_TuneCP5_13TeV-madgraphMLM-pythia8/RunIIAutumn18NanoAODv7-Nano02A86/200708_081337/ca0ab551f2b4ec262de4bb59fb968f10ba9ef67a5e0ec118bf0d4436/000000_000000/0000/tree_5.root
/store/group/phys_higgs/hbb/ntuples/VHbbPostNano/2018/V13/WJetsToLNu_HT-800To1200_TuneCP5_13TeV-madgraphMLM-pythia8/RunIIAutumn18NanoAODv7-Nano02A86/200708_081337/156ff5550de108ffad233395bac0f1f8ea1073e7f511bb1a7114cf92/000000_000000/0000/tree_6.root
/store/group/phys_higgs/hbb/ntuples/VHbbPostNano/2018/V13/WJetsToLNu_HT-800To1200_TuneCP5_13TeV-madgraphMLM-pythia8/RunIIAutumn18NanoAODv7-Nano02A86/200708_081337/c5f02b8255e966387158005635e49cbc468e57c4c4de747bf977a7f8/000000_000000/0000/tree_7.root
/store/group/phys_higgs/hbb/ntuples/VHbbPostNano/2018/V13/WJetsToLNu_HT-800To1200_TuneCP5_13TeV-madgraphMLM-pythia8/RunIIAutumn18NanoAODv7-Nano02A86/200708_081337/aa2a67e0e07f2a4301b0c928b695ff44558981eff2584f1b2bef8825/000000_000000/0000/tree_8.root
/store/group/phys_higgs/hbb/ntuples/VHbbPostNano/2018/V13/WJetsToLNu_HT-800To1200_TuneCP5_13TeV-madgraphMLM-pythia8/RunIIAutumn18NanoAODv7-Nano02A86/200708_081337/fab25996b8f8631a49194ad4874bb1ad35b0e732ad8645467fb8c3e6/000000_000000/0000/tree_9.root
/store/group/phys_higgs/hbb/ntuples/VHbbPostNano/2018/V13/WJetsToLNu_HT-800To1200_TuneCP5_13TeV-madgraphMLM-pythia8/RunIIAutumn18NanoAODv7-Nano02A86/200708_081337/42ba2449901a8d630b0b2d9d1d3144508e1896314ae62e02885a5979/000000_000000/0000/tree_10.root
/store/group/phys_higgs/hbb/ntuples/VHbbPostNano/2018/V13/WJetsToLNu_HT-800To1200_TuneCP5_13TeV-madgraphMLM-pythia8/RunIIAutumn18NanoAODv7-Nano02A86/200708_081337/c1e71f333510f7089d27470b7caac57d2f9394b8bd951e8e62e37a0a/000000_000000/0000/tree_11.root
/store/group/phys_higgs/hbb/ntuples/VHbbPostNano/2018/V13/WJetsToLNu_HT-800To1200_TuneCP5_13TeV-madgraphMLM-pythia8/RunIIAutumn18NanoAODv7-Nano02A86/200708_081337/3dc436cbbec4e8bf4a1ec9b020f2e16be575c50cf7be44af4f101767/000000_000000/0000/tree_12.root
/store/group/phys_higgs/hbb/ntuples/VHbbPostNano/2018/V13/WJetsToLNu_HT-800To1200_TuneCP5_13TeV-madgraphMLM-pythia8/RunIIAutumn18NanoAODv7-Nano02A86/200708_081337/fb77b635ef52c9b475188be6b06e97583cd16be5faa99e7ee60d9ae6/000000_000000/0000/tree_13.root
/store/group/phys_higgs/hbb/ntuples/VHbbPostNano/2018/V13/WJetsToLNu_HT-800To1200_TuneCP5_13TeV-madgraphMLM-pythia8/RunIIAutumn18NanoAODv7-Nano02A86/200708_081337/83ca5e3f73ffa243113de2a4e70d498e5fbd33298cee9d1ecd2036a9/000000_000000/0000/tree_14.root
/store/group/phys_higgs/hbb/ntuples/VHbbPostNano/2018/V13/WJetsToLNu_HT-800To1200_TuneCP5_13TeV-madgraphMLM-pythia8/RunIIAutumn18NanoAODv7-Nano02A86/200708_081337/b1dbf78fe56a479980f01b70f0eb4de09a2f8fb2f0467c3eb563df10/000000_000000/0000/tree_15.root
/store/group/phys_higgs/hbb/ntuples/VHbbPostNano/2018/V13/WJetsToLNu_HT-800To1200_TuneCP5_13TeV-madgraphMLM-pythia8/RunIIAutumn18NanoAODv7-Nano02A86/200708_081337/fdbfede8c788690f9b810dac14516449c6b096d4cf6fc1f63eeeaf26/000000_000000/0000/tree_16.root
/store/group/phys_higgs/hbb/ntuples/VHbbPostNano/2018/V13/WJetsToLNu_HT-800To1200_TuneCP5_13TeV-madgraphMLM-pythia8/RunIIAutumn18NanoAODv7-Nano02A86/200708_081337/6ef971a811a1598e1140ab82411d4f1456793f81e472541155c0a84d/000000_000000/0000/tree_17.root
/store/group/phys_higgs/hbb/ntuples/VHbbPostNano/2018/V13/WJetsToLNu_HT-800To1200_TuneCP5_13TeV-madgraphMLM-pythia8/RunIIAutumn18NanoAODv7-Nano02A86/200708_081337/5ae1be4d501c0c58ac3f1f445b5ff5efb7df163b5b88815d918b7e5a/000000_000000/0000/tree_18.root
/store/group/phys_higgs/hbb/ntuples/VHbbPostNano/2018/V13/WJetsToLNu_HT-800To1200_TuneCP5_13TeV-madgraphMLM-pythia8/RunIIAutumn18NanoAODv7-Nano02A86/200708_081337/1556b12ba7d1dbfd54d74cb7568d9b1a44a22e9e7e7c71dba787fd11/000000_000000/0000/tree_19.root