/store/group/phys_higgs/hbb/ntuples/VHbbPostNano/2018/V13/WJetsToLNu_HT-400To600_TuneCP5_13TeV-madgraphMLM-pythia8/RunIIAutumn18NanoAODv7-Nano02A84/200708_081201/a6bc8e800e23a529121e51166fd52e85e28690daf173e4c75a2ec4bd/000000_000000/0000/tree_0.root
/store/group/phys_higgs/hbb/ntuples/VHbbPostNano/2018/V13/WJetsToLNu_HT-400To600_TuneCP5_13TeV-madgraphMLM-pythia8/RunIIAutumn18NanoAODv7-Nano02A84/200708_081201/5ba600d32b85b3c678a3c06a07e34b62f64467498dbfc7a99af8335f/000000_000000/0000/tree_1.root
/store/group/phys_higgs/hbb/ntuples/VHbbPostNano/2018/V13/WJetsToLNu_HT-400To600_TuneCP5_13TeV-madgraphMLM-pythia8/RunIIAutumn18NanoAODv7-Nano02A84/200708_081201/1558e98463c16055eefb2d47bc4d8ad26d40276032492e8887735739/000000_000000/0000/tree_2.root
/store/group/phys_higgs/hbb/ntuples/VHbbPostNano/2018/V13/WJetsToLNu_HT-400To600_TuneCP5_13TeV-madgraphMLM-pythia8/RunIIAutumn18NanoAODv7-Nano02A84/200708_081201/7cff63f0402f64b2dc8efe5e550712d845d9ecd95dcd9f7bc42092b1/000000_000000/0000/tree_3.root
/store/group/phys_higgs/hbb/ntuples/VHbbPostNano/2018/V13/WJetsToLNu_HT-400To600_TuneCP5_13TeV-madgraphMLM-pythia8/RunIIAutumn18NanoAODv7-Nano02A84/200708_081201/4c8527fbdd1dae532c87e47a6fa458cce137f0282174aed9345da34b/000000_000000/0000/tree_4.root
/store/group/phys_higgs/hbb/ntuples/VHbbPostNano/2018/V13/WJetsToLNu_HT-400To600_TuneCP5_13TeV-madgraphMLM-pythia8/RunIIAutumn18NanoAODv7-Nano02A84/200708_081201/43c0eb9a9ef4e2c4d63c25ff03b10a4dbf38fcc9b8d2b09ad3f1b05e/000000_000000/0000/tree_5.root
/store/group/phys_higgs/hbb/ntuples/VHbbPostNano/2018/V13/WJetsToLNu_HT-400To600_TuneCP5_13TeV-madgraphMLM-pythia8/RunIIAutumn18NanoAODv7-Nano02A84/200708_081201/ec84892efb873c08551bae6d9431ac8352f79577b5e561769c7672da/000000_000000/0000/tree_6.root
/store/group/phys_higgs/hbb/ntuples/VHbbPostNano/2018/V13/WJetsToLNu_HT-400To600_TuneCP5_13TeV-madgraphMLM-pythia8/RunIIAutumn18NanoAODv7-Nano02A84/200708_081201/a7917dd4ef0223fa383a5aa02e61dc90358022c5940dae6912d47be9/000000_000000/0000/tree_7.root
/store/group/phys_higgs/hbb/ntuples/VHbbPostNano/2018/V13/WJetsToLNu_HT-400To600_TuneCP5_13TeV-madgraphMLM-pythia8/RunIIAutumn18NanoAODv7-Nano02A84/200708_081201/006584747aa054c4ba9ef4a3fdc8a71c36ab9f0670feb2542aa69580/000000_000000/0000/tree_8.root
/store/group/phys_higgs/hbb/ntuples/VHbbPostNano/2018/V13/WJetsToLNu_HT-400To600_TuneCP5_13TeV-madgraphMLM-pythia8/RunIIAutumn18NanoAODv7-Nano02A84/200708_081201/28026028a8ef0ffef3a90764c9b8694b4b2bb6ddda88b2e84eb2c99e/000000_000000/0000/tree_9.root
/store/group/phys_higgs/hbb/ntuples/VHbbPostNano/2018/V13/WJetsToLNu_HT-400To600_TuneCP5_13TeV-madgraphMLM-pythia8/RunIIAutumn18NanoAODv7-Nano02A84/200708_081201/36feaeeb2f63d8ebeaca31ce60affb6866feafdc4a8f2ab0ca845540/000000_000000/0000/tree_10.root
/store/group/phys_higgs/hbb/ntuples/VHbbPostNano/2018/V13/WJetsToLNu_HT-400To600_TuneCP5_13TeV-madgraphMLM-pythia8/RunIIAutumn18NanoAODv7-Nano02A84/200708_081201/8dc58fcbd5b7c772f9daadc702a00daef41a5059459c9f57233cae38/000000_000000/0000/tree_11.root
/store/group/phys_higgs/hbb/ntuples/VHbbPostNano/2018/V13/WJetsToLNu_HT-400To600_TuneCP5_13TeV-madgraphMLM-pythia8/RunIIAutumn18NanoAODv7-Nano02A84/200708_081201/fd423660f3c8adcb4683b606cb3cf236000e60ea8a4597fa8b68db4b/000000_000000/0000/tree_12.root