/store/group/phys_higgs/hbb/ntuples/VHbbPostNano/2018/V13/WJetsToLNu_HT-100To200_TuneCP5_13TeV-madgraphMLM-pythia8/RunIIAutumn18NanoAODv7-Nano02A84/200519_102134/a05dbdcbf1eedecec613a53e190f71e5d197ad2d8122875c007eb3d1/000000_000000/0000/tree_0.root
/store/group/phys_higgs/hbb/ntuples/VHbbPostNano/2018/V13/WJetsToLNu_HT-100To200_TuneCP5_13TeV-madgraphMLM-pythia8/RunIIAutumn18NanoAODv7-Nano02A84/200519_102134/3e405310435fcbb2b881f2dd0d503c5683e8bb4bf6089d7db9a8a2cd/000000_000000/0000/tree_1.root
/store/group/phys_higgs/hbb/ntuples/VHbbPostNano/2018/V13/WJetsToLNu_HT-100To200_TuneCP5_13TeV-madgraphMLM-pythia8/RunIIAutumn18NanoAODv7-Nano02A84/200519_102134/9d994e2836e02604624f762607344cc61487dffc8c57e2c77092012c/000000_000000/0000/tree_2.root
/store/group/phys_higgs/hbb/ntuples/VHbbPostNano/2018/V13/WJetsToLNu_HT-100To200_TuneCP5_13TeV-madgraphMLM-pythia8/RunIIAutumn18NanoAODv7-Nano02A84/200519_102134/7035799038c3ffee15239012380a0731f2d615c8fd62445ff1c9488b/000000_000000/0000/tree_3.root
/store/group/phys_higgs/hbb/ntuples/VHbbPostNano/2018/V13/WJetsToLNu_HT-100To200_TuneCP5_13TeV-madgraphMLM-pythia8/RunIIAutumn18NanoAODv7-Nano02A84/200519_102134/b8927fd0cb9ae1af72d0f0970cc5dc59de5c91b8913f56391b3367b8/000000_000000/0000/tree_4.root
/store/group/phys_higgs/hbb/ntuples/VHbbPostNano/2018/V13/WJetsToLNu_HT-100To200_TuneCP5_13TeV-madgraphMLM-pythia8/RunIIAutumn18NanoAODv7-Nano02A84/200519_102134/31c88db9f9c7c5b15c864dffa7b881bd5e7780657bf04b701ad001bb/000000_000000/0000/tree_5.root