/store/group/phys_higgs/hbb/ntuples/VHbbPostNano/2018/V12/DYJetsToLL_Pt-250To400_TuneCP5_13TeV-amcatnloFXFX-pythia8/46b025146bfb52ee5c5eaf268a88953f82dae289c2187b99656dcafb/000000_000000/0000/tree_0.root
/store/group/phys_higgs/hbb/ntuples/VHbbPostNano/2018/V12/DYJetsToLL_Pt-250To400_TuneCP5_13TeV-amcatnloFXFX-pythia8/da318ebd9f3ad85092e5158bd34845f16e95c7be4c753f36b311c612/000000_000000/0000/tree_1.root
/store/group/phys_higgs/hbb/ntuples/VHbbPostNano/2018/V12/DYJetsToLL_Pt-250To400_TuneCP5_13TeV-amcatnloFXFX-pythia8/bbf8e043ddf6cb27afaef8c8f6372f16ae4ff795f66a4f81546618b4/000000_000000/0000/tree_2.root
/store/group/phys_higgs/hbb/ntuples/VHbbPostNano/2018/V12/DYJetsToLL_Pt-250To400_TuneCP5_13TeV-amcatnloFXFX-pythia8/7964627641273ace6522da886f628fde6fe1549318aadb88d68ecf6a/000000_000000/0000/tree_3.root
/store/group/phys_higgs/hbb/ntuples/VHbbPostNano/2018/V12/DYJetsToLL_Pt-250To400_TuneCP5_13TeV-amcatnloFXFX-pythia8/87df5624bb8c968923c2f4edda93f3549e305df97a3e2ce99cd9eb34/000000_000000/0000/tree_4.root
/store/group/phys_higgs/hbb/ntuples/VHbbPostNano/2018/V12/DYJetsToLL_Pt-250To400_TuneCP5_13TeV-amcatnloFXFX-pythia8/5e59efa5b260b8017fb85989c0039cd76c7afcfd31cece7dbedee062/000000_000000/0000/tree_5.root
/store/group/phys_higgs/hbb/ntuples/VHbbPostNano/2018/V12/DYJetsToLL_Pt-250To400_TuneCP5_13TeV-amcatnloFXFX-pythia8/119010647e680001cf9c0117d54b99cba110b306569f37e125c8a275/000000_000000/0000/tree_6.root
/store/group/phys_higgs/hbb/ntuples/VHbbPostNano/2018/V12/DYJetsToLL_Pt-250To400_TuneCP5_13TeV-amcatnloFXFX-pythia8/c70d4cf2454acb1836688f1a1486f7c8bc92dc48a50e6a97c6c8389d/000000_000000/0000/tree_7.root
/store/group/phys_higgs/hbb/ntuples/VHbbPostNano/2018/V12/DYJetsToLL_Pt-250To400_TuneCP5_13TeV-amcatnloFXFX-pythia8/30490ef51e77f9b205b9c7251de366735a147dc3d6e7721eb99e98bd/000000_000000/0000/tree_8.root
/store/group/phys_higgs/hbb/ntuples/VHbbPostNano/2018/V12/DYJetsToLL_Pt-250To400_TuneCP5_13TeV-amcatnloFXFX-pythia8/2a5190c9dc1eb53821be24f3b84177c8a0107b8cd9825e0cf5ddf5fe/000000_000000/0000/tree_9.root
/store/group/phys_higgs/hbb/ntuples/VHbbPostNano/2018/V12/DYJetsToLL_Pt-250To400_TuneCP5_13TeV-amcatnloFXFX-pythia8/eb28f58b090d5cbbed4f207e5ef12737ef43e2e9334cdb01402f20c7/000000_000000/0000/tree_10.root
/store/group/phys_higgs/hbb/ntuples/VHbbPostNano/2018/V12/DYJetsToLL_Pt-250To400_TuneCP5_13TeV-amcatnloFXFX-pythia8/c6039b30373a6a6482432defc9f23e69f004d9de098368ea4741908a/000000_000000/0000/tree_11.root
/store/group/phys_higgs/hbb/ntuples/VHbbPostNano/2018/V12/DYJetsToLL_Pt-250To400_TuneCP5_13TeV-amcatnloFXFX-pythia8/dba46bb635a3a785e4d4707c5266343a264369f3db94f90bc4559002/000000_000000/0000/tree_12.root
/store/group/phys_higgs/hbb/ntuples/VHbbPostNano/2018/V12/DYJetsToLL_Pt-250To400_TuneCP5_13TeV-amcatnloFXFX-pythia8/447a2f33d45fdbc9b319e1dada43b204f8df179317adc1f77841f848/000000_000000/0000/tree_13.root
/store/group/phys_higgs/hbb/ntuples/VHbbPostNano/2018/V12/DYJetsToLL_Pt-250To400_TuneCP5_13TeV-amcatnloFXFX-pythia8/616c7bdda21e724d6e0e68a3708930a759fb81bca0f7760ab910f92a/000000_000000/0000/tree_14.root
/store/group/phys_higgs/hbb/ntuples/VHbbPostNano/2018/V12/DYJetsToLL_Pt-250To400_TuneCP5_13TeV-amcatnloFXFX-pythia8/21fbbd8945722233491a11c43c797d490b41216e5e4df9433ab000cc/000000_000000/0000/tree_15.root
/store/group/phys_higgs/hbb/ntuples/VHbbPostNano/2018/V12/DYJetsToLL_Pt-250To400_TuneCP5_13TeV-amcatnloFXFX-pythia8/92e5afc60dcf6c33cceef96768976aacf39bd8dd2183d397ff0ad372/000000_000000/0000/tree_16.root
/store/group/phys_higgs/hbb/ntuples/VHbbPostNano/2018/V12/DYJetsToLL_Pt-250To400_TuneCP5_13TeV-amcatnloFXFX-pythia8/55a3ace06f693adf17555019ec95080010ac4e5236699618c9805f76/000000_000000/0000/tree_17.root
/store/group/phys_higgs/hbb/ntuples/VHbbPostNano/2018/V12/DYJetsToLL_Pt-250To400_TuneCP5_13TeV-amcatnloFXFX-pythia8/11d44dd1eedbe5942ee62e15744beec3fe4e45d9e47ab59b9f3ac20c/000000_000000/0000/tree_18.root
/store/group/phys_higgs/hbb/ntuples/VHbbPostNano/2018/V12/DYJetsToLL_Pt-250To400_TuneCP5_13TeV-amcatnloFXFX-pythia8/b8d1c4a59de9de157a9cb9a5745ee36fabbb16454dadc7f873382078/000000_000000/0000/tree_19.root
/store/group/phys_higgs/hbb/ntuples/VHbbPostNano/2018/V12/DYJetsToLL_Pt-250To400_TuneCP5_13TeV-amcatnloFXFX-pythia8/3e0998ad5c56a715d035d6d09de86ed52100c3d3ef492c766855d2a5/000000_000000/0000/tree_20.root
/store/group/phys_higgs/hbb/ntuples/VHbbPostNano/2018/V12/DYJetsToLL_Pt-250To400_TuneCP5_13TeV-amcatnloFXFX-pythia8/34d1bb9a5b33a723486e714c7e98887f6cb765f426cc6c5d82592ec0/000000_000000/0000/tree_21.root
/store/group/phys_higgs/hbb/ntuples/VHbbPostNano/2018/V12/DYJetsToLL_Pt-250To400_TuneCP5_13TeV-amcatnloFXFX-pythia8/85a3f711155458f46b672d7a8877654e564c65c7e04e8ea3c558564c/000000_000000/0000/tree_22.root
/store/group/phys_higgs/hbb/ntuples/VHbbPostNano/2018/V12/DYJetsToLL_Pt-250To400_TuneCP5_13TeV-amcatnloFXFX-pythia8/430cbe6ef152d28462b064f809600ad1cc63a31c57436df984f2c2ab/000000_000000/0000/tree_23.root
/store/group/phys_higgs/hbb/ntuples/VHbbPostNano/2018/V12/DYJetsToLL_Pt-250To400_TuneCP5_13TeV-amcatnloFXFX-pythia8/968b42fc204b98feeb34e475ba492bf97e48c19a0815bd103733c2e7/000000_000000/0000/tree_24.root
/store/group/phys_higgs/hbb/ntuples/VHbbPostNano/2018/V12/DYJetsToLL_Pt-250To400_TuneCP5_13TeV-amcatnloFXFX-pythia8/37f55f07d965d133df2720e5cf757f720ce548785adb688c40d87e4e/000000_000000/0000/tree_25.root
/store/group/phys_higgs/hbb/ntuples/VHbbPostNano/2018/V12/DYJetsToLL_Pt-250To400_TuneCP5_13TeV-amcatnloFXFX-pythia8/14c6b295907772fbdbd1298b1b836d64585eb0a6c0d74add2b5fdd9c/000000_000000/0000/tree_26.root
/store/group/phys_higgs/hbb/ntuples/VHbbPostNano/2018/V12/DYJetsToLL_Pt-250To400_TuneCP5_13TeV-amcatnloFXFX-pythia8/d7f3bafaae9033b0a8d103306a8e6bbfb7ed5913d0b9f21f6655c4cb/000000_000000/0000/tree_27.root
/store/group/phys_higgs/hbb/ntuples/VHbbPostNano/2018/V12/DYJetsToLL_Pt-250To400_TuneCP5_13TeV-amcatnloFXFX-pythia8/12129b892035d1905a77fc89c8d89858de8fa51199dd9de35bf1d935/000000_000000/0000/tree_28.root