/store/group/phys_higgs/hbb/ntuples/VHbbPostNano/2018/V12/ggZH_HToBB_ZToNuNu_M125_13TeV_powheg_pythia8/46b71fa51f7ea0c8552564086d72398a3b652b5a96dcdc28a4ccbe7a/000000_000000/0000/tree_0.root
/store/group/phys_higgs/hbb/ntuples/VHbbPostNano/2018/V12/ggZH_HToBB_ZToNuNu_M125_13TeV_powheg_pythia8/ddf906cd8c0cc5cb5c2ca98267155f97a299de6fb36082250e658b64/000000_000000/0000/tree_1.root
/store/group/phys_higgs/hbb/ntuples/VHbbPostNano/2018/V12/ggZH_HToBB_ZToNuNu_M125_13TeV_powheg_pythia8/11de6f0a5448edfb4ca726f08f4dc6b7c521d3eee18f3ea25d8015b9/000000_000000/0000/tree_2.root
/store/group/phys_higgs/hbb/ntuples/VHbbPostNano/2018/V12/ggZH_HToBB_ZToNuNu_M125_13TeV_powheg_pythia8/ac24b7851c2d38f9b03d326ec2f47fb8f3d71567ab634ea412d191f5/000000_000000/0000/tree_3.root
/store/group/phys_higgs/hbb/ntuples/VHbbPostNano/2018/V12/ggZH_HToBB_ZToNuNu_M125_13TeV_powheg_pythia8/8d78947b01a839e5f4185fb23d8bb224e91a0aad21753d557627f521/000000_000000/0000/tree_4.root
/store/group/phys_higgs/hbb/ntuples/VHbbPostNano/2018/V12/ggZH_HToBB_ZToNuNu_M125_13TeV_powheg_pythia8/69e66d001516ca19bc1ecf06bef58b79cfab0f9fe925473756d58c01/000000_000000/0000/tree_5.root
/store/group/phys_higgs/hbb/ntuples/VHbbPostNano/2018/V12/ggZH_HToBB_ZToNuNu_M125_13TeV_powheg_pythia8/50107fe24edd7db9d46c498fb7a32142e299aec31abc140d820427b7/000000_000000/0000/tree_6.root
/store/group/phys_higgs/hbb/ntuples/VHbbPostNano/2018/V12/ggZH_HToBB_ZToNuNu_M125_13TeV_powheg_pythia8/49769c5fa1816fc4fab175ec5bc5ebe362d24cf2dc029528934d6f39/000000_000000/0000/tree_7.root