/store/group/phys_higgs/hbb/ntuples/VHbbPostNano/2018/V12/MET/f4d06022704480c58d2f39b4af3274c905a0d8c4400af77ea371a16e/000000_000000/0000/tree_0.root
/store/group/phys_higgs/hbb/ntuples/VHbbPostNano/2018/V12/MET/a475cae08ddc0fedc90b0f0f7673e1df95f4e66224c66e26142053da/000000_000000/0000/tree_1.root
/store/group/phys_higgs/hbb/ntuples/VHbbPostNano/2018/V12/MET/568faea4d43349dce735114a28b6d6efcb77ba78f69d0ba70bff59cf/000000_000000/0000/tree_2.root
/store/group/phys_higgs/hbb/ntuples/VHbbPostNano/2018/V12/MET/c3a7a90c65bdf3ccb7c69029ff599d1125166b479c02410d44234963/000000_000000/0000/tree_3.root
/store/group/phys_higgs/hbb/ntuples/VHbbPostNano/2018/V12/MET/7752eb0f59362f8697f1eea05494f323b1f196e812bc5cde4ee03f9c/000000_000000/0000/tree_4.root
/store/group/phys_higgs/hbb/ntuples/VHbbPostNano/2018/V12/MET/36cdadcb521cff11dc0c31747fc457679ce6e223f37f423dfb9dd4c5/000000_000000/0000/tree_5.root
/store/group/phys_higgs/hbb/ntuples/VHbbPostNano/2018/V12/MET/a279d96b2e1cd85a0905c43005fd00551c7f8a5e07ff07a67277a03b/000000_000000/0000/tree_6.root
/store/group/phys_higgs/hbb/ntuples/VHbbPostNano/2018/V12/MET/70510606c7733c090463d2c1d584a4e737a66e9e87bd1151cbcb0590/000000_000000/0000/tree_7.root
/store/group/phys_higgs/hbb/ntuples/VHbbPostNano/2018/V12/MET/3e39e2db9dcd85bb5d803bb3a9c9371668d167d85ed2741b72b478dc/000000_000000/0000/tree_8.root
/store/group/phys_higgs/hbb/ntuples/VHbbPostNano/2018/V12/MET/990959da0a4f2d7d9b168d8489284f68ff35ed329a42789684c8e5c9/000000_000000/0000/tree_9.root
/store/group/phys_higgs/hbb/ntuples/VHbbPostNano/2018/V12/MET/cb82337166eae24ebd57b0797c7444735ad914028a5968cdea8ae011/000000_000000/0000/tree_10.root
/store/group/phys_higgs/hbb/ntuples/VHbbPostNano/2018/V12/MET/3a93cd7a4384931f0d9d0a038320afd0428c53d2429b3c16cbb62382/000000_000000/0000/tree_11.root
/store/group/phys_higgs/hbb/ntuples/VHbbPostNano/2018/V12/MET/dea2597b634aafefd81883af663945cd9ae797e1c04e1399428615bd/000000_000000/0000/tree_12.root
/store/group/phys_higgs/hbb/ntuples/VHbbPostNano/2018/V12/MET/c27bb212cb729f95fd2625ac66021fb6f439f1eea4279fb6a7ab5251/000000_000000/0000/tree_13.root
/store/group/phys_higgs/hbb/ntuples/VHbbPostNano/2018/V12/MET/75cc48da5da1ae29d16cf3779e900dccd6dc71edd117f64af67af321/000000_000000/0000/tree_14.root
/store/group/phys_higgs/hbb/ntuples/VHbbPostNano/2018/V12/MET/8704da8ffd7988da4f34012de0f8d0720ec473fb38a0149375348a35/000000_000000/0000/tree_15.root
/store/group/phys_higgs/hbb/ntuples/VHbbPostNano/2018/V12/MET/2f8313d37de5fe3e6964afca8a3b34a39bbecd5ef971ab8b66e9ee07/000000_000000/0000/tree_16.root
/store/group/phys_higgs/hbb/ntuples/VHbbPostNano/2018/V12/MET/38484c0f96c35b4c39616a73f6335bb5512e17053d1be1f0b9442cf8/000000_000000/0000/tree_17.root
/store/group/phys_higgs/hbb/ntuples/VHbbPostNano/2018/V12/MET/73e3ffda339bdae09050e0a410b71e0135613d85c1995fe2e9125f0b/000000_000000/0000/tree_18.root
/store/group/phys_higgs/hbb/ntuples/VHbbPostNano/2018/V12/MET/f60364388a7f0493c4cd52738e4b8ce8b439d7ebfbd1f81e0d367931/000000_000000/0000/tree_19.root
/store/group/phys_higgs/hbb/ntuples/VHbbPostNano/2018/V12/MET/1374a056c8c11bed6f2401d9d796ab4c37e92b5864375723ef44a7e5/000000_000000/0000/tree_20.root
/store/group/phys_higgs/hbb/ntuples/VHbbPostNano/2018/V12/MET/19563023d40380d8c9574121ed9d7e705734f204d91a64eabbafab71/000000_000000/0000/tree_21.root
/store/group/phys_higgs/hbb/ntuples/VHbbPostNano/2018/V12/MET/b971fab84b795740e0735dce8b71c8638afd8d664af71c3e012649be/000000_000000/0000/tree_22.root
/store/group/phys_higgs/hbb/ntuples/VHbbPostNano/2018/V12/MET/b75fff4ad3e1906f092feeec7e4ee8f38b765ec792c3125179f85e17/000000_000000/0000/tree_23.root
/store/group/phys_higgs/hbb/ntuples/VHbbPostNano/2018/V12/MET/f516ae079d4bb2b2e45b3af7d6c4c8dd9a8c9a7cdba1d16aa99f197d/000000_000000/0000/tree_24.root
/store/group/phys_higgs/hbb/ntuples/VHbbPostNano/2018/V12/MET/a6507ba99e55a2ecb4ed52d5118f0369af7fee97e4636dd8c6a5ae53/000000_000000/0000/tree_25.root
/store/group/phys_higgs/hbb/ntuples/VHbbPostNano/2018/V12/MET/0c5da35a6ab3e39ec8eb398025e19d29d60dd0af8ef50c6409b4ffcc/000000_000000/0000/tree_26.root
/store/group/phys_higgs/hbb/ntuples/VHbbPostNano/2018/V12/MET/21153ba1551f598f0a03b287d32dfed12088391ebc19794d02ae5f09/000000_000000/0000/tree_27.root
/store/group/phys_higgs/hbb/ntuples/VHbbPostNano/2018/V12/MET/9ade27a7c773d229ce2efa2fefeb4d2c347b8c23ebc37494164187bd/000000_000000/0000/tree_28.root
/store/group/phys_higgs/hbb/ntuples/VHbbPostNano/2018/V12/MET/a0de554bae31251d3aa9278343ba5ac712b527655b6cda703eaa8913/000000_000000/0000/tree_29.root
/store/group/phys_higgs/hbb/ntuples/VHbbPostNano/2018/V12/MET/cb11f3b499fd194ab6ca714871299ab11d0134e109006567c1aee8eb/000000_000000/0000/tree_30.root
/store/group/phys_higgs/hbb/ntuples/VHbbPostNano/2018/V12/MET/00e253a6c430bc1f5af38f35103d2c47593101ba1253ad96b8b20341/000000_000000/0000/tree_31.root
/store/group/phys_higgs/hbb/ntuples/VHbbPostNano/2018/V12/MET/f46c88e8c304e7f2613bb74a8de47cc4407572a76bc910e8780a6bba/000000_000000/0000/tree_32.root
/store/group/phys_higgs/hbb/ntuples/VHbbPostNano/2018/V12/MET/5b51664f78e7a7a68a6f7745bbebab53a2d5a8db8d158834483f0cf0/000000_000000/0000/tree_33.root
/store/group/phys_higgs/hbb/ntuples/VHbbPostNano/2018/V12/MET/a198c01e5fcec9da69a27d69619414f83f6c72854827e767c907a69e/000000_000000/0000/tree_34.root
/store/group/phys_higgs/hbb/ntuples/VHbbPostNano/2018/V12/MET/a00abade2baa5db8d180ebbccf3348b9945c7dbfaa6640683f0b1788/000000_000000/0000/tree_35.root
/store/group/phys_higgs/hbb/ntuples/VHbbPostNano/2018/V12/MET/c15593bef07ec3566756579ab95dff5354ead4dcb7071e6184bab598/000000_000000/0000/tree_36.root
/store/group/phys_higgs/hbb/ntuples/VHbbPostNano/2018/V12/MET/1030da3b81fc5b0a9b08f09116edd6eabd7d8db957fb8f67bcf4973f/000000_000000/0000/tree_37.root
/store/group/phys_higgs/hbb/ntuples/VHbbPostNano/2018/V12/MET/ea2a0f26734ae79d57cf0d48089c47e971e219565b551666da3f467e/000000_000000/0000/tree_38.root
/store/group/phys_higgs/hbb/ntuples/VHbbPostNano/2018/V12/MET/06a407fc813b1149d2a5f1bedecbc423c76abc37ff116a67ca98babd/000000_000000/0000/tree_39.root
/store/group/phys_higgs/hbb/ntuples/VHbbPostNano/2018/V12/MET/78bffecbc0a05d73b0a496ea850ff956fd67827b0387cacd13151d1e/000000_000000/0000/tree_40.root
/store/group/phys_higgs/hbb/ntuples/VHbbPostNano/2018/V12/MET/c6224961375dc3444cf1115ef64f6517fa1d6951cfb0c10317566679/000000_000000/0000/tree_41.root
/store/group/phys_higgs/hbb/ntuples/VHbbPostNano/2018/V12/MET/1cc0aa1aea6fc619e8fa7543bb8545f85ef07b6ba4fd2e2050308a6b/000000_000000/0000/tree_42.root
/store/group/phys_higgs/hbb/ntuples/VHbbPostNano/2018/V12/MET/5487e0593494b5835e4705ccf86b91f212a657cd9d661f8764e598d8/000000_000000/0000/tree_43.root
/store/group/phys_higgs/hbb/ntuples/VHbbPostNano/2018/V12/MET/a3c5e040a26e4bd9dd023c77007dd939f9285352c54f0a57ef3081e8/000000_000000/0000/tree_44.root
/store/group/phys_higgs/hbb/ntuples/VHbbPostNano/2018/V12/MET/ac3ab608609bc8b8f75726a66ddf04d9fd50c39deb34446cc8e83037/000000_000000/0000/tree_45.root