/store/group/phys_higgs/hbb/ntuples/VHbbPostNano/2018/V12/WJetsToLNu_BGenFilter_Wpt-100to200_TuneCP5_13TeV-madgraphMLM-pythia8/6cc1aa527146f089ca8e1b76f0b38727da842247b4c8a1862469aee1/000000_000000/0000/tree_0.root
/store/group/phys_higgs/hbb/ntuples/VHbbPostNano/2018/V12/WJetsToLNu_BGenFilter_Wpt-100to200_TuneCP5_13TeV-madgraphMLM-pythia8/143ad0be6fa993fcddb17cfe00061566bcd2bb4ce866d1edab111850/000000_000000/0000/tree_1.root
/store/group/phys_higgs/hbb/ntuples/VHbbPostNano/2018/V12/WJetsToLNu_BGenFilter_Wpt-100to200_TuneCP5_13TeV-madgraphMLM-pythia8/83b9ae6ddfb6c2cf628e40047bdcd602c5a1126c0e79dddfe0d7bad2/000000_000000/0000/tree_2.root
/store/group/phys_higgs/hbb/ntuples/VHbbPostNano/2018/V12/WJetsToLNu_BGenFilter_Wpt-100to200_TuneCP5_13TeV-madgraphMLM-pythia8/b52fb2e092e86dcdfb1224756f25de062ac2e8a4bb7575a3c6ce857f/000000_000000/0000/tree_3.root
/store/group/phys_higgs/hbb/ntuples/VHbbPostNano/2018/V12/WJetsToLNu_BGenFilter_Wpt-100to200_TuneCP5_13TeV-madgraphMLM-pythia8/96a92e5534c387aa8afd009083402a5789f035af9d36f7f697fb8c61/000000_000000/0000/tree_4.root
/store/group/phys_higgs/hbb/ntuples/VHbbPostNano/2018/V12/WJetsToLNu_BGenFilter_Wpt-100to200_TuneCP5_13TeV-madgraphMLM-pythia8/ec2f45a779e3716220c1636d2ede34a13b90e0872ae23347c6e31516/000000_000000/0000/tree_5.root
/store/group/phys_higgs/hbb/ntuples/VHbbPostNano/2018/V12/WJetsToLNu_BGenFilter_Wpt-100to200_TuneCP5_13TeV-madgraphMLM-pythia8/e4891a3a34964b974d6b213630e8496326b03501530bde2af82e900b/000000_000000/0000/tree_6.root
/store/group/phys_higgs/hbb/ntuples/VHbbPostNano/2018/V12/WJetsToLNu_BGenFilter_Wpt-100to200_TuneCP5_13TeV-madgraphMLM-pythia8/6254d12fabbffbe5b59a10e1d490c78817c62f390aac16d29c1ca9fe/000000_000000/0000/tree_7.root
/store/group/phys_higgs/hbb/ntuples/VHbbPostNano/2018/V12/WJetsToLNu_BGenFilter_Wpt-100to200_TuneCP5_13TeV-madgraphMLM-pythia8/61faa2762e90159f4085ad8a07e38c463fc3aa0884677c4f399777de/000000_000000/0000/tree_8.root
/store/group/phys_higgs/hbb/ntuples/VHbbPostNano/2018/V12/WJetsToLNu_BGenFilter_Wpt-100to200_TuneCP5_13TeV-madgraphMLM-pythia8/d8f123168766f718ae5746a10cca2d3820a8f1a7b73b009f05387468/000000_000000/0000/tree_9.root
/store/group/phys_higgs/hbb/ntuples/VHbbPostNano/2018/V12/WJetsToLNu_BGenFilter_Wpt-100to200_TuneCP5_13TeV-madgraphMLM-pythia8/c1fe800880bf8ad1b83410e0dcbe61e8e65eb3a5672bd4967353335f/000000_000000/0000/tree_10.root
/store/group/phys_higgs/hbb/ntuples/VHbbPostNano/2018/V12/WJetsToLNu_BGenFilter_Wpt-100to200_TuneCP5_13TeV-madgraphMLM-pythia8/2ca0e1a86b3d6c3bb8360095208780f1d59bc8efd77701a2548cddfc/000000_000000/0000/tree_11.root
/store/group/phys_higgs/hbb/ntuples/VHbbPostNano/2018/V12/WJetsToLNu_BGenFilter_Wpt-100to200_TuneCP5_13TeV-madgraphMLM-pythia8/0530964caa3d1c16d7a15158a27f77aa6be854ca6ef702e6a743fb0b/000000_000000/0000/tree_12.root