/store/group/phys_higgs/hbb/ntuples/VHbbPostNano/2018/V12/WJetsToLNu_HT-800To1200_TuneCP5_13TeV-madgraphMLM-pythia8/d673f90e29588eb4790694ce4a59d25c3c65156af940713926aa83ac/000000_000000/0000/tree_0.root
/store/group/phys_higgs/hbb/ntuples/VHbbPostNano/2018/V12/WJetsToLNu_HT-800To1200_TuneCP5_13TeV-madgraphMLM-pythia8/b229502fc42e8cd6ef79eeacb4067112e422f06c3fbdbb1d65d08499/000000_000000/0000/tree_1.root
/store/group/phys_higgs/hbb/ntuples/VHbbPostNano/2018/V12/WJetsToLNu_HT-800To1200_TuneCP5_13TeV-madgraphMLM-pythia8/9946f8cb265a43a1646980b26caefd6e72c525f82870630df1a70997/000000_000000/0000/tree_2.root
/store/group/phys_higgs/hbb/ntuples/VHbbPostNano/2018/V12/WJetsToLNu_HT-800To1200_TuneCP5_13TeV-madgraphMLM-pythia8/6e783d7c30601aa5c964ae033b9aa4ecd0d2f8af9a69ddee03d5bfd3/000000_000000/0000/tree_3.root
/store/group/phys_higgs/hbb/ntuples/VHbbPostNano/2018/V12/WJetsToLNu_HT-800To1200_TuneCP5_13TeV-madgraphMLM-pythia8/6615f4f770e2c2759dbf7d1e989cce7639cda1a6f48f95e4bbb31fa8/000000_000000/0000/tree_4.root
/store/group/phys_higgs/hbb/ntuples/VHbbPostNano/2018/V12/WJetsToLNu_HT-800To1200_TuneCP5_13TeV-madgraphMLM-pythia8/962686e8dce39e598a4806881feba40af25e236da8a74c381a997be4/000000_000000/0000/tree_5.root
/store/group/phys_higgs/hbb/ntuples/VHbbPostNano/2018/V12/WJetsToLNu_HT-800To1200_TuneCP5_13TeV-madgraphMLM-pythia8/316361b90ef6c46b41f21f9c4298201bd0f5226957160aae5293fce3/000000_000000/0000/tree_6.root
/store/group/phys_higgs/hbb/ntuples/VHbbPostNano/2018/V12/WJetsToLNu_HT-800To1200_TuneCP5_13TeV-madgraphMLM-pythia8/087ad80b9e1bc2b54d90393d4dbae1c24e568f9e7e7a19a2b5e277b6/000000_000000/0000/tree_7.root
/store/group/phys_higgs/hbb/ntuples/VHbbPostNano/2018/V12/WJetsToLNu_HT-800To1200_TuneCP5_13TeV-madgraphMLM-pythia8/03a6481869f6a3435b1987f4beeeff2e19c3cfb019f5c104d23928be/000000_000000/0000/tree_8.root
/store/group/phys_higgs/hbb/ntuples/VHbbPostNano/2018/V12/WJetsToLNu_HT-800To1200_TuneCP5_13TeV-madgraphMLM-pythia8/e213eb0a058bb7ff66fe4a3abe05ab51db3fe12ed3f170aacb1cc1cb/000000_000000/0000/tree_9.root
/store/group/phys_higgs/hbb/ntuples/VHbbPostNano/2018/V12/WJetsToLNu_HT-800To1200_TuneCP5_13TeV-madgraphMLM-pythia8/818d73594ddc01bb6d3b96e5c1106bf8b49e7613d954c48e48c4a0e5/000000_000000/0000/tree_10.root
/store/group/phys_higgs/hbb/ntuples/VHbbPostNano/2018/V12/WJetsToLNu_HT-800To1200_TuneCP5_13TeV-madgraphMLM-pythia8/6c4e3ceea48985157a188c03a1012fcb8eb53254914edb7f020338e2/000000_000000/0000/tree_11.root
/store/group/phys_higgs/hbb/ntuples/VHbbPostNano/2018/V12/WJetsToLNu_HT-800To1200_TuneCP5_13TeV-madgraphMLM-pythia8/e24b0cfb835c399a126fe75b251196f86bad0b01b62b681f89a87d40/000000_000000/0000/tree_12.root
/store/group/phys_higgs/hbb/ntuples/VHbbPostNano/2018/V12/WJetsToLNu_HT-800To1200_TuneCP5_13TeV-madgraphMLM-pythia8/f36bef78dbcb2cf0984e17e57f89e48540395d34b4419f0375b4df59/000000_000000/0000/tree_13.root
/store/group/phys_higgs/hbb/ntuples/VHbbPostNano/2018/V12/WJetsToLNu_HT-800To1200_TuneCP5_13TeV-madgraphMLM-pythia8/23a2f8bbcaf98360c211ac2b6e564324caee38af28da4d0520c98f59/000000_000000/0000/tree_14.root
/store/group/phys_higgs/hbb/ntuples/VHbbPostNano/2018/V12/WJetsToLNu_HT-800To1200_TuneCP5_13TeV-madgraphMLM-pythia8/81053c92d744516d75d4bf28ab00023b2d5d32b4a0a7b795e166b383/000000_000000/0000/tree_15.root
/store/group/phys_higgs/hbb/ntuples/VHbbPostNano/2018/V12/WJetsToLNu_HT-800To1200_TuneCP5_13TeV-madgraphMLM-pythia8/47b89df3adca7ba5bedd702b07a3f8ce286aea54625ccb2780f2bedc/000000_000000/0000/tree_16.root
/store/group/phys_higgs/hbb/ntuples/VHbbPostNano/2018/V12/WJetsToLNu_HT-800To1200_TuneCP5_13TeV-madgraphMLM-pythia8/179bf64b09e6b07450b3ba6bde809db46c062ad647eebd3962fc8fd0/000000_000000/0000/tree_17.root
/store/group/phys_higgs/hbb/ntuples/VHbbPostNano/2018/V12/WJetsToLNu_HT-800To1200_TuneCP5_13TeV-madgraphMLM-pythia8/cfad42fb2ec65e5adc486c71e23861486aad790e836149879ba78c9c/000000_000000/0000/tree_18.root
/store/group/phys_higgs/hbb/ntuples/VHbbPostNano/2018/V12/WJetsToLNu_HT-800To1200_TuneCP5_13TeV-madgraphMLM-pythia8/e41052c984a9f80ef2dff6331702cb4b5b23f07643078f69f176ce97/000000_000000/0000/tree_19.root
/store/group/phys_higgs/hbb/ntuples/VHbbPostNano/2018/V12/WJetsToLNu_HT-800To1200_TuneCP5_13TeV-madgraphMLM-pythia8/54876073b39a7fd8a7fa26cda3eeb168a270d6cc8862c2a38a5517ea/000000_000000/0000/tree_20.root
/store/group/phys_higgs/hbb/ntuples/VHbbPostNano/2018/V12/WJetsToLNu_HT-800To1200_TuneCP5_13TeV-madgraphMLM-pythia8/db766695cd058bc7457033c8abb37dac0063a9a26874dd534d6731ad/000000_000000/0000/tree_21.root
/store/group/phys_higgs/hbb/ntuples/VHbbPostNano/2018/V12/WJetsToLNu_HT-800To1200_TuneCP5_13TeV-madgraphMLM-pythia8/1172af7cadeab17b5db375defad39d1fe0cb291afadab39182317b46/000000_000000/0000/tree_22.root
/store/group/phys_higgs/hbb/ntuples/VHbbPostNano/2018/V12/WJetsToLNu_HT-800To1200_TuneCP5_13TeV-madgraphMLM-pythia8/acb98bb77284cf889efe5faf0451be5a033cbd360fa4766f3ba4e6b4/000000_000000/0000/tree_23.root
/store/group/phys_higgs/hbb/ntuples/VHbbPostNano/2018/V12/WJetsToLNu_HT-800To1200_TuneCP5_13TeV-madgraphMLM-pythia8/d26815b4b6826b5edffa59f156b28907e07f0801a2f32cc09d378ed8/000000_000000/0000/tree_24.root
/store/group/phys_higgs/hbb/ntuples/VHbbPostNano/2018/V12/WJetsToLNu_HT-800To1200_TuneCP5_13TeV-madgraphMLM-pythia8/3345a53ee528fbe0768cf4ca05a0aeb4b08da4bb4b3aaed2b22f5dd4/000000_000000/0000/tree_25.root
/store/group/phys_higgs/hbb/ntuples/VHbbPostNano/2018/V12/WJetsToLNu_HT-800To1200_TuneCP5_13TeV-madgraphMLM-pythia8/0ab4020fe98be14ec3b54f0280192de7e33d117527eebede55a5096c/000000_000000/0000/tree_26.root
/store/group/phys_higgs/hbb/ntuples/VHbbPostNano/2018/V12/WJetsToLNu_HT-800To1200_TuneCP5_13TeV-madgraphMLM-pythia8/ac8a183de07d41d89e32d85bc830d95dc507bd29508ef519ed18f378/000000_000000/0000/tree_27.root
/store/group/phys_higgs/hbb/ntuples/VHbbPostNano/2018/V12/WJetsToLNu_HT-800To1200_TuneCP5_13TeV-madgraphMLM-pythia8/0af23260eb00affb8e8da0332dc4c6d1dbb5ca853a72529939bed2fe/000000_000000/0000/tree_28.root
/store/group/phys_higgs/hbb/ntuples/VHbbPostNano/2018/V12/WJetsToLNu_HT-800To1200_TuneCP5_13TeV-madgraphMLM-pythia8/ffb7af1f4089fac7ae39c51cb0ac6a43982928f56caed72d5eb09ea9/000000_000000/0000/tree_29.root
/store/group/phys_higgs/hbb/ntuples/VHbbPostNano/2018/V12/WJetsToLNu_HT-800To1200_TuneCP5_13TeV-madgraphMLM-pythia8/f42f1c15e4a6a56f2735ab64c38cb07a342813f88689b4a3af1646f4/000000_000000/0000/tree_30.root
/store/group/phys_higgs/hbb/ntuples/VHbbPostNano/2018/V12/WJetsToLNu_HT-800To1200_TuneCP5_13TeV-madgraphMLM-pythia8/858f40594d062179eb67916f4c5d51694ab23011275bf2b27561b64f/000000_000000/0000/tree_31.root
/store/group/phys_higgs/hbb/ntuples/VHbbPostNano/2018/V12/WJetsToLNu_HT-800To1200_TuneCP5_13TeV-madgraphMLM-pythia8/969e1dd5d84a5bb8f830090552689e0c8ebcb8eaf5dce5dc26b06d20/000000_000000/0000/tree_32.root
/store/group/phys_higgs/hbb/ntuples/VHbbPostNano/2018/V12/WJetsToLNu_HT-800To1200_TuneCP5_13TeV-madgraphMLM-pythia8/8a23d5ca5425db70e6997527246742ee50725aba16913949bc5fc68f/000000_000000/0000/tree_33.root
/store/group/phys_higgs/hbb/ntuples/VHbbPostNano/2018/V12/WJetsToLNu_HT-800To1200_TuneCP5_13TeV-madgraphMLM-pythia8/e344c8d484cdfb5f5767ad613cc031ded3cfaed9b1d0c5023bd3d790/000000_000000/0000/tree_34.root
/store/group/phys_higgs/hbb/ntuples/VHbbPostNano/2018/V12/WJetsToLNu_HT-800To1200_TuneCP5_13TeV-madgraphMLM-pythia8/e3ed6d275083e6afc2e06ad48a3353605e0d702a4f4a83fa016f6399/000000_000000/0000/tree_35.root