/store/group/phys_higgs/hbb/ntuples/VHbbPostNano/2018/V12/WJetsToLNu_HT-600To800_TuneCP5_13TeV-madgraphMLM-pythia8/625e300d3d3cf004218de867a29d8670163fda4fb7e1debd4bf3e794/000000_000000/0000/tree_0.root
/store/group/phys_higgs/hbb/ntuples/VHbbPostNano/2018/V12/WJetsToLNu_HT-600To800_TuneCP5_13TeV-madgraphMLM-pythia8/297223af7f8e93a867d2ffa16e01011f3a3243c5c7299a006dff3992/000000_000000/0000/tree_1.root
/store/group/phys_higgs/hbb/ntuples/VHbbPostNano/2018/V12/WJetsToLNu_HT-600To800_TuneCP5_13TeV-madgraphMLM-pythia8/59b91e3f21a3bd25277b0f5b4c9288621949ace3a815edd59c64945f/000000_000000/0000/tree_2.root
/store/group/phys_higgs/hbb/ntuples/VHbbPostNano/2018/V12/WJetsToLNu_HT-600To800_TuneCP5_13TeV-madgraphMLM-pythia8/3633a0afee9ef4ab023d3f4382e0e35f01e938c1fe5d5df0ac192605/000000_000000/0000/tree_3.root
/store/group/phys_higgs/hbb/ntuples/VHbbPostNano/2018/V12/WJetsToLNu_HT-600To800_TuneCP5_13TeV-madgraphMLM-pythia8/9dee5130a13b5e162526a1011a0a63c2f67ba614144b31f8322ba817/000000_000000/0000/tree_4.root
/store/group/phys_higgs/hbb/ntuples/VHbbPostNano/2018/V12/WJetsToLNu_HT-600To800_TuneCP5_13TeV-madgraphMLM-pythia8/791b4f4c1954ad009cdbaf345d6c22d946e2c128e9014105a2a17346/000000_000000/0000/tree_5.root
/store/group/phys_higgs/hbb/ntuples/VHbbPostNano/2018/V12/WJetsToLNu_HT-600To800_TuneCP5_13TeV-madgraphMLM-pythia8/26c41aeae7b5557a8ddb40a0979446ff6b3a9c13b3d5b9e93d4658df/000000_000000/0000/tree_6.root
/store/group/phys_higgs/hbb/ntuples/VHbbPostNano/2018/V12/WJetsToLNu_HT-600To800_TuneCP5_13TeV-madgraphMLM-pythia8/1da67785a218045cc9d0e0deb623f0a63ac615ed098a71d17a448562/000000_000000/0000/tree_7.root
/store/group/phys_higgs/hbb/ntuples/VHbbPostNano/2018/V12/WJetsToLNu_HT-600To800_TuneCP5_13TeV-madgraphMLM-pythia8/4744201d69f59ad14f4a6db094f5647a63f2f55db217cc73264673a4/000000_000000/0000/tree_8.root
/store/group/phys_higgs/hbb/ntuples/VHbbPostNano/2018/V12/WJetsToLNu_HT-600To800_TuneCP5_13TeV-madgraphMLM-pythia8/ae4ab78fdd875de0c7d2783731f9a6b0648504ef2131432022377b94/000000_000000/0000/tree_9.root
/store/group/phys_higgs/hbb/ntuples/VHbbPostNano/2018/V12/WJetsToLNu_HT-600To800_TuneCP5_13TeV-madgraphMLM-pythia8/04151c8d5b603d1cb5c39c2cab3fa56f42a2a4d8ec43cff0d219b25b/000000_000000/0000/tree_10.root
/store/group/phys_higgs/hbb/ntuples/VHbbPostNano/2018/V12/WJetsToLNu_HT-600To800_TuneCP5_13TeV-madgraphMLM-pythia8/79034601d715b1bdf644f8fefcb168be0ff508fb0469b6752b21ce36/000000_000000/0000/tree_11.root
/store/group/phys_higgs/hbb/ntuples/VHbbPostNano/2018/V12/WJetsToLNu_HT-600To800_TuneCP5_13TeV-madgraphMLM-pythia8/7e46233a2b82e761847e41db51c16a2e703d481fb43b4dc040a500df/000000_000000/0000/tree_12.root
/store/group/phys_higgs/hbb/ntuples/VHbbPostNano/2018/V12/WJetsToLNu_HT-600To800_TuneCP5_13TeV-madgraphMLM-pythia8/530dab2026a44a99dde39bbba2f30743390b07ebb239884a866ff39f/000000_000000/0000/tree_13.root
/store/group/phys_higgs/hbb/ntuples/VHbbPostNano/2018/V12/WJetsToLNu_HT-600To800_TuneCP5_13TeV-madgraphMLM-pythia8/d05617c20281164a9c188c36ffd1253c329e6b33db97a57afcfaebcb/000000_000000/0000/tree_14.root
/store/group/phys_higgs/hbb/ntuples/VHbbPostNano/2018/V12/WJetsToLNu_HT-600To800_TuneCP5_13TeV-madgraphMLM-pythia8/f3983a19976b11f8fcdf0da733696a85211da0d13003745d12c8cda7/000000_000000/0000/tree_15.root
/store/group/phys_higgs/hbb/ntuples/VHbbPostNano/2018/V12/WJetsToLNu_HT-600To800_TuneCP5_13TeV-madgraphMLM-pythia8/7789734c65bb3fd6b87f548ae5a2ac48331caa5b1c2a59f60c476aa8/000000_000000/0000/tree_16.root
/store/group/phys_higgs/hbb/ntuples/VHbbPostNano/2018/V12/WJetsToLNu_HT-600To800_TuneCP5_13TeV-madgraphMLM-pythia8/0cd1b22866dd9d1796bb81208f9888b96a41cca74aa93be2ee8169f8/000000_000000/0000/tree_17.root
/store/group/phys_higgs/hbb/ntuples/VHbbPostNano/2018/V12/WJetsToLNu_HT-600To800_TuneCP5_13TeV-madgraphMLM-pythia8/e94dbfd7ec8dab75e570bb77db7597c7a4893603707b2cd08ac2410e/000000_000000/0000/tree_18.root
/store/group/phys_higgs/hbb/ntuples/VHbbPostNano/2018/V12/WJetsToLNu_HT-600To800_TuneCP5_13TeV-madgraphMLM-pythia8/3eed7bdb1ce02daf5f088151c68fa2f0e355c087db3adc145b43aa98/000000_000000/0000/tree_19.root
/store/group/phys_higgs/hbb/ntuples/VHbbPostNano/2018/V12/WJetsToLNu_HT-600To800_TuneCP5_13TeV-madgraphMLM-pythia8/5353c99cd73537f88394873d706f8ecf8b8476dc60649d492c54950c/000000_000000/0000/tree_20.root
/store/group/phys_higgs/hbb/ntuples/VHbbPostNano/2018/V12/WJetsToLNu_HT-600To800_TuneCP5_13TeV-madgraphMLM-pythia8/1eac090a90d75dfa4d5dc54056399a71a1299d1c673e68e94ef7be7c/000000_000000/0000/tree_21.root
/store/group/phys_higgs/hbb/ntuples/VHbbPostNano/2018/V12/WJetsToLNu_HT-600To800_TuneCP5_13TeV-madgraphMLM-pythia8/e16bcd29c732f7b1cad6c822ab835a3a55013ae58365f5cdaf909c82/000000_000000/0000/tree_22.root
/store/group/phys_higgs/hbb/ntuples/VHbbPostNano/2018/V12/WJetsToLNu_HT-600To800_TuneCP5_13TeV-madgraphMLM-pythia8/f27b0043ccc7052d50f329746b5fe8f56e0ff36f55d78a2f60d96949/000000_000000/0000/tree_23.root
/store/group/phys_higgs/hbb/ntuples/VHbbPostNano/2018/V12/WJetsToLNu_HT-600To800_TuneCP5_13TeV-madgraphMLM-pythia8/f93b26f563ee418bc61a3452d41b4feaf37d153d9e7a9b56b7ff8b2f/000000_000000/0000/tree_24.root