/store/group/phys_higgs/hbb/ntuples/VHbbPostNano/2018/V12/WJetsToLNu_Pt-600ToInf_TuneCP5_13TeV-amcatnloFXFX-pythia8/3f7252b4c5c19ea23cb1d7d14c8fe5ec5834c27ec7237596aa12f755/000000_000000/0000/tree_0.root
/store/group/phys_higgs/hbb/ntuples/VHbbPostNano/2018/V12/WJetsToLNu_Pt-600ToInf_TuneCP5_13TeV-amcatnloFXFX-pythia8/30eb07b75d83838d94f75804e5d3d4ca1ab8c8e1964f90e9e1d571b4/000000_000000/0000/tree_1.root
/store/group/phys_higgs/hbb/ntuples/VHbbPostNano/2018/V12/WJetsToLNu_Pt-600ToInf_TuneCP5_13TeV-amcatnloFXFX-pythia8/b8cdf77986f71fc3749ec0ff818529c87707db77871820bf6a5a8370/000000_000000/0000/tree_2.root
/store/group/phys_higgs/hbb/ntuples/VHbbPostNano/2018/V12/WJetsToLNu_Pt-600ToInf_TuneCP5_13TeV-amcatnloFXFX-pythia8/b1f77c836dcbea52912b18cf5f18b6d4294b031b21c0212afb56206a/000000_000000/0000/tree_3.root
/store/group/phys_higgs/hbb/ntuples/VHbbPostNano/2018/V12/WJetsToLNu_Pt-600ToInf_TuneCP5_13TeV-amcatnloFXFX-pythia8/a0764d73d3cb70541a3e5e12541aa35e62ce76dfe1e09de6a5287c89/000000_000000/0000/tree_4.root
/store/group/phys_higgs/hbb/ntuples/VHbbPostNano/2018/V12/WJetsToLNu_Pt-600ToInf_TuneCP5_13TeV-amcatnloFXFX-pythia8/9c3789b9296740e4065735da938ff24afd75258d3eeff10e1355276b/000000_000000/0000/tree_5.root
/store/group/phys_higgs/hbb/ntuples/VHbbPostNano/2018/V12/WJetsToLNu_Pt-600ToInf_TuneCP5_13TeV-amcatnloFXFX-pythia8/6db6a28b7761d2516a15ac0cfde9773351c730b85e8eae6ce37a816d/000000_000000/0000/tree_6.root