/store/group/phys_higgs/hbb/ntuples/VHbbPostNano/2018/V12/ZJetsToNuNu_BGenFilter_Zpt-100to200_TuneCP5_13TeV-madgraphMLM-pythia8/0fe994ad5c19f5e1c1fbd755aa074d153531ab4347ba16c30d3e49c1/000000_000000/0000/tree_0.root
/store/group/phys_higgs/hbb/ntuples/VHbbPostNano/2018/V12/ZJetsToNuNu_BGenFilter_Zpt-100to200_TuneCP5_13TeV-madgraphMLM-pythia8/8809a2fabe73197987f70c87cf90b098040dfca5ccdf1730e37e6af9/000000_000000/0000/tree_1.root
/store/group/phys_higgs/hbb/ntuples/VHbbPostNano/2018/V12/ZJetsToNuNu_BGenFilter_Zpt-100to200_TuneCP5_13TeV-madgraphMLM-pythia8/6fb4057f0bfc1622eee1dd82dfc0dc93d6ca4c676c77d71d77bb0a20/000000_000000/0000/tree_2.root
/store/group/phys_higgs/hbb/ntuples/VHbbPostNano/2018/V12/ZJetsToNuNu_BGenFilter_Zpt-100to200_TuneCP5_13TeV-madgraphMLM-pythia8/452e7019f53500043c131589e0456f531ba5a875220339468af31b31/000000_000000/0000/tree_3.root
/store/group/phys_higgs/hbb/ntuples/VHbbPostNano/2018/V12/ZJetsToNuNu_BGenFilter_Zpt-100to200_TuneCP5_13TeV-madgraphMLM-pythia8/feb1a3f4c5062e52281db7fe3f3e31dd50f083c492127cd41e0be106/000000_000000/0000/tree_4.root
/store/group/phys_higgs/hbb/ntuples/VHbbPostNano/2018/V12/ZJetsToNuNu_BGenFilter_Zpt-100to200_TuneCP5_13TeV-madgraphMLM-pythia8/ca1f37f6e0427805316ec1541bcdaea22d1e83ae8b25fb66e7f3b281/000000_000000/0000/tree_5.root
/store/group/phys_higgs/hbb/ntuples/VHbbPostNano/2018/V12/ZJetsToNuNu_BGenFilter_Zpt-100to200_TuneCP5_13TeV-madgraphMLM-pythia8/352531b0c9b3bbdc2ebdf8389f99ea8f1fc791b4432f34c061470044/000000_000000/0000/tree_6.root
/store/group/phys_higgs/hbb/ntuples/VHbbPostNano/2018/V12/ZJetsToNuNu_BGenFilter_Zpt-100to200_TuneCP5_13TeV-madgraphMLM-pythia8/b7d430aa5b1089595d4d3413a4009c6ec43ce1c8942b565c27e57ebc/000000_000000/0000/tree_7.root
/store/group/phys_higgs/hbb/ntuples/VHbbPostNano/2018/V12/ZJetsToNuNu_BGenFilter_Zpt-100to200_TuneCP5_13TeV-madgraphMLM-pythia8/e0e9d0838b1809efe09bc366fb95be62013a8e32a9abb25c8047a98f/000000_000000/0000/tree_8.root