52	838468104	16124386	1	ZHJet_HToBB_ZToLL_M-125_TuneCP5_SMEFTsim_topU3l_13TeV-madgraphMLM-pythia8
130	4204687565	32343750	1	WHJet_HToBB_WToLNu_M-125_TuneCP5_SMEFTsim_topU3l_13TeV-madgraphMLM-pythia8
103	37333505	362461	1	ZHJet_HToBB_ZToNuNu_M-125_TuneCP5_SMEFTsim_topU3l_13TeV-madgraphMLM-pythia8
