/eos/cms/store/group/phys_higgs/hbb/ntuples/VHbbPostNano/UL/EFT/2018/V1/DYJetsToLL_M-50_TuneCP5_13TeV-amcatnloFXFX-pythia8/bca2317fca139645a1774df5ac43f48db80db4ea3188560b92475288/000000_000000/0000/tree_0.root
/eos/cms/store/group/phys_higgs/hbb/ntuples/VHbbPostNano/UL/EFT/2018/V1/DYJetsToLL_M-50_TuneCP5_13TeV-amcatnloFXFX-pythia8/540fde9e73630f3a3df3ac81904f101c6ffc745642d00f28730d70e8/000000_000000/0000/tree_1.root
/eos/cms/store/group/phys_higgs/hbb/ntuples/VHbbPostNano/UL/EFT/2018/V1/DYJetsToLL_M-50_TuneCP5_13TeV-amcatnloFXFX-pythia8/446510f3ea316dadadbed24cfb70874e1a4137c96c9c6a368294cd69/000000_000000/0000/tree_2.root
/eos/cms/store/group/phys_higgs/hbb/ntuples/VHbbPostNano/UL/EFT/2018/V1/DYJetsToLL_M-50_TuneCP5_13TeV-amcatnloFXFX-pythia8/8f5a6811edeb1253fe7957dbeb5a6fbcccc10c89e249873c613400e5/000000_000000/0000/tree_3.root
/eos/cms/store/group/phys_higgs/hbb/ntuples/VHbbPostNano/UL/EFT/2018/V1/DYJetsToLL_M-50_TuneCP5_13TeV-amcatnloFXFX-pythia8/571945236b3fa5583cf2820d90a0e936288207bda802e072e43b9c78/000000_000000/0000/tree_4.root
/eos/cms/store/group/phys_higgs/hbb/ntuples/VHbbPostNano/UL/EFT/2018/V1/DYJetsToLL_M-50_TuneCP5_13TeV-amcatnloFXFX-pythia8/e7c03c2dd97f4e230de742ea9783cbd9bf831670c4886028c9530948/000000_000000/0000/tree_5.root
/eos/cms/store/group/phys_higgs/hbb/ntuples/VHbbPostNano/UL/EFT/2018/V1/DYJetsToLL_M-50_TuneCP5_13TeV-amcatnloFXFX-pythia8/671e4e7b4b061142272b779f58527da8970b8b993faca8b3ab27b2ec/000000_000000/0000/tree_6.root
/eos/cms/store/group/phys_higgs/hbb/ntuples/VHbbPostNano/UL/EFT/2018/V1/DYJetsToLL_M-50_TuneCP5_13TeV-amcatnloFXFX-pythia8/41bf7230ddafc043fd8ff53725e87892b07f8b85b6f5ed2568735e3a/000000_000000/0000/tree_7.root
/eos/cms/store/group/phys_higgs/hbb/ntuples/VHbbPostNano/UL/EFT/2018/V1/DYJetsToLL_M-50_TuneCP5_13TeV-amcatnloFXFX-pythia8/94041745031287bb113fe978986e881e8d75ac788cfd1c2256ec9c3f/000000_000000/0000/tree_8.root
/eos/cms/store/group/phys_higgs/hbb/ntuples/VHbbPostNano/UL/EFT/2018/V1/DYJetsToLL_M-50_TuneCP5_13TeV-amcatnloFXFX-pythia8/7d4f1933ecede3a4cc9196a2eb416a2f3a93b60d7afe6b3a5b27f6e1/000000_000000/0000/tree_9.root
/eos/cms/store/group/phys_higgs/hbb/ntuples/VHbbPostNano/UL/EFT/2018/V1/DYJetsToLL_M-50_TuneCP5_13TeV-amcatnloFXFX-pythia8/344337595776fb58974675c803963d8b0d20157dcbc1397124923426/000000_000000/0000/tree_10.root