/eos/cms/store/group/phys_higgs/ec/hbb/ntuples/VHbbPostNano/UL/EFT/2018/V1/ST_s-channel_4f_leptonDecays_TuneCP5_13TeV-amcatnlo-pythia8/718bffb0418df0bcc7474d60b2395fa2e3c0ecc834845bacf3b616ab/000000_000000/0000/tree_0.root
/eos/cms/store/group/phys_higgs/ec/hbb/ntuples/VHbbPostNano/UL/EFT/2018/V1/ST_s-channel_4f_leptonDecays_TuneCP5_13TeV-amcatnlo-pythia8/72a5c57a392be81300a10ac9e89c8cb4b6af27e2391a0dff63ed24db/000000_000000/0000/tree_1.root
/eos/cms/store/group/phys_higgs/ec/hbb/ntuples/VHbbPostNano/UL/EFT/2018/V1/ST_s-channel_4f_leptonDecays_TuneCP5_13TeV-amcatnlo-pythia8/289f42090cd4a86c20ff2a54cf050b02fa6c098a834b882e5fc202e5/000000_000000/0000/tree_2.root
/eos/cms/store/group/phys_higgs/ec/hbb/ntuples/VHbbPostNano/UL/EFT/2018/V1/ST_s-channel_4f_leptonDecays_TuneCP5_13TeV-amcatnlo-pythia8/3311280f449cb9e58f96461b6f3ea85aefd1c092f1a05ba6cf49ab05/000000_000000/0000/tree_3.root
/eos/cms/store/group/phys_higgs/ec/hbb/ntuples/VHbbPostNano/UL/EFT/2018/V1/ST_s-channel_4f_leptonDecays_TuneCP5_13TeV-amcatnlo-pythia8/2291701b89435f2258ce6a4ce347c59431292fa0f83505b486079c97/000000_000000/0000/tree_4.root
/eos/cms/store/group/phys_higgs/ec/hbb/ntuples/VHbbPostNano/UL/EFT/2018/V1/ST_s-channel_4f_leptonDecays_TuneCP5_13TeV-amcatnlo-pythia8/cd93b1ac9c1dc0f9e3ffacac67ce4ff069421f659538b1f146587ab6/000000_000000/0000/tree_5.root
/eos/cms/store/group/phys_higgs/ec/hbb/ntuples/VHbbPostNano/UL/EFT/2018/V1/ST_s-channel_4f_leptonDecays_TuneCP5_13TeV-amcatnlo-pythia8/a9369cbd6051fdcd4735ea18bfd423d46c9a4a1d9619bc2c56379c0d/000000_000000/0000/tree_6.root
/eos/cms/store/group/phys_higgs/ec/hbb/ntuples/VHbbPostNano/UL/EFT/2018/V1/ST_s-channel_4f_leptonDecays_TuneCP5_13TeV-amcatnlo-pythia8/d85bf2054e52bb05f925bebddde13c3b883c446a8512674dbc53f4b1/000000_000000/0000/tree_7.root
/eos/cms/store/group/phys_higgs/ec/hbb/ntuples/VHbbPostNano/UL/EFT/2018/V1/ST_s-channel_4f_leptonDecays_TuneCP5_13TeV-amcatnlo-pythia8/e4520c3206d33e80e68400174975d8b016c92b1b40a2a6a345b362d2/000000_000000/0000/tree_8.root
/eos/cms/store/group/phys_higgs/ec/hbb/ntuples/VHbbPostNano/UL/EFT/2018/V1/ST_s-channel_4f_leptonDecays_TuneCP5_13TeV-amcatnlo-pythia8/df690a482a4a6d1e1fb4031a7cf02f9b3ea33bfab16f8d617c15a646/000000_000000/0000/tree_9.root
/eos/cms/store/group/phys_higgs/ec/hbb/ntuples/VHbbPostNano/UL/EFT/2018/V1/ST_s-channel_4f_leptonDecays_TuneCP5_13TeV-amcatnlo-pythia8/248856975b50f1478e35eac58a991b90045e721a34859e79e515f62d/000000_000000/0000/tree_10.root
/eos/cms/store/group/phys_higgs/ec/hbb/ntuples/VHbbPostNano/UL/EFT/2018/V1/ST_s-channel_4f_leptonDecays_TuneCP5_13TeV-amcatnlo-pythia8/2fbb9e02156493f001cce791bb960d9d221a9d773cd4dca679bc5e5a/000000_000000/0000/tree_11.root
/eos/cms/store/group/phys_higgs/ec/hbb/ntuples/VHbbPostNano/UL/EFT/2018/V1/ST_s-channel_4f_leptonDecays_TuneCP5_13TeV-amcatnlo-pythia8/77b51757ac5bd8d34cf56c0751774a18f9b743b8047e768daffa2556/000000_000000/0000/tree_12.root
/eos/cms/store/group/phys_higgs/ec/hbb/ntuples/VHbbPostNano/UL/EFT/2018/V1/ST_s-channel_4f_leptonDecays_TuneCP5_13TeV-amcatnlo-pythia8/4407bbca3efd180abe62e1a51b3dc9ead169af240f588db9cb19d3f0/000000_000000/0000/tree_13.root
/eos/cms/store/group/phys_higgs/ec/hbb/ntuples/VHbbPostNano/UL/EFT/2018/V1/ST_s-channel_4f_leptonDecays_TuneCP5_13TeV-amcatnlo-pythia8/752706c6437a282225d8e32ccb62aa000912be84e8c58b442de169d1/000000_000000/0000/tree_14.root
/eos/cms/store/group/phys_higgs/ec/hbb/ntuples/VHbbPostNano/UL/EFT/2018/V1/ST_s-channel_4f_leptonDecays_TuneCP5_13TeV-amcatnlo-pythia8/1255e3d2c6a61140f9c95c874f0cd2631603e64144b0288abf9ecab4/000000_000000/0000/tree_15.root
/eos/cms/store/group/phys_higgs/ec/hbb/ntuples/VHbbPostNano/UL/EFT/2018/V1/ST_s-channel_4f_leptonDecays_TuneCP5_13TeV-amcatnlo-pythia8/9da7cf76fe72502e73afd6a6b3b1f3480d4f20c880880f093bf7e576/000000_000000/0000/tree_16.root
/eos/cms/store/group/phys_higgs/ec/hbb/ntuples/VHbbPostNano/UL/EFT/2018/V1/ST_s-channel_4f_leptonDecays_TuneCP5_13TeV-amcatnlo-pythia8/5e66883301c3d11ba00f554283589c76b07625c2fc68e22a6b2bbc75/000000_000000/0000/tree_17.root
/eos/cms/store/group/phys_higgs/ec/hbb/ntuples/VHbbPostNano/UL/EFT/2018/V1/ST_s-channel_4f_leptonDecays_TuneCP5_13TeV-amcatnlo-pythia8/0b4b91a43fcf43dacaf08ec35c67a1a4732e655a00afb097cb3cc4db/000000_000000/0000/tree_18.root
/eos/cms/store/group/phys_higgs/ec/hbb/ntuples/VHbbPostNano/UL/EFT/2018/V1/ST_s-channel_4f_leptonDecays_TuneCP5_13TeV-amcatnlo-pythia8/cd505fa0ac9a538364f2750fb49d652987edc4843d7dbe01fb58f647/000000_000000/0000/tree_19.root