/eos/cms/store/group/phys_higgs/ec/hbb/ntuples/VHbbPostNano/UL/EFT/2018/V1/WW_TuneCP5_13TeV-pythia8/3f117b679c123e521f322e7756169f5b9e0ec37c98df9e02706082a6/000000_000000/0000/tree_0.root
/eos/cms/store/group/phys_higgs/ec/hbb/ntuples/VHbbPostNano/UL/EFT/2018/V1/WW_TuneCP5_13TeV-pythia8/801ada3604d3d38a123704428d8090d01f30bd46381ce3f631cfe389/000000_000000/0000/tree_1.root
/eos/cms/store/group/phys_higgs/ec/hbb/ntuples/VHbbPostNano/UL/EFT/2018/V1/WW_TuneCP5_13TeV-pythia8/cda4fc40c34111e088e58d26a44f8e522aa2a0eeb34754c3ffd74293/000000_000000/0000/tree_2.root
/eos/cms/store/group/phys_higgs/ec/hbb/ntuples/VHbbPostNano/UL/EFT/2018/V1/WW_TuneCP5_13TeV-pythia8/b43c1d58742d806c38b08eea7ee64c2535f12b40e4dccd3f6c40e8a5/000000_000000/0000/tree_3.root
/eos/cms/store/group/phys_higgs/ec/hbb/ntuples/VHbbPostNano/UL/EFT/2018/V1/WW_TuneCP5_13TeV-pythia8/66ce8bd8857ca0490c3eec2c0114a5708b31152a789e199d8f1c8752/000000_000000/0000/tree_4.root