/store/group/phys_higgs/hbb/ntuples/VHbbPostNano/2018/V11/EGamma/010a61438327c6d31acc41a364e2b9fe42690b925fb5aa0e1fa97f24/000000_000000/0000/tree_0.root
/store/group/phys_higgs/hbb/ntuples/VHbbPostNano/2018/V11/EGamma/a9251882df6436964c76e0494758d1ce5142f560304b8b5cab23661f/000000_000000/0000/tree_1.root
/store/group/phys_higgs/hbb/ntuples/VHbbPostNano/2018/V11/EGamma/73e67d6b59fea5117835662de0da13eeaf2506c5f46f49092a893b1d/000000_000000/0000/tree_2.root
/store/group/phys_higgs/hbb/ntuples/VHbbPostNano/2018/V11/EGamma/4ec20781974cff9126fbe5e79cf2d0f1dd14fa390c3d419cf190c6ea/000000_000000/0000/tree_3.root
/store/group/phys_higgs/hbb/ntuples/VHbbPostNano/2018/V11/EGamma/80326dd672b30687a09b702ca96ffcb73b886734289047db5b7a27b1/000000_000000/0000/tree_4.root
/store/group/phys_higgs/hbb/ntuples/VHbbPostNano/2018/V11/EGamma/ef3159b9477cb657f9f40628017adb13b570db748a26054c2110acf4/000000_000000/0000/tree_5.root
/store/group/phys_higgs/hbb/ntuples/VHbbPostNano/2018/V11/EGamma/7c7b5b9ca88dad502f8209fa281e7c163eca12790db639350fac61e4/000000_000000/0000/tree_6.root
/store/group/phys_higgs/hbb/ntuples/VHbbPostNano/2018/V11/EGamma/193df6eef03609aee0bc3398397cc3d5cbd65ba13a8eb2b5ed20a2f0/000000_000000/0000/tree_7.root
/store/group/phys_higgs/hbb/ntuples/VHbbPostNano/2018/V11/EGamma/dce7c82d7287ba3947600291ba9ed9a24c6801c7ef16e2476386589e/000000_000000/0000/tree_8.root
/store/group/phys_higgs/hbb/ntuples/VHbbPostNano/2018/V11/EGamma/6c3723baabd228e28b65e2e4dc60ec53e3f0b6bad836c2ec17face68/000000_000000/0000/tree_9.root
/store/group/phys_higgs/hbb/ntuples/VHbbPostNano/2018/V11/EGamma/387c4afffa12e199aa2cb9b6842b29cc504d66be9f69e3970f1c7e92/000000_000000/0000/tree_10.root
/store/group/phys_higgs/hbb/ntuples/VHbbPostNano/2018/V11/EGamma/f226a4684396e170b141628b3e6b29892a1f51eca67ffe1191e05822/000000_000000/0000/tree_11.root
/store/group/phys_higgs/hbb/ntuples/VHbbPostNano/2018/V11/EGamma/aaa363882b61105961f66610812540b826461e3cbaaf32090ce42573/000000_000000/0000/tree_12.root
/store/group/phys_higgs/hbb/ntuples/VHbbPostNano/2018/V11/EGamma/4b863289559f4a4f469e3e115bc76cfee2cbc62dfdc3340a66ba6db0/000000_000000/0000/tree_13.root
/store/group/phys_higgs/hbb/ntuples/VHbbPostNano/2018/V11/EGamma/db88c30ed047ebf50e011e9335971e38e77caa6f98504bee31a37b54/000000_000000/0000/tree_14.root
/store/group/phys_higgs/hbb/ntuples/VHbbPostNano/2018/V11/EGamma/9d1bfc11ca42a53f7478e1aa3a1e55dd26a9c068f5d361d907e99b19/000000_000000/0000/tree_15.root
/store/group/phys_higgs/hbb/ntuples/VHbbPostNano/2018/V11/EGamma/3c9cdd7aafa8089f33b529d4c18771a5ed81d45223421a0bebcce1fc/000000_000000/0000/tree_16.root
/store/group/phys_higgs/hbb/ntuples/VHbbPostNano/2018/V11/EGamma/1c31cc2ada2cc295ec13a37992b80f4cce0357fddd1ae6b1e15b97f3/000000_000000/0000/tree_17.root
/store/group/phys_higgs/hbb/ntuples/VHbbPostNano/2018/V11/EGamma/c476685f1af2fcb323a96efd7c29314d6fcc3f92a3ea56350730930f/000000_000000/0000/tree_18.root
/store/group/phys_higgs/hbb/ntuples/VHbbPostNano/2018/V11/EGamma/dbd05ea24efb6ce13f62698ba836cef3910edf301cfa4c9fc7988955/000000_000000/0000/tree_19.root
/store/group/phys_higgs/hbb/ntuples/VHbbPostNano/2018/V11/EGamma/42015dce4dd2b78d2f17d91a2ab43aad890ff298e731e0478f3987da/000000_000000/0000/tree_20.root
/store/group/phys_higgs/hbb/ntuples/VHbbPostNano/2018/V11/EGamma/c4f3c23902091299297ad9149cf4a5208c800b2173a537fe080cf4f0/000000_000000/0000/tree_21.root
/store/group/phys_higgs/hbb/ntuples/VHbbPostNano/2018/V11/EGamma/4216b9d2e3cd747d6deaee9e08bc18da708b6e5599ec1ed2dcf6f229/000000_000000/0000/tree_22.root
/store/group/phys_higgs/hbb/ntuples/VHbbPostNano/2018/V11/EGamma/01f779a1567580d228c331621591229fe4fb5ce92f67c2a8ee921f16/000000_000000/0000/tree_23.root
/store/group/phys_higgs/hbb/ntuples/VHbbPostNano/2018/V11/EGamma/f965e2759aa209ba2305140be3b031bbf79311afca09f6cde2ca0ece/000000_000000/0000/tree_24.root
/store/group/phys_higgs/hbb/ntuples/VHbbPostNano/2018/V11/EGamma/340fb9d1052c1efe5be7c8a97ad2fcb3c5869be8716c994d4d26924f/000000_000000/0000/tree_25.root
/store/group/phys_higgs/hbb/ntuples/VHbbPostNano/2018/V11/EGamma/7f34d1a7a82ef3ecb5ce79f60736a8feebc28245f276a73628381e7b/000000_000000/0000/tree_26.root
/store/group/phys_higgs/hbb/ntuples/VHbbPostNano/2018/V11/EGamma/e60c09847a93045c255d7aa7a70fe8994a1336269f7fd69260049d16/000000_000000/0000/tree_27.root
/store/group/phys_higgs/hbb/ntuples/VHbbPostNano/2018/V11/EGamma/3833e67d9c63a1664a43cab14b59908a76717115f36d569119e42d53/000000_000000/0000/tree_28.root
/store/group/phys_higgs/hbb/ntuples/VHbbPostNano/2018/V11/EGamma/b5f89b9d5321d92dcdddef114bb7498bcbf59b2d5fae29652d5ce591/000000_000000/0000/tree_29.root
/store/group/phys_higgs/hbb/ntuples/VHbbPostNano/2018/V11/EGamma/dc86f739e4954a99463702f8613f4246d1b84b7e74b7098a9bfd8a23/000000_000000/0000/tree_30.root
/store/group/phys_higgs/hbb/ntuples/VHbbPostNano/2018/V11/EGamma/4b28ceb3d7f80ebaa98064fe9acd8fd0498d2dae3f28aef50bd101b2/000000_000000/0000/tree_31.root
/store/group/phys_higgs/hbb/ntuples/VHbbPostNano/2018/V11/EGamma/7720b95f20537a77e203ea5ef806880494b16556162eca3bb6fdf77d/000000_000000/0000/tree_32.root
/store/group/phys_higgs/hbb/ntuples/VHbbPostNano/2018/V11/EGamma/17999c9f3e79cf8566221dda0ece642c9a50c8447bf2ff28c49adc15/000000_000000/0000/tree_33.root
/store/group/phys_higgs/hbb/ntuples/VHbbPostNano/2018/V11/EGamma/6ee9276b4a26bbefa21071e1d768eb3ce0047b73f544c1e0fb70454d/000000_000000/0000/tree_34.root
/store/group/phys_higgs/hbb/ntuples/VHbbPostNano/2018/V11/EGamma/4991c0457460519c4e100eeb48d901f58053897f50a6acdc032d7de3/000000_000000/0000/tree_35.root
/store/group/phys_higgs/hbb/ntuples/VHbbPostNano/2018/V11/EGamma/67ee2cd5c8f119fafa28022826696d2bacc040fa4a47ebd10b53b619/000000_000000/0000/tree_36.root
/store/group/phys_higgs/hbb/ntuples/VHbbPostNano/2018/V11/EGamma/ba9857f9858e24765f8a6ede2af63904cb729f49dbf71be88185dcd7/000000_000000/0000/tree_37.root
/store/group/phys_higgs/hbb/ntuples/VHbbPostNano/2018/V11/EGamma/acc2e0c8af4a47537d4d00cf2555aff2470974435f7f5b3760d3d311/000000_000000/0000/tree_38.root
/store/group/phys_higgs/hbb/ntuples/VHbbPostNano/2018/V11/EGamma/b328fb5ea3795a052665db995df5ada1273e9c06f4e541371bfa7d62/000000_000000/0000/tree_39.root
/store/group/phys_higgs/hbb/ntuples/VHbbPostNano/2018/V11/EGamma/bf347e74c84076e0912907193a8e213bf92ce4a9e81a734c1d667102/000000_000000/0000/tree_40.root
/store/group/phys_higgs/hbb/ntuples/VHbbPostNano/2018/V11/EGamma/936c8c54855806cdddb9d2e290401b997c5c1b1763b046711eb36431/000000_000000/0000/tree_41.root