/store/group/phys_higgs/hbb/ntuples/VHbbPostNano/2018/V11_bis/ST_t-channel_antitop_4f_InclusiveDecays_TuneCP5_13TeV-powheg-madspin-pythia8/70877330a62884a50ceac04e90b12475f743ffba4dc2c05a11997f17/000000_000000/0000/tree_0.root
/store/group/phys_higgs/hbb/ntuples/VHbbPostNano/2018/V11_bis/ST_t-channel_antitop_4f_InclusiveDecays_TuneCP5_13TeV-powheg-madspin-pythia8/15d7e4c615671953cd1e5edfd490980d682c479c8386304080cf84d1/000000_000000/0000/tree_1.root
/store/group/phys_higgs/hbb/ntuples/VHbbPostNano/2018/V11_bis/ST_t-channel_antitop_4f_InclusiveDecays_TuneCP5_13TeV-powheg-madspin-pythia8/5e1008d8fa7cb565bc908242e1b069ef1befe1f6f2c696959ee5649c/000000_000000/0000/tree_2.root
/store/group/phys_higgs/hbb/ntuples/VHbbPostNano/2018/V11_bis/ST_t-channel_antitop_4f_InclusiveDecays_TuneCP5_13TeV-powheg-madspin-pythia8/31c2415d147a52f5dc808b8af5065cacb6906454290c3b1d4ceb65c8/000000_000000/0000/tree_3.root