/store/group/phys_higgs/hbb/ntuples/VHbbPostNano/2018/V11_bis/WBJetsToLNu_Wpt-100to200_TuneCP5_13TeV-madgraphMLM-pythia8/d72bce8741794daa1d76ff0719a251bd3f5ca857b550faa37ff11a1d/000000_000000/0000/tree_0.root
/store/group/phys_higgs/hbb/ntuples/VHbbPostNano/2018/V11_bis/WBJetsToLNu_Wpt-100to200_TuneCP5_13TeV-madgraphMLM-pythia8/79b25871d2d5cc7ac552403142206446bee54cc0b807f24e31e1267b/000000_000000/0000/tree_1.root
/store/group/phys_higgs/hbb/ntuples/VHbbPostNano/2018/V11_bis/WBJetsToLNu_Wpt-100to200_TuneCP5_13TeV-madgraphMLM-pythia8/30d2333aebb1a052cd5973ab3c1c5745f0923320117530e1dae4e9a7/000000_000000/0000/tree_2.root
/store/group/phys_higgs/hbb/ntuples/VHbbPostNano/2018/V11_bis/WBJetsToLNu_Wpt-100to200_TuneCP5_13TeV-madgraphMLM-pythia8/dac8f0cadae024e4bac864b7dfca8f31bf1ad9968924bb77a3bce201/000000_000000/0000/tree_3.root
/store/group/phys_higgs/hbb/ntuples/VHbbPostNano/2018/V11_bis/WBJetsToLNu_Wpt-100to200_TuneCP5_13TeV-madgraphMLM-pythia8/a644301f1f1f6a59d17cf5fee6255a1b0b92524beddd836c45072308/000000_000000/0000/tree_4.root
/store/group/phys_higgs/hbb/ntuples/VHbbPostNano/2018/V11_bis/WBJetsToLNu_Wpt-100to200_TuneCP5_13TeV-madgraphMLM-pythia8/e5cae3cdcbd17d36697e7f6ff59c7732504203bee4c1a25d40c4e514/000000_000000/0000/tree_5.root
/store/group/phys_higgs/hbb/ntuples/VHbbPostNano/2018/V11_bis/WBJetsToLNu_Wpt-100to200_TuneCP5_13TeV-madgraphMLM-pythia8/4e41772e3b21bc87dae1aa2d27458dbee3fcbbdd11b0a168381c116b/000000_000000/0000/tree_6.root
/store/group/phys_higgs/hbb/ntuples/VHbbPostNano/2018/V11_bis/WBJetsToLNu_Wpt-100to200_TuneCP5_13TeV-madgraphMLM-pythia8/116ce4e440c52f2492830cc60ec7424932bc9006445e0543bdd7f29e/000000_000000/0000/tree_7.root