/store/group/phys_higgs/hbb/ntuples/VHbbPostNano/2018/V11_bis/ZJetsToNuNu_HT-400To600_13TeV-madgraph/811ae849d312025759c2351a475a259a2ce24d7e9f1f42aa0b982b10/000000_000000/0000/tree_0.root
/store/group/phys_higgs/hbb/ntuples/VHbbPostNano/2018/V11_bis/ZJetsToNuNu_HT-400To600_13TeV-madgraph/7625dc8a2324541dde563b827eaf4a592cc0a841f559bef131fa1cec/000000_000000/0000/tree_1.root
/store/group/phys_higgs/hbb/ntuples/VHbbPostNano/2018/V11_bis/ZJetsToNuNu_HT-400To600_13TeV-madgraph/5e3f581315fd2bbe2fed89a8072acc29cb4d36cdce4d9cd2955c8941/000000_000000/0000/tree_2.root
/store/group/phys_higgs/hbb/ntuples/VHbbPostNano/2018/V11_bis/ZJetsToNuNu_HT-400To600_13TeV-madgraph/115c53a220e1cbd9f741193100bf2ba5038d4471dcb8662f0c82b609/000000_000000/0000/tree_3.root
/store/group/phys_higgs/hbb/ntuples/VHbbPostNano/2018/V11_bis/ZJetsToNuNu_HT-400To600_13TeV-madgraph/6b56f249d3a210cf077a78b28939f5f841428f0fb4abf6625afb176f/000000_000000/0000/tree_4.root
/store/group/phys_higgs/hbb/ntuples/VHbbPostNano/2018/V11_bis/ZJetsToNuNu_HT-400To600_13TeV-madgraph/ca155a6a28ab11f98fcba1febcf1d13bcd1820402e697fa6260d403d/000000_000000/0000/tree_5.root
/store/group/phys_higgs/hbb/ntuples/VHbbPostNano/2018/V11_bis/ZJetsToNuNu_HT-400To600_13TeV-madgraph/f6588f2597b202757163e724ab5f4c54de897c852d77658fed47e862/000000_000000/0000/tree_6.root
/store/group/phys_higgs/hbb/ntuples/VHbbPostNano/2018/V11_bis/ZJetsToNuNu_HT-400To600_13TeV-madgraph/b083ca7880f11b6297479bc567e753327a192e8c6a09526797a21fb3/000000_000000/0000/tree_7.root
/store/group/phys_higgs/hbb/ntuples/VHbbPostNano/2018/V11_bis/ZJetsToNuNu_HT-400To600_13TeV-madgraph/ebc4113f68e7b15c9ac206f108d45cc0bb3cf45d1ee5c275096294e3/000000_000000/0000/tree_8.root