/store/group/phys_higgs/hbb/ntuples/VHbbPostNano/2018/V11_bis/ZJetsToNuNu_HT-200To400_13TeV-madgraph/f19bd820372ca74026313471879c59887182a7e6515597b2ebfc63d2/000000_000000/0000/tree_0.root
/store/group/phys_higgs/hbb/ntuples/VHbbPostNano/2018/V11_bis/ZJetsToNuNu_HT-200To400_13TeV-madgraph/12ead1517bea10f96b7e0ea28c250769ab3795a11330a7d6086ece75/000000_000000/0000/tree_1.root
/store/group/phys_higgs/hbb/ntuples/VHbbPostNano/2018/V11_bis/ZJetsToNuNu_HT-200To400_13TeV-madgraph/0a7ac5217603b005aef9d256f38cba747b0a2da64739217b8bf46549/000000_000000/0000/tree_2.root
/store/group/phys_higgs/hbb/ntuples/VHbbPostNano/2018/V11_bis/ZJetsToNuNu_HT-200To400_13TeV-madgraph/06ad003482db1b3b42644e986b8ec1bd44868ec1a93837ed26fdadc2/000000_000000/0000/tree_3.root