/store/group/phys_higgs/hbb/ntuples/VHbbPostNano/2018/V11_bis/ZJetsToNuNu_HT-1200To2500_13TeV-madgraph/e96bd1ebd33c508115570bcecdd25ba8b5a542c8bbe21072d67eb8b7/000000_000000/0000/tree_0.root
/store/group/phys_higgs/hbb/ntuples/VHbbPostNano/2018/V11_bis/ZJetsToNuNu_HT-1200To2500_13TeV-madgraph/33e72c21a5bed68e6fb7a6b9e0bbba29d275db93e93c8ade7bffe7a1/000000_000000/0000/tree_1.root
/store/group/phys_higgs/hbb/ntuples/VHbbPostNano/2018/V11_bis/ZJetsToNuNu_HT-1200To2500_13TeV-madgraph/b32109662d238a0d5f2a2bd7a52b7b2a8dabfb62e08aeff8514170b5/000000_000000/0000/tree_2.root
/store/group/phys_higgs/hbb/ntuples/VHbbPostNano/2018/V11_bis/ZJetsToNuNu_HT-1200To2500_13TeV-madgraph/59a31e1bb70f8c352d69db2e207aa11d506df0aaddb983a26de33a4b/000000_000000/0000/tree_3.root