/store/group/phys_higgs/hbb/ntuples/VHbbPostNano/2018/V11/DoubleMuon/Run2018A-Nano14Dec2018-v180/190426_091335/0000/tree_1.root
/store/group/phys_higgs/hbb/ntuples/VHbbPostNano/2018/V11/DoubleMuon/Run2018A-Nano14Dec2018-v180/190426_091335/0000/tree_10.root
/store/group/phys_higgs/hbb/ntuples/VHbbPostNano/2018/V11/DoubleMuon/Run2018A-Nano14Dec2018-v180/190426_091335/0000/tree_11.root
/store/group/phys_higgs/hbb/ntuples/VHbbPostNano/2018/V11/DoubleMuon/Run2018A-Nano14Dec2018-v180/190426_091335/0000/tree_12.root
/store/group/phys_higgs/hbb/ntuples/VHbbPostNano/2018/V11/DoubleMuon/Run2018A-Nano14Dec2018-v180/190426_091335/0000/tree_13.root
/store/group/phys_higgs/hbb/ntuples/VHbbPostNano/2018/V11/DoubleMuon/Run2018A-Nano14Dec2018-v180/190426_091335/0000/tree_14.root
/store/group/phys_higgs/hbb/ntuples/VHbbPostNano/2018/V11/DoubleMuon/Run2018A-Nano14Dec2018-v180/190426_091335/0000/tree_15.root
/store/group/phys_higgs/hbb/ntuples/VHbbPostNano/2018/V11/DoubleMuon/Run2018A-Nano14Dec2018-v180/190426_091335/0000/tree_16.root
/store/group/phys_higgs/hbb/ntuples/VHbbPostNano/2018/V11/DoubleMuon/Run2018A-Nano14Dec2018-v180/190426_091335/0000/tree_17.root
/store/group/phys_higgs/hbb/ntuples/VHbbPostNano/2018/V11/DoubleMuon/Run2018A-Nano14Dec2018-v180/190426_091335/0000/tree_18.root
/store/group/phys_higgs/hbb/ntuples/VHbbPostNano/2018/V11/DoubleMuon/Run2018A-Nano14Dec2018-v180/190426_091335/0000/tree_19.root
/store/group/phys_higgs/hbb/ntuples/VHbbPostNano/2018/V11/DoubleMuon/Run2018A-Nano14Dec2018-v180/190426_091335/0000/tree_2.root
/store/group/phys_higgs/hbb/ntuples/VHbbPostNano/2018/V11/DoubleMuon/Run2018A-Nano14Dec2018-v180/190426_091335/0000/tree_20.root
/store/group/phys_higgs/hbb/ntuples/VHbbPostNano/2018/V11/DoubleMuon/Run2018A-Nano14Dec2018-v180/190426_091335/0000/tree_21.root
/store/group/phys_higgs/hbb/ntuples/VHbbPostNano/2018/V11/DoubleMuon/Run2018A-Nano14Dec2018-v180/190426_091335/0000/tree_22.root
/store/group/phys_higgs/hbb/ntuples/VHbbPostNano/2018/V11/DoubleMuon/Run2018A-Nano14Dec2018-v180/190426_091335/0000/tree_23.root
/store/group/phys_higgs/hbb/ntuples/VHbbPostNano/2018/V11/DoubleMuon/Run2018A-Nano14Dec2018-v180/190426_091335/0000/tree_24.root
/store/group/phys_higgs/hbb/ntuples/VHbbPostNano/2018/V11/DoubleMuon/Run2018A-Nano14Dec2018-v180/190426_091335/0000/tree_25.root
/store/group/phys_higgs/hbb/ntuples/VHbbPostNano/2018/V11/DoubleMuon/Run2018A-Nano14Dec2018-v180/190426_091335/0000/tree_26.root
/store/group/phys_higgs/hbb/ntuples/VHbbPostNano/2018/V11/DoubleMuon/Run2018A-Nano14Dec2018-v180/190426_091335/0000/tree_27.root
/store/group/phys_higgs/hbb/ntuples/VHbbPostNano/2018/V11/DoubleMuon/Run2018A-Nano14Dec2018-v180/190426_091335/0000/tree_28.root
/store/group/phys_higgs/hbb/ntuples/VHbbPostNano/2018/V11/DoubleMuon/Run2018A-Nano14Dec2018-v180/190426_091335/0000/tree_29.root
/store/group/phys_higgs/hbb/ntuples/VHbbPostNano/2018/V11/DoubleMuon/Run2018A-Nano14Dec2018-v180/190426_091335/0000/tree_3.root
/store/group/phys_higgs/hbb/ntuples/VHbbPostNano/2018/V11/DoubleMuon/Run2018A-Nano14Dec2018-v180/190426_091335/0000/tree_30.root
/store/group/phys_higgs/hbb/ntuples/VHbbPostNano/2018/V11/DoubleMuon/Run2018A-Nano14Dec2018-v180/190426_091335/0000/tree_31.root
/store/group/phys_higgs/hbb/ntuples/VHbbPostNano/2018/V11/DoubleMuon/Run2018A-Nano14Dec2018-v180/190426_091335/0000/tree_32.root
/store/group/phys_higgs/hbb/ntuples/VHbbPostNano/2018/V11/DoubleMuon/Run2018A-Nano14Dec2018-v180/190426_091335/0000/tree_33.root
/store/group/phys_higgs/hbb/ntuples/VHbbPostNano/2018/V11/DoubleMuon/Run2018A-Nano14Dec2018-v180/190426_091335/0000/tree_34.root
/store/group/phys_higgs/hbb/ntuples/VHbbPostNano/2018/V11/DoubleMuon/Run2018A-Nano14Dec2018-v180/190426_091335/0000/tree_35.root
/store/group/phys_higgs/hbb/ntuples/VHbbPostNano/2018/V11/DoubleMuon/Run2018A-Nano14Dec2018-v180/190426_091335/0000/tree_4.root
/store/group/phys_higgs/hbb/ntuples/VHbbPostNano/2018/V11/DoubleMuon/Run2018A-Nano14Dec2018-v180/190426_091335/0000/tree_5.root
/store/group/phys_higgs/hbb/ntuples/VHbbPostNano/2018/V11/DoubleMuon/Run2018A-Nano14Dec2018-v180/190426_091335/0000/tree_6.root
/store/group/phys_higgs/hbb/ntuples/VHbbPostNano/2018/V11/DoubleMuon/Run2018A-Nano14Dec2018-v180/190426_091335/0000/tree_7.root
/store/group/phys_higgs/hbb/ntuples/VHbbPostNano/2018/V11/DoubleMuon/Run2018A-Nano14Dec2018-v180/190426_091335/0000/tree_8.root
/store/group/phys_higgs/hbb/ntuples/VHbbPostNano/2018/V11/DoubleMuon/Run2018A-Nano14Dec2018-v180/190426_091335/0000/tree_9.root
/store/group/phys_higgs/hbb/ntuples/VHbbPostNano/2018/V11/DoubleMuon/Run2018B-Nano14Dec2018-v181/190426_091418/0000/tree_1.root
/store/group/phys_higgs/hbb/ntuples/VHbbPostNano/2018/V11/DoubleMuon/Run2018B-Nano14Dec2018-v181/190426_091418/0000/tree_10.root
/store/group/phys_higgs/hbb/ntuples/VHbbPostNano/2018/V11/DoubleMuon/Run2018B-Nano14Dec2018-v181/190426_091418/0000/tree_11.root
/store/group/phys_higgs/hbb/ntuples/VHbbPostNano/2018/V11/DoubleMuon/Run2018B-Nano14Dec2018-v181/190426_091418/0000/tree_12.root
/store/group/phys_higgs/hbb/ntuples/VHbbPostNano/2018/V11/DoubleMuon/Run2018B-Nano14Dec2018-v181/190426_091418/0000/tree_13.root
/store/group/phys_higgs/hbb/ntuples/VHbbPostNano/2018/V11/DoubleMuon/Run2018B-Nano14Dec2018-v181/190426_091418/0000/tree_14.root
/store/group/phys_higgs/hbb/ntuples/VHbbPostNano/2018/V11/DoubleMuon/Run2018B-Nano14Dec2018-v181/190426_091418/0000/tree_15.root
/store/group/phys_higgs/hbb/ntuples/VHbbPostNano/2018/V11/DoubleMuon/Run2018B-Nano14Dec2018-v181/190426_091418/0000/tree_16.root
/store/group/phys_higgs/hbb/ntuples/VHbbPostNano/2018/V11/DoubleMuon/Run2018B-Nano14Dec2018-v181/190426_091418/0000/tree_2.root
/store/group/phys_higgs/hbb/ntuples/VHbbPostNano/2018/V11/DoubleMuon/Run2018B-Nano14Dec2018-v181/190426_091418/0000/tree_3.root
/store/group/phys_higgs/hbb/ntuples/VHbbPostNano/2018/V11/DoubleMuon/Run2018B-Nano14Dec2018-v181/190426_091418/0000/tree_4.root
/store/group/phys_higgs/hbb/ntuples/VHbbPostNano/2018/V11/DoubleMuon/Run2018B-Nano14Dec2018-v181/190426_091418/0000/tree_5.root
/store/group/phys_higgs/hbb/ntuples/VHbbPostNano/2018/V11/DoubleMuon/Run2018B-Nano14Dec2018-v181/190426_091418/0000/tree_6.root
/store/group/phys_higgs/hbb/ntuples/VHbbPostNano/2018/V11/DoubleMuon/Run2018B-Nano14Dec2018-v181/190426_091418/0000/tree_7.root
/store/group/phys_higgs/hbb/ntuples/VHbbPostNano/2018/V11/DoubleMuon/Run2018B-Nano14Dec2018-v181/190426_091418/0000/tree_8.root
/store/group/phys_higgs/hbb/ntuples/VHbbPostNano/2018/V11/DoubleMuon/Run2018B-Nano14Dec2018-v181/190426_091418/0000/tree_9.root
/store/group/phys_higgs/hbb/ntuples/VHbbPostNano/2018/V11/DoubleMuon/Run2018C-Nano14Dec2018-v182/190426_091501/0000/tree_1.root
/store/group/phys_higgs/hbb/ntuples/VHbbPostNano/2018/V11/DoubleMuon/Run2018C-Nano14Dec2018-v182/190426_091501/0000/tree_10.root
/store/group/phys_higgs/hbb/ntuples/VHbbPostNano/2018/V11/DoubleMuon/Run2018C-Nano14Dec2018-v182/190426_091501/0000/tree_11.root
/store/group/phys_higgs/hbb/ntuples/VHbbPostNano/2018/V11/DoubleMuon/Run2018C-Nano14Dec2018-v182/190426_091501/0000/tree_12.root
/store/group/phys_higgs/hbb/ntuples/VHbbPostNano/2018/V11/DoubleMuon/Run2018C-Nano14Dec2018-v182/190426_091501/0000/tree_13.root
/store/group/phys_higgs/hbb/ntuples/VHbbPostNano/2018/V11/DoubleMuon/Run2018C-Nano14Dec2018-v182/190426_091501/0000/tree_14.root
/store/group/phys_higgs/hbb/ntuples/VHbbPostNano/2018/V11/DoubleMuon/Run2018C-Nano14Dec2018-v182/190426_091501/0000/tree_15.root
/store/group/phys_higgs/hbb/ntuples/VHbbPostNano/2018/V11/DoubleMuon/Run2018C-Nano14Dec2018-v182/190426_091501/0000/tree_16.root
/store/group/phys_higgs/hbb/ntuples/VHbbPostNano/2018/V11/DoubleMuon/Run2018C-Nano14Dec2018-v182/190426_091501/0000/tree_17.root
/store/group/phys_higgs/hbb/ntuples/VHbbPostNano/2018/V11/DoubleMuon/Run2018C-Nano14Dec2018-v182/190426_091501/0000/tree_2.root
/store/group/phys_higgs/hbb/ntuples/VHbbPostNano/2018/V11/DoubleMuon/Run2018C-Nano14Dec2018-v182/190426_091501/0000/tree_3.root
/store/group/phys_higgs/hbb/ntuples/VHbbPostNano/2018/V11/DoubleMuon/Run2018C-Nano14Dec2018-v182/190426_091501/0000/tree_4.root
/store/group/phys_higgs/hbb/ntuples/VHbbPostNano/2018/V11/DoubleMuon/Run2018C-Nano14Dec2018-v182/190426_091501/0000/tree_5.root
/store/group/phys_higgs/hbb/ntuples/VHbbPostNano/2018/V11/DoubleMuon/Run2018C-Nano14Dec2018-v182/190426_091501/0000/tree_6.root
/store/group/phys_higgs/hbb/ntuples/VHbbPostNano/2018/V11/DoubleMuon/Run2018C-Nano14Dec2018-v182/190426_091501/0000/tree_7.root
/store/group/phys_higgs/hbb/ntuples/VHbbPostNano/2018/V11/DoubleMuon/Run2018C-Nano14Dec2018-v182/190426_091501/0000/tree_8.root
/store/group/phys_higgs/hbb/ntuples/VHbbPostNano/2018/V11/DoubleMuon/Run2018C-Nano14Dec2018-v182/190426_091501/0000/tree_9.root
/store/group/phys_higgs/hbb/ntuples/VHbbPostNano/2018/V11/DoubleMuon/Run2018D-Nano14Dec2018_ver2-v183/190426_091542/0000/tree_1.root
/store/group/phys_higgs/hbb/ntuples/VHbbPostNano/2018/V11/DoubleMuon/Run2018D-Nano14Dec2018_ver2-v183/190426_091542/0000/tree_10.root
/store/group/phys_higgs/hbb/ntuples/VHbbPostNano/2018/V11/DoubleMuon/Run2018D-Nano14Dec2018_ver2-v183/190426_091542/0000/tree_11.root
/store/group/phys_higgs/hbb/ntuples/VHbbPostNano/2018/V11/DoubleMuon/Run2018D-Nano14Dec2018_ver2-v183/190426_091542/0000/tree_12.root
/store/group/phys_higgs/hbb/ntuples/VHbbPostNano/2018/V11/DoubleMuon/Run2018D-Nano14Dec2018_ver2-v183/190426_091542/0000/tree_13.root
/store/group/phys_higgs/hbb/ntuples/VHbbPostNano/2018/V11/DoubleMuon/Run2018D-Nano14Dec2018_ver2-v183/190426_091542/0000/tree_14.root
/store/group/phys_higgs/hbb/ntuples/VHbbPostNano/2018/V11/DoubleMuon/Run2018D-Nano14Dec2018_ver2-v183/190426_091542/0000/tree_15.root
/store/group/phys_higgs/hbb/ntuples/VHbbPostNano/2018/V11/DoubleMuon/Run2018D-Nano14Dec2018_ver2-v183/190426_091542/0000/tree_16.root
/store/group/phys_higgs/hbb/ntuples/VHbbPostNano/2018/V11/DoubleMuon/Run2018D-Nano14Dec2018_ver2-v183/190426_091542/0000/tree_17.root
/store/group/phys_higgs/hbb/ntuples/VHbbPostNano/2018/V11/DoubleMuon/Run2018D-Nano14Dec2018_ver2-v183/190426_091542/0000/tree_18.root
/store/group/phys_higgs/hbb/ntuples/VHbbPostNano/2018/V11/DoubleMuon/Run2018D-Nano14Dec2018_ver2-v183/190426_091542/0000/tree_19.root
/store/group/phys_higgs/hbb/ntuples/VHbbPostNano/2018/V11/DoubleMuon/Run2018D-Nano14Dec2018_ver2-v183/190426_091542/0000/tree_2.root
/store/group/phys_higgs/hbb/ntuples/VHbbPostNano/2018/V11/DoubleMuon/Run2018D-Nano14Dec2018_ver2-v183/190426_091542/0000/tree_20.root
/store/group/phys_higgs/hbb/ntuples/VHbbPostNano/2018/V11/DoubleMuon/Run2018D-Nano14Dec2018_ver2-v183/190426_091542/0000/tree_21.root
/store/group/phys_higgs/hbb/ntuples/VHbbPostNano/2018/V11/DoubleMuon/Run2018D-Nano14Dec2018_ver2-v183/190426_091542/0000/tree_22.root
/store/group/phys_higgs/hbb/ntuples/VHbbPostNano/2018/V11/DoubleMuon/Run2018D-Nano14Dec2018_ver2-v183/190426_091542/0000/tree_23.root
/store/group/phys_higgs/hbb/ntuples/VHbbPostNano/2018/V11/DoubleMuon/Run2018D-Nano14Dec2018_ver2-v183/190426_091542/0000/tree_24.root
/store/group/phys_higgs/hbb/ntuples/VHbbPostNano/2018/V11/DoubleMuon/Run2018D-Nano14Dec2018_ver2-v183/190426_091542/0000/tree_25.root
/store/group/phys_higgs/hbb/ntuples/VHbbPostNano/2018/V11/DoubleMuon/Run2018D-Nano14Dec2018_ver2-v183/190426_091542/0000/tree_26.root
/store/group/phys_higgs/hbb/ntuples/VHbbPostNano/2018/V11/DoubleMuon/Run2018D-Nano14Dec2018_ver2-v183/190426_091542/0000/tree_27.root
/store/group/phys_higgs/hbb/ntuples/VHbbPostNano/2018/V11/DoubleMuon/Run2018D-Nano14Dec2018_ver2-v183/190426_091542/0000/tree_28.root
/store/group/phys_higgs/hbb/ntuples/VHbbPostNano/2018/V11/DoubleMuon/Run2018D-Nano14Dec2018_ver2-v183/190426_091542/0000/tree_29.root
/store/group/phys_higgs/hbb/ntuples/VHbbPostNano/2018/V11/DoubleMuon/Run2018D-Nano14Dec2018_ver2-v183/190426_091542/0000/tree_3.root
/store/group/phys_higgs/hbb/ntuples/VHbbPostNano/2018/V11/DoubleMuon/Run2018D-Nano14Dec2018_ver2-v183/190426_091542/0000/tree_30.root
/store/group/phys_higgs/hbb/ntuples/VHbbPostNano/2018/V11/DoubleMuon/Run2018D-Nano14Dec2018_ver2-v183/190426_091542/0000/tree_31.root
/store/group/phys_higgs/hbb/ntuples/VHbbPostNano/2018/V11/DoubleMuon/Run2018D-Nano14Dec2018_ver2-v183/190426_091542/0000/tree_32.root
/store/group/phys_higgs/hbb/ntuples/VHbbPostNano/2018/V11/DoubleMuon/Run2018D-Nano14Dec2018_ver2-v183/190426_091542/0000/tree_33.root
/store/group/phys_higgs/hbb/ntuples/VHbbPostNano/2018/V11/DoubleMuon/Run2018D-Nano14Dec2018_ver2-v183/190426_091542/0000/tree_34.root
/store/group/phys_higgs/hbb/ntuples/VHbbPostNano/2018/V11/DoubleMuon/Run2018D-Nano14Dec2018_ver2-v183/190426_091542/0000/tree_35.root
/store/group/phys_higgs/hbb/ntuples/VHbbPostNano/2018/V11/DoubleMuon/Run2018D-Nano14Dec2018_ver2-v183/190426_091542/0000/tree_36.root
/store/group/phys_higgs/hbb/ntuples/VHbbPostNano/2018/V11/DoubleMuon/Run2018D-Nano14Dec2018_ver2-v183/190426_091542/0000/tree_37.root
/store/group/phys_higgs/hbb/ntuples/VHbbPostNano/2018/V11/DoubleMuon/Run2018D-Nano14Dec2018_ver2-v183/190426_091542/0000/tree_38.root
/store/group/phys_higgs/hbb/ntuples/VHbbPostNano/2018/V11/DoubleMuon/Run2018D-Nano14Dec2018_ver2-v183/190426_091542/0000/tree_39.root
/store/group/phys_higgs/hbb/ntuples/VHbbPostNano/2018/V11/DoubleMuon/Run2018D-Nano14Dec2018_ver2-v183/190426_091542/0000/tree_4.root
/store/group/phys_higgs/hbb/ntuples/VHbbPostNano/2018/V11/DoubleMuon/Run2018D-Nano14Dec2018_ver2-v183/190426_091542/0000/tree_40.root
/store/group/phys_higgs/hbb/ntuples/VHbbPostNano/2018/V11/DoubleMuon/Run2018D-Nano14Dec2018_ver2-v183/190426_091542/0000/tree_41.root
/store/group/phys_higgs/hbb/ntuples/VHbbPostNano/2018/V11/DoubleMuon/Run2018D-Nano14Dec2018_ver2-v183/190426_091542/0000/tree_42.root
/store/group/phys_higgs/hbb/ntuples/VHbbPostNano/2018/V11/DoubleMuon/Run2018D-Nano14Dec2018_ver2-v183/190426_091542/0000/tree_43.root
/store/group/phys_higgs/hbb/ntuples/VHbbPostNano/2018/V11/DoubleMuon/Run2018D-Nano14Dec2018_ver2-v183/190426_091542/0000/tree_44.root
/store/group/phys_higgs/hbb/ntuples/VHbbPostNano/2018/V11/DoubleMuon/Run2018D-Nano14Dec2018_ver2-v183/190426_091542/0000/tree_45.root
/store/group/phys_higgs/hbb/ntuples/VHbbPostNano/2018/V11/DoubleMuon/Run2018D-Nano14Dec2018_ver2-v183/190426_091542/0000/tree_46.root
/store/group/phys_higgs/hbb/ntuples/VHbbPostNano/2018/V11/DoubleMuon/Run2018D-Nano14Dec2018_ver2-v183/190426_091542/0000/tree_47.root
/store/group/phys_higgs/hbb/ntuples/VHbbPostNano/2018/V11/DoubleMuon/Run2018D-Nano14Dec2018_ver2-v183/190426_091542/0000/tree_48.root
/store/group/phys_higgs/hbb/ntuples/VHbbPostNano/2018/V11/DoubleMuon/Run2018D-Nano14Dec2018_ver2-v183/190426_091542/0000/tree_49.root
/store/group/phys_higgs/hbb/ntuples/VHbbPostNano/2018/V11/DoubleMuon/Run2018D-Nano14Dec2018_ver2-v183/190426_091542/0000/tree_5.root
/store/group/phys_higgs/hbb/ntuples/VHbbPostNano/2018/V11/DoubleMuon/Run2018D-Nano14Dec2018_ver2-v183/190426_091542/0000/tree_50.root
/store/group/phys_higgs/hbb/ntuples/VHbbPostNano/2018/V11/DoubleMuon/Run2018D-Nano14Dec2018_ver2-v183/190426_091542/0000/tree_51.root
/store/group/phys_higgs/hbb/ntuples/VHbbPostNano/2018/V11/DoubleMuon/Run2018D-Nano14Dec2018_ver2-v183/190426_091542/0000/tree_52.root
/store/group/phys_higgs/hbb/ntuples/VHbbPostNano/2018/V11/DoubleMuon/Run2018D-Nano14Dec2018_ver2-v183/190426_091542/0000/tree_53.root
/store/group/phys_higgs/hbb/ntuples/VHbbPostNano/2018/V11/DoubleMuon/Run2018D-Nano14Dec2018_ver2-v183/190426_091542/0000/tree_54.root
/store/group/phys_higgs/hbb/ntuples/VHbbPostNano/2018/V11/DoubleMuon/Run2018D-Nano14Dec2018_ver2-v183/190426_091542/0000/tree_55.root
/store/group/phys_higgs/hbb/ntuples/VHbbPostNano/2018/V11/DoubleMuon/Run2018D-Nano14Dec2018_ver2-v183/190426_091542/0000/tree_56.root
/store/group/phys_higgs/hbb/ntuples/VHbbPostNano/2018/V11/DoubleMuon/Run2018D-Nano14Dec2018_ver2-v183/190426_091542/0000/tree_57.root
/store/group/phys_higgs/hbb/ntuples/VHbbPostNano/2018/V11/DoubleMuon/Run2018D-Nano14Dec2018_ver2-v183/190426_091542/0000/tree_58.root
/store/group/phys_higgs/hbb/ntuples/VHbbPostNano/2018/V11/DoubleMuon/Run2018D-Nano14Dec2018_ver2-v183/190426_091542/0000/tree_59.root
/store/group/phys_higgs/hbb/ntuples/VHbbPostNano/2018/V11/DoubleMuon/Run2018D-Nano14Dec2018_ver2-v183/190426_091542/0000/tree_6.root
/store/group/phys_higgs/hbb/ntuples/VHbbPostNano/2018/V11/DoubleMuon/Run2018D-Nano14Dec2018_ver2-v183/190426_091542/0000/tree_60.root
/store/group/phys_higgs/hbb/ntuples/VHbbPostNano/2018/V11/DoubleMuon/Run2018D-Nano14Dec2018_ver2-v183/190426_091542/0000/tree_61.root
/store/group/phys_higgs/hbb/ntuples/VHbbPostNano/2018/V11/DoubleMuon/Run2018D-Nano14Dec2018_ver2-v183/190426_091542/0000/tree_62.root
/store/group/phys_higgs/hbb/ntuples/VHbbPostNano/2018/V11/DoubleMuon/Run2018D-Nano14Dec2018_ver2-v183/190426_091542/0000/tree_63.root
/store/group/phys_higgs/hbb/ntuples/VHbbPostNano/2018/V11/DoubleMuon/Run2018D-Nano14Dec2018_ver2-v183/190426_091542/0000/tree_64.root
/store/group/phys_higgs/hbb/ntuples/VHbbPostNano/2018/V11/DoubleMuon/Run2018D-Nano14Dec2018_ver2-v183/190426_091542/0000/tree_65.root
/store/group/phys_higgs/hbb/ntuples/VHbbPostNano/2018/V11/DoubleMuon/Run2018D-Nano14Dec2018_ver2-v183/190426_091542/0000/tree_66.root
/store/group/phys_higgs/hbb/ntuples/VHbbPostNano/2018/V11/DoubleMuon/Run2018D-Nano14Dec2018_ver2-v183/190426_091542/0000/tree_67.root
/store/group/phys_higgs/hbb/ntuples/VHbbPostNano/2018/V11/DoubleMuon/Run2018D-Nano14Dec2018_ver2-v183/190426_091542/0000/tree_68.root
/store/group/phys_higgs/hbb/ntuples/VHbbPostNano/2018/V11/DoubleMuon/Run2018D-Nano14Dec2018_ver2-v183/190426_091542/0000/tree_69.root
/store/group/phys_higgs/hbb/ntuples/VHbbPostNano/2018/V11/DoubleMuon/Run2018D-Nano14Dec2018_ver2-v183/190426_091542/0000/tree_7.root
/store/group/phys_higgs/hbb/ntuples/VHbbPostNano/2018/V11/DoubleMuon/Run2018D-Nano14Dec2018_ver2-v183/190426_091542/0000/tree_70.root
/store/group/phys_higgs/hbb/ntuples/VHbbPostNano/2018/V11/DoubleMuon/Run2018D-Nano14Dec2018_ver2-v183/190426_091542/0000/tree_71.root
/store/group/phys_higgs/hbb/ntuples/VHbbPostNano/2018/V11/DoubleMuon/Run2018D-Nano14Dec2018_ver2-v183/190426_091542/0000/tree_72.root
/store/group/phys_higgs/hbb/ntuples/VHbbPostNano/2018/V11/DoubleMuon/Run2018D-Nano14Dec2018_ver2-v183/190426_091542/0000/tree_73.root
/store/group/phys_higgs/hbb/ntuples/VHbbPostNano/2018/V11/DoubleMuon/Run2018D-Nano14Dec2018_ver2-v183/190426_091542/0000/tree_74.root
/store/group/phys_higgs/hbb/ntuples/VHbbPostNano/2018/V11/DoubleMuon/Run2018D-Nano14Dec2018_ver2-v183/190426_091542/0000/tree_75.root
/store/group/phys_higgs/hbb/ntuples/VHbbPostNano/2018/V11/DoubleMuon/Run2018D-Nano14Dec2018_ver2-v183/190426_091542/0000/tree_76.root
/store/group/phys_higgs/hbb/ntuples/VHbbPostNano/2018/V11/DoubleMuon/Run2018D-Nano14Dec2018_ver2-v183/190426_091542/0000/tree_77.root
/store/group/phys_higgs/hbb/ntuples/VHbbPostNano/2018/V11/DoubleMuon/Run2018D-Nano14Dec2018_ver2-v183/190426_091542/0000/tree_78.root
/store/group/phys_higgs/hbb/ntuples/VHbbPostNano/2018/V11/DoubleMuon/Run2018D-Nano14Dec2018_ver2-v183/190426_091542/0000/tree_79.root
/store/group/phys_higgs/hbb/ntuples/VHbbPostNano/2018/V11/DoubleMuon/Run2018D-Nano14Dec2018_ver2-v183/190426_091542/0000/tree_8.root
/store/group/phys_higgs/hbb/ntuples/VHbbPostNano/2018/V11/DoubleMuon/Run2018D-Nano14Dec2018_ver2-v183/190426_091542/0000/tree_80.root
/store/group/phys_higgs/hbb/ntuples/VHbbPostNano/2018/V11/DoubleMuon/Run2018D-Nano14Dec2018_ver2-v183/190426_091542/0000/tree_81.root
/store/group/phys_higgs/hbb/ntuples/VHbbPostNano/2018/V11/DoubleMuon/Run2018D-Nano14Dec2018_ver2-v183/190426_091542/0000/tree_9.root
