/store/group/phys_higgs/hbb/ntuples/VHbbPostNano/2018/V11-STXS/ggZH_HToBB_ZToLL_M125_13TeV_powheg_pythia8/ff94cc4e4dba9a493d2fd8b906e1d184141dc3e9d85500ed45cf6cfd/000000_000000/0000/tree_0.root
/store/group/phys_higgs/hbb/ntuples/VHbbPostNano/2018/V11-STXS/ggZH_HToBB_ZToLL_M125_13TeV_powheg_pythia8/cc91d04f43f9a6f67edd89f3cfe18c20c166f446fd20c3f0f37f3868/000000_000000/0000/tree_1.root
/store/group/phys_higgs/hbb/ntuples/VHbbPostNano/2018/V11-STXS/ggZH_HToBB_ZToLL_M125_13TeV_powheg_pythia8/64d0750071b232c6e64f3d88b38fced40a056b882675cf2f98d78a25/000000_000000/0000/tree_2.root
/store/group/phys_higgs/hbb/ntuples/VHbbPostNano/2018/V11-STXS/ggZH_HToBB_ZToLL_M125_13TeV_powheg_pythia8/7c66782646cf35f45c2ef093ca1a659e943b131dc0d00aa920011938/000000_000000/0000/tree_3.root
/store/group/phys_higgs/hbb/ntuples/VHbbPostNano/2018/V11-STXS/ggZH_HToBB_ZToLL_M125_13TeV_powheg_pythia8/aade15f5cda151a5782db009537105ca324bc38b9e2b04c33be65725/000000_000000/0000/tree_4.root
/store/group/phys_higgs/hbb/ntuples/VHbbPostNano/2018/V11-STXS/ggZH_HToBB_ZToLL_M125_13TeV_powheg_pythia8/5c32be395d0f44626668971af5f1d8542ce8c59a074ff0888a94233f/000000_000000/0000/tree_5.root
/store/group/phys_higgs/hbb/ntuples/VHbbPostNano/2018/V11-STXS/ggZH_HToBB_ZToLL_M125_13TeV_powheg_pythia8/f11a38febfc2fc5c7896c8b7dbfbeaa012de47cbc14079f23828dc71/000000_000000/0000/tree_6.root
/store/group/phys_higgs/hbb/ntuples/VHbbPostNano/2018/V11-STXS/ggZH_HToBB_ZToLL_M125_13TeV_powheg_pythia8/9e40f5227b9c85688109b215e5b70c52c9b1fed16d2859e16d8a5c82/000000_000000/0000/tree_7.root
/store/group/phys_higgs/hbb/ntuples/VHbbPostNano/2018/V11-STXS/ggZH_HToBB_ZToLL_M125_13TeV_powheg_pythia8/47f1ae44cb68d16d88c758dd21f6a2967910799a55573ecf1bc7ca10/000000_000000/0000/tree_8.root