/store/group/phys_higgs/hbb/ntuples/VHbbPostNano/2018/V11/SingleMuon/10f90351d15118ff39de2d226c9a6848b802b13466ec65079eeef8b1/000000_000000/0000/tree_0.root
/store/group/phys_higgs/hbb/ntuples/VHbbPostNano/2018/V11/SingleMuon/551c363e100715710a97fb0630ad5d6c0275c1209c7b769891bc4842/000000_000000/0000/tree_1.root
/store/group/phys_higgs/hbb/ntuples/VHbbPostNano/2018/V11/SingleMuon/34c070b1425e7f8224f273a4c95ec0d243ad215c22d275cbe3051b5b/000000_000000/0000/tree_2.root
/store/group/phys_higgs/hbb/ntuples/VHbbPostNano/2018/V11/SingleMuon/06ef3ad0776e68eaa853ee36929b6a4884bf83c91ea6a5e69460e927/000000_000000/0000/tree_3.root
/store/group/phys_higgs/hbb/ntuples/VHbbPostNano/2018/V11/SingleMuon/6c013d8dae0c6b6530b1cac703b26287a8c9cbf2d70aba3cebf14b15/000000_000000/0000/tree_4.root
/store/group/phys_higgs/hbb/ntuples/VHbbPostNano/2018/V11/SingleMuon/9ad47f622e10bcc9d373c467c7744887c903f95d6c75aaf402c16e5f/000000_000000/0000/tree_5.root
/store/group/phys_higgs/hbb/ntuples/VHbbPostNano/2018/V11/SingleMuon/2eeaf9fc100d5fe9625e35f2be4faf7cf2993566c3e1b355d63374bd/000000_000000/0000/tree_6.root
/store/group/phys_higgs/hbb/ntuples/VHbbPostNano/2018/V11/SingleMuon/008ae23c019556ba8f58959985fa204586dcae58f6d3741ea29efa21/000000_000000/0000/tree_7.root
/store/group/phys_higgs/hbb/ntuples/VHbbPostNano/2018/V11/SingleMuon/f4d88436f539ced2b66c3ee341cd746b179d8806564bca352a5d90a9/000000_000000/0000/tree_8.root
/store/group/phys_higgs/hbb/ntuples/VHbbPostNano/2018/V11/SingleMuon/8e7debc7451f90ceaa3c7bf021fe1805d20099071e6387a6718f9057/000000_000000/0000/tree_9.root
/store/group/phys_higgs/hbb/ntuples/VHbbPostNano/2018/V11/SingleMuon/4ceebf0312e511ed6e2f0a7cf540bf18955e1d6a61c045d9277682b3/000000_000000/0000/tree_10.root
/store/group/phys_higgs/hbb/ntuples/VHbbPostNano/2018/V11/SingleMuon/acb96778b2b357f3c8cd37e706962817c8547f2c341c820178037d5e/000000_000000/0000/tree_11.root
/store/group/phys_higgs/hbb/ntuples/VHbbPostNano/2018/V11/SingleMuon/3643c7ad621af6de06d57d3e6925aeee17948392103bd62b99614d61/000000_000000/0000/tree_12.root
/store/group/phys_higgs/hbb/ntuples/VHbbPostNano/2018/V11/SingleMuon/314c6815bd4eea40eadd0a25eae9bb1779b06625b257f450d93c1883/000000_000000/0000/tree_13.root
/store/group/phys_higgs/hbb/ntuples/VHbbPostNano/2018/V11/SingleMuon/71c33d11c1359abb7050a5205173ebf1ac6bab5862ac6517c8790d5d/000000_000000/0000/tree_14.root
/store/group/phys_higgs/hbb/ntuples/VHbbPostNano/2018/V11/SingleMuon/f3cb81568d76ec52d4b187b559be3a3bb37dacc7d9916e9ce8670d38/000000_000000/0000/tree_15.root
/store/group/phys_higgs/hbb/ntuples/VHbbPostNano/2018/V11/SingleMuon/729d898cd2dcdf3cfbec4f016d3c19ede28bf5078a8787953906e881/000000_000000/0000/tree_16.root
/store/group/phys_higgs/hbb/ntuples/VHbbPostNano/2018/V11/SingleMuon/5199087a890cc4a5c1f4b305a0810f674b4f6b86c939ac004e26e3a1/000000_000000/0000/tree_17.root
/store/group/phys_higgs/hbb/ntuples/VHbbPostNano/2018/V11/SingleMuon/b7f8ec896487d8ab342bac1a3a3795a5bb1d1eee3d87679c2a930669/000000_000000/0000/tree_18.root
/store/group/phys_higgs/hbb/ntuples/VHbbPostNano/2018/V11/SingleMuon/46fb1eb06865650dd5b63abae9c45283c3660aa6c5ae064b379dc761/000000_000000/0000/tree_19.root
/store/group/phys_higgs/hbb/ntuples/VHbbPostNano/2018/V11/SingleMuon/d56a4826966f365de88ca97a55067161d61d03cd7239039d4e369957/000000_000000/0000/tree_20.root
/store/group/phys_higgs/hbb/ntuples/VHbbPostNano/2018/V11/SingleMuon/82d132a7edbdfbdd6ca283c0787a3802f24f7c88e9fb195d33dbd393/000000_000000/0000/tree_21.root
/store/group/phys_higgs/hbb/ntuples/VHbbPostNano/2018/V11/SingleMuon/c3cb53fa7218fd08a212bdcaf7777d1217eaf08fdb620cff9dda049e/000000_000000/0000/tree_22.root
/store/group/phys_higgs/hbb/ntuples/VHbbPostNano/2018/V11/SingleMuon/0d1e3f665109c7bb94d5ae8a8a5c45c96df977df45b8672951bbc076/000000_000000/0000/tree_23.root
/store/group/phys_higgs/hbb/ntuples/VHbbPostNano/2018/V11/SingleMuon/031f96af2e31d151bd649efbfdb6ee041406bbab3d7d16efe4b9ddb2/000000_000000/0000/tree_24.root
/store/group/phys_higgs/hbb/ntuples/VHbbPostNano/2018/V11/SingleMuon/9ee8f4aa9da399f65124d96350c03e71409e1297020aab6ac8315bc6/000000_000000/0000/tree_25.root
/store/group/phys_higgs/hbb/ntuples/VHbbPostNano/2018/V11/SingleMuon/6e469786e2d324754ac7c52f918738583a5fd7cb18baf619d98c3229/000000_000000/0000/tree_26.root
/store/group/phys_higgs/hbb/ntuples/VHbbPostNano/2018/V11/SingleMuon/d75149f60bf22340be0e8ea66b8225f847db81b191df61359c2fa862/000000_000000/0000/tree_27.root
/store/group/phys_higgs/hbb/ntuples/VHbbPostNano/2018/V11/SingleMuon/f716ec340bf1a6c44ebee3c302f7c9919ad2fd522ca183caac91cfe3/000000_000000/0000/tree_28.root
/store/group/phys_higgs/hbb/ntuples/VHbbPostNano/2018/V11/SingleMuon/21ac24f0d34953c4be239bce3761bd949f9a148b80371f09667fed7f/000000_000000/0000/tree_29.root
/store/group/phys_higgs/hbb/ntuples/VHbbPostNano/2018/V11/SingleMuon/0d676c91bd3017dc2f3f9a15f3c4378382fde7274044abf90fd67072/000000_000000/0000/tree_30.root
/store/group/phys_higgs/hbb/ntuples/VHbbPostNano/2018/V11/SingleMuon/f9eb211f74630e2d6675f60e9c1f70bef217ee95114f6b382ba98bc3/000000_000000/0000/tree_31.root
/store/group/phys_higgs/hbb/ntuples/VHbbPostNano/2018/V11/SingleMuon/51a5b4d36518f48f3016c8903a78df5796cb629427accb22fdc13af0/000000_000000/0000/tree_32.root
/store/group/phys_higgs/hbb/ntuples/VHbbPostNano/2018/V11/SingleMuon/70e5c596055457adff757938f4456a0878347bcc3dbbb964eb38ea30/000000_000000/0000/tree_33.root
/store/group/phys_higgs/hbb/ntuples/VHbbPostNano/2018/V11/SingleMuon/eac39a68242ef1b19699e18a3250141c225034c2b390a5c10fbc0ff4/000000_000000/0000/tree_34.root
/store/group/phys_higgs/hbb/ntuples/VHbbPostNano/2018/V11/SingleMuon/a151d580392c56e115d7784b52b8b9a9603465b8df2ca691398a1eaa/000000_000000/0000/tree_35.root
/store/group/phys_higgs/hbb/ntuples/VHbbPostNano/2018/V11/SingleMuon/6fcb9bc608463f3eea7dbff7428c9035782bf401475449e6dd9f0567/000000_000000/0000/tree_36.root
/store/group/phys_higgs/hbb/ntuples/VHbbPostNano/2018/V11/SingleMuon/03ea33ec21df7441d01d4877356fbb637a766b080531885a4e97ec62/000000_000000/0000/tree_37.root
/store/group/phys_higgs/hbb/ntuples/VHbbPostNano/2018/V11/SingleMuon/88c0c4dfd5eacc53b576bccb6dee181ddca6def636ab08fa58dad7ef/000000_000000/0000/tree_38.root
/store/group/phys_higgs/hbb/ntuples/VHbbPostNano/2018/V11/SingleMuon/1b35eb88bfabc31c02e2cd49a777dea19ebeca26c4966946da41f08d/000000_000000/0000/tree_39.root
/store/group/phys_higgs/hbb/ntuples/VHbbPostNano/2018/V11/SingleMuon/0f2da2703bd0204c4d54b711ca9ef4ac438a6b3f8b4744392c499eb5/000000_000000/0000/tree_40.root
/store/group/phys_higgs/hbb/ntuples/VHbbPostNano/2018/V11/SingleMuon/3f14fa29fff3ee430b2541a7f19acbe0cda63290ba4baa650da0b62d/000000_000000/0000/tree_41.root
/store/group/phys_higgs/hbb/ntuples/VHbbPostNano/2018/V11/SingleMuon/f276405613f637114ac1ede3866b4a20ce9fb538c1ce71c4cf1c835a/000000_000000/0000/tree_42.root
/store/group/phys_higgs/hbb/ntuples/VHbbPostNano/2018/V11/SingleMuon/8c0fb0a1b94e2b79ffbef69d3d7e6f95e8c66ae64713d3400e5dea34/000000_000000/0000/tree_43.root
/store/group/phys_higgs/hbb/ntuples/VHbbPostNano/2018/V11/SingleMuon/2e53de7ce5d7a1db7e4cf21d9256ce62d1c4c4fc94a2c7ec97b1a294/000000_000000/0000/tree_44.root
/store/group/phys_higgs/hbb/ntuples/VHbbPostNano/2018/V11/SingleMuon/e8a2ee2c3409a36276360da05bd14ba9b380b2344e4e0a6da381b81d/000000_000000/0000/tree_45.root
/store/group/phys_higgs/hbb/ntuples/VHbbPostNano/2018/V11/SingleMuon/800e2ecc7c020a278e1dae9ed1316e97bd599d2b5a4bf6a8228c344f/000000_000000/0000/tree_46.root
/store/group/phys_higgs/hbb/ntuples/VHbbPostNano/2018/V11/SingleMuon/7d5b58e8125b146b7652702259b085862adbfa2ba7a7c0a86a79412d/000000_000000/0000/tree_47.root
/store/group/phys_higgs/hbb/ntuples/VHbbPostNano/2018/V11/SingleMuon/ac09ecba1e5839b49346e0fabdad7f7cafcae40b77276ac4302c09c3/000000_000000/0000/tree_48.root
/store/group/phys_higgs/hbb/ntuples/VHbbPostNano/2018/V11/SingleMuon/365e1ab2bf0af67695c196ca65e72aac97d80a6053b33a2add6c1cce/000000_000000/0000/tree_49.root
/store/group/phys_higgs/hbb/ntuples/VHbbPostNano/2018/V11/SingleMuon/2afdcd50669af6e2a1dcace2b0ecb6fbf8c23f8564f16cddab9dc311/000000_000000/0000/tree_50.root
/store/group/phys_higgs/hbb/ntuples/VHbbPostNano/2018/V11/SingleMuon/7f796acd7449c95849e7d49195c6de9a02f6832867e23505b96fc72b/000000_000000/0000/tree_51.root
/store/group/phys_higgs/hbb/ntuples/VHbbPostNano/2018/V11/SingleMuon/fcc5a56207385f7f052ae2c5ad1c906d8bd7a95adfec9330da3d60cb/000000_000000/0000/tree_52.root
/store/group/phys_higgs/hbb/ntuples/VHbbPostNano/2018/V11/SingleMuon/2f256114199fdb093e582efae4b27a41884919aa6da8530c240112bd/000000_000000/0000/tree_53.root
/store/group/phys_higgs/hbb/ntuples/VHbbPostNano/2018/V11/SingleMuon/21394542231222e4bf072e5d91bff7a4968ba685ec224c0cefa3d4b7/000000_000000/0000/tree_54.root
/store/group/phys_higgs/hbb/ntuples/VHbbPostNano/2018/V11/SingleMuon/d1aed31d4680bf70b7b10423b653a73f72819c0b4018cf56c8c17cbf/000000_000000/0000/tree_55.root
/store/group/phys_higgs/hbb/ntuples/VHbbPostNano/2018/V11/SingleMuon/6ce96d8d0074e2fc017472b805023b9538bb99f18afecb86a39ce25c/000000_000000/0000/tree_56.root
/store/group/phys_higgs/hbb/ntuples/VHbbPostNano/2018/V11/SingleMuon/52252ce8d66edbcafaf4fc8140f1494da2a7513ad2e368b6fdb13c82/000000_000000/0000/tree_57.root
/store/group/phys_higgs/hbb/ntuples/VHbbPostNano/2018/V11/SingleMuon/cf4de318b77eb0dc9a948304fcd86ad19e8b831fcc7e54bc732ad682/000000_000000/0000/tree_58.root
/store/group/phys_higgs/hbb/ntuples/VHbbPostNano/2018/V11/SingleMuon/754c2ff54fab19b280af63914d788ab0de5d9328b80a4c7459ba45a4/000000_000000/0000/tree_59.root
/store/group/phys_higgs/hbb/ntuples/VHbbPostNano/2018/V11/SingleMuon/625610c97cbbea3e46d3c5a97149f30e6fbfc857c93595c6d6fce6c0/000000_000000/0000/tree_60.root
/store/group/phys_higgs/hbb/ntuples/VHbbPostNano/2018/V11/SingleMuon/0a07584dd8484b1a9cb9b4d7536fc96063ec57aba8e155b7d290a661/000000_000000/0000/tree_61.root
/store/group/phys_higgs/hbb/ntuples/VHbbPostNano/2018/V11/SingleMuon/ce540f740155f0dbec25137a838cdb44b39a924ae94c4c309057d30d/000000_000000/0000/tree_62.root
/store/group/phys_higgs/hbb/ntuples/VHbbPostNano/2018/V11/SingleMuon/a6a54e9bb6c358b5300b54487881b4dfa65d3bd1792961ae68f40c36/000000_000000/0000/tree_63.root
/store/group/phys_higgs/hbb/ntuples/VHbbPostNano/2018/V11/SingleMuon/3576c3e8c74d1bcc41d7702a9e6526b052717c633daff2550e70cf73/000000_000000/0000/tree_64.root
/store/group/phys_higgs/hbb/ntuples/VHbbPostNano/2018/V11/SingleMuon/592004a946baa6b2cfe4e77dad579b6756202922312d59774a027a8b/000000_000000/0000/tree_65.root
/store/group/phys_higgs/hbb/ntuples/VHbbPostNano/2018/V11/SingleMuon/f4ea1c76b38ae44a08fdbe3ddc35719d33730bb4fa3a34d64b88847a/000000_000000/0000/tree_66.root
/store/group/phys_higgs/hbb/ntuples/VHbbPostNano/2018/V11/SingleMuon/fd10ed41cf1483a3a00224cf484938c76bd91e542100b08d63585b5f/000000_000000/0000/tree_67.root
/store/group/phys_higgs/hbb/ntuples/VHbbPostNano/2018/V11/SingleMuon/f530956d0157ebeb9c0843f3d1a732315e8be7c230e7189832e7a27e/000000_000000/0000/tree_68.root
/store/group/phys_higgs/hbb/ntuples/VHbbPostNano/2018/V11/SingleMuon/c5569f255636cae04a83e4c0eee8d314e42317c323c91a87eb75b2d1/000000_000000/0000/tree_69.root
/store/group/phys_higgs/hbb/ntuples/VHbbPostNano/2018/V11/SingleMuon/81a173f7f960242a606cfe548fb7213e69277cdc6bc811999c0edbbc/000000_000000/0000/tree_70.root
/store/group/phys_higgs/hbb/ntuples/VHbbPostNano/2018/V11/SingleMuon/fe94d9797460743ab9d7db52b5ce9efa490a5e908f7ce53bae3b9eb4/000000_000000/0000/tree_71.root
/store/group/phys_higgs/hbb/ntuples/VHbbPostNano/2018/V11/SingleMuon/fb00a7846c84803af64e388be4652a2243c049574c63413ba409db9f/000000_000000/0000/tree_72.root
/store/group/phys_higgs/hbb/ntuples/VHbbPostNano/2018/V11/SingleMuon/0e0fa989ae3e21e9428f4015d73768a2ba9cfe44f8a899b569c711ef/000000_000000/0000/tree_73.root
/store/group/phys_higgs/hbb/ntuples/VHbbPostNano/2018/V11/SingleMuon/839a49f3d709b07825f06e68aeefbf6fae4fde7be52671bee47c814d/000000_000000/0000/tree_74.root
/store/group/phys_higgs/hbb/ntuples/VHbbPostNano/2018/V11/SingleMuon/bc27f0ef498c8afe95968192452c00a4502d676d1af7d3101e5cf7f1/000000_000000/0000/tree_75.root
/store/group/phys_higgs/hbb/ntuples/VHbbPostNano/2018/V11/SingleMuon/deb9e743344e332a0de13dc8eda4a06f1eddeef4568c9fba46151320/000000_000000/0000/tree_76.root
/store/group/phys_higgs/hbb/ntuples/VHbbPostNano/2018/V11/SingleMuon/c1a9757560b748507df79d8b42e74f782dfa7f4c39efa033c8f0ca21/000000_000000/0000/tree_77.root
/store/group/phys_higgs/hbb/ntuples/VHbbPostNano/2018/V11/SingleMuon/67447731db80245aa3876fef36ae4ad1eb113316f8b24beae15abb63/000000_000000/0000/tree_78.root
/store/group/phys_higgs/hbb/ntuples/VHbbPostNano/2018/V11/SingleMuon/72e6d26ef75df862f87f096b9b1d77b5134b844b514e0d63564d8764/000000_000000/0000/tree_79.root
/store/group/phys_higgs/hbb/ntuples/VHbbPostNano/2018/V11/SingleMuon/de152c0731580919459adb5035201acc1d04e6eaca51e8dd728be9bf/000000_000000/0000/tree_80.root
/store/group/phys_higgs/hbb/ntuples/VHbbPostNano/2018/V11/SingleMuon/9646dbd580d34cc5c5f6a364adaf203a224ae87e08cec343828fe3be/000000_000000/0000/tree_81.root
/store/group/phys_higgs/hbb/ntuples/VHbbPostNano/2018/V11/SingleMuon/833006ed563248045c1ee801fa077335c453e1996cede49ff546b705/000000_000000/0000/tree_82.root
/store/group/phys_higgs/hbb/ntuples/VHbbPostNano/2018/V11/SingleMuon/3867ced39ca33947a2851995d636fb154b8a4d014b8bfa90aa5f564a/000000_000000/0000/tree_83.root
/store/group/phys_higgs/hbb/ntuples/VHbbPostNano/2018/V11/SingleMuon/53b95d8ae78fb1978bc122ed25632def750efae0f381f754372dbe24/000000_000000/0000/tree_84.root
/store/group/phys_higgs/hbb/ntuples/VHbbPostNano/2018/V11/SingleMuon/79f783b9fc66b07b9b18a614ac0c290ee94a3df6f2f5f5791fc0de99/000000_000000/0000/tree_85.root
/store/group/phys_higgs/hbb/ntuples/VHbbPostNano/2018/V11/SingleMuon/16d66c7420f4fd83070310879fa39d241eb9b6276b9b484ed1783210/000000_000000/0000/tree_86.root
/store/group/phys_higgs/hbb/ntuples/VHbbPostNano/2018/V11/SingleMuon/fe0102e6139f67dca2a6521a8c5090742b0d332fd4ac8f8be2513961/000000_000000/0000/tree_87.root
/store/group/phys_higgs/hbb/ntuples/VHbbPostNano/2018/V11/SingleMuon/ebd4640c48fde9b9931de079d33344c5e4f2043911923b301659fef8/000000_000000/0000/tree_88.root
/store/group/phys_higgs/hbb/ntuples/VHbbPostNano/2018/V11/SingleMuon/f1a04620ebf2a187fbe81cde2e3d35e423277cde870347ec1a62942a/000000_000000/0000/tree_89.root
/store/group/phys_higgs/hbb/ntuples/VHbbPostNano/2018/V11/SingleMuon/78e77c29b9efdc87c6857b37e20e9337db1ba722eb27674676b2e649/000000_000000/0000/tree_90.root
/store/group/phys_higgs/hbb/ntuples/VHbbPostNano/2018/V11/SingleMuon/6ac145af5605a41d6ed0d47f7a577eab724aeed5b8c2561db23ff577/000000_000000/0000/tree_91.root
/store/group/phys_higgs/hbb/ntuples/VHbbPostNano/2018/V11/SingleMuon/489f1bde04789ed127b3a39c0dbdda56567f5ba12c2ef3d3c57f25ce/000000_000000/0000/tree_92.root
/store/group/phys_higgs/hbb/ntuples/VHbbPostNano/2018/V11/SingleMuon/f58acef8efa07d7a5dd9dda760ed2c18296573b4434b52dec7146bef/000000_000000/0000/tree_93.root
/store/group/phys_higgs/hbb/ntuples/VHbbPostNano/2018/V11/SingleMuon/c10c9ae1c3946ee07aca620beb229a5f01ec29cea5d46a863befaf61/000000_000000/0000/tree_94.root
/store/group/phys_higgs/hbb/ntuples/VHbbPostNano/2018/V11/SingleMuon/e251332ecff77927863c6f9b0cb2d6c039c5840802be19c625231bc3/000000_000000/0000/tree_95.root
/store/group/phys_higgs/hbb/ntuples/VHbbPostNano/2018/V11/SingleMuon/10a40e56e9893d82f86308bcacc542fe28cc81a784c77511d30b3dc4/000000_000000/0000/tree_96.root
/store/group/phys_higgs/hbb/ntuples/VHbbPostNano/2018/V11/SingleMuon/ea8c26749c057e55b1b6e4123f2d86651caeda857727c44432aea740/000000_000000/0000/tree_97.root
/store/group/phys_higgs/hbb/ntuples/VHbbPostNano/2018/V11/SingleMuon/f55e5a52eb8698c191a2eaee8af757dc99f9be7ea2928ab9ec13d04a/000000_000000/0000/tree_98.root
/store/group/phys_higgs/hbb/ntuples/VHbbPostNano/2018/V11/SingleMuon/c5d6af1027c6cdaeed9b473603f31216b43d12b951d9994f111369b4/000000_000000/0000/tree_99.root
/store/group/phys_higgs/hbb/ntuples/VHbbPostNano/2018/V11/SingleMuon/791d4a8e362dc3315ac25df606f7029b4a3baad3f6f2fea29127d7a1/000000_000000/0000/tree_100.root
/store/group/phys_higgs/hbb/ntuples/VHbbPostNano/2018/V11/SingleMuon/e7474c983fc633690d45a43a385188b481b5cf60f426065490042514/000000_000000/0000/tree_101.root
/store/group/phys_higgs/hbb/ntuples/VHbbPostNano/2018/V11/SingleMuon/f1a7a15b81c6e21acc481d66f2c2b75c793eb0bb2ae2d7d8dbf214fc/000000_000000/0000/tree_102.root
/store/group/phys_higgs/hbb/ntuples/VHbbPostNano/2018/V11/SingleMuon/35acd9bb47aef5110ab396307f81f96393662b24373079881edc3e5a/000000_000000/0000/tree_103.root
/store/group/phys_higgs/hbb/ntuples/VHbbPostNano/2018/V11/SingleMuon/a131f62607bead66994052bd808530af6761bd9a015fb35af4fcf668/000000_000000/0000/tree_104.root
/store/group/phys_higgs/hbb/ntuples/VHbbPostNano/2018/V11/SingleMuon/fc58fea1978d405494d6681eaf834e96d1d56b5ea92bce937137e524/000000_000000/0000/tree_105.root
/store/group/phys_higgs/hbb/ntuples/VHbbPostNano/2018/V11/SingleMuon/0b6c8f072d24ea72ee4e6f106b96b82d30d9ca8406fc0fcf7621a144/000000_000000/0000/tree_106.root
/store/group/phys_higgs/hbb/ntuples/VHbbPostNano/2018/V11/SingleMuon/61e0f9f63e9b71e8ff36c84f2ffb55c2babf6c5bc28ab42644ef4e44/000000_000000/0000/tree_107.root
/store/group/phys_higgs/hbb/ntuples/VHbbPostNano/2018/V11/SingleMuon/d3116263c620a08727b8da3418a7875edb7e31133f2ac83fac473390/000000_000000/0000/tree_108.root
/store/group/phys_higgs/hbb/ntuples/VHbbPostNano/2018/V11/SingleMuon/11451476b0b42e105a57d48ea0895098a2f34aed9efbfc7c35128624/000000_000000/0000/tree_109.root
/store/group/phys_higgs/hbb/ntuples/VHbbPostNano/2018/V11/SingleMuon/30dad4c8eac2a465fbfddd38899ccab0350b39ac2d101447729ac804/000000_000000/0000/tree_110.root
/store/group/phys_higgs/hbb/ntuples/VHbbPostNano/2018/V11/SingleMuon/d83462a6c2b35f65673daf22dc19c2f390e6a5d5d8b860071bb6fb26/000000_000000/0000/tree_111.root
/store/group/phys_higgs/hbb/ntuples/VHbbPostNano/2018/V11/SingleMuon/4b3d0c26270dedaa51a46be7c431bd218d29acf4164d4db758015570/000000_000000/0000/tree_112.root
/store/group/phys_higgs/hbb/ntuples/VHbbPostNano/2018/V11/SingleMuon/2e912ecabf852e2fd6eb97d4693317c72c2ed2aaaad7c0cecd94413a/000000_000000/0000/tree_113.root