/store/group/phys_higgs/hbb/ntuples/VHbbPostNano/2018/V11_bis/WJetsToLNu_HT-600To800_TuneCP5_13TeV-madgraphMLM-pythia8/b9a8e836324aa6809919348aeb3932d405e9485cc992c9015962028e/000000_000000/0000/tree_0.root
/store/group/phys_higgs/hbb/ntuples/VHbbPostNano/2018/V11_bis/WJetsToLNu_HT-600To800_TuneCP5_13TeV-madgraphMLM-pythia8/111a19fb8ff60125147f27086fa989387607d7edbfc4863555ef050d/000000_000000/0000/tree_1.root
/store/group/phys_higgs/hbb/ntuples/VHbbPostNano/2018/V11_bis/WJetsToLNu_HT-600To800_TuneCP5_13TeV-madgraphMLM-pythia8/611e109ca989f7ea6d746248110e917c978262a5bd8d1f1c16b39131/000000_000000/0000/tree_2.root
/store/group/phys_higgs/hbb/ntuples/VHbbPostNano/2018/V11_bis/WJetsToLNu_HT-600To800_TuneCP5_13TeV-madgraphMLM-pythia8/8e0e8b1db4774c9956f70ba9a43f9b0b3758d92c8273ffe395b1dd9f/000000_000000/0000/tree_3.root
/store/group/phys_higgs/hbb/ntuples/VHbbPostNano/2018/V11_bis/WJetsToLNu_HT-600To800_TuneCP5_13TeV-madgraphMLM-pythia8/fef5316b5a502501f273bf537c25e738a3e103d995c925adbee4a106/000000_000000/0000/tree_4.root
/store/group/phys_higgs/hbb/ntuples/VHbbPostNano/2018/V11_bis/WJetsToLNu_HT-600To800_TuneCP5_13TeV-madgraphMLM-pythia8/de9ecc488e198b9f08681ecf81b07723e9a01334e1748a36358c49e1/000000_000000/0000/tree_5.root
/store/group/phys_higgs/hbb/ntuples/VHbbPostNano/2018/V11_bis/WJetsToLNu_HT-600To800_TuneCP5_13TeV-madgraphMLM-pythia8/8944b5a1c5ace186ac7091ba1f0b86df69e86d7f3f5d5f19f1d8e9f2/000000_000000/0000/tree_6.root
/store/group/phys_higgs/hbb/ntuples/VHbbPostNano/2018/V11_bis/WJetsToLNu_HT-600To800_TuneCP5_13TeV-madgraphMLM-pythia8/53d16048cd2078e553031be5f26e79d12784eafc18ac1e6b4ca320ca/000000_000000/0000/tree_7.root
/store/group/phys_higgs/hbb/ntuples/VHbbPostNano/2018/V11_bis/WJetsToLNu_HT-600To800_TuneCP5_13TeV-madgraphMLM-pythia8/f0e235ebfcc142bd2f36cbf20c50ca7dc8b17cb090343fe21a0ec7db/000000_000000/0000/tree_8.root
/store/group/phys_higgs/hbb/ntuples/VHbbPostNano/2018/V11_bis/WJetsToLNu_HT-600To800_TuneCP5_13TeV-madgraphMLM-pythia8/8acbdce8bd21e90a70bc6653dec9e46917f65da91c11ed24b789be1a/000000_000000/0000/tree_9.root
/store/group/phys_higgs/hbb/ntuples/VHbbPostNano/2018/V11_bis/WJetsToLNu_HT-600To800_TuneCP5_13TeV-madgraphMLM-pythia8/a456bf1c8c9c9772a407dd7496813d5e26158361db27e7489651bd18/000000_000000/0000/tree_10.root
/store/group/phys_higgs/hbb/ntuples/VHbbPostNano/2018/V11_bis/WJetsToLNu_HT-600To800_TuneCP5_13TeV-madgraphMLM-pythia8/4a6642586fcb4863b8f722d118ab5916d5a8f6df0349750a4e29c2ef/000000_000000/0000/tree_11.root
/store/group/phys_higgs/hbb/ntuples/VHbbPostNano/2018/V11_bis/WJetsToLNu_HT-600To800_TuneCP5_13TeV-madgraphMLM-pythia8/50eb4c4e56acc30e9e5f6d394a52638cb107656620ef9b4fe8d738b0/000000_000000/0000/tree_12.root
/store/group/phys_higgs/hbb/ntuples/VHbbPostNano/2018/V11_bis/WJetsToLNu_HT-600To800_TuneCP5_13TeV-madgraphMLM-pythia8/1e144b19f374a7f0e8d44fc9554a3d12522c49c21dd7c6d1e4fe5ac0/000000_000000/0000/tree_13.root
/store/group/phys_higgs/hbb/ntuples/VHbbPostNano/2018/V11_bis/WJetsToLNu_HT-600To800_TuneCP5_13TeV-madgraphMLM-pythia8/5a4f8d50afd922e946bf4c1b031264d92ab049305242b5a045ae98a5/000000_000000/0000/tree_14.root
/store/group/phys_higgs/hbb/ntuples/VHbbPostNano/2018/V11_bis/WJetsToLNu_HT-600To800_TuneCP5_13TeV-madgraphMLM-pythia8/1c07bd461c7550c78026671b42da6128e703291a6dc0e113fef09315/000000_000000/0000/tree_15.root
/store/group/phys_higgs/hbb/ntuples/VHbbPostNano/2018/V11_bis/WJetsToLNu_HT-600To800_TuneCP5_13TeV-madgraphMLM-pythia8/795f11ae2471386bb80ef2d877cc2c3fb08c5b4cdfc97eb2974a3963/000000_000000/0000/tree_16.root
/store/group/phys_higgs/hbb/ntuples/VHbbPostNano/2018/V11_bis/WJetsToLNu_HT-600To800_TuneCP5_13TeV-madgraphMLM-pythia8/876985b5e7432263a67ced8ff60987ebe374aeea2dbe3ad928f14584/000000_000000/0000/tree_17.root
/store/group/phys_higgs/hbb/ntuples/VHbbPostNano/2018/V11_bis/WJetsToLNu_HT-600To800_TuneCP5_13TeV-madgraphMLM-pythia8/99e912b5ebdf2fc03dd9f561114599ad64d61f47d84eb809d3eb36cb/000000_000000/0000/tree_18.root
/store/group/phys_higgs/hbb/ntuples/VHbbPostNano/2018/V11_bis/WJetsToLNu_HT-600To800_TuneCP5_13TeV-madgraphMLM-pythia8/62cf3d568a39df576d02c8ee45edec3763d47cb2d5f451546a8fd9ec/000000_000000/0000/tree_19.root
/store/group/phys_higgs/hbb/ntuples/VHbbPostNano/2018/V11_bis/WJetsToLNu_HT-600To800_TuneCP5_13TeV-madgraphMLM-pythia8/31dcae775c07ba0f9395246c08f8bce14d63eb76b8ac17d12149e5ce/000000_000000/0000/tree_20.root
/store/group/phys_higgs/hbb/ntuples/VHbbPostNano/2018/V11_bis/WJetsToLNu_HT-600To800_TuneCP5_13TeV-madgraphMLM-pythia8/2c0a74fef7e92025ae680879d1e13574c632fa30a5fbc481fbd32afb/000000_000000/0000/tree_21.root