/store/group/phys_higgs/hbb/ntuples/VHbbPostNano/2018/V13/DoubleMuon/575eba978ce931b5597a996cb614dd39bbd11a284086188b7b9d014d/000000_000000/0000/tree_0.root
/store/group/phys_higgs/hbb/ntuples/VHbbPostNano/2018/V13/DoubleMuon/d534cdefdd6eea8851f4fe3b256763134f1462c8e7089194caabd6c6/000000_000000/0000/tree_1.root
/store/group/phys_higgs/hbb/ntuples/VHbbPostNano/2018/V13/DoubleMuon/4a66d7241e38517c1a0f85a8fb729ce4c61a4ecbf61eb0e6b07a4c1b/000000_000000/0000/tree_2.root
/store/group/phys_higgs/hbb/ntuples/VHbbPostNano/2018/V13/DoubleMuon/1202bbdc4fa6eedd321d68061d7d4af90147e7e08896fe502257c1e4/000000_000000/0000/tree_3.root
/store/group/phys_higgs/hbb/ntuples/VHbbPostNano/2018/V13/DoubleMuon/16b9c9ab7e64b3dfeb702415cde9cce5cc2a55341c2f7581f05d7682/000000_000000/0000/tree_4.root
/store/group/phys_higgs/hbb/ntuples/VHbbPostNano/2018/V13/DoubleMuon/5b24ee3088b297d9f5444e8fe6e862f0657468745871f0d1d0d51b54/000000_000000/0000/tree_5.root
/store/group/phys_higgs/hbb/ntuples/VHbbPostNano/2018/V13/DoubleMuon/98d1e92589954753e39b1da8d67024c806ef9ed39d3f815ebc09a7b3/000000_000000/0000/tree_6.root
/store/group/phys_higgs/hbb/ntuples/VHbbPostNano/2018/V13/DoubleMuon/eb614bd06967518602e2b9f4b93f45c462d814fc10c1d85346a72af5/000000_000000/0000/tree_7.root
/store/group/phys_higgs/hbb/ntuples/VHbbPostNano/2018/V13/DoubleMuon/e8e88532d5dac78068e496ad853275a81b777070d3ee7b02fe3c84a6/000000_000000/0000/tree_8.root
/store/group/phys_higgs/hbb/ntuples/VHbbPostNano/2018/V13/DoubleMuon/f9fbefb3e3614c7e8617949778ffca24b59c549f939aacac373cb64e/000000_000000/0000/tree_9.root
/store/group/phys_higgs/hbb/ntuples/VHbbPostNano/2018/V13/DoubleMuon/aa0cb499ac2a64641159d17779b2cf02f9162408f15044a73d4c4bbb/000000_000000/0000/tree_10.root
/store/group/phys_higgs/hbb/ntuples/VHbbPostNano/2018/V13/DoubleMuon/b8b86af0302ff138059ceaf49fc84a73212b9b443d3472dde76faea7/000000_000000/0000/tree_11.root
/store/group/phys_higgs/hbb/ntuples/VHbbPostNano/2018/V13/DoubleMuon/fa64c6d98320079de965ab1f5a916eb0aeddfe536e1dc45ff0c34a77/000000_000000/0000/tree_12.root
/store/group/phys_higgs/hbb/ntuples/VHbbPostNano/2018/V13/DoubleMuon/82de93fbe04bbe8041723fdcc448d463f27aafc1978c1c1031d14e7c/000000_000000/0000/tree_13.root
/store/group/phys_higgs/hbb/ntuples/VHbbPostNano/2018/V13/DoubleMuon/d9e35782b97c33408a493426fab92eb70f2d9c330f4ed64c5be95ed7/000000_000000/0000/tree_14.root
/store/group/phys_higgs/hbb/ntuples/VHbbPostNano/2018/V13/DoubleMuon/eb16cc0b931c53bcff1a9ca48123317d52caa974d6bbf4b855407918/000000_000000/0000/tree_15.root
/store/group/phys_higgs/hbb/ntuples/VHbbPostNano/2018/V13/DoubleMuon/0e725f0ead5cbbd80ffee456b99c22f565fe0aae053ba9f56e2129df/000000_000000/0000/tree_16.root
/store/group/phys_higgs/hbb/ntuples/VHbbPostNano/2018/V13/DoubleMuon/a0a8c45c571bf166d1a1115605477024ce0ae4a70d1d16bf3d56a173/000000_000000/0000/tree_17.root
/store/group/phys_higgs/hbb/ntuples/VHbbPostNano/2018/V13/DoubleMuon/8328657e972fcae766be13c4d023fc4b3310415ad7bcbd485efb55a7/000000_000000/0000/tree_18.root
/store/group/phys_higgs/hbb/ntuples/VHbbPostNano/2018/V13/DoubleMuon/16c207d183b4cbc9af5b28c0160e3e4c26ee8ee7b537965744334c55/000000_000000/0000/tree_19.root
/store/group/phys_higgs/hbb/ntuples/VHbbPostNano/2018/V13/DoubleMuon/a5efc49b138943b2b90056125be372cd31eb4645eae88bbf0e4d8b22/000000_000000/0000/tree_20.root
/store/group/phys_higgs/hbb/ntuples/VHbbPostNano/2018/V13/DoubleMuon/ad3daa41d34791d24a2d9ac449b109b5d5541bcc176afcb7f7a5b37f/000000_000000/0000/tree_21.root
/store/group/phys_higgs/hbb/ntuples/VHbbPostNano/2018/V13/DoubleMuon/d0aa3f89be2aeff89259a81274d62f12903b82c9c306197747da76f0/000000_000000/0000/tree_22.root
/store/group/phys_higgs/hbb/ntuples/VHbbPostNano/2018/V13/DoubleMuon/34b67dd3a6c8606188c2cbef0d91d11978a6ed0a09ca4ed30bfaec75/000000_000000/0000/tree_23.root
/store/group/phys_higgs/hbb/ntuples/VHbbPostNano/2018/V13/DoubleMuon/6d10922a089b41d87daf57589b4b6cf95b4edf280cafb27c06138ecf/000000_000000/0000/tree_24.root
/store/group/phys_higgs/hbb/ntuples/VHbbPostNano/2018/V13/DoubleMuon/6c3ca65b0a8fbcb6f643e7e4619632d303ad5d1c74d3ec1b85eefbc2/000000_000000/0000/tree_25.root
/store/group/phys_higgs/hbb/ntuples/VHbbPostNano/2018/V13/DoubleMuon/8bab962da5275d31779d2dbb94a28d6568e012a7fdec0cc0d44cd7a6/000000_000000/0000/tree_26.root
/store/group/phys_higgs/hbb/ntuples/VHbbPostNano/2018/V13/DoubleMuon/dcf45e01709d90dad9bc5315597d559233269b30eba92b101467a9e2/000000_000000/0000/tree_27.root
/store/group/phys_higgs/hbb/ntuples/VHbbPostNano/2018/V13/DoubleMuon/db13fd9db6517d6c1458b07080fa91d50b3c80a8afed9c26e347032b/000000_000000/0000/tree_28.root
/store/group/phys_higgs/hbb/ntuples/VHbbPostNano/2018/V13/DoubleMuon/9fe7b29ab57f2dafda9afbb81c0efdc34b1e24904023a67f07704d5e/000000_000000/0000/tree_29.root
/store/group/phys_higgs/hbb/ntuples/VHbbPostNano/2018/V13/DoubleMuon/0de5dd93f3271fe4a480b052697e2dd8bc0d743c6f75c0140768031b/000000_000000/0000/tree_30.root
/store/group/phys_higgs/hbb/ntuples/VHbbPostNano/2018/V13/DoubleMuon/d79d0c905b25e335396012f5df1bed40ec5e48299c2ce0926fa2f197/000000_000000/0000/tree_31.root
/store/group/phys_higgs/hbb/ntuples/VHbbPostNano/2018/V13/DoubleMuon/94bb22be007150bf153695b1fa82a4bc78fca2e239cd716e32f54f5e/000000_000000/0000/tree_32.root
/store/group/phys_higgs/hbb/ntuples/VHbbPostNano/2018/V13/DoubleMuon/688e29863ee8d394651a0dc83f0c793093465e37e53d9f7d9742d4f1/000000_000000/0000/tree_33.root
/store/group/phys_higgs/hbb/ntuples/VHbbPostNano/2018/V13/DoubleMuon/7bb2e078b4dea63ccd4b9e50ce6954fdc7c8c5fd0b5726b5c3414f7b/000000_000000/0000/tree_34.root
/store/group/phys_higgs/hbb/ntuples/VHbbPostNano/2018/V13/DoubleMuon/d9153480815fb7232fdc6751c45b953069c26e986249f54d008d6190/000000_000000/0000/tree_35.root
/store/group/phys_higgs/hbb/ntuples/VHbbPostNano/2018/V13/DoubleMuon/ebeee1e6d3eae5c6234f4b5c643277117ba14af8e81359e9a35315c0/000000_000000/0000/tree_36.root
/store/group/phys_higgs/hbb/ntuples/VHbbPostNano/2018/V13/DoubleMuon/834b3fe4a89b64f0ccb484eeeb287449515db72350c4c600d5351e0b/000000_000000/0000/tree_37.root
/store/group/phys_higgs/hbb/ntuples/VHbbPostNano/2018/V13/DoubleMuon/0a4cc5dbbf6e25fba17c427b2c92171adc23bbb62060caa003059796/000000_000000/0000/tree_38.root
/store/group/phys_higgs/hbb/ntuples/VHbbPostNano/2018/V13/DoubleMuon/d78ff100520e8a9c58797b03d64cfa52826e7e696c4bbdb8ff469b82/000000_000000/0000/tree_39.root
/store/group/phys_higgs/hbb/ntuples/VHbbPostNano/2018/V13/DoubleMuon/29cc12045f9785a98274a5b23985fa1b13868ae695aa36598be6d7ad/000000_000000/0000/tree_40.root
/store/group/phys_higgs/hbb/ntuples/VHbbPostNano/2018/V13/DoubleMuon/d62d2380e0d92a0bfbc464426c937300ba2d95a7a85965f66f4dbd9f/000000_000000/0000/tree_41.root
/store/group/phys_higgs/hbb/ntuples/VHbbPostNano/2018/V13/DoubleMuon/607e24f1aef0d536a8c20df0166d31da250c049ce628023617d9aced/000000_000000/0000/tree_42.root
/store/group/phys_higgs/hbb/ntuples/VHbbPostNano/2018/V13/DoubleMuon/15702af00ec9dfcbe82f003225a1715143712f73e27c48ac54c1b3f7/000000_000000/0000/tree_43.root
/store/group/phys_higgs/hbb/ntuples/VHbbPostNano/2018/V13/DoubleMuon/c8178df1db6e824c3ab78265126bb6e761874a6390afd79ac3d50e75/000000_000000/0000/tree_44.root
/store/group/phys_higgs/hbb/ntuples/VHbbPostNano/2018/V13/DoubleMuon/b2b89b3c27a0f51483e67e941f540cc7f3f87800e2f18bbc9c21aaae/000000_000000/0000/tree_45.root
/store/group/phys_higgs/hbb/ntuples/VHbbPostNano/2018/V13/DoubleMuon/8928a84726984489bc45071aa217d92b7910a39b368e2b4da832f4b1/000000_000000/0000/tree_46.root
/store/group/phys_higgs/hbb/ntuples/VHbbPostNano/2018/V13/DoubleMuon/71cd61652c36f9e2aec44b82710d80c4dbc496dbfb07673b61c4ede7/000000_000000/0000/tree_47.root
/store/group/phys_higgs/hbb/ntuples/VHbbPostNano/2018/V13/DoubleMuon/0a5920b07073bd6e7a8a11ad84cdcb1fb9fade09e13d820318e7119b/000000_000000/0000/tree_48.root
/store/group/phys_higgs/hbb/ntuples/VHbbPostNano/2018/V13/DoubleMuon/29b6fdb3720bc9d9a14de1dd03aefaeca4427730f7dad6e372bb11ae/000000_000000/0000/tree_49.root
/store/group/phys_higgs/hbb/ntuples/VHbbPostNano/2018/V13/DoubleMuon/38d694cdd1a92f299add136f76bb42b984b508cc141f3d3d415a1390/000000_000000/0000/tree_50.root
/store/group/phys_higgs/hbb/ntuples/VHbbPostNano/2018/V13/DoubleMuon/9bc9b9471427547f64d749db9177e02077b6df9eb5501c2413a14e67/000000_000000/0000/tree_51.root
/store/group/phys_higgs/hbb/ntuples/VHbbPostNano/2018/V13/DoubleMuon/fe46da112f79e670a79be4ef539c61630cfa7f54befdd87e9467698a/000000_000000/0000/tree_52.root
/store/group/phys_higgs/hbb/ntuples/VHbbPostNano/2018/V13/DoubleMuon/f498181735e6d599ab913b1a4f5792d45706c0021476462d5ff74d97/000000_000000/0000/tree_53.root
/store/group/phys_higgs/hbb/ntuples/VHbbPostNano/2018/V13/DoubleMuon/9d9566ba446bf08d74fb0067f7bfeae9ba7c7176636cfb141851adaf/000000_000000/0000/tree_54.root
/store/group/phys_higgs/hbb/ntuples/VHbbPostNano/2018/V13/DoubleMuon/376d0e7b097357475bc2b7d3886f773d9281b908a3c3c6d12f7d67ca/000000_000000/0000/tree_55.root
/store/group/phys_higgs/hbb/ntuples/VHbbPostNano/2018/V13/DoubleMuon/505c461a2adafb2eb282f22518bd13e359d3807649a399e5f62b0672/000000_000000/0000/tree_56.root
/store/group/phys_higgs/hbb/ntuples/VHbbPostNano/2018/V13/DoubleMuon/e2bd4f37b8c61652e15ab673eb0051e14aa455618758b780b631b663/000000_000000/0000/tree_57.root
/store/group/phys_higgs/hbb/ntuples/VHbbPostNano/2018/V13/DoubleMuon/e1d1e9bec719ffadd452b723bf14ff339c8fede7581a2832a7f25ff0/000000_000000/0000/tree_58.root
/store/group/phys_higgs/hbb/ntuples/VHbbPostNano/2018/V13/DoubleMuon/e6230a84d50e102dc57249b58b0d954da943b7540328f88a814c77bd/000000_000000/0000/tree_59.root
/store/group/phys_higgs/hbb/ntuples/VHbbPostNano/2018/V13/DoubleMuon/ef44eae83d57e11e4f7b389e2a9f2b52c2a94c450014eae2218ebc87/000000_000000/0000/tree_60.root
/store/group/phys_higgs/hbb/ntuples/VHbbPostNano/2018/V13/DoubleMuon/9df059d09878a7d52dfc998ea6cd54e8bb2402a405ec86244fcd874d/000000_000000/0000/tree_61.root
/store/group/phys_higgs/hbb/ntuples/VHbbPostNano/2018/V13/DoubleMuon/8ee874e45dd7ad55adc158ff6c3cec94ff62f29e636379f2f187cede/000000_000000/0000/tree_62.root
/store/group/phys_higgs/hbb/ntuples/VHbbPostNano/2018/V13/DoubleMuon/a141837d9873c9d35947d2f319939960313c727661c514e33e4b60ed/000000_000000/0000/tree_63.root
/store/group/phys_higgs/hbb/ntuples/VHbbPostNano/2018/V13/DoubleMuon/2bc78c52dda5a5e0c89bb2823f4a13d9f15036d67bc9423713f21290/000000_000000/0000/tree_64.root
/store/group/phys_higgs/hbb/ntuples/VHbbPostNano/2018/V13/DoubleMuon/bfc0dd53b01819a49bb15e33fc9996f3681a2cf356d1392299dc1041/000000_000000/0000/tree_65.root
/store/group/phys_higgs/hbb/ntuples/VHbbPostNano/2018/V13/DoubleMuon/3284ef76471e298f431b3639d58e3ff613b905600cf89d41122b37c9/000000_000000/0000/tree_66.root
/store/group/phys_higgs/hbb/ntuples/VHbbPostNano/2018/V13/DoubleMuon/235967cc1a4ad9668f75c6082ce51fff247bc31d56216f060b279956/000000_000000/0000/tree_67.root
/store/group/phys_higgs/hbb/ntuples/VHbbPostNano/2018/V13/DoubleMuon/350b558ec47d266b99b39a26f7aff6e37f354176b549b601d65df9e7/000000_000000/0000/tree_68.root
/store/group/phys_higgs/hbb/ntuples/VHbbPostNano/2018/V13/DoubleMuon/a0e4f6e4a57b3c2becc9f7929ff2d37eef83d7bfe5c3c3b75099851c/000000_000000/0000/tree_69.root
/store/group/phys_higgs/hbb/ntuples/VHbbPostNano/2018/V13/DoubleMuon/a645fe99f35fb32ecee4a2a5ee2a23ebd348669bfbeabf655ad2b6db/000000_000000/0000/tree_70.root
/store/group/phys_higgs/hbb/ntuples/VHbbPostNano/2018/V13/DoubleMuon/4406ccce20a92d6390014f47aea97943b3f94d54511bbfdf03a7732e/000000_000000/0000/tree_71.root
/store/group/phys_higgs/hbb/ntuples/VHbbPostNano/2018/V13/DoubleMuon/0acb0b216d6be86c89e8a952e9d9ccca84b56aa1a653a7719fad0fed/000000_000000/0000/tree_72.root
/store/group/phys_higgs/hbb/ntuples/VHbbPostNano/2018/V13/DoubleMuon/99b9abb1d9bc2e1b86be38f5f90ce7c4fc51aeacdd8f781cf2d0c2a0/000000_000000/0000/tree_73.root
/store/group/phys_higgs/hbb/ntuples/VHbbPostNano/2018/V13/DoubleMuon/0cdb7565fb351e41a680c45165e9dd2166d3d2c20cd66e4d156cad24/000000_000000/0000/tree_74.root
/store/group/phys_higgs/hbb/ntuples/VHbbPostNano/2018/V13/DoubleMuon/66fd6a2f47227f2d8a966c5950c120c4c1b526d6f6e07e8cd504fa7c/000000_000000/0000/tree_75.root
/store/group/phys_higgs/hbb/ntuples/VHbbPostNano/2018/V13/DoubleMuon/a679b37b64313a99bdf2ae290e236cd3c0a71266cd02693d0bd0f0bb/000000_000000/0000/tree_76.root
/store/group/phys_higgs/hbb/ntuples/VHbbPostNano/2018/V13/DoubleMuon/a15be3189bc378f91db6f854f85082af4e94718a11a2327d79d030bc/000000_000000/0000/tree_77.root
/store/group/phys_higgs/hbb/ntuples/VHbbPostNano/2018/V13/DoubleMuon/4fee23c3a958eb95cb3c990cc1a78abad027ae4cdeda786d8468aea0/000000_000000/0000/tree_78.root
/store/group/phys_higgs/hbb/ntuples/VHbbPostNano/2018/V13/DoubleMuon/b9bd3eee4df30d7ca40422a073ffaa26791bf32c4dc2b76a2e79e749/000000_000000/0000/tree_79.root
/store/group/phys_higgs/hbb/ntuples/VHbbPostNano/2018/V13/DoubleMuon/68c92d043aa9644824143e4bf6dbc30b4c5e01e1dee8391a084af9e7/000000_000000/0000/tree_80.root
/store/group/phys_higgs/hbb/ntuples/VHbbPostNano/2018/V13/DoubleMuon/bd833d93bfb0101ff34105e94d65fe6fa2a269af2caf034a2d09154a/000000_000000/0000/tree_81.root
/store/group/phys_higgs/hbb/ntuples/VHbbPostNano/2018/V13/DoubleMuon/f9e42d198ede7af37d81d21bb2da6d17bac2313449d412c47795af80/000000_000000/0000/tree_82.root
/store/group/phys_higgs/hbb/ntuples/VHbbPostNano/2018/V13/DoubleMuon/c6533e7c760e89e8852d139f665bc82ca7e9b6b31e8ccbb0a64878a0/000000_000000/0000/tree_83.root
/store/group/phys_higgs/hbb/ntuples/VHbbPostNano/2018/V13/DoubleMuon/e3fd96a9a91ae04f0f21e7a939fb229cd4fe111a8e6a4f0b190cbaac/000000_000000/0000/tree_84.root
/store/group/phys_higgs/hbb/ntuples/VHbbPostNano/2018/V13/DoubleMuon/ab53cfd3b645594e56b09f139d37578c938c8014b7b26d0ef9927a6f/000000_000000/0000/tree_85.root
/store/group/phys_higgs/hbb/ntuples/VHbbPostNano/2018/V13/DoubleMuon/2ad00a6867f220941a0e255707a26c12ebb581322e1cef24a390cb86/000000_000000/0000/tree_86.root
/store/group/phys_higgs/hbb/ntuples/VHbbPostNano/2018/V13/DoubleMuon/2d7f1b6401137ea93d120b80e674c78158651f016e9e4af98861cb5e/000000_000000/0000/tree_87.root
/store/group/phys_higgs/hbb/ntuples/VHbbPostNano/2018/V13/DoubleMuon/6f931a1c7e30da9b0326e82d922e5a0e3ed0038ce0b77f047afb1f09/000000_000000/0000/tree_88.root
/store/group/phys_higgs/hbb/ntuples/VHbbPostNano/2018/V13/DoubleMuon/e3219caa3d7db422934ad5f361ef0525890a25b59388e2a354cde601/000000_000000/0000/tree_89.root
/store/group/phys_higgs/hbb/ntuples/VHbbPostNano/2018/V13/DoubleMuon/4a1da0f6c3f4bcc35c8b30c49529148b0806f22ca044aef4fc7a616e/000000_000000/0000/tree_90.root
/store/group/phys_higgs/hbb/ntuples/VHbbPostNano/2018/V13/DoubleMuon/51e20662d9b16edcd50e0d19789d35e40632ea14ae5a22243d42b042/000000_000000/0000/tree_91.root
/store/group/phys_higgs/hbb/ntuples/VHbbPostNano/2018/V13/DoubleMuon/3be5f514159d2b3ea0c739185d0c9dfe891fe127b2ebcfd36251c5e2/000000_000000/0000/tree_92.root
/store/group/phys_higgs/hbb/ntuples/VHbbPostNano/2018/V13/DoubleMuon/cbbede7010f3ef66fc7bf834b6df216cacf3a4c64460894d2f4d0c2f/000000_000000/0000/tree_93.root
/store/group/phys_higgs/hbb/ntuples/VHbbPostNano/2018/V13/DoubleMuon/16ce46c87fc944e275ad70b0fdd4396a55385569af957fe0c47eb568/000000_000000/0000/tree_94.root
/store/group/phys_higgs/hbb/ntuples/VHbbPostNano/2018/V13/DoubleMuon/d91b288182b64f7fb2aaad6d872dc8d7f57e862f9905fb0d8de6af25/000000_000000/0000/tree_95.root
/store/group/phys_higgs/hbb/ntuples/VHbbPostNano/2018/V13/DoubleMuon/e9350bd702bdb78d08c685dc1fc667cc43b3e5067ed6c1e530aaa3f4/000000_000000/0000/tree_96.root
/store/group/phys_higgs/hbb/ntuples/VHbbPostNano/2018/V13/DoubleMuon/017f1448a310ac8d74a053b94ffdc4ba56187d004f233a0be241f5a0/000000_000000/0000/tree_97.root
/store/group/phys_higgs/hbb/ntuples/VHbbPostNano/2018/V13/DoubleMuon/77bdaeb315e3a826e8407b638289759bcde6d9c56680311dea519bb9/000000_000000/0000/tree_98.root
/store/group/phys_higgs/hbb/ntuples/VHbbPostNano/2018/V13/DoubleMuon/29fcfc994f145d3bcf21c424f8f361b33775e7d8f4caa75c98b0268d/000000_000000/0000/tree_99.root
/store/group/phys_higgs/hbb/ntuples/VHbbPostNano/2018/V13/DoubleMuon/aa4a459f88b3df710da2825544af7a2deec3229320d635ac70f23e50/000000_000000/0000/tree_100.root
/store/group/phys_higgs/hbb/ntuples/VHbbPostNano/2018/V13/DoubleMuon/d701a21b5449bdcbaeb61460b2276fb66052faf3084a683a49644db3/000000_000000/0000/tree_101.root
/store/group/phys_higgs/hbb/ntuples/VHbbPostNano/2018/V13/DoubleMuon/5de39bb77dc9d92d2b00102d281388f921661922483a8a5286666b3f/000000_000000/0000/tree_102.root
/store/group/phys_higgs/hbb/ntuples/VHbbPostNano/2018/V13/DoubleMuon/15bd9edad1c474cc7cef68fcb70404de28e937f131e0c90dc291c0d5/000000_000000/0000/tree_103.root
/store/group/phys_higgs/hbb/ntuples/VHbbPostNano/2018/V13/DoubleMuon/37dbfa5503952a560de954f786691fc5068b8d2920920a5bac1bccfc/000000_000000/0000/tree_104.root
/store/group/phys_higgs/hbb/ntuples/VHbbPostNano/2018/V13/DoubleMuon/58065202083fe19b9142f34186c7e4d00a3abab4c6dea327f0f629a7/000000_000000/0000/tree_105.root
/store/group/phys_higgs/hbb/ntuples/VHbbPostNano/2018/V13/DoubleMuon/94baf9660eb7cb6585854129dd17fdbd5f9d85d516b392778b571dde/000000_000000/0000/tree_106.root
/store/group/phys_higgs/hbb/ntuples/VHbbPostNano/2018/V13/DoubleMuon/056b3f581b4cf6a0a01bb6936e873699bbf23c0076fa5b9898aa62e7/000000_000000/0000/tree_107.root
/store/group/phys_higgs/hbb/ntuples/VHbbPostNano/2018/V13/DoubleMuon/df8ab7c837952c3a9b2ec8dd97155427386e1985a081765a58b75409/000000_000000/0000/tree_108.root
/store/group/phys_higgs/hbb/ntuples/VHbbPostNano/2018/V13/DoubleMuon/cb0c3cb4b8e7bb73e3ca4818f1626766517f2ac06f07d58e71d8a5ef/000000_000000/0000/tree_109.root
/store/group/phys_higgs/hbb/ntuples/VHbbPostNano/2018/V13/DoubleMuon/e1ab879e2a785330e1955ca9d77b80f44a392e2bc652685cb750ea18/000000_000000/0000/tree_110.root
/store/group/phys_higgs/hbb/ntuples/VHbbPostNano/2018/V13/DoubleMuon/5760df4c085b02c68326102df86ae820ad074cfa454beeea8db0ada8/000000_000000/0000/tree_111.root
/store/group/phys_higgs/hbb/ntuples/VHbbPostNano/2018/V13/DoubleMuon/9a2a1a38727e93eb58f11843cae5a9c0e6c2918f61028e522dbf5d57/000000_000000/0000/tree_112.root
/store/group/phys_higgs/hbb/ntuples/VHbbPostNano/2018/V13/DoubleMuon/05a303fdfb17b7db7c332bea303eac7e660cbc93b7c4ac851df5ee25/000000_000000/0000/tree_113.root
/store/group/phys_higgs/hbb/ntuples/VHbbPostNano/2018/V13/DoubleMuon/df828cce2dc85b5cc543f5823da076bb59de9635cce83781ddd6ee6a/000000_000000/0000/tree_114.root
/store/group/phys_higgs/hbb/ntuples/VHbbPostNano/2018/V13/DoubleMuon/6f2c9d3a033dc26a499929e209b92bc4b87565a1e4a0c4e5b06ade1f/000000_000000/0000/tree_115.root
/store/group/phys_higgs/hbb/ntuples/VHbbPostNano/2018/V13/DoubleMuon/191866313055e7a34fcd154b8ab0fda85b5308c7b1d34b076527c7f7/000000_000000/0000/tree_116.root
/store/group/phys_higgs/hbb/ntuples/VHbbPostNano/2018/V13/DoubleMuon/f97a3646c84067eb818d22c640a6978cfbd483709ba74d9e9cd64759/000000_000000/0000/tree_117.root
/store/group/phys_higgs/hbb/ntuples/VHbbPostNano/2018/V13/DoubleMuon/dbaf42ecb2cf1a122755d90d8df0dcb55a01ac4f3c24b9f09c82b7a6/000000_000000/0000/tree_118.root