/store/group/phys_higgs/hbb/ntuples/VHbbPostNano/2018/V13/DYJetsToLL_BGenFilter_Zpt-200toInf_M-50_TuneCP5_13TeV-madgraphMLM-pythia8/RunIIAutumn18NanoAODv7-Nano02A83/200616_175530/8f9bd06af031353ae93ae161d74ad1d5abde38db762f37c4ba521d18/000000_000000/0000/tree_0.root
/store/group/phys_higgs/hbb/ntuples/VHbbPostNano/2018/V13/DYJetsToLL_BGenFilter_Zpt-200toInf_M-50_TuneCP5_13TeV-madgraphMLM-pythia8/RunIIAutumn18NanoAODv7-Nano02A83/200616_175530/2d814eaf16693d06b9bfeaca75a62aa945239d7fb92c893107d5459f/000000_000000/0000/tree_1.root
/store/group/phys_higgs/hbb/ntuples/VHbbPostNano/2018/V13/DYJetsToLL_BGenFilter_Zpt-200toInf_M-50_TuneCP5_13TeV-madgraphMLM-pythia8/RunIIAutumn18NanoAODv7-Nano02A83/200616_175530/fc7d3b2db81956d53342e96f743c1bda16e7f97759ed64cdc4c5ca10/000000_000000/0000/tree_2.root
/store/group/phys_higgs/hbb/ntuples/VHbbPostNano/2018/V13/DYJetsToLL_BGenFilter_Zpt-200toInf_M-50_TuneCP5_13TeV-madgraphMLM-pythia8/RunIIAutumn18NanoAODv7-Nano02A83/200616_175530/b8610ef6c4b50355d78c947115ee14941545c306b4d7a42b6aedeb69/000000_000000/0000/tree_3.root
/store/group/phys_higgs/hbb/ntuples/VHbbPostNano/2018/V13/DYJetsToLL_BGenFilter_Zpt-200toInf_M-50_TuneCP5_13TeV-madgraphMLM-pythia8/RunIIAutumn18NanoAODv7-Nano02A83/200616_175530/131c1ae329b2149b723d9c3ae12738cbc60cea98ef550ca35efb9d07/000000_000000/0000/tree_4.root
/store/group/phys_higgs/hbb/ntuples/VHbbPostNano/2018/V13/DYJetsToLL_BGenFilter_Zpt-200toInf_M-50_TuneCP5_13TeV-madgraphMLM-pythia8/RunIIAutumn18NanoAODv7-Nano02A83/200616_175530/f900515cf11f5294c9e0569b0a96884f78e579c296b837182967c1e7/000000_000000/0000/tree_5.root