/store/group/phys_higgs/hbb/ntuples/VHbbPostNano/2018/V13/DYJetsToLL_M-50_HT-200to400_TuneCP5_PSweights_13TeV-madgraphMLM-pythia8/RunIIAutumn18NanoAODv7-Nano02A84/200708_081330/42dfac29fea602ba50db68aa540e062d123ba2c88175aba91745e170/000000_000000/0000/tree_0.root
/store/group/phys_higgs/hbb/ntuples/VHbbPostNano/2018/V13/DYJetsToLL_M-50_HT-200to400_TuneCP5_PSweights_13TeV-madgraphMLM-pythia8/RunIIAutumn18NanoAODv7-Nano02A84/200708_081330/4080fbb7612a1431fa72079f9cdf6c1083645498c42eb575c8bf8be7/000000_000000/0000/tree_1.root
/store/group/phys_higgs/hbb/ntuples/VHbbPostNano/2018/V13/DYJetsToLL_M-50_HT-200to400_TuneCP5_PSweights_13TeV-madgraphMLM-pythia8/RunIIAutumn18NanoAODv7-Nano02A84/200708_081330/0a0907e66b2b64cff03a2f7101b99a0ea8255ef6debaf9dcd194c9a8/000000_000000/0000/tree_2.root
/store/group/phys_higgs/hbb/ntuples/VHbbPostNano/2018/V13/DYJetsToLL_M-50_HT-200to400_TuneCP5_PSweights_13TeV-madgraphMLM-pythia8/RunIIAutumn18NanoAODv7-Nano02A84/200708_081330/f6f5d730a47e78725583f6cff3d1e83506be22796ffe2a959c801ff2/000000_000000/0000/tree_3.root
/store/group/phys_higgs/hbb/ntuples/VHbbPostNano/2018/V13/DYJetsToLL_M-50_HT-200to400_TuneCP5_PSweights_13TeV-madgraphMLM-pythia8/RunIIAutumn18NanoAODv7-Nano02A84/200708_081330/a1be42f4a759542730bd87628d375716fc62beb782d80480f8fa60ce/000000_000000/0000/tree_4.root
/store/group/phys_higgs/hbb/ntuples/VHbbPostNano/2018/V13/DYJetsToLL_M-50_HT-200to400_TuneCP5_PSweights_13TeV-madgraphMLM-pythia8/RunIIAutumn18NanoAODv7-Nano02A84/200708_081330/24a0bfa7d3768afb37949f696bc98d2b2df4e7d0b32e06388164ffc6/000000_000000/0000/tree_5.root
/store/group/phys_higgs/hbb/ntuples/VHbbPostNano/2018/V13/DYJetsToLL_M-50_HT-200to400_TuneCP5_PSweights_13TeV-madgraphMLM-pythia8/RunIIAutumn18NanoAODv7-Nano02A84/200708_081330/e5ece64d88bea3898439da176e0ffcc3734d6047f0f50c6343bf1d1e/000000_000000/0000/tree_6.root
/store/group/phys_higgs/hbb/ntuples/VHbbPostNano/2018/V13/DYJetsToLL_M-50_HT-200to400_TuneCP5_PSweights_13TeV-madgraphMLM-pythia8/RunIIAutumn18NanoAODv7-Nano02A84/200708_081330/a237e44fb9f6da14c3e7179d319dec15146ca8bcc0cb89bde2cee98e/000000_000000/0000/tree_7.root
/store/group/phys_higgs/hbb/ntuples/VHbbPostNano/2018/V13/DYJetsToLL_M-50_HT-200to400_TuneCP5_PSweights_13TeV-madgraphMLM-pythia8/RunIIAutumn18NanoAODv7-Nano02A84/200708_081330/c849883522b6a5a08f1d757547fba2777ec5bb2186f154c6ed76afad/000000_000000/0000/tree_8.root
/store/group/phys_higgs/hbb/ntuples/VHbbPostNano/2018/V13/DYJetsToLL_M-50_HT-200to400_TuneCP5_PSweights_13TeV-madgraphMLM-pythia8/RunIIAutumn18NanoAODv7-Nano02A84/200708_081330/a3413f2b678b33b2339c09233cf759f0d1dba5181aa13b59c8f24fd6/000000_000000/0000/tree_9.root
/store/group/phys_higgs/hbb/ntuples/VHbbPostNano/2018/V13/DYJetsToLL_M-50_HT-200to400_TuneCP5_PSweights_13TeV-madgraphMLM-pythia8/RunIIAutumn18NanoAODv7-Nano02A84/200708_081330/73f0517ac5352574e43701b5fbf959d7dc28d7da1375e82e6728902b/000000_000000/0000/tree_10.root
/store/group/phys_higgs/hbb/ntuples/VHbbPostNano/2018/V13/DYJetsToLL_M-50_HT-200to400_TuneCP5_PSweights_13TeV-madgraphMLM-pythia8/RunIIAutumn18NanoAODv7-Nano02A84/200708_081330/3017343df5446d6587c5ded1ae108d3c5c95fe07a1679e049e4dcb00/000000_000000/0000/tree_11.root
/store/group/phys_higgs/hbb/ntuples/VHbbPostNano/2018/V13/DYJetsToLL_M-50_HT-200to400_TuneCP5_PSweights_13TeV-madgraphMLM-pythia8/RunIIAutumn18NanoAODv7-Nano02A84/200708_081330/75dc69e7eee489cfc379e971ae780c18b8ab2f2026b38c3655c2bad8/000000_000000/0000/tree_12.root
/store/group/phys_higgs/hbb/ntuples/VHbbPostNano/2018/V13/DYJetsToLL_M-50_HT-200to400_TuneCP5_PSweights_13TeV-madgraphMLM-pythia8/RunIIAutumn18NanoAODv7-Nano02A84/200708_081330/9ee904e981e863bb52e9f300e538e92d99f613c8f93fc35b73326d98/000000_000000/0000/tree_13.root
/store/group/phys_higgs/hbb/ntuples/VHbbPostNano/2018/V13/DYJetsToLL_M-50_HT-200to400_TuneCP5_PSweights_13TeV-madgraphMLM-pythia8/RunIIAutumn18NanoAODv7-Nano02A84/200708_081330/3fd82820e80c351e8be2c94933b3ca2fa68c0490068689f8a66281c9/000000_000000/0000/tree_14.root
/store/group/phys_higgs/hbb/ntuples/VHbbPostNano/2018/V13/DYJetsToLL_M-50_HT-200to400_TuneCP5_PSweights_13TeV-madgraphMLM-pythia8/RunIIAutumn18NanoAODv7-Nano02A84/200708_081330/fc56fd1aba792d846b384b31253aba5a97bd4c7e157d739024d8bafc/000000_000000/0000/tree_15.root
/store/group/phys_higgs/hbb/ntuples/VHbbPostNano/2018/V13/DYJetsToLL_M-50_HT-200to400_TuneCP5_PSweights_13TeV-madgraphMLM-pythia8/RunIIAutumn18NanoAODv7-Nano02A84/200708_081330/9c75ddb1b25edb334786570bae9c96097af0097cced6bf2be8cf7b23/000000_000000/0000/tree_16.root
/store/group/phys_higgs/hbb/ntuples/VHbbPostNano/2018/V13/DYJetsToLL_M-50_HT-200to400_TuneCP5_PSweights_13TeV-madgraphMLM-pythia8/RunIIAutumn18NanoAODv7-Nano02A84/200708_081330/5baf5769e32a02f9cd2ce34313532f4accb3f400fb97f9f25cc93cd0/000000_000000/0000/tree_17.root
/store/group/phys_higgs/hbb/ntuples/VHbbPostNano/2018/V13/DYJetsToLL_M-50_HT-200to400_TuneCP5_PSweights_13TeV-madgraphMLM-pythia8/RunIIAutumn18NanoAODv7-Nano02A84/200708_081330/48fc89ae20fa8766c96577673625ada07761bed6471668ece7964e1c/000000_000000/0000/tree_18.root
/store/group/phys_higgs/hbb/ntuples/VHbbPostNano/2018/V13/DYJetsToLL_M-50_HT-200to400_TuneCP5_PSweights_13TeV-madgraphMLM-pythia8/RunIIAutumn18NanoAODv7-Nano02A84/200708_081330/1a085ab2bf998e0485c12193d330afe088af43dc0fa7108ee335b0da/000000_000000/0000/tree_19.root
/store/group/phys_higgs/hbb/ntuples/VHbbPostNano/2018/V13/DYJetsToLL_M-50_HT-200to400_TuneCP5_PSweights_13TeV-madgraphMLM-pythia8/RunIIAutumn18NanoAODv7-Nano02A84/200708_081330/a233a15725cb879e0baecfda892c2f726c91347f7d668a0952490371/000000_000000/0000/tree_20.root
/store/group/phys_higgs/hbb/ntuples/VHbbPostNano/2018/V13/DYJetsToLL_M-50_HT-200to400_TuneCP5_PSweights_13TeV-madgraphMLM-pythia8/RunIIAutumn18NanoAODv7-Nano02A84/200708_081330/7227c54e596a15ffae33f6979fc35f30603ed9841aa49e2f57f48e22/000000_000000/0000/tree_21.root
/store/group/phys_higgs/hbb/ntuples/VHbbPostNano/2018/V13/DYJetsToLL_M-50_HT-200to400_TuneCP5_PSweights_13TeV-madgraphMLM-pythia8/RunIIAutumn18NanoAODv7-Nano02A84/200708_081330/d58adfd8b4b2bef3b7ee2a7b4729e650816a78a26557f6c65cbc9507/000000_000000/0000/tree_22.root