/store/group/phys_higgs/hbb/ntuples/VHbbPostNano/2018/V12/DY2JetsToLL_M-50_LHEZpT_50-150_TuneCP5_13TeV-amcnloFXFX-pythia8/a5367ff1314fd9323d047acd392ccaf79cfdd4da2d23e6ab73c512a6/000000_000000/0000/tree_0.root
/store/group/phys_higgs/hbb/ntuples/VHbbPostNano/2018/V12/DY2JetsToLL_M-50_LHEZpT_50-150_TuneCP5_13TeV-amcnloFXFX-pythia8/2c8681cb04fdbe6b3ae7eb4c3fe5893dfdf027b90a4fbfd75a031713/000000_000000/0000/tree_1.root
/store/group/phys_higgs/hbb/ntuples/VHbbPostNano/2018/V12/DY2JetsToLL_M-50_LHEZpT_50-150_TuneCP5_13TeV-amcnloFXFX-pythia8/24229830a81e009531272414ebc8a718aff873f454367519ccf6e78e/000000_000000/0000/tree_2.root
/store/group/phys_higgs/hbb/ntuples/VHbbPostNano/2018/V12/DY2JetsToLL_M-50_LHEZpT_50-150_TuneCP5_13TeV-amcnloFXFX-pythia8/c7931d32c0f28dc46731e9efb7c6bcef112236824eae07f2bb0670c0/000000_000000/0000/tree_3.root
/store/group/phys_higgs/hbb/ntuples/VHbbPostNano/2018/V12/DY2JetsToLL_M-50_LHEZpT_50-150_TuneCP5_13TeV-amcnloFXFX-pythia8/f179dd642ab38c7db50ea2754f1f3c1cddd0b817c1f78a80907ad5b3/000000_000000/0000/tree_4.root
/store/group/phys_higgs/hbb/ntuples/VHbbPostNano/2018/V12/DY2JetsToLL_M-50_LHEZpT_50-150_TuneCP5_13TeV-amcnloFXFX-pythia8/a029f3139265d1529b05feea2ed156b6996c67593cebc0f3df8c1ccd/000000_000000/0000/tree_5.root
/store/group/phys_higgs/hbb/ntuples/VHbbPostNano/2018/V12/DY2JetsToLL_M-50_LHEZpT_50-150_TuneCP5_13TeV-amcnloFXFX-pythia8/bbeeb88336b05337613435b04da732317d017bef9d82059f632631b0/000000_000000/0000/tree_6.root
/store/group/phys_higgs/hbb/ntuples/VHbbPostNano/2018/V12/DY2JetsToLL_M-50_LHEZpT_50-150_TuneCP5_13TeV-amcnloFXFX-pythia8/5704188bf9833100f6786ced600e89fe734ec0f70303a79bc9e54400/000000_000000/0000/tree_7.root
/store/group/phys_higgs/hbb/ntuples/VHbbPostNano/2018/V12/DY2JetsToLL_M-50_LHEZpT_50-150_TuneCP5_13TeV-amcnloFXFX-pythia8/1e116082593e1a5d958ccbf76eb8e1c76830a7182d16ad8473eec61f/000000_000000/0000/tree_8.root
/store/group/phys_higgs/hbb/ntuples/VHbbPostNano/2018/V12/DY2JetsToLL_M-50_LHEZpT_50-150_TuneCP5_13TeV-amcnloFXFX-pythia8/6c483c95690589a252060b2aeb802f9e7e8d3db97c4c0a71395bcf09/000000_000000/0000/tree_9.root
/store/group/phys_higgs/hbb/ntuples/VHbbPostNano/2018/V12/DY2JetsToLL_M-50_LHEZpT_50-150_TuneCP5_13TeV-amcnloFXFX-pythia8/28cb3166e5d646ae6b1ea5c2b13d0da4e9fa2c385fa7de3b39c2aebd/000000_000000/0000/tree_10.root
/store/group/phys_higgs/hbb/ntuples/VHbbPostNano/2018/V12/DY2JetsToLL_M-50_LHEZpT_50-150_TuneCP5_13TeV-amcnloFXFX-pythia8/2fd006a14c3993d1db0e1f73e7dcf4963606e346f4fd7f78f4eda826/000000_000000/0000/tree_11.root
/store/group/phys_higgs/hbb/ntuples/VHbbPostNano/2018/V12/DY2JetsToLL_M-50_LHEZpT_50-150_TuneCP5_13TeV-amcnloFXFX-pythia8/2c3a65440172b4d3f6e50e6b4c12e2ca83e601391a25fa1f26b3f626/000000_000000/0000/tree_12.root
/store/group/phys_higgs/hbb/ntuples/VHbbPostNano/2018/V12/DY2JetsToLL_M-50_LHEZpT_50-150_TuneCP5_13TeV-amcnloFXFX-pythia8/2bfd6030131bb570678b5c66d242594456a2570947a9e754ec9de2cc/000000_000000/0000/tree_13.root
/store/group/phys_higgs/hbb/ntuples/VHbbPostNano/2018/V12/DY2JetsToLL_M-50_LHEZpT_50-150_TuneCP5_13TeV-amcnloFXFX-pythia8/213660a7932b1fdd8894df9b2b09578741dfb2b548032fba3ad78e98/000000_000000/0000/tree_14.root
/store/group/phys_higgs/hbb/ntuples/VHbbPostNano/2018/V12/DY2JetsToLL_M-50_LHEZpT_50-150_TuneCP5_13TeV-amcnloFXFX-pythia8/e42b2e4272e2b148ed72e51ed47a95f97d88edf8edfcb498e911bc11/000000_000000/0000/tree_15.root
/store/group/phys_higgs/hbb/ntuples/VHbbPostNano/2018/V12/DY2JetsToLL_M-50_LHEZpT_50-150_TuneCP5_13TeV-amcnloFXFX-pythia8/75d76f3837af710b070066e2a49ad957cd33c094e13dc2652bfd9bb5/000000_000000/0000/tree_16.root
/store/group/phys_higgs/hbb/ntuples/VHbbPostNano/2018/V12/DY2JetsToLL_M-50_LHEZpT_50-150_TuneCP5_13TeV-amcnloFXFX-pythia8/6d75d064f2b28cef81a711c6365c1fcfcadfb7917588765c3c6178ea/000000_000000/0000/tree_17.root
/store/group/phys_higgs/hbb/ntuples/VHbbPostNano/2018/V12/DY2JetsToLL_M-50_LHEZpT_50-150_TuneCP5_13TeV-amcnloFXFX-pythia8/5db1df999e8be4444a4f1d515364b6c766dd45fffb78087e2820704b/000000_000000/0000/tree_18.root
/store/group/phys_higgs/hbb/ntuples/VHbbPostNano/2018/V12/DY2JetsToLL_M-50_LHEZpT_50-150_TuneCP5_13TeV-amcnloFXFX-pythia8/cca34637e69459aa0e1c3ee6a97d8e8684ade53a8ea5d8165259aeeb/000000_000000/0000/tree_19.root
/store/group/phys_higgs/hbb/ntuples/VHbbPostNano/2018/V12/DY2JetsToLL_M-50_LHEZpT_50-150_TuneCP5_13TeV-amcnloFXFX-pythia8/d8605f703f60992fb5c0238ed44420128d4c394b337ac4faa6adaf58/000000_000000/0000/tree_20.root
/store/group/phys_higgs/hbb/ntuples/VHbbPostNano/2018/V12/DY2JetsToLL_M-50_LHEZpT_50-150_TuneCP5_13TeV-amcnloFXFX-pythia8/c7636183f5302933152cdba777fa501ae2c31753f79d39cea7e34839/000000_000000/0000/tree_21.root
/store/group/phys_higgs/hbb/ntuples/VHbbPostNano/2018/V12/DY2JetsToLL_M-50_LHEZpT_50-150_TuneCP5_13TeV-amcnloFXFX-pythia8/aec8c9f2a7d4e16d900d6376d6e07f0301b6c107a1dcdda03ef44222/000000_000000/0000/tree_22.root
/store/group/phys_higgs/hbb/ntuples/VHbbPostNano/2018/V12/DY2JetsToLL_M-50_LHEZpT_50-150_TuneCP5_13TeV-amcnloFXFX-pythia8/e2c0d5cd0494ec38fe93661a0837fcf7edb5dd4f03109d2e8d22a5ca/000000_000000/0000/tree_23.root
/store/group/phys_higgs/hbb/ntuples/VHbbPostNano/2018/V12/DY2JetsToLL_M-50_LHEZpT_50-150_TuneCP5_13TeV-amcnloFXFX-pythia8/c80604f2db1682093637c816723b9da43bc31d856ce6d3dc18372e7a/000000_000000/0000/tree_24.root
/store/group/phys_higgs/hbb/ntuples/VHbbPostNano/2018/V12/DY2JetsToLL_M-50_LHEZpT_50-150_TuneCP5_13TeV-amcnloFXFX-pythia8/be31cbc69907c1b90cd1d114ee3cbb05c6f19794b1b4904119465ad4/000000_000000/0000/tree_25.root
/store/group/phys_higgs/hbb/ntuples/VHbbPostNano/2018/V12/DY2JetsToLL_M-50_LHEZpT_50-150_TuneCP5_13TeV-amcnloFXFX-pythia8/ac0fb99d5416351148fc845689412e54e329480d407b4ba774ebf9a7/000000_000000/0000/tree_26.root
/store/group/phys_higgs/hbb/ntuples/VHbbPostNano/2018/V12/DY2JetsToLL_M-50_LHEZpT_50-150_TuneCP5_13TeV-amcnloFXFX-pythia8/3fcd3380b2373510bcad8aa5ca1328589b119fdb1f0fee52c80324c5/000000_000000/0000/tree_27.root
/store/group/phys_higgs/hbb/ntuples/VHbbPostNano/2018/V12/DY2JetsToLL_M-50_LHEZpT_50-150_TuneCP5_13TeV-amcnloFXFX-pythia8/3732cf9224de909bcc9d22f26029bd32aae15bd6b074d2a9f44adbba/000000_000000/0000/tree_28.root
/store/group/phys_higgs/hbb/ntuples/VHbbPostNano/2018/V12/DY2JetsToLL_M-50_LHEZpT_50-150_TuneCP5_13TeV-amcnloFXFX-pythia8/000fe09711a0a506849bfe751312e41a46de4c2b355b9ea4d1c6bc60/000000_000000/0000/tree_29.root
/store/group/phys_higgs/hbb/ntuples/VHbbPostNano/2018/V12/DY2JetsToLL_M-50_LHEZpT_50-150_TuneCP5_13TeV-amcnloFXFX-pythia8/5302bbee0102d1d9677453eb10fa1e5012e915c1126dac23d34566c0/000000_000000/0000/tree_30.root
/store/group/phys_higgs/hbb/ntuples/VHbbPostNano/2018/V12/DY2JetsToLL_M-50_LHEZpT_50-150_TuneCP5_13TeV-amcnloFXFX-pythia8/22d3b7bf5fe1e872cbfcf6e7ed43d4d45f510f7845b8e24ec909796a/000000_000000/0000/tree_31.root
/store/group/phys_higgs/hbb/ntuples/VHbbPostNano/2018/V12/DY2JetsToLL_M-50_LHEZpT_50-150_TuneCP5_13TeV-amcnloFXFX-pythia8/6f7522dc1bdc1b64dd5e12cd357a6fe1eaf7f95da44f08dec418631e/000000_000000/0000/tree_32.root
/store/group/phys_higgs/hbb/ntuples/VHbbPostNano/2018/V12/DY2JetsToLL_M-50_LHEZpT_50-150_TuneCP5_13TeV-amcnloFXFX-pythia8/3e5f7332a076bac8f1e9d9f8df1850dcea95a274d439e8ccc2389966/000000_000000/0000/tree_33.root
/store/group/phys_higgs/hbb/ntuples/VHbbPostNano/2018/V12/DY2JetsToLL_M-50_LHEZpT_50-150_TuneCP5_13TeV-amcnloFXFX-pythia8/ad8c38a174b3ab09f2fd596487c8798a1322f78d54f4d5a5a2f4dae9/000000_000000/0000/tree_34.root
/store/group/phys_higgs/hbb/ntuples/VHbbPostNano/2018/V12/DY2JetsToLL_M-50_LHEZpT_50-150_TuneCP5_13TeV-amcnloFXFX-pythia8/63e52b534c3ecd6e6831306d8375737d28e15237125a21af46115a52/000000_000000/0000/tree_35.root
/store/group/phys_higgs/hbb/ntuples/VHbbPostNano/2018/V12/DY2JetsToLL_M-50_LHEZpT_50-150_TuneCP5_13TeV-amcnloFXFX-pythia8/344f4697504e1c6ab0fe169b66976d05206394acc7215219ec4087df/000000_000000/0000/tree_36.root
/store/group/phys_higgs/hbb/ntuples/VHbbPostNano/2018/V12/DY2JetsToLL_M-50_LHEZpT_50-150_TuneCP5_13TeV-amcnloFXFX-pythia8/ae804bc0e62b0c72b2bf7290b1f312ba0d63a3dde359b303f8442455/000000_000000/0000/tree_37.root
/store/group/phys_higgs/hbb/ntuples/VHbbPostNano/2018/V12/DY2JetsToLL_M-50_LHEZpT_50-150_TuneCP5_13TeV-amcnloFXFX-pythia8/c736e578e55866f130bdd033b8744c83dd3145bc441eb47309da6c62/000000_000000/0000/tree_38.root
/store/group/phys_higgs/hbb/ntuples/VHbbPostNano/2018/V12/DY2JetsToLL_M-50_LHEZpT_50-150_TuneCP5_13TeV-amcnloFXFX-pythia8/9269c74076cb8eda95396c1a56c7cfb7418db27c8ff3e91b67672322/000000_000000/0000/tree_39.root
/store/group/phys_higgs/hbb/ntuples/VHbbPostNano/2018/V12/DY2JetsToLL_M-50_LHEZpT_50-150_TuneCP5_13TeV-amcnloFXFX-pythia8/ee6f92122dce81cd1f68c0378c156841cdeb8dde9b64d590539fb83c/000000_000000/0000/tree_40.root
/store/group/phys_higgs/hbb/ntuples/VHbbPostNano/2018/V12/DY2JetsToLL_M-50_LHEZpT_50-150_TuneCP5_13TeV-amcnloFXFX-pythia8/4d8d9a0fab9c36d555a5074382415a51d771af1185dd1e245e4194e2/000000_000000/0000/tree_41.root
/store/group/phys_higgs/hbb/ntuples/VHbbPostNano/2018/V12/DY2JetsToLL_M-50_LHEZpT_50-150_TuneCP5_13TeV-amcnloFXFX-pythia8/6372e41809a0bcc7c486498a3883fa6a6f22183346f08c0021fcba6b/000000_000000/0000/tree_42.root
/store/group/phys_higgs/hbb/ntuples/VHbbPostNano/2018/V12/DY2JetsToLL_M-50_LHEZpT_50-150_TuneCP5_13TeV-amcnloFXFX-pythia8/1697a97d0b0e1325dbc1e47245593ff093fa8eb27d9aa8303543f440/000000_000000/0000/tree_43.root
/store/group/phys_higgs/hbb/ntuples/VHbbPostNano/2018/V12/DY2JetsToLL_M-50_LHEZpT_50-150_TuneCP5_13TeV-amcnloFXFX-pythia8/2f5cd398078d8fe67c26f900c5869a83a76ff2053a7cde7a1abfb642/000000_000000/0000/tree_44.root
/store/group/phys_higgs/hbb/ntuples/VHbbPostNano/2018/V12/DY2JetsToLL_M-50_LHEZpT_50-150_TuneCP5_13TeV-amcnloFXFX-pythia8/1fd00932686edb031ccb232a4b1d6edfa3a1ff6240a77b6366fb3372/000000_000000/0000/tree_45.root
/store/group/phys_higgs/hbb/ntuples/VHbbPostNano/2018/V12/DY2JetsToLL_M-50_LHEZpT_50-150_TuneCP5_13TeV-amcnloFXFX-pythia8/e21671e83bc1fdda763c53df1e25fc9e2fc94ad05b6c7ee2d5decb62/000000_000000/0000/tree_46.root
/store/group/phys_higgs/hbb/ntuples/VHbbPostNano/2018/V12/DY2JetsToLL_M-50_LHEZpT_50-150_TuneCP5_13TeV-amcnloFXFX-pythia8/d43d22311e59800475c5862bef3b5dcc90ad68814e6e0b59eafe5c43/000000_000000/0000/tree_47.root
/store/group/phys_higgs/hbb/ntuples/VHbbPostNano/2018/V12/DY2JetsToLL_M-50_LHEZpT_50-150_TuneCP5_13TeV-amcnloFXFX-pythia8/8aed7b3f4d18c6158c7766e6a185181a37ca1fa056ebfeff77fb24a1/000000_000000/0000/tree_48.root
/store/group/phys_higgs/hbb/ntuples/VHbbPostNano/2018/V12/DY2JetsToLL_M-50_LHEZpT_50-150_TuneCP5_13TeV-amcnloFXFX-pythia8/e81874eb6adad7662ec300f7484e0ec77ae81bd4e2cf7095a42c6916/000000_000000/0000/tree_49.root
/store/group/phys_higgs/hbb/ntuples/VHbbPostNano/2018/V12/DY2JetsToLL_M-50_LHEZpT_50-150_TuneCP5_13TeV-amcnloFXFX-pythia8/55d2d2a42112ee5129bbcec5dfa2b531dde363255652efe4d9d5a578/000000_000000/0000/tree_50.root
/store/group/phys_higgs/hbb/ntuples/VHbbPostNano/2018/V12/DY2JetsToLL_M-50_LHEZpT_50-150_TuneCP5_13TeV-amcnloFXFX-pythia8/d383791f372bff311395c745b41d16e290683d4cc58f471e903a8e12/000000_000000/0000/tree_51.root
/store/group/phys_higgs/hbb/ntuples/VHbbPostNano/2018/V12/DY2JetsToLL_M-50_LHEZpT_50-150_TuneCP5_13TeV-amcnloFXFX-pythia8/0f262a97c3c95b410296b46a6d149148a9f68ca219c62444f0fb7e42/000000_000000/0000/tree_52.root
/store/group/phys_higgs/hbb/ntuples/VHbbPostNano/2018/V12/DY2JetsToLL_M-50_LHEZpT_50-150_TuneCP5_13TeV-amcnloFXFX-pythia8/b6bd3076b970a8d19f19e198367be7e529ade02c8ee0a77b57a0bf61/000000_000000/0000/tree_53.root
/store/group/phys_higgs/hbb/ntuples/VHbbPostNano/2018/V12/DY2JetsToLL_M-50_LHEZpT_50-150_TuneCP5_13TeV-amcnloFXFX-pythia8/04b1c7795d400d7a9d7d02eecee5d0790f146e14fb70332ddb8290d8/000000_000000/0000/tree_54.root
/store/group/phys_higgs/hbb/ntuples/VHbbPostNano/2018/V12/DY2JetsToLL_M-50_LHEZpT_50-150_TuneCP5_13TeV-amcnloFXFX-pythia8/37489e817e844e9bbc41eb64cae77731a589a793d623133edccda585/000000_000000/0000/tree_55.root
/store/group/phys_higgs/hbb/ntuples/VHbbPostNano/2018/V12/DY2JetsToLL_M-50_LHEZpT_50-150_TuneCP5_13TeV-amcnloFXFX-pythia8/79ea905ccdb158d5bde072bc9572a5bce62b5701762b6ebb360465e9/000000_000000/0000/tree_56.root
/store/group/phys_higgs/hbb/ntuples/VHbbPostNano/2018/V12/DY2JetsToLL_M-50_LHEZpT_50-150_TuneCP5_13TeV-amcnloFXFX-pythia8/dc7f5ba6ea57256c8a8a94df94c1ef7f0bcc7f0e386244020fcf3775/000000_000000/0000/tree_57.root
/store/group/phys_higgs/hbb/ntuples/VHbbPostNano/2018/V12/DY2JetsToLL_M-50_LHEZpT_50-150_TuneCP5_13TeV-amcnloFXFX-pythia8/87e11e6abdc7d2bb77c7da2287bfa26b8efc0ab9da8dba41f757ecae/000000_000000/0000/tree_58.root
/store/group/phys_higgs/hbb/ntuples/VHbbPostNano/2018/V12/DY2JetsToLL_M-50_LHEZpT_50-150_TuneCP5_13TeV-amcnloFXFX-pythia8/380684048ffe9c52603a118e24fbc7cfcac9c5db439c37827fb7f458/000000_000000/0000/tree_59.root
/store/group/phys_higgs/hbb/ntuples/VHbbPostNano/2018/V12/DY2JetsToLL_M-50_LHEZpT_50-150_TuneCP5_13TeV-amcnloFXFX-pythia8/0b52cf2539a2c6aac0e9a01136ff64a969a8ed925d8fca5cf752bfe9/000000_000000/0000/tree_60.root
/store/group/phys_higgs/hbb/ntuples/VHbbPostNano/2018/V12/DY2JetsToLL_M-50_LHEZpT_50-150_TuneCP5_13TeV-amcnloFXFX-pythia8/65752ddcea0c3b0ac82adf998393445c5a8af0ac0382c177381238fc/000000_000000/0000/tree_61.root
/store/group/phys_higgs/hbb/ntuples/VHbbPostNano/2018/V12/DY2JetsToLL_M-50_LHEZpT_50-150_TuneCP5_13TeV-amcnloFXFX-pythia8/322914e07cd7edecbb39c78141b6cecd2da61f371d83083770d621b4/000000_000000/0000/tree_62.root
/store/group/phys_higgs/hbb/ntuples/VHbbPostNano/2018/V12/DY2JetsToLL_M-50_LHEZpT_50-150_TuneCP5_13TeV-amcnloFXFX-pythia8/3966534b0c4a3f5805b79de82ee2153490ac6b3eb84f09478c3b069f/000000_000000/0000/tree_63.root
/store/group/phys_higgs/hbb/ntuples/VHbbPostNano/2018/V12/DY2JetsToLL_M-50_LHEZpT_50-150_TuneCP5_13TeV-amcnloFXFX-pythia8/5dbc0388152d069dacb4befaf69c620b4e1e2b5afe857280d43cd648/000000_000000/0000/tree_64.root
/store/group/phys_higgs/hbb/ntuples/VHbbPostNano/2018/V12/DY2JetsToLL_M-50_LHEZpT_50-150_TuneCP5_13TeV-amcnloFXFX-pythia8/fe59d9ad69c8692f62d6118058d31defc7e58486f59669015737d3e0/000000_000000/0000/tree_65.root
/store/group/phys_higgs/hbb/ntuples/VHbbPostNano/2018/V12/DY2JetsToLL_M-50_LHEZpT_50-150_TuneCP5_13TeV-amcnloFXFX-pythia8/f8b5d9f60963cfb4b9f62bd79f6e4403f491558816ca3a4bc85df36e/000000_000000/0000/tree_66.root
/store/group/phys_higgs/hbb/ntuples/VHbbPostNano/2018/V12/DY2JetsToLL_M-50_LHEZpT_50-150_TuneCP5_13TeV-amcnloFXFX-pythia8/97f9e06d4e780f0f3ff30b85f3c8f244007eb632ad80d8d09871fc1c/000000_000000/0000/tree_67.root
/store/group/phys_higgs/hbb/ntuples/VHbbPostNano/2018/V12/DY2JetsToLL_M-50_LHEZpT_50-150_TuneCP5_13TeV-amcnloFXFX-pythia8/bd61c5fce02815a0d5d847e9b409b2e410f17eb43d22e601d2a041fa/000000_000000/0000/tree_68.root
/store/group/phys_higgs/hbb/ntuples/VHbbPostNano/2018/V12/DY2JetsToLL_M-50_LHEZpT_50-150_TuneCP5_13TeV-amcnloFXFX-pythia8/1122efc195fe66a1d64407101456facb1d41c2a6f071dc8bf57d70d2/000000_000000/0000/tree_69.root
/store/group/phys_higgs/hbb/ntuples/VHbbPostNano/2018/V12/DY2JetsToLL_M-50_LHEZpT_50-150_TuneCP5_13TeV-amcnloFXFX-pythia8/a4a4124539b9d78d05baa19c9b7a4db2bffe7ce6fa4ab99ccb15b97d/000000_000000/0000/tree_70.root
/store/group/phys_higgs/hbb/ntuples/VHbbPostNano/2018/V12/DY2JetsToLL_M-50_LHEZpT_50-150_TuneCP5_13TeV-amcnloFXFX-pythia8/535593f5b944575ef36ad5f36773e35f935e7d720d0f71a21e336bb0/000000_000000/0000/tree_71.root
/store/group/phys_higgs/hbb/ntuples/VHbbPostNano/2018/V12/DY2JetsToLL_M-50_LHEZpT_50-150_TuneCP5_13TeV-amcnloFXFX-pythia8/f6db684819db3653e0aef772a4c1c84cefc70901662c5f8b5ae8ebaf/000000_000000/0000/tree_72.root
/store/group/phys_higgs/hbb/ntuples/VHbbPostNano/2018/V12/DY2JetsToLL_M-50_LHEZpT_50-150_TuneCP5_13TeV-amcnloFXFX-pythia8/d8dd84f30edbc1d7d7056a0b652508ca125ac411eb01c763009a1955/000000_000000/0000/tree_73.root
/store/group/phys_higgs/hbb/ntuples/VHbbPostNano/2018/V12/DY2JetsToLL_M-50_LHEZpT_50-150_TuneCP5_13TeV-amcnloFXFX-pythia8/4dd905ba83eb302605ddb1f39710177a7e96196ed49bc2a88634e494/000000_000000/0000/tree_74.root
/store/group/phys_higgs/hbb/ntuples/VHbbPostNano/2018/V12/DY2JetsToLL_M-50_LHEZpT_50-150_TuneCP5_13TeV-amcnloFXFX-pythia8/69865d7abc7ba3f6b1174a2d273185d755d8776f0a72edb31b75055e/000000_000000/0000/tree_75.root
/store/group/phys_higgs/hbb/ntuples/VHbbPostNano/2018/V12/DY2JetsToLL_M-50_LHEZpT_50-150_TuneCP5_13TeV-amcnloFXFX-pythia8/321cc92c0fc941f731df22d5267b3d25e4cea8318bc10c422f8fcf27/000000_000000/0000/tree_76.root
/store/group/phys_higgs/hbb/ntuples/VHbbPostNano/2018/V12/DY2JetsToLL_M-50_LHEZpT_50-150_TuneCP5_13TeV-amcnloFXFX-pythia8/da1b2ea7e1532cd19f67e3960065ec62dd123440644f752f8d076f30/000000_000000/0000/tree_77.root
/store/group/phys_higgs/hbb/ntuples/VHbbPostNano/2018/V12/DY2JetsToLL_M-50_LHEZpT_50-150_TuneCP5_13TeV-amcnloFXFX-pythia8/8f439cbb5293d5adf664d3cd4d5f984176f1ee71fc6406ed3e77d81c/000000_000000/0000/tree_78.root
/store/group/phys_higgs/hbb/ntuples/VHbbPostNano/2018/V12/DY2JetsToLL_M-50_LHEZpT_50-150_TuneCP5_13TeV-amcnloFXFX-pythia8/5d05dd938335a0097c6c76edef01daa39f75e08af46c6b132825c369/000000_000000/0000/tree_79.root
/store/group/phys_higgs/hbb/ntuples/VHbbPostNano/2018/V12/DY2JetsToLL_M-50_LHEZpT_50-150_TuneCP5_13TeV-amcnloFXFX-pythia8/7545919cf6f3e875e8e0aaeb339d2a755247cee0f9d7d6146772369b/000000_000000/0000/tree_80.root
/store/group/phys_higgs/hbb/ntuples/VHbbPostNano/2018/V12/DY2JetsToLL_M-50_LHEZpT_50-150_TuneCP5_13TeV-amcnloFXFX-pythia8/51fa5f9be6b4ba428af9e755169829e01a7e5885ed5542308d7f8c5e/000000_000000/0000/tree_81.root
/store/group/phys_higgs/hbb/ntuples/VHbbPostNano/2018/V12/DY2JetsToLL_M-50_LHEZpT_50-150_TuneCP5_13TeV-amcnloFXFX-pythia8/45c2a72d5e73e85a4705d1c43fa6c82cd28176b9541c20217f9201b0/000000_000000/0000/tree_82.root
/store/group/phys_higgs/hbb/ntuples/VHbbPostNano/2018/V12/DY2JetsToLL_M-50_LHEZpT_50-150_TuneCP5_13TeV-amcnloFXFX-pythia8/354375842bc6318ce8810a27ad8a57f6d9bf3b91e510750bee0de677/000000_000000/0000/tree_83.root
/store/group/phys_higgs/hbb/ntuples/VHbbPostNano/2018/V12/DY2JetsToLL_M-50_LHEZpT_50-150_TuneCP5_13TeV-amcnloFXFX-pythia8/22372a687284fbd7ecebec2939a1b6b22b2daedf514324f588f0445b/000000_000000/0000/tree_84.root
/store/group/phys_higgs/hbb/ntuples/VHbbPostNano/2018/V12/DY2JetsToLL_M-50_LHEZpT_50-150_TuneCP5_13TeV-amcnloFXFX-pythia8/40b15cd344d809e54d349cfd080f398b7012ae610ac85b8ee01bfb85/000000_000000/0000/tree_85.root
/store/group/phys_higgs/hbb/ntuples/VHbbPostNano/2018/V12/DY2JetsToLL_M-50_LHEZpT_50-150_TuneCP5_13TeV-amcnloFXFX-pythia8/afb2a90def7436e0b788f10fd40103f62c0a6217f3f0f2c27d371c64/000000_000000/0000/tree_86.root
/store/group/phys_higgs/hbb/ntuples/VHbbPostNano/2018/V12/DY2JetsToLL_M-50_LHEZpT_50-150_TuneCP5_13TeV-amcnloFXFX-pythia8/4725f3905959c081644d487a527791b7db8b6e470605d867cfc5a358/000000_000000/0000/tree_87.root
/store/group/phys_higgs/hbb/ntuples/VHbbPostNano/2018/V12/DY2JetsToLL_M-50_LHEZpT_50-150_TuneCP5_13TeV-amcnloFXFX-pythia8/2630ef6983a03bab718223a9c1971758d578384fee8662c6ff3dee8f/000000_000000/0000/tree_88.root
/store/group/phys_higgs/hbb/ntuples/VHbbPostNano/2018/V12/DY2JetsToLL_M-50_LHEZpT_50-150_TuneCP5_13TeV-amcnloFXFX-pythia8/49b3851a130ecd2237a41c514e7cdf2e28518766858d8fe89a1cd9b7/000000_000000/0000/tree_89.root
/store/group/phys_higgs/hbb/ntuples/VHbbPostNano/2018/V12/DY2JetsToLL_M-50_LHEZpT_50-150_TuneCP5_13TeV-amcnloFXFX-pythia8/193c329c6dd352513cf39b6836973a7c842d9d80d48ea4c093af660b/000000_000000/0000/tree_90.root
/store/group/phys_higgs/hbb/ntuples/VHbbPostNano/2018/V12/DY2JetsToLL_M-50_LHEZpT_50-150_TuneCP5_13TeV-amcnloFXFX-pythia8/09758e3dadac217a24bb5d9cabf62adf882ad283a012dc77c98d2d8a/000000_000000/0000/tree_91.root
/store/group/phys_higgs/hbb/ntuples/VHbbPostNano/2018/V12/DY2JetsToLL_M-50_LHEZpT_50-150_TuneCP5_13TeV-amcnloFXFX-pythia8/6830ea8c5ab541f47f4f2d122011b451c64a4c88a26ea6b1ec83c254/000000_000000/0000/tree_92.root
/store/group/phys_higgs/hbb/ntuples/VHbbPostNano/2018/V12/DY2JetsToLL_M-50_LHEZpT_50-150_TuneCP5_13TeV-amcnloFXFX-pythia8/f64800a1767669a7e981a86bcace83dda07c69255ff01322b852bfbb/000000_000000/0000/tree_93.root
/store/group/phys_higgs/hbb/ntuples/VHbbPostNano/2018/V12/DY2JetsToLL_M-50_LHEZpT_50-150_TuneCP5_13TeV-amcnloFXFX-pythia8/d048147645c3ff71636b3dd15a408bd21da7c4a9f1304d79bc6995f5/000000_000000/0000/tree_94.root
/store/group/phys_higgs/hbb/ntuples/VHbbPostNano/2018/V12/DY2JetsToLL_M-50_LHEZpT_50-150_TuneCP5_13TeV-amcnloFXFX-pythia8/2e3777991f77d36719c5bc5b1dbd8f1a43ee7b46ccf16c510029b5af/000000_000000/0000/tree_95.root
/store/group/phys_higgs/hbb/ntuples/VHbbPostNano/2018/V12/DY2JetsToLL_M-50_LHEZpT_50-150_TuneCP5_13TeV-amcnloFXFX-pythia8/c23a272871b34200a62da27881e76221a177c0e10ceff5b54510460c/000000_000000/0000/tree_96.root
/store/group/phys_higgs/hbb/ntuples/VHbbPostNano/2018/V12/DY2JetsToLL_M-50_LHEZpT_50-150_TuneCP5_13TeV-amcnloFXFX-pythia8/73a7501fa94935cb94434eff05c50044dd6547cfd9756552380168dd/000000_000000/0000/tree_97.root
/store/group/phys_higgs/hbb/ntuples/VHbbPostNano/2018/V12/DY2JetsToLL_M-50_LHEZpT_50-150_TuneCP5_13TeV-amcnloFXFX-pythia8/e89a098e3dc2f35fe9229d6891d17fe2ac1bdf312f60f2bffeeb7f38/000000_000000/0000/tree_98.root
/store/group/phys_higgs/hbb/ntuples/VHbbPostNano/2018/V12/DY2JetsToLL_M-50_LHEZpT_50-150_TuneCP5_13TeV-amcnloFXFX-pythia8/290e1874d1e32050e76540faf93b0de0bda086e2aef4202a2dc6dbae/000000_000000/0000/tree_99.root
/store/group/phys_higgs/hbb/ntuples/VHbbPostNano/2018/V12/DY2JetsToLL_M-50_LHEZpT_50-150_TuneCP5_13TeV-amcnloFXFX-pythia8/ccb521f9046448bfba4f2d9ea57fed9e89b388a49d28a023a4f377f6/000000_000000/0000/tree_100.root
/store/group/phys_higgs/hbb/ntuples/VHbbPostNano/2018/V12/DY2JetsToLL_M-50_LHEZpT_50-150_TuneCP5_13TeV-amcnloFXFX-pythia8/bfcef927fa563c5523dd63bfb3eeec927a1791cb79fa8383d1d66183/000000_000000/0000/tree_101.root
/store/group/phys_higgs/hbb/ntuples/VHbbPostNano/2018/V12/DY2JetsToLL_M-50_LHEZpT_50-150_TuneCP5_13TeV-amcnloFXFX-pythia8/6dab17fab30aff1a1b011b7123255c66ce4ce7eeac73d4516592ad22/000000_000000/0000/tree_102.root
/store/group/phys_higgs/hbb/ntuples/VHbbPostNano/2018/V12/DY2JetsToLL_M-50_LHEZpT_50-150_TuneCP5_13TeV-amcnloFXFX-pythia8/b8025717c4b388d70162467904485362e27c2f86fee4bd8dad223083/000000_000000/0000/tree_103.root
/store/group/phys_higgs/hbb/ntuples/VHbbPostNano/2018/V12/DY2JetsToLL_M-50_LHEZpT_50-150_TuneCP5_13TeV-amcnloFXFX-pythia8/180fea65ff658d768cf6f9d56f7299624fb73a2ba4da1f51e46b8c67/000000_000000/0000/tree_104.root
/store/group/phys_higgs/hbb/ntuples/VHbbPostNano/2018/V12/DY2JetsToLL_M-50_LHEZpT_50-150_TuneCP5_13TeV-amcnloFXFX-pythia8/68455d64ab44e63a505a0c365d14bffb8e614d3913351aedd052d16d/000000_000000/0000/tree_105.root
/store/group/phys_higgs/hbb/ntuples/VHbbPostNano/2018/V12/DY2JetsToLL_M-50_LHEZpT_50-150_TuneCP5_13TeV-amcnloFXFX-pythia8/61c5e5992116a7d730ce0e56b08c720df8cba90fe39ff070a91ba3fd/000000_000000/0000/tree_106.root
/store/group/phys_higgs/hbb/ntuples/VHbbPostNano/2018/V12/DY2JetsToLL_M-50_LHEZpT_50-150_TuneCP5_13TeV-amcnloFXFX-pythia8/b0752e567ffd7f57705604247a8d39a919a5d25b65aa651b2fac83cc/000000_000000/0000/tree_107.root
/store/group/phys_higgs/hbb/ntuples/VHbbPostNano/2018/V12/DY2JetsToLL_M-50_LHEZpT_50-150_TuneCP5_13TeV-amcnloFXFX-pythia8/a989c4d9969b8a3ae820ac29f3d8346fbe2dbdb456181ebdb0b205bc/000000_000000/0000/tree_108.root
/store/group/phys_higgs/hbb/ntuples/VHbbPostNano/2018/V12/DY2JetsToLL_M-50_LHEZpT_50-150_TuneCP5_13TeV-amcnloFXFX-pythia8/ed60f86b4077ee7609bc4b4b959a3eb74bb0ada5bc35bdfd618449eb/000000_000000/0000/tree_109.root
/store/group/phys_higgs/hbb/ntuples/VHbbPostNano/2018/V12/DY2JetsToLL_M-50_LHEZpT_50-150_TuneCP5_13TeV-amcnloFXFX-pythia8/76cae842a0b90019516ae5f77b000164be6193cba16c0bad084d9526/000000_000000/0000/tree_110.root
/store/group/phys_higgs/hbb/ntuples/VHbbPostNano/2018/V12/DY2JetsToLL_M-50_LHEZpT_50-150_TuneCP5_13TeV-amcnloFXFX-pythia8/e7a0f64085ea0f847738f9e565d08b7ef4a853d41f1b778bd2bd8245/000000_000000/0000/tree_111.root
/store/group/phys_higgs/hbb/ntuples/VHbbPostNano/2018/V12/DY2JetsToLL_M-50_LHEZpT_50-150_TuneCP5_13TeV-amcnloFXFX-pythia8/31afc76fed46b1ccfbb850eaa8381bed262d1e26b477280763e82b0c/000000_000000/0000/tree_112.root
/store/group/phys_higgs/hbb/ntuples/VHbbPostNano/2018/V12/DY2JetsToLL_M-50_LHEZpT_50-150_TuneCP5_13TeV-amcnloFXFX-pythia8/32ff0a6b3f3977e0536e02d0901a761d067e57f750c8086a89888ac6/000000_000000/0000/tree_113.root
/store/group/phys_higgs/hbb/ntuples/VHbbPostNano/2018/V12/DY2JetsToLL_M-50_LHEZpT_50-150_TuneCP5_13TeV-amcnloFXFX-pythia8/c9c4e7550b5824401de30caeff524db83f9268d72360360091478d1a/000000_000000/0000/tree_114.root
/store/group/phys_higgs/hbb/ntuples/VHbbPostNano/2018/V12/DY2JetsToLL_M-50_LHEZpT_50-150_TuneCP5_13TeV-amcnloFXFX-pythia8/0a1795829621763eb8cdff6b294cfb9c0a9d53d7b2d73fc6e666a699/000000_000000/0000/tree_115.root
/store/group/phys_higgs/hbb/ntuples/VHbbPostNano/2018/V12/DY2JetsToLL_M-50_LHEZpT_50-150_TuneCP5_13TeV-amcnloFXFX-pythia8/fa6f591bdbe06581ae2a8e83780a48f20805e8e6279740459149c800/000000_000000/0000/tree_116.root
/store/group/phys_higgs/hbb/ntuples/VHbbPostNano/2018/V12/DY2JetsToLL_M-50_LHEZpT_50-150_TuneCP5_13TeV-amcnloFXFX-pythia8/1cf04393bf81554186f5e7c788a66a9b0dcaebaac74dc83b0545f9b6/000000_000000/0000/tree_117.root
/store/group/phys_higgs/hbb/ntuples/VHbbPostNano/2018/V12/DY2JetsToLL_M-50_LHEZpT_50-150_TuneCP5_13TeV-amcnloFXFX-pythia8/1afd50b93d4bc21e29209653935e16dbc048076d51aa0ffcefc65cee/000000_000000/0000/tree_118.root
/store/group/phys_higgs/hbb/ntuples/VHbbPostNano/2018/V12/DY2JetsToLL_M-50_LHEZpT_50-150_TuneCP5_13TeV-amcnloFXFX-pythia8/3fee3ed0376f99a7051097b4d4e5d9d6cb038e91bfb8f67dcdc6eb79/000000_000000/0000/tree_119.root
/store/group/phys_higgs/hbb/ntuples/VHbbPostNano/2018/V12/DY2JetsToLL_M-50_LHEZpT_50-150_TuneCP5_13TeV-amcnloFXFX-pythia8/7898ff3ece84d2019c49ed8b778eda6be3d852bc3de22b90519825e6/000000_000000/0000/tree_120.root
/store/group/phys_higgs/hbb/ntuples/VHbbPostNano/2018/V12/DY2JetsToLL_M-50_LHEZpT_50-150_TuneCP5_13TeV-amcnloFXFX-pythia8/fccc8f43276a60e7a245781fdb67559c72f9f69de4c63716ca12e119/000000_000000/0000/tree_121.root