/store/group/phys_higgs/hbb/ntuples/VHbbPostNano/2018/V12/DYJetsToLL_Pt-100To250_TuneCP5_13TeV-amcatnloFXFX-pythia8/445823ab039d5ba2512f904b3ea6a187cc99aabc9a86f338f2072df6/000000_000000/0000/tree_0.root
/store/group/phys_higgs/hbb/ntuples/VHbbPostNano/2018/V12/DYJetsToLL_Pt-100To250_TuneCP5_13TeV-amcatnloFXFX-pythia8/eb34cd6e0d5bc340b4e3f072af0d2d90ef81dfb9f9cebf7e7fa11400/000000_000000/0000/tree_1.root
/store/group/phys_higgs/hbb/ntuples/VHbbPostNano/2018/V12/DYJetsToLL_Pt-100To250_TuneCP5_13TeV-amcatnloFXFX-pythia8/2efe08ad83268a34a11eb8079ebd74260db540749d89ab0d6cdb18f5/000000_000000/0000/tree_2.root
/store/group/phys_higgs/hbb/ntuples/VHbbPostNano/2018/V12/DYJetsToLL_Pt-100To250_TuneCP5_13TeV-amcatnloFXFX-pythia8/26baf69928dc43a68ecc419325088e8b520d8f4f10313b1d27a4bda4/000000_000000/0000/tree_3.root
/store/group/phys_higgs/hbb/ntuples/VHbbPostNano/2018/V12/DYJetsToLL_Pt-100To250_TuneCP5_13TeV-amcatnloFXFX-pythia8/bc3c60303519479893489c120f43880a9e6f58f9e92c7ea2cf147b02/000000_000000/0000/tree_4.root
/store/group/phys_higgs/hbb/ntuples/VHbbPostNano/2018/V12/DYJetsToLL_Pt-100To250_TuneCP5_13TeV-amcatnloFXFX-pythia8/14fcd58b7f8c53a3e4c9f22876d99db596c006d3df5d947e1a3f1b68/000000_000000/0000/tree_5.root
/store/group/phys_higgs/hbb/ntuples/VHbbPostNano/2018/V12/DYJetsToLL_Pt-100To250_TuneCP5_13TeV-amcatnloFXFX-pythia8/009df1663704d980de63816205e8f6440ab72dee9c3c7054ca445762/000000_000000/0000/tree_6.root
/store/group/phys_higgs/hbb/ntuples/VHbbPostNano/2018/V12/DYJetsToLL_Pt-100To250_TuneCP5_13TeV-amcatnloFXFX-pythia8/74dff05150de91972679866d0ecd82dcd26f3bd8b834d66670dded6a/000000_000000/0000/tree_7.root
/store/group/phys_higgs/hbb/ntuples/VHbbPostNano/2018/V12/DYJetsToLL_Pt-100To250_TuneCP5_13TeV-amcatnloFXFX-pythia8/34fc749267ba50503989db2f38df7cf2f3e197652c478e894c893e60/000000_000000/0000/tree_8.root
/store/group/phys_higgs/hbb/ntuples/VHbbPostNano/2018/V12/DYJetsToLL_Pt-100To250_TuneCP5_13TeV-amcatnloFXFX-pythia8/a36aa37b3141179265dd3139426c98ed29c12631343a0c1bd0766d66/000000_000000/0000/tree_9.root
/store/group/phys_higgs/hbb/ntuples/VHbbPostNano/2018/V12/DYJetsToLL_Pt-100To250_TuneCP5_13TeV-amcatnloFXFX-pythia8/b16567f58c37b6372b0b13d78c0134ad5a8f6b0023aff02669bc6953/000000_000000/0000/tree_10.root
/store/group/phys_higgs/hbb/ntuples/VHbbPostNano/2018/V12/DYJetsToLL_Pt-100To250_TuneCP5_13TeV-amcatnloFXFX-pythia8/d8caec56084841a50cf59885ecf62f253eda6beef862eef027bbf8a8/000000_000000/0000/tree_11.root
/store/group/phys_higgs/hbb/ntuples/VHbbPostNano/2018/V12/DYJetsToLL_Pt-100To250_TuneCP5_13TeV-amcatnloFXFX-pythia8/8bdb5375a8a5630e7169a6299762a522f8579aef769da5b052f3a243/000000_000000/0000/tree_12.root
/store/group/phys_higgs/hbb/ntuples/VHbbPostNano/2018/V12/DYJetsToLL_Pt-100To250_TuneCP5_13TeV-amcatnloFXFX-pythia8/f802a82755b493348ce8e96c09e1744152b4febeee5c3b4a27941424/000000_000000/0000/tree_13.root
/store/group/phys_higgs/hbb/ntuples/VHbbPostNano/2018/V12/DYJetsToLL_Pt-100To250_TuneCP5_13TeV-amcatnloFXFX-pythia8/8ccb04a166c052baa252510b6780931065afa6ffb49a6d3f92c97d79/000000_000000/0000/tree_14.root
/store/group/phys_higgs/hbb/ntuples/VHbbPostNano/2018/V12/DYJetsToLL_Pt-100To250_TuneCP5_13TeV-amcatnloFXFX-pythia8/e53a418d87ab4503042d8337be793b67af449fb929c5a58394b77d15/000000_000000/0000/tree_15.root
/store/group/phys_higgs/hbb/ntuples/VHbbPostNano/2018/V12/DYJetsToLL_Pt-100To250_TuneCP5_13TeV-amcatnloFXFX-pythia8/0472ba1a41157b79830ed134c3cb34418e0c17adf13189b5cdd119eb/000000_000000/0000/tree_16.root
/store/group/phys_higgs/hbb/ntuples/VHbbPostNano/2018/V12/DYJetsToLL_Pt-100To250_TuneCP5_13TeV-amcatnloFXFX-pythia8/f14f2f7a0230c7271b5ee6a7bc5c886bd8f9656ce60ffbde4baf6182/000000_000000/0000/tree_17.root
/store/group/phys_higgs/hbb/ntuples/VHbbPostNano/2018/V12/DYJetsToLL_Pt-100To250_TuneCP5_13TeV-amcatnloFXFX-pythia8/957ed89cbe2d98a68898922f299a462a61fdd88c9689bcca86d045cd/000000_000000/0000/tree_18.root
/store/group/phys_higgs/hbb/ntuples/VHbbPostNano/2018/V12/DYJetsToLL_Pt-100To250_TuneCP5_13TeV-amcatnloFXFX-pythia8/ba6038980aef34cedefaea0e469a364d10ee01e2e1a7e4490c4a2237/000000_000000/0000/tree_19.root
/store/group/phys_higgs/hbb/ntuples/VHbbPostNano/2018/V12/DYJetsToLL_Pt-100To250_TuneCP5_13TeV-amcatnloFXFX-pythia8/3ba83dbbfe4e14fc43d86fef48feae3922b832cf59552c9a5714b24c/000000_000000/0000/tree_20.root
/store/group/phys_higgs/hbb/ntuples/VHbbPostNano/2018/V12/DYJetsToLL_Pt-100To250_TuneCP5_13TeV-amcatnloFXFX-pythia8/ea6b68a4691b1437d8075f836f5be70326294ae1759b98069eee1285/000000_000000/0000/tree_21.root
/store/group/phys_higgs/hbb/ntuples/VHbbPostNano/2018/V12/DYJetsToLL_Pt-100To250_TuneCP5_13TeV-amcatnloFXFX-pythia8/52f715ee475c833902a7bff7683f7edf7c5a11d81558816eed5c9189/000000_000000/0000/tree_22.root
/store/group/phys_higgs/hbb/ntuples/VHbbPostNano/2018/V12/DYJetsToLL_Pt-100To250_TuneCP5_13TeV-amcatnloFXFX-pythia8/940cb096626df4ac6be75078ef7ddf4b188d5a0600cecf8ae45563b7/000000_000000/0000/tree_23.root
/store/group/phys_higgs/hbb/ntuples/VHbbPostNano/2018/V12/DYJetsToLL_Pt-100To250_TuneCP5_13TeV-amcatnloFXFX-pythia8/01aeb863f952bb331a7bdc4d096b1300143f90c7495fd94726d1c451/000000_000000/0000/tree_24.root
/store/group/phys_higgs/hbb/ntuples/VHbbPostNano/2018/V12/DYJetsToLL_Pt-100To250_TuneCP5_13TeV-amcatnloFXFX-pythia8/4a2d639f1c98d3755c637cd7cb48ae4b06d8e7682d7259bdd65a3af4/000000_000000/0000/tree_25.root
/store/group/phys_higgs/hbb/ntuples/VHbbPostNano/2018/V12/DYJetsToLL_Pt-100To250_TuneCP5_13TeV-amcatnloFXFX-pythia8/f8e2d7e60eac72c28aee8d122219442c1530bd640be363ae2a38d206/000000_000000/0000/tree_26.root
/store/group/phys_higgs/hbb/ntuples/VHbbPostNano/2018/V12/DYJetsToLL_Pt-100To250_TuneCP5_13TeV-amcatnloFXFX-pythia8/b8a7751ab5ac13be8dd13532a15d70598ddc2e89e423bdc70c800e07/000000_000000/0000/tree_27.root
/store/group/phys_higgs/hbb/ntuples/VHbbPostNano/2018/V12/DYJetsToLL_Pt-100To250_TuneCP5_13TeV-amcatnloFXFX-pythia8/11382fb890ba93b755f93c644176234bdad2e91ed2cc0fe8ac41b33e/000000_000000/0000/tree_28.root
/store/group/phys_higgs/hbb/ntuples/VHbbPostNano/2018/V12/DYJetsToLL_Pt-100To250_TuneCP5_13TeV-amcatnloFXFX-pythia8/7e151489ec848ce8c9abfc91b53f7410c4ed15e8f1b82ccc99a2486d/000000_000000/0000/tree_29.root
/store/group/phys_higgs/hbb/ntuples/VHbbPostNano/2018/V12/DYJetsToLL_Pt-100To250_TuneCP5_13TeV-amcatnloFXFX-pythia8/da87efe3d3833f580e2eba626b0279f1e16ab824c3664f3a88160c92/000000_000000/0000/tree_30.root
/store/group/phys_higgs/hbb/ntuples/VHbbPostNano/2018/V12/DYJetsToLL_Pt-100To250_TuneCP5_13TeV-amcatnloFXFX-pythia8/68edcaf5e34a46c17f92197a84b1bb7140d706c71f65e95f3684aaa4/000000_000000/0000/tree_31.root
/store/group/phys_higgs/hbb/ntuples/VHbbPostNano/2018/V12/DYJetsToLL_Pt-100To250_TuneCP5_13TeV-amcatnloFXFX-pythia8/764908faf647d39a855454da6b26deb084768a0e0659e940f50d6085/000000_000000/0000/tree_32.root
/store/group/phys_higgs/hbb/ntuples/VHbbPostNano/2018/V12/DYJetsToLL_Pt-100To250_TuneCP5_13TeV-amcatnloFXFX-pythia8/67c4a3e94aefda5273c403c7269a0cb9a48988bb0488a132bd75afa6/000000_000000/0000/tree_33.root
/store/group/phys_higgs/hbb/ntuples/VHbbPostNano/2018/V12/DYJetsToLL_Pt-100To250_TuneCP5_13TeV-amcatnloFXFX-pythia8/c34a8c341dee6472b73495098c3aa62edb8c8c8efeddb5c054497ca4/000000_000000/0000/tree_34.root
/store/group/phys_higgs/hbb/ntuples/VHbbPostNano/2018/V12/DYJetsToLL_Pt-100To250_TuneCP5_13TeV-amcatnloFXFX-pythia8/6e105ad5698d8f831946679cb7254bb1e1a08f6e9eecdba86b2a083d/000000_000000/0000/tree_35.root
/store/group/phys_higgs/hbb/ntuples/VHbbPostNano/2018/V12/DYJetsToLL_Pt-100To250_TuneCP5_13TeV-amcatnloFXFX-pythia8/75861ea940a309e659e6071d5a0cce992bb2e292c85a3045824f9429/000000_000000/0000/tree_36.root
/store/group/phys_higgs/hbb/ntuples/VHbbPostNano/2018/V12/DYJetsToLL_Pt-100To250_TuneCP5_13TeV-amcatnloFXFX-pythia8/2df65342e27cd4df1a71412da95dd2ab3b985937c64efd316849af09/000000_000000/0000/tree_37.root
/store/group/phys_higgs/hbb/ntuples/VHbbPostNano/2018/V12/DYJetsToLL_Pt-100To250_TuneCP5_13TeV-amcatnloFXFX-pythia8/f011c0da1bc779b91efb4586d9ca1efbce612904c3e2a22cf6746e27/000000_000000/0000/tree_38.root
/store/group/phys_higgs/hbb/ntuples/VHbbPostNano/2018/V12/DYJetsToLL_Pt-100To250_TuneCP5_13TeV-amcatnloFXFX-pythia8/dfae760e40a34e92e5dfe731bd93770c80bd0b3b46a251a4abb97fe7/000000_000000/0000/tree_39.root
/store/group/phys_higgs/hbb/ntuples/VHbbPostNano/2018/V12/DYJetsToLL_Pt-100To250_TuneCP5_13TeV-amcatnloFXFX-pythia8/afea0714349089be77badb4bd356e6ffdd4121d0d6366c8430b9815d/000000_000000/0000/tree_40.root
/store/group/phys_higgs/hbb/ntuples/VHbbPostNano/2018/V12/DYJetsToLL_Pt-100To250_TuneCP5_13TeV-amcatnloFXFX-pythia8/baee73b5725a0b81c360bb0e277001415701ed999d7cc5712f83611a/000000_000000/0000/tree_41.root
/store/group/phys_higgs/hbb/ntuples/VHbbPostNano/2018/V12/DYJetsToLL_Pt-100To250_TuneCP5_13TeV-amcatnloFXFX-pythia8/4435f6c68ade453197f618d2d5e3a682d7050b43e31252acac234a1a/000000_000000/0000/tree_42.root
/store/group/phys_higgs/hbb/ntuples/VHbbPostNano/2018/V12/DYJetsToLL_Pt-100To250_TuneCP5_13TeV-amcatnloFXFX-pythia8/7f5ab33d40483ee101fcd0162e32894b6a2ad812523cf51c5b466afa/000000_000000/0000/tree_43.root
/store/group/phys_higgs/hbb/ntuples/VHbbPostNano/2018/V12/DYJetsToLL_Pt-100To250_TuneCP5_13TeV-amcatnloFXFX-pythia8/756afe4b28ca28e861ae90ff553aeb6cd8ebee2268e8623aee93c6d3/000000_000000/0000/tree_44.root
/store/group/phys_higgs/hbb/ntuples/VHbbPostNano/2018/V12/DYJetsToLL_Pt-100To250_TuneCP5_13TeV-amcatnloFXFX-pythia8/aabe71da849df6c357783ef5a31d9b20fcebff8c625762f8ad317527/000000_000000/0000/tree_45.root
/store/group/phys_higgs/hbb/ntuples/VHbbPostNano/2018/V12/DYJetsToLL_Pt-100To250_TuneCP5_13TeV-amcatnloFXFX-pythia8/cda44213517d3b894415216146bc8ee353d31cf9af97d1fb4079a7df/000000_000000/0000/tree_46.root
/store/group/phys_higgs/hbb/ntuples/VHbbPostNano/2018/V12/DYJetsToLL_Pt-100To250_TuneCP5_13TeV-amcatnloFXFX-pythia8/16e28b587dcf59c77737a3d678e2d8dfae3ed211cbf4e9f82504c74e/000000_000000/0000/tree_47.root
/store/group/phys_higgs/hbb/ntuples/VHbbPostNano/2018/V12/DYJetsToLL_Pt-100To250_TuneCP5_13TeV-amcatnloFXFX-pythia8/e290139cfc98b8c78c338911030c420f4f04bf2c928ac3d8137f9ca1/000000_000000/0000/tree_48.root
/store/group/phys_higgs/hbb/ntuples/VHbbPostNano/2018/V12/DYJetsToLL_Pt-100To250_TuneCP5_13TeV-amcatnloFXFX-pythia8/e068f1d28f976c14b1e4c4d9ea60f260581738f70fef58e6becedea2/000000_000000/0000/tree_49.root
/store/group/phys_higgs/hbb/ntuples/VHbbPostNano/2018/V12/DYJetsToLL_Pt-100To250_TuneCP5_13TeV-amcatnloFXFX-pythia8/466f060fa6c497d8f1ae5bc80d23e4dd51ceffc8e287acd7d4b1d869/000000_000000/0000/tree_50.root
/store/group/phys_higgs/hbb/ntuples/VHbbPostNano/2018/V12/DYJetsToLL_Pt-100To250_TuneCP5_13TeV-amcatnloFXFX-pythia8/a597e2055127450c89449f649e51a29bd74702ecb1085d98323e2c4c/000000_000000/0000/tree_51.root
/store/group/phys_higgs/hbb/ntuples/VHbbPostNano/2018/V12/DYJetsToLL_Pt-100To250_TuneCP5_13TeV-amcatnloFXFX-pythia8/2d5545ccd08344c64041c260a79a256b1d86ae38c659020cc41bc741/000000_000000/0000/tree_52.root
/store/group/phys_higgs/hbb/ntuples/VHbbPostNano/2018/V12/DYJetsToLL_Pt-100To250_TuneCP5_13TeV-amcatnloFXFX-pythia8/02c5f1fbb31eba06935351feb0a4ac8628c8a8252c782750ecea42a4/000000_000000/0000/tree_53.root
/store/group/phys_higgs/hbb/ntuples/VHbbPostNano/2018/V12/DYJetsToLL_Pt-100To250_TuneCP5_13TeV-amcatnloFXFX-pythia8/9ce37390bd68059d9ad18093d83f7a3d0e6a5f00c5a54dfdbc9bbf0f/000000_000000/0000/tree_54.root
/store/group/phys_higgs/hbb/ntuples/VHbbPostNano/2018/V12/DYJetsToLL_Pt-100To250_TuneCP5_13TeV-amcatnloFXFX-pythia8/8fbcd5f6244d2d2ba150989f60e182641b958b20e58bc4f06ad90b83/000000_000000/0000/tree_55.root
/store/group/phys_higgs/hbb/ntuples/VHbbPostNano/2018/V12/DYJetsToLL_Pt-100To250_TuneCP5_13TeV-amcatnloFXFX-pythia8/34e6ad8a618e25331328faee9183b88f15ec4da8457c96f94f38eecd/000000_000000/0000/tree_56.root
/store/group/phys_higgs/hbb/ntuples/VHbbPostNano/2018/V12/DYJetsToLL_Pt-100To250_TuneCP5_13TeV-amcatnloFXFX-pythia8/6d59fa8a1569c4b6c7a35aa253bb4c6132f7eb37679a7fdc38a7bdea/000000_000000/0000/tree_57.root
/store/group/phys_higgs/hbb/ntuples/VHbbPostNano/2018/V12/DYJetsToLL_Pt-100To250_TuneCP5_13TeV-amcatnloFXFX-pythia8/7a2b01ecd96338dbcdc8e79c83dae9e12f0f53c28229d5c40cfb09d3/000000_000000/0000/tree_58.root
/store/group/phys_higgs/hbb/ntuples/VHbbPostNano/2018/V12/DYJetsToLL_Pt-100To250_TuneCP5_13TeV-amcatnloFXFX-pythia8/422874872e21bf6b683dc3811d25d2dd71f46e12e13b1817b8a90900/000000_000000/0000/tree_59.root
/store/group/phys_higgs/hbb/ntuples/VHbbPostNano/2018/V12/DYJetsToLL_Pt-100To250_TuneCP5_13TeV-amcatnloFXFX-pythia8/acf63c4155867d2698ef610fa6c889d856f0181378a97fcb7d81a536/000000_000000/0000/tree_60.root
/store/group/phys_higgs/hbb/ntuples/VHbbPostNano/2018/V12/DYJetsToLL_Pt-100To250_TuneCP5_13TeV-amcatnloFXFX-pythia8/706258e82c4be51293270b8773d9e5a009eb970f05c0182c375ce983/000000_000000/0000/tree_61.root
/store/group/phys_higgs/hbb/ntuples/VHbbPostNano/2018/V12/DYJetsToLL_Pt-100To250_TuneCP5_13TeV-amcatnloFXFX-pythia8/cd526e342f71f418b04f4c4931abb524b2089b6273313935e77d8ecd/000000_000000/0000/tree_62.root
/store/group/phys_higgs/hbb/ntuples/VHbbPostNano/2018/V12/DYJetsToLL_Pt-100To250_TuneCP5_13TeV-amcatnloFXFX-pythia8/1e4ce63f096d9f1671b3067a840c2be33caeb0606178a07471db6920/000000_000000/0000/tree_63.root
/store/group/phys_higgs/hbb/ntuples/VHbbPostNano/2018/V12/DYJetsToLL_Pt-100To250_TuneCP5_13TeV-amcatnloFXFX-pythia8/dd24c89095cc1664e84500d133694372ff14a9930f6d1a43f7a03b2c/000000_000000/0000/tree_64.root
/store/group/phys_higgs/hbb/ntuples/VHbbPostNano/2018/V12/DYJetsToLL_Pt-100To250_TuneCP5_13TeV-amcatnloFXFX-pythia8/73f4a2b63907d3d5b96bf6c1c7be4cfad67e577b5693d149e34e38ab/000000_000000/0000/tree_65.root
/store/group/phys_higgs/hbb/ntuples/VHbbPostNano/2018/V12/DYJetsToLL_Pt-100To250_TuneCP5_13TeV-amcatnloFXFX-pythia8/6c8d0651dcc07317124002bd38d63ea59de555ba28e58f6e23b4a06e/000000_000000/0000/tree_66.root
/store/group/phys_higgs/hbb/ntuples/VHbbPostNano/2018/V12/DYJetsToLL_Pt-100To250_TuneCP5_13TeV-amcatnloFXFX-pythia8/1e44fd767a355a25bfd0ebc57b9620205ecd86a67265a760b36ddca9/000000_000000/0000/tree_67.root
/store/group/phys_higgs/hbb/ntuples/VHbbPostNano/2018/V12/DYJetsToLL_Pt-100To250_TuneCP5_13TeV-amcatnloFXFX-pythia8/b174c4cff5d1f2e02d89c9737f2bce99b72db183f71a58bf0e59e9e4/000000_000000/0000/tree_68.root
/store/group/phys_higgs/hbb/ntuples/VHbbPostNano/2018/V12/DYJetsToLL_Pt-100To250_TuneCP5_13TeV-amcatnloFXFX-pythia8/bfdb76fb572991056181d35e3b72c66c4c747adffda5137b3c5c43de/000000_000000/0000/tree_69.root
/store/group/phys_higgs/hbb/ntuples/VHbbPostNano/2018/V12/DYJetsToLL_Pt-100To250_TuneCP5_13TeV-amcatnloFXFX-pythia8/733977c8e32137fd5e303643aebf12fae0cf8de702b71816310914f9/000000_000000/0000/tree_70.root
/store/group/phys_higgs/hbb/ntuples/VHbbPostNano/2018/V12/DYJetsToLL_Pt-100To250_TuneCP5_13TeV-amcatnloFXFX-pythia8/ce3babd388ac8cb24d8873912f0b48f5255710fe713aaa74d6fa9490/000000_000000/0000/tree_71.root
/store/group/phys_higgs/hbb/ntuples/VHbbPostNano/2018/V12/DYJetsToLL_Pt-100To250_TuneCP5_13TeV-amcatnloFXFX-pythia8/aec004028fee438a8bcb624a723fbcfa9cc6f4757d1774849338607e/000000_000000/0000/tree_72.root
/store/group/phys_higgs/hbb/ntuples/VHbbPostNano/2018/V12/DYJetsToLL_Pt-100To250_TuneCP5_13TeV-amcatnloFXFX-pythia8/f869bd38efd61689208e9af7704de255b04f3a4cc9214f1c7c1b5be8/000000_000000/0000/tree_73.root
/store/group/phys_higgs/hbb/ntuples/VHbbPostNano/2018/V12/DYJetsToLL_Pt-100To250_TuneCP5_13TeV-amcatnloFXFX-pythia8/4608093a70b37aa2e359a67dd8562873d3d8fc8989613ef80e39c4f5/000000_000000/0000/tree_74.root
/store/group/phys_higgs/hbb/ntuples/VHbbPostNano/2018/V12/DYJetsToLL_Pt-100To250_TuneCP5_13TeV-amcatnloFXFX-pythia8/7312de349de63993f596a96aab0bd5669bc90e6f83aa6f2792c16c1a/000000_000000/0000/tree_75.root
/store/group/phys_higgs/hbb/ntuples/VHbbPostNano/2018/V12/DYJetsToLL_Pt-100To250_TuneCP5_13TeV-amcatnloFXFX-pythia8/0a87626c5214ca6852c010345e4141d1776ecf0c1d94e070bb4f4479/000000_000000/0000/tree_76.root
/store/group/phys_higgs/hbb/ntuples/VHbbPostNano/2018/V12/DYJetsToLL_Pt-100To250_TuneCP5_13TeV-amcatnloFXFX-pythia8/9b912ffd9021d7568bc082ec25e115a0adde7ab0bebfe4ba5e88a84e/000000_000000/0000/tree_77.root
/store/group/phys_higgs/hbb/ntuples/VHbbPostNano/2018/V12/DYJetsToLL_Pt-100To250_TuneCP5_13TeV-amcatnloFXFX-pythia8/1b841fac2e890b4e0fe83704be5791b90f7c415f12de0640d0714b2c/000000_000000/0000/tree_78.root
/store/group/phys_higgs/hbb/ntuples/VHbbPostNano/2018/V12/DYJetsToLL_Pt-100To250_TuneCP5_13TeV-amcatnloFXFX-pythia8/f8536bdacbeb95eb46c83551e5e8b138e7eb034e1862a96caa77a017/000000_000000/0000/tree_79.root
/store/group/phys_higgs/hbb/ntuples/VHbbPostNano/2018/V12/DYJetsToLL_Pt-100To250_TuneCP5_13TeV-amcatnloFXFX-pythia8/c91cb153b0d8c26940aceefba84eb5276190b5cadf1d792904a6077a/000000_000000/0000/tree_80.root
/store/group/phys_higgs/hbb/ntuples/VHbbPostNano/2018/V12/DYJetsToLL_Pt-100To250_TuneCP5_13TeV-amcatnloFXFX-pythia8/34a108617e783524367d847ef73ed40c3c94e6f900686a5f935faa9b/000000_000000/0000/tree_81.root
/store/group/phys_higgs/hbb/ntuples/VHbbPostNano/2018/V12/DYJetsToLL_Pt-100To250_TuneCP5_13TeV-amcatnloFXFX-pythia8/56b49cc54abbb3277edb3106e96df60d428a614bff801040e5044ce0/000000_000000/0000/tree_82.root
/store/group/phys_higgs/hbb/ntuples/VHbbPostNano/2018/V12/DYJetsToLL_Pt-100To250_TuneCP5_13TeV-amcatnloFXFX-pythia8/9350472c1d779154acbaddc0c270ad258da8505f63ff819c4eb29d7d/000000_000000/0000/tree_83.root
/store/group/phys_higgs/hbb/ntuples/VHbbPostNano/2018/V12/DYJetsToLL_Pt-100To250_TuneCP5_13TeV-amcatnloFXFX-pythia8/b1e9eaccb8304110a70b65842f1bae37ea65728ff3627fbb4df572ce/000000_000000/0000/tree_84.root
/store/group/phys_higgs/hbb/ntuples/VHbbPostNano/2018/V12/DYJetsToLL_Pt-100To250_TuneCP5_13TeV-amcatnloFXFX-pythia8/70244e6e047a2290b8b9e8a068301b3e759580705e05095773b09eae/000000_000000/0000/tree_85.root
/store/group/phys_higgs/hbb/ntuples/VHbbPostNano/2018/V12/DYJetsToLL_Pt-100To250_TuneCP5_13TeV-amcatnloFXFX-pythia8/923ba0e2ca17605a587266d51656523b933198fc16ff4ddafef4f191/000000_000000/0000/tree_86.root
/store/group/phys_higgs/hbb/ntuples/VHbbPostNano/2018/V12/DYJetsToLL_Pt-100To250_TuneCP5_13TeV-amcatnloFXFX-pythia8/585128dd5d3406d7f430acdb74d6805ebc79f7acefb73fbd2abaeb36/000000_000000/0000/tree_87.root
/store/group/phys_higgs/hbb/ntuples/VHbbPostNano/2018/V12/DYJetsToLL_Pt-100To250_TuneCP5_13TeV-amcatnloFXFX-pythia8/5417a40fd66331f8c7884183aca78feadb07aff28c65278266e8d6af/000000_000000/0000/tree_88.root
/store/group/phys_higgs/hbb/ntuples/VHbbPostNano/2018/V12/DYJetsToLL_Pt-100To250_TuneCP5_13TeV-amcatnloFXFX-pythia8/d4027fee5750fef24dc918eb58c47fd1109d3ffbef0cdff1d68e2475/000000_000000/0000/tree_89.root
/store/group/phys_higgs/hbb/ntuples/VHbbPostNano/2018/V12/DYJetsToLL_Pt-100To250_TuneCP5_13TeV-amcatnloFXFX-pythia8/94be1bd9cef3391e954f06f8260143448aea476e4a6c8c94d58ea137/000000_000000/0000/tree_90.root
/store/group/phys_higgs/hbb/ntuples/VHbbPostNano/2018/V12/DYJetsToLL_Pt-100To250_TuneCP5_13TeV-amcatnloFXFX-pythia8/2edc8e1f364d2082aeb25ce3f66f3e15fbab7baeddc03a8cf7f26aba/000000_000000/0000/tree_91.root
/store/group/phys_higgs/hbb/ntuples/VHbbPostNano/2018/V12/DYJetsToLL_Pt-100To250_TuneCP5_13TeV-amcatnloFXFX-pythia8/a08df9a1d8bd163b6e6964169693d4aea97a08cefce8f294c8349260/000000_000000/0000/tree_92.root
/store/group/phys_higgs/hbb/ntuples/VHbbPostNano/2018/V12/DYJetsToLL_Pt-100To250_TuneCP5_13TeV-amcatnloFXFX-pythia8/ec208d66d76a4d936f064cddc7a24925f8ff1c56066027f9e7524c5e/000000_000000/0000/tree_93.root
/store/group/phys_higgs/hbb/ntuples/VHbbPostNano/2018/V12/DYJetsToLL_Pt-100To250_TuneCP5_13TeV-amcatnloFXFX-pythia8/05dbaf047ab05462f8268ea0eddfe80c243c344f353e9cb1d114780b/000000_000000/0000/tree_94.root
/store/group/phys_higgs/hbb/ntuples/VHbbPostNano/2018/V12/DYJetsToLL_Pt-100To250_TuneCP5_13TeV-amcatnloFXFX-pythia8/b1e35b76f9c81f5ee2a270ef5cdaf1e2a1d0b02ed97797c989236a90/000000_000000/0000/tree_95.root
/store/group/phys_higgs/hbb/ntuples/VHbbPostNano/2018/V12/DYJetsToLL_Pt-100To250_TuneCP5_13TeV-amcatnloFXFX-pythia8/d178d6ca423b73e6a363b98f4548f8ed4d88b6b2bf5b6693325bbb47/000000_000000/0000/tree_96.root
/store/group/phys_higgs/hbb/ntuples/VHbbPostNano/2018/V12/DYJetsToLL_Pt-100To250_TuneCP5_13TeV-amcatnloFXFX-pythia8/7fc79f4f17622aa05d5306df01e0e5a15676e53ab1f1157b335594b9/000000_000000/0000/tree_97.root
/store/group/phys_higgs/hbb/ntuples/VHbbPostNano/2018/V12/DYJetsToLL_Pt-100To250_TuneCP5_13TeV-amcatnloFXFX-pythia8/0d79eae4e313d5791958301919d23eae4947b38806ccab828d7bac04/000000_000000/0000/tree_98.root
/store/group/phys_higgs/hbb/ntuples/VHbbPostNano/2018/V12/DYJetsToLL_Pt-100To250_TuneCP5_13TeV-amcatnloFXFX-pythia8/94f579dfc9bcd086f07f387b284ebd62d82915fcf2b37a39d1e20dde/000000_000000/0000/tree_99.root
/store/group/phys_higgs/hbb/ntuples/VHbbPostNano/2018/V12/DYJetsToLL_Pt-100To250_TuneCP5_13TeV-amcatnloFXFX-pythia8/83e31e29c85ce49d02b68002aa266d103ad0ec0e50b384dc94a80921/000000_000000/0000/tree_100.root
/store/group/phys_higgs/hbb/ntuples/VHbbPostNano/2018/V12/DYJetsToLL_Pt-100To250_TuneCP5_13TeV-amcatnloFXFX-pythia8/8a4c7d8fb6e29ad2b4cc6b572db8a356e62c82de909aaf6e1f7a79ca/000000_000000/0000/tree_101.root
/store/group/phys_higgs/hbb/ntuples/VHbbPostNano/2018/V12/DYJetsToLL_Pt-100To250_TuneCP5_13TeV-amcatnloFXFX-pythia8/a201bee66b9a1776733a9a2056fb58bb3107221076cd09faa6c7df42/000000_000000/0000/tree_102.root
/store/group/phys_higgs/hbb/ntuples/VHbbPostNano/2018/V12/DYJetsToLL_Pt-100To250_TuneCP5_13TeV-amcatnloFXFX-pythia8/d304ea6c272966490a92d6d4ccd237e78eba797393c74fb97e25a4a6/000000_000000/0000/tree_103.root
/store/group/phys_higgs/hbb/ntuples/VHbbPostNano/2018/V12/DYJetsToLL_Pt-100To250_TuneCP5_13TeV-amcatnloFXFX-pythia8/ae97d74888d0483f0fef86ae902c49b9d927f99c70ef5d76af37f42d/000000_000000/0000/tree_104.root
/store/group/phys_higgs/hbb/ntuples/VHbbPostNano/2018/V12/DYJetsToLL_Pt-100To250_TuneCP5_13TeV-amcatnloFXFX-pythia8/86c6d100d1a458185cc160d1936c9df190aa52d36760c9fa7cf78d3c/000000_000000/0000/tree_105.root
/store/group/phys_higgs/hbb/ntuples/VHbbPostNano/2018/V12/DYJetsToLL_Pt-100To250_TuneCP5_13TeV-amcatnloFXFX-pythia8/c7fadecc0a22eb46e5d52c0e93a78f828641c81d4b4ee3d674d3ad79/000000_000000/0000/tree_106.root
/store/group/phys_higgs/hbb/ntuples/VHbbPostNano/2018/V12/DYJetsToLL_Pt-100To250_TuneCP5_13TeV-amcatnloFXFX-pythia8/be62572ffef35db8b00a405c15067f4711f3889f49cf1f92f20bf5e1/000000_000000/0000/tree_107.root
/store/group/phys_higgs/hbb/ntuples/VHbbPostNano/2018/V12/DYJetsToLL_Pt-100To250_TuneCP5_13TeV-amcatnloFXFX-pythia8/88d98fe8a93b0d7f90a7be5920e3d0aa834b323432fd779e093d91ea/000000_000000/0000/tree_108.root
/store/group/phys_higgs/hbb/ntuples/VHbbPostNano/2018/V12/DYJetsToLL_Pt-100To250_TuneCP5_13TeV-amcatnloFXFX-pythia8/b19367a2566f16c31284b0456f713ab1bdeb74fe4359e18322b2d799/000000_000000/0000/tree_109.root
/store/group/phys_higgs/hbb/ntuples/VHbbPostNano/2018/V12/DYJetsToLL_Pt-100To250_TuneCP5_13TeV-amcatnloFXFX-pythia8/e6513b584c820fd8dbf6bc8fa80ba84adc32685e0c589796de93fa7e/000000_000000/0000/tree_110.root
/store/group/phys_higgs/hbb/ntuples/VHbbPostNano/2018/V12/DYJetsToLL_Pt-100To250_TuneCP5_13TeV-amcatnloFXFX-pythia8/fefcd892878e3aca0ae697c6e9365a9322d7b449f4b343297ccb4837/000000_000000/0000/tree_111.root
/store/group/phys_higgs/hbb/ntuples/VHbbPostNano/2018/V12/DYJetsToLL_Pt-100To250_TuneCP5_13TeV-amcatnloFXFX-pythia8/4efe11ec340bdeaa86760302d1f321a624c08f02129dd25cab8e18b3/000000_000000/0000/tree_112.root
/store/group/phys_higgs/hbb/ntuples/VHbbPostNano/2018/V12/DYJetsToLL_Pt-100To250_TuneCP5_13TeV-amcatnloFXFX-pythia8/8325f5a416662402b4463fb67eee69b12847747e24c3c019b7628f5b/000000_000000/0000/tree_113.root
/store/group/phys_higgs/hbb/ntuples/VHbbPostNano/2018/V12/DYJetsToLL_Pt-100To250_TuneCP5_13TeV-amcatnloFXFX-pythia8/26da400d5737787138987a02ea2f710a5cf4205e9231152fd286a5c5/000000_000000/0000/tree_114.root
/store/group/phys_higgs/hbb/ntuples/VHbbPostNano/2018/V12/DYJetsToLL_Pt-100To250_TuneCP5_13TeV-amcatnloFXFX-pythia8/bbaf779e0289d0fa747b0b05f0a3f63f4f983a1bebdb07c3d0cd553d/000000_000000/0000/tree_115.root
/store/group/phys_higgs/hbb/ntuples/VHbbPostNano/2018/V12/DYJetsToLL_Pt-100To250_TuneCP5_13TeV-amcatnloFXFX-pythia8/e1d1e7add7451dd46d47be53f5d653d741ed38879fccb44a2cd0c336/000000_000000/0000/tree_116.root
/store/group/phys_higgs/hbb/ntuples/VHbbPostNano/2018/V12/DYJetsToLL_Pt-100To250_TuneCP5_13TeV-amcatnloFXFX-pythia8/733c5184e7e1c98ee86831418e869181e94cfd9ad785dc64e1e12cf7/000000_000000/0000/tree_117.root
/store/group/phys_higgs/hbb/ntuples/VHbbPostNano/2018/V12/DYJetsToLL_Pt-100To250_TuneCP5_13TeV-amcatnloFXFX-pythia8/883b35fb1f7bb02ffa7048455e12fe8a1a53608f756047bc31390a4f/000000_000000/0000/tree_118.root
/store/group/phys_higgs/hbb/ntuples/VHbbPostNano/2018/V12/DYJetsToLL_Pt-100To250_TuneCP5_13TeV-amcatnloFXFX-pythia8/f145b57fa1039b124e403ca7e72268dac7575336bc03323ef1a81dfc/000000_000000/0000/tree_119.root
/store/group/phys_higgs/hbb/ntuples/VHbbPostNano/2018/V12/DYJetsToLL_Pt-100To250_TuneCP5_13TeV-amcatnloFXFX-pythia8/806ffbcececd6747b0daba7f4e3e010f3970fead76f57d6699df5d78/000000_000000/0000/tree_120.root
/store/group/phys_higgs/hbb/ntuples/VHbbPostNano/2018/V12/DYJetsToLL_Pt-100To250_TuneCP5_13TeV-amcatnloFXFX-pythia8/e3c519bb0b058d1d2efcf128e36e18de2837d890fcc071f94bcf1317/000000_000000/0000/tree_121.root
/store/group/phys_higgs/hbb/ntuples/VHbbPostNano/2018/V12/DYJetsToLL_Pt-100To250_TuneCP5_13TeV-amcatnloFXFX-pythia8/c3748f3c8954541d48c5691e92d18a3760f03d06e520a376f0897647/000000_000000/0000/tree_122.root
/store/group/phys_higgs/hbb/ntuples/VHbbPostNano/2018/V12/DYJetsToLL_Pt-100To250_TuneCP5_13TeV-amcatnloFXFX-pythia8/d0cb2e90e70feab1ccf0bb035641b8e58286b0b06f06b5ea289c5bbc/000000_000000/0000/tree_123.root
/store/group/phys_higgs/hbb/ntuples/VHbbPostNano/2018/V12/DYJetsToLL_Pt-100To250_TuneCP5_13TeV-amcatnloFXFX-pythia8/7590cb33a571cf9cf2d542e0785962d55240f2356eaa3d3a86f66df9/000000_000000/0000/tree_124.root
/store/group/phys_higgs/hbb/ntuples/VHbbPostNano/2018/V12/DYJetsToLL_Pt-100To250_TuneCP5_13TeV-amcatnloFXFX-pythia8/ab98c8e7a8e8926f93ca250221a2b21a10103fb377d80f531c808b58/000000_000000/0000/tree_125.root
/store/group/phys_higgs/hbb/ntuples/VHbbPostNano/2018/V12/DYJetsToLL_Pt-100To250_TuneCP5_13TeV-amcatnloFXFX-pythia8/41a387c4bed698bed35fa244abc1de70045809aeb12ae155fe5c3868/000000_000000/0000/tree_126.root
/store/group/phys_higgs/hbb/ntuples/VHbbPostNano/2018/V12/DYJetsToLL_Pt-100To250_TuneCP5_13TeV-amcatnloFXFX-pythia8/641c0e5356cddae2b3f8997f3b7e6b6307e416e36bb252bc55b986dc/000000_000000/0000/tree_127.root
/store/group/phys_higgs/hbb/ntuples/VHbbPostNano/2018/V12/DYJetsToLL_Pt-100To250_TuneCP5_13TeV-amcatnloFXFX-pythia8/82ca640db672a0c83ca5084c2c3b9e7d128ed1b4b3685932faefd2d8/000000_000000/0000/tree_128.root
/store/group/phys_higgs/hbb/ntuples/VHbbPostNano/2018/V12/DYJetsToLL_Pt-100To250_TuneCP5_13TeV-amcatnloFXFX-pythia8/cc0d52fa28862580176488cf8a82364adb8535c04a11b672858a6df3/000000_000000/0000/tree_129.root
/store/group/phys_higgs/hbb/ntuples/VHbbPostNano/2018/V12/DYJetsToLL_Pt-100To250_TuneCP5_13TeV-amcatnloFXFX-pythia8/099c9d8a971d32bc66e83a8b708c4cfb9d5a5c74310ab489de61db34/000000_000000/0000/tree_130.root
/store/group/phys_higgs/hbb/ntuples/VHbbPostNano/2018/V12/DYJetsToLL_Pt-100To250_TuneCP5_13TeV-amcatnloFXFX-pythia8/d5c699c3e8ef15cb8f7ec3947d0984dced2549ee73d9f9d76847f29c/000000_000000/0000/tree_131.root
/store/group/phys_higgs/hbb/ntuples/VHbbPostNano/2018/V12/DYJetsToLL_Pt-100To250_TuneCP5_13TeV-amcatnloFXFX-pythia8/436afa8ce1b178772ce1d85e84eecf03ceba713b47d490b7108f84f4/000000_000000/0000/tree_132.root
/store/group/phys_higgs/hbb/ntuples/VHbbPostNano/2018/V12/DYJetsToLL_Pt-100To250_TuneCP5_13TeV-amcatnloFXFX-pythia8/dda63f7cd340b1ed9f74fc17b777970f20580c1312f54b6dee26becc/000000_000000/0000/tree_133.root
/store/group/phys_higgs/hbb/ntuples/VHbbPostNano/2018/V12/DYJetsToLL_Pt-100To250_TuneCP5_13TeV-amcatnloFXFX-pythia8/810be03cc151ecf1e08ed226848756dcbdf92452c9eca37ebb2fe284/000000_000000/0000/tree_134.root
/store/group/phys_higgs/hbb/ntuples/VHbbPostNano/2018/V12/DYJetsToLL_Pt-100To250_TuneCP5_13TeV-amcatnloFXFX-pythia8/82a1d13bb01b2157055bbcaf81954ce0587b7ac11c19f34deba02ce8/000000_000000/0000/tree_135.root
/store/group/phys_higgs/hbb/ntuples/VHbbPostNano/2018/V12/DYJetsToLL_Pt-100To250_TuneCP5_13TeV-amcatnloFXFX-pythia8/2181d534f177a3a7c3b4279edcbacd7e3412114af793de3ec87f4752/000000_000000/0000/tree_136.root
/store/group/phys_higgs/hbb/ntuples/VHbbPostNano/2018/V12/DYJetsToLL_Pt-100To250_TuneCP5_13TeV-amcatnloFXFX-pythia8/4147f2ebc0c5e3fe9a013a748aacb221c372f9e004ec56db886e2ccc/000000_000000/0000/tree_137.root
/store/group/phys_higgs/hbb/ntuples/VHbbPostNano/2018/V12/DYJetsToLL_Pt-100To250_TuneCP5_13TeV-amcatnloFXFX-pythia8/d1fcc4605871239b21a8e003be7264b689c6e47c3d6a9517b8eb9fd5/000000_000000/0000/tree_138.root
/store/group/phys_higgs/hbb/ntuples/VHbbPostNano/2018/V12/DYJetsToLL_Pt-100To250_TuneCP5_13TeV-amcatnloFXFX-pythia8/d70691619dc69a978f56fa9b405aa69a99495008e9482cf72aa77301/000000_000000/0000/tree_139.root
/store/group/phys_higgs/hbb/ntuples/VHbbPostNano/2018/V12/DYJetsToLL_Pt-100To250_TuneCP5_13TeV-amcatnloFXFX-pythia8/00fd67fd6dc8285e1def7458040a018ff23fb3240c3ffc601b3754d7/000000_000000/0000/tree_140.root
/store/group/phys_higgs/hbb/ntuples/VHbbPostNano/2018/V12/DYJetsToLL_Pt-100To250_TuneCP5_13TeV-amcatnloFXFX-pythia8/8bf9d13f8a934da9681f4aeeabecc70dae83ad679cafbbfed7155a32/000000_000000/0000/tree_141.root
/store/group/phys_higgs/hbb/ntuples/VHbbPostNano/2018/V12/DYJetsToLL_Pt-100To250_TuneCP5_13TeV-amcatnloFXFX-pythia8/d2b4ab20d1624d612d06a81f3bfb0f939ce49bc7d1abcec54b8cf915/000000_000000/0000/tree_142.root
/store/group/phys_higgs/hbb/ntuples/VHbbPostNano/2018/V12/DYJetsToLL_Pt-100To250_TuneCP5_13TeV-amcatnloFXFX-pythia8/91cc2c57d97a05d091d7d99139d74d518073d5657ba5563fe10e8cf7/000000_000000/0000/tree_143.root
/store/group/phys_higgs/hbb/ntuples/VHbbPostNano/2018/V12/DYJetsToLL_Pt-100To250_TuneCP5_13TeV-amcatnloFXFX-pythia8/57d0fdaf60f5f677f1d97c889340bc0e4fff116be58941dd53e0f78d/000000_000000/0000/tree_144.root
/store/group/phys_higgs/hbb/ntuples/VHbbPostNano/2018/V12/DYJetsToLL_Pt-100To250_TuneCP5_13TeV-amcatnloFXFX-pythia8/fc85f3bc454b84f0acdf40c1b212aac3876cbf15715d008f66e4846f/000000_000000/0000/tree_145.root
/store/group/phys_higgs/hbb/ntuples/VHbbPostNano/2018/V12/DYJetsToLL_Pt-100To250_TuneCP5_13TeV-amcatnloFXFX-pythia8/fcce9594e71435a6edfe9cdc182ecc530c58bd50b55d8c4ee66da9f2/000000_000000/0000/tree_146.root
/store/group/phys_higgs/hbb/ntuples/VHbbPostNano/2018/V12/DYJetsToLL_Pt-100To250_TuneCP5_13TeV-amcatnloFXFX-pythia8/d5d0a773a63d2f687ce17bfd33fdc192b0685e9ecd3ede229850a05a/000000_000000/0000/tree_147.root
/store/group/phys_higgs/hbb/ntuples/VHbbPostNano/2018/V12/DYJetsToLL_Pt-100To250_TuneCP5_13TeV-amcatnloFXFX-pythia8/c56cc88457711ec81de450796851c2996be0c096829dfc7f25425e3a/000000_000000/0000/tree_148.root
/store/group/phys_higgs/hbb/ntuples/VHbbPostNano/2018/V12/DYJetsToLL_Pt-100To250_TuneCP5_13TeV-amcatnloFXFX-pythia8/175b08bea07cec46854a67380edd7b0ddd0a5139f8eb6a9cb135280c/000000_000000/0000/tree_149.root
/store/group/phys_higgs/hbb/ntuples/VHbbPostNano/2018/V12/DYJetsToLL_Pt-100To250_TuneCP5_13TeV-amcatnloFXFX-pythia8/7a325c85b3defc4fe342b4aebdebea930b3d3f7844430e14e8401a88/000000_000000/0000/tree_150.root
/store/group/phys_higgs/hbb/ntuples/VHbbPostNano/2018/V12/DYJetsToLL_Pt-100To250_TuneCP5_13TeV-amcatnloFXFX-pythia8/8dc1120a81ade09f3e51515b29a924878030185f8cc862d959e8ea42/000000_000000/0000/tree_151.root
/store/group/phys_higgs/hbb/ntuples/VHbbPostNano/2018/V12/DYJetsToLL_Pt-100To250_TuneCP5_13TeV-amcatnloFXFX-pythia8/05f7691145dd55035aab5d6367d93b382ef63a980b6cb5c82a698678/000000_000000/0000/tree_152.root
/store/group/phys_higgs/hbb/ntuples/VHbbPostNano/2018/V12/DYJetsToLL_Pt-100To250_TuneCP5_13TeV-amcatnloFXFX-pythia8/305737ba5c2db096d5cacee69dd2c25d0bc0ee44de677b7d426eba62/000000_000000/0000/tree_153.root
/store/group/phys_higgs/hbb/ntuples/VHbbPostNano/2018/V12/DYJetsToLL_Pt-100To250_TuneCP5_13TeV-amcatnloFXFX-pythia8/69aba5c94fccd6e69750f916e7f159d504c815bede303429348ef0e7/000000_000000/0000/tree_154.root
/store/group/phys_higgs/hbb/ntuples/VHbbPostNano/2018/V12/DYJetsToLL_Pt-100To250_TuneCP5_13TeV-amcatnloFXFX-pythia8/fe51812ac6086e6226c28378d0e3f1599b5489f2b3797143f0aca2bf/000000_000000/0000/tree_155.root
/store/group/phys_higgs/hbb/ntuples/VHbbPostNano/2018/V12/DYJetsToLL_Pt-100To250_TuneCP5_13TeV-amcatnloFXFX-pythia8/60d37865fd94adbed1a9d6dc1aa688155936598d15d23a7b968f1b96/000000_000000/0000/tree_156.root
/store/group/phys_higgs/hbb/ntuples/VHbbPostNano/2018/V12/DYJetsToLL_Pt-100To250_TuneCP5_13TeV-amcatnloFXFX-pythia8/53d9012e3543ce5d7ddfbfa4293c6038591a7d9bb90a529064de4d80/000000_000000/0000/tree_157.root
/store/group/phys_higgs/hbb/ntuples/VHbbPostNano/2018/V12/DYJetsToLL_Pt-100To250_TuneCP5_13TeV-amcatnloFXFX-pythia8/eeb9515e1672d64215005355d36b84c2eddfe002a46f23f8803c338c/000000_000000/0000/tree_158.root
/store/group/phys_higgs/hbb/ntuples/VHbbPostNano/2018/V12/DYJetsToLL_Pt-100To250_TuneCP5_13TeV-amcatnloFXFX-pythia8/c709f8ade72471eff913bb654a7ed9d0dfe6aaf4796e9877cce42d0d/000000_000000/0000/tree_159.root
/store/group/phys_higgs/hbb/ntuples/VHbbPostNano/2018/V12/DYJetsToLL_Pt-100To250_TuneCP5_13TeV-amcatnloFXFX-pythia8/b60f7a95a06154a5962d281bc8abea4b96da929b1f59f48c903de183/000000_000000/0000/tree_160.root
/store/group/phys_higgs/hbb/ntuples/VHbbPostNano/2018/V12/DYJetsToLL_Pt-100To250_TuneCP5_13TeV-amcatnloFXFX-pythia8/583afe81c82a7ad706fdf4404cf603a8d71ca35440ec3a5b06be114f/000000_000000/0000/tree_161.root
/store/group/phys_higgs/hbb/ntuples/VHbbPostNano/2018/V12/DYJetsToLL_Pt-100To250_TuneCP5_13TeV-amcatnloFXFX-pythia8/163f64f6a3236bcb86fabf2ba65a81e797df81b935c73ce5365e7942/000000_000000/0000/tree_162.root
/store/group/phys_higgs/hbb/ntuples/VHbbPostNano/2018/V12/DYJetsToLL_Pt-100To250_TuneCP5_13TeV-amcatnloFXFX-pythia8/18d3a33c720bb47dced11f0e105fd661f75a70e3ca177a74b1a77b2c/000000_000000/0000/tree_163.root
/store/group/phys_higgs/hbb/ntuples/VHbbPostNano/2018/V12/DYJetsToLL_Pt-100To250_TuneCP5_13TeV-amcatnloFXFX-pythia8/6faa96fdd09486c47ab8cc9fb8e9a9304c6fce04df0bbfb0c1f9babd/000000_000000/0000/tree_164.root
/store/group/phys_higgs/hbb/ntuples/VHbbPostNano/2018/V12/DYJetsToLL_Pt-100To250_TuneCP5_13TeV-amcatnloFXFX-pythia8/9207561909d43d7a680a86bc3893b1d91034e5d3e075b54d1326c82b/000000_000000/0000/tree_165.root
/store/group/phys_higgs/hbb/ntuples/VHbbPostNano/2018/V12/DYJetsToLL_Pt-100To250_TuneCP5_13TeV-amcatnloFXFX-pythia8/5cba345d2206bf2fad89ea70e4bed8ac5ae9ca7b6d1c74947f38fe69/000000_000000/0000/tree_166.root
/store/group/phys_higgs/hbb/ntuples/VHbbPostNano/2018/V12/DYJetsToLL_Pt-100To250_TuneCP5_13TeV-amcatnloFXFX-pythia8/862d36362c06875d166797e6492b8fd6346af420ae483a2aae3b5020/000000_000000/0000/tree_167.root
/store/group/phys_higgs/hbb/ntuples/VHbbPostNano/2018/V12/DYJetsToLL_Pt-100To250_TuneCP5_13TeV-amcatnloFXFX-pythia8/d4e955726a68cf95ae56477ff36362126fe3fa13c07f6be4db9ce223/000000_000000/0000/tree_168.root
/store/group/phys_higgs/hbb/ntuples/VHbbPostNano/2018/V12/DYJetsToLL_Pt-100To250_TuneCP5_13TeV-amcatnloFXFX-pythia8/bd17d7027bb22324f8dfb2f9aef8fca9c86d4ad040666ea8de337988/000000_000000/0000/tree_169.root
/store/group/phys_higgs/hbb/ntuples/VHbbPostNano/2018/V12/DYJetsToLL_Pt-100To250_TuneCP5_13TeV-amcatnloFXFX-pythia8/904faaac9a84e0b41c6bdcd60fb2751e49eefb8219aa8ccf7e3d7032/000000_000000/0000/tree_170.root
/store/group/phys_higgs/hbb/ntuples/VHbbPostNano/2018/V12/DYJetsToLL_Pt-100To250_TuneCP5_13TeV-amcatnloFXFX-pythia8/50f576aa33b89057a049e25d74add8213c0628039b36a0a701c68da3/000000_000000/0000/tree_171.root
/store/group/phys_higgs/hbb/ntuples/VHbbPostNano/2018/V12/DYJetsToLL_Pt-100To250_TuneCP5_13TeV-amcatnloFXFX-pythia8/73473ff23c35b89ca21cad668793650d224ce06a011ef60d9b6f96cc/000000_000000/0000/tree_172.root
/store/group/phys_higgs/hbb/ntuples/VHbbPostNano/2018/V12/DYJetsToLL_Pt-100To250_TuneCP5_13TeV-amcatnloFXFX-pythia8/832c0ae7aafb4111036a940e5794ae5a8216e387c0053f19dd9b5d29/000000_000000/0000/tree_173.root
/store/group/phys_higgs/hbb/ntuples/VHbbPostNano/2018/V12/DYJetsToLL_Pt-100To250_TuneCP5_13TeV-amcatnloFXFX-pythia8/8b0cb28cced899fbe65dbcf86f44ac724e79157f67006c3a3c99b680/000000_000000/0000/tree_174.root
/store/group/phys_higgs/hbb/ntuples/VHbbPostNano/2018/V12/DYJetsToLL_Pt-100To250_TuneCP5_13TeV-amcatnloFXFX-pythia8/e4992a5f4c6f6f43c42bd94fdc8b9980fc5eca7dd4d478282a5532c3/000000_000000/0000/tree_175.root
/store/group/phys_higgs/hbb/ntuples/VHbbPostNano/2018/V12/DYJetsToLL_Pt-100To250_TuneCP5_13TeV-amcatnloFXFX-pythia8/ba8638669fc2cf71488c06b2537acda4966a4715a541b3420176c9f8/000000_000000/0000/tree_176.root
/store/group/phys_higgs/hbb/ntuples/VHbbPostNano/2018/V12/DYJetsToLL_Pt-100To250_TuneCP5_13TeV-amcatnloFXFX-pythia8/7e08204055cef1b260eed765db302f0cdbb26520822bad36b7476ae2/000000_000000/0000/tree_177.root
/store/group/phys_higgs/hbb/ntuples/VHbbPostNano/2018/V12/DYJetsToLL_Pt-100To250_TuneCP5_13TeV-amcatnloFXFX-pythia8/78418f0e91b72b70713d1b9b46ee3b65f2741159e6fa20756a4358a5/000000_000000/0000/tree_178.root
/store/group/phys_higgs/hbb/ntuples/VHbbPostNano/2018/V12/DYJetsToLL_Pt-100To250_TuneCP5_13TeV-amcatnloFXFX-pythia8/4893af8b50ff40c79bd6fe3eb119fe3abb06be971fa9cb6eff8ffdc9/000000_000000/0000/tree_179.root
/store/group/phys_higgs/hbb/ntuples/VHbbPostNano/2018/V12/DYJetsToLL_Pt-100To250_TuneCP5_13TeV-amcatnloFXFX-pythia8/ec45c5c0aa0ec76f89988e686dbc004ea19c9aee207866321835eee4/000000_000000/0000/tree_180.root
/store/group/phys_higgs/hbb/ntuples/VHbbPostNano/2018/V12/DYJetsToLL_Pt-100To250_TuneCP5_13TeV-amcatnloFXFX-pythia8/8ce1fd7af38d65b63ad94382f4ea3f3fdf002e715be9abeea51af12f/000000_000000/0000/tree_181.root
/store/group/phys_higgs/hbb/ntuples/VHbbPostNano/2018/V12/DYJetsToLL_Pt-100To250_TuneCP5_13TeV-amcatnloFXFX-pythia8/c509ba84b7cc0d9b125263b9aed9a48ccf5c8e49ec6fe66b0031c176/000000_000000/0000/tree_182.root
/store/group/phys_higgs/hbb/ntuples/VHbbPostNano/2018/V12/DYJetsToLL_Pt-100To250_TuneCP5_13TeV-amcatnloFXFX-pythia8/edc9d19d5d2bb879b2d8c9cbaf2825e884bf0b4fa3130574863465a6/000000_000000/0000/tree_183.root
/store/group/phys_higgs/hbb/ntuples/VHbbPostNano/2018/V12/DYJetsToLL_Pt-100To250_TuneCP5_13TeV-amcatnloFXFX-pythia8/16f23f0efed6526d25faccf6542eb1c993d0aa680cc654112ec11212/000000_000000/0000/tree_184.root
/store/group/phys_higgs/hbb/ntuples/VHbbPostNano/2018/V12/DYJetsToLL_Pt-100To250_TuneCP5_13TeV-amcatnloFXFX-pythia8/2dd70ce267664d80167cd54cc5c1d20b5d7abd14d0ad55489dd752d9/000000_000000/0000/tree_185.root
/store/group/phys_higgs/hbb/ntuples/VHbbPostNano/2018/V12/DYJetsToLL_Pt-100To250_TuneCP5_13TeV-amcatnloFXFX-pythia8/f625a0316ab90dd68df09908af6a3d225c4aba9518235a759af6c4ca/000000_000000/0000/tree_186.root
/store/group/phys_higgs/hbb/ntuples/VHbbPostNano/2018/V12/DYJetsToLL_Pt-100To250_TuneCP5_13TeV-amcatnloFXFX-pythia8/f6c8bf692ccc5f8c2efaaebd2fb4b59bfe367e8bdf83e688059ff2e8/000000_000000/0000/tree_187.root
/store/group/phys_higgs/hbb/ntuples/VHbbPostNano/2018/V12/DYJetsToLL_Pt-100To250_TuneCP5_13TeV-amcatnloFXFX-pythia8/4fac56364880d8e23f19619dba2c295ff188ea52f39660480480130e/000000_000000/0000/tree_188.root
/store/group/phys_higgs/hbb/ntuples/VHbbPostNano/2018/V12/DYJetsToLL_Pt-100To250_TuneCP5_13TeV-amcatnloFXFX-pythia8/a5e1442e3dc5c9a2f0eb3f1fb27c0c7a73f1502dde082c8a3f239e18/000000_000000/0000/tree_189.root
/store/group/phys_higgs/hbb/ntuples/VHbbPostNano/2018/V12/DYJetsToLL_Pt-100To250_TuneCP5_13TeV-amcatnloFXFX-pythia8/2c1d687dbc6d9c3a1778a1578728f567f4461c812ef1af4b84702acd/000000_000000/0000/tree_190.root
/store/group/phys_higgs/hbb/ntuples/VHbbPostNano/2018/V12/DYJetsToLL_Pt-100To250_TuneCP5_13TeV-amcatnloFXFX-pythia8/ca847e5d5337380bc9b5e730e0f9a07f1e61b68d0b29c0c2411a1afb/000000_000000/0000/tree_191.root
/store/group/phys_higgs/hbb/ntuples/VHbbPostNano/2018/V12/DYJetsToLL_Pt-100To250_TuneCP5_13TeV-amcatnloFXFX-pythia8/6657355e7fc41a397fa404bfb484489576a4ebe31018ada3c7f90977/000000_000000/0000/tree_192.root
/store/group/phys_higgs/hbb/ntuples/VHbbPostNano/2018/V12/DYJetsToLL_Pt-100To250_TuneCP5_13TeV-amcatnloFXFX-pythia8/b5a8e1c36968585d57d607baf6cd7f35eddaaaa78892eae1b0a5ffce/000000_000000/0000/tree_193.root
/store/group/phys_higgs/hbb/ntuples/VHbbPostNano/2018/V12/DYJetsToLL_Pt-100To250_TuneCP5_13TeV-amcatnloFXFX-pythia8/35e872c272ecb73a2e2eafe339e7b46aaa89dfdfbae797a4152541d8/000000_000000/0000/tree_194.root
/store/group/phys_higgs/hbb/ntuples/VHbbPostNano/2018/V12/DYJetsToLL_Pt-100To250_TuneCP5_13TeV-amcatnloFXFX-pythia8/7c6e112730551b5626a7d721d55902f5d8e31bd3f524ce0e9cdc8db9/000000_000000/0000/tree_195.root
/store/group/phys_higgs/hbb/ntuples/VHbbPostNano/2018/V12/DYJetsToLL_Pt-100To250_TuneCP5_13TeV-amcatnloFXFX-pythia8/9ea4e4a84f6c462a720be7bcdfe68e0bea86206e7ecce0d8f9441cb1/000000_000000/0000/tree_196.root
/store/group/phys_higgs/hbb/ntuples/VHbbPostNano/2018/V12/DYJetsToLL_Pt-100To250_TuneCP5_13TeV-amcatnloFXFX-pythia8/532b190654ab886c4be720f6afa2fce46f64d895dc3c737d4535320a/000000_000000/0000/tree_197.root
/store/group/phys_higgs/hbb/ntuples/VHbbPostNano/2018/V12/DYJetsToLL_Pt-100To250_TuneCP5_13TeV-amcatnloFXFX-pythia8/07d1681b775b2ab3f3d06581633b69df30fecadf4cb79f7900d0b0c6/000000_000000/0000/tree_198.root
/store/group/phys_higgs/hbb/ntuples/VHbbPostNano/2018/V12/DYJetsToLL_Pt-100To250_TuneCP5_13TeV-amcatnloFXFX-pythia8/307092b7e1568b376a08ea61cc295947365bd0f0a7ee1b9878ecef87/000000_000000/0000/tree_199.root
/store/group/phys_higgs/hbb/ntuples/VHbbPostNano/2018/V12/DYJetsToLL_Pt-100To250_TuneCP5_13TeV-amcatnloFXFX-pythia8/b2c3d0ccd92ea6cde4ac6009d92ddc9adb677a264c25f21cdcdb634f/000000_000000/0000/tree_200.root
/store/group/phys_higgs/hbb/ntuples/VHbbPostNano/2018/V12/DYJetsToLL_Pt-100To250_TuneCP5_13TeV-amcatnloFXFX-pythia8/7fd8ec007d7e02c21e568690cb6182203fd67a2b0d012b7cbb7f1362/000000_000000/0000/tree_201.root
/store/group/phys_higgs/hbb/ntuples/VHbbPostNano/2018/V12/DYJetsToLL_Pt-100To250_TuneCP5_13TeV-amcatnloFXFX-pythia8/77dcf1c65bbb23d11dedfb3574b2ecf4f3f729435dbf257eb69535ec/000000_000000/0000/tree_202.root
/store/group/phys_higgs/hbb/ntuples/VHbbPostNano/2018/V12/DYJetsToLL_Pt-100To250_TuneCP5_13TeV-amcatnloFXFX-pythia8/7aa03b6df8e8e5a10debe561cb30b903b330bbd5fd748605be856413/000000_000000/0000/tree_203.root
/store/group/phys_higgs/hbb/ntuples/VHbbPostNano/2018/V12/DYJetsToLL_Pt-100To250_TuneCP5_13TeV-amcatnloFXFX-pythia8/2844efe22478e7a59a0f5b2edfd82ca8ed7521691daea52a3a7ee330/000000_000000/0000/tree_204.root
/store/group/phys_higgs/hbb/ntuples/VHbbPostNano/2018/V12/DYJetsToLL_Pt-100To250_TuneCP5_13TeV-amcatnloFXFX-pythia8/73d588b66a87f33f59204b4fb9b5c346899107c3f856b96b8c9efa0b/000000_000000/0000/tree_205.root
/store/group/phys_higgs/hbb/ntuples/VHbbPostNano/2018/V12/DYJetsToLL_Pt-100To250_TuneCP5_13TeV-amcatnloFXFX-pythia8/78245dd9dcbf2bc8222f60ef6515302176f4a2dd1db4f1e602eb7c62/000000_000000/0000/tree_206.root
/store/group/phys_higgs/hbb/ntuples/VHbbPostNano/2018/V12/DYJetsToLL_Pt-100To250_TuneCP5_13TeV-amcatnloFXFX-pythia8/f2028a6c81186cdb17c0acc4a6920d9867831a63b42ca7da929fae27/000000_000000/0000/tree_207.root
/store/group/phys_higgs/hbb/ntuples/VHbbPostNano/2018/V12/DYJetsToLL_Pt-100To250_TuneCP5_13TeV-amcatnloFXFX-pythia8/d590004956976d0dd04e2adde8917d6abab7f93bd971ce5749420180/000000_000000/0000/tree_208.root
/store/group/phys_higgs/hbb/ntuples/VHbbPostNano/2018/V12/DYJetsToLL_Pt-100To250_TuneCP5_13TeV-amcatnloFXFX-pythia8/030f5d2931e55011802ebeb76443f135d4428b94c726170f028b1d42/000000_000000/0000/tree_209.root
/store/group/phys_higgs/hbb/ntuples/VHbbPostNano/2018/V12/DYJetsToLL_Pt-100To250_TuneCP5_13TeV-amcatnloFXFX-pythia8/482b4392723ae1572239206859d763031d6204a77c664dc455066d31/000000_000000/0000/tree_210.root
/store/group/phys_higgs/hbb/ntuples/VHbbPostNano/2018/V12/DYJetsToLL_Pt-100To250_TuneCP5_13TeV-amcatnloFXFX-pythia8/dd1d826f7809d320834b4ba4fab9bf0b2b1f77063960bc3edb12c00d/000000_000000/0000/tree_211.root
/store/group/phys_higgs/hbb/ntuples/VHbbPostNano/2018/V12/DYJetsToLL_Pt-100To250_TuneCP5_13TeV-amcatnloFXFX-pythia8/b52b38fede9eb8fc37e072633c21c55591293749e9c3bb91a6c79f2d/000000_000000/0000/tree_212.root
/store/group/phys_higgs/hbb/ntuples/VHbbPostNano/2018/V12/DYJetsToLL_Pt-100To250_TuneCP5_13TeV-amcatnloFXFX-pythia8/260bf48c0fec44cbc3d0390d0f295b521ab4e70ac6e33e9eece00f83/000000_000000/0000/tree_213.root
/store/group/phys_higgs/hbb/ntuples/VHbbPostNano/2018/V12/DYJetsToLL_Pt-100To250_TuneCP5_13TeV-amcatnloFXFX-pythia8/91495160fe72bafe85637dc7a6b184d133f2cfa86368421b3d10ac06/000000_000000/0000/tree_214.root
/store/group/phys_higgs/hbb/ntuples/VHbbPostNano/2018/V12/DYJetsToLL_Pt-100To250_TuneCP5_13TeV-amcatnloFXFX-pythia8/2106ec1a8a52bb3d18aaad52f2ec1dd020dd3e3b7e537ff8c571e594/000000_000000/0000/tree_215.root
/store/group/phys_higgs/hbb/ntuples/VHbbPostNano/2018/V12/DYJetsToLL_Pt-100To250_TuneCP5_13TeV-amcatnloFXFX-pythia8/c1d40c09307f773dfb21470b5604f68fef6e8d9c8c2947acc4246e91/000000_000000/0000/tree_216.root
/store/group/phys_higgs/hbb/ntuples/VHbbPostNano/2018/V12/DYJetsToLL_Pt-100To250_TuneCP5_13TeV-amcatnloFXFX-pythia8/a43fe1e85ee745c3a91721f0502b3b55189b9ae00b22ec4745c09b19/000000_000000/0000/tree_217.root
/store/group/phys_higgs/hbb/ntuples/VHbbPostNano/2018/V12/DYJetsToLL_Pt-100To250_TuneCP5_13TeV-amcatnloFXFX-pythia8/c84b53f65aa83f0e104ac53d8ba4440acfdbf31b5910e5de7d6158b5/000000_000000/0000/tree_218.root
/store/group/phys_higgs/hbb/ntuples/VHbbPostNano/2018/V12/DYJetsToLL_Pt-100To250_TuneCP5_13TeV-amcatnloFXFX-pythia8/7b37ea2d26a95816d665d01b2fd4ca235a63c3c3735ea194bcad302c/000000_000000/0000/tree_219.root
/store/group/phys_higgs/hbb/ntuples/VHbbPostNano/2018/V12/DYJetsToLL_Pt-100To250_TuneCP5_13TeV-amcatnloFXFX-pythia8/b3765adbcfd922ab0cb61b8a4654a63cc220aade990cb5ec3bf146b3/000000_000000/0000/tree_220.root
/store/group/phys_higgs/hbb/ntuples/VHbbPostNano/2018/V12/DYJetsToLL_Pt-100To250_TuneCP5_13TeV-amcatnloFXFX-pythia8/dd7a5642845019429452ab68eb0e592d93d35952b204fb1ffb337068/000000_000000/0000/tree_221.root
/store/group/phys_higgs/hbb/ntuples/VHbbPostNano/2018/V12/DYJetsToLL_Pt-100To250_TuneCP5_13TeV-amcatnloFXFX-pythia8/583ffdd2073567c9c2381db0275a842099f118362a788af87bc05689/000000_000000/0000/tree_222.root
/store/group/phys_higgs/hbb/ntuples/VHbbPostNano/2018/V12/DYJetsToLL_Pt-100To250_TuneCP5_13TeV-amcatnloFXFX-pythia8/ced23cc3e87ee6284a6a8adb0a7612b5dab037b2728fe85dd0e88d08/000000_000000/0000/tree_223.root
/store/group/phys_higgs/hbb/ntuples/VHbbPostNano/2018/V12/DYJetsToLL_Pt-100To250_TuneCP5_13TeV-amcatnloFXFX-pythia8/42d90e6f8fa869c0366dda5d64bce0e42002bbf2ee2b83511fae7e9f/000000_000000/0000/tree_224.root
/store/group/phys_higgs/hbb/ntuples/VHbbPostNano/2018/V12/DYJetsToLL_Pt-100To250_TuneCP5_13TeV-amcatnloFXFX-pythia8/75675b0d6da67cc4832b6a7a10091e8eb5e4c9663ebc4d9ee4dfe5c1/000000_000000/0000/tree_225.root
/store/group/phys_higgs/hbb/ntuples/VHbbPostNano/2018/V12/DYJetsToLL_Pt-100To250_TuneCP5_13TeV-amcatnloFXFX-pythia8/293d8c294a04f406f6529ffa59df1d9e02e5778a849b1d0e093e6914/000000_000000/0000/tree_226.root
/store/group/phys_higgs/hbb/ntuples/VHbbPostNano/2018/V12/DYJetsToLL_Pt-100To250_TuneCP5_13TeV-amcatnloFXFX-pythia8/4b550f336cea2a18c742b417d6bb151d6995ee5fd48df0771d589ecb/000000_000000/0000/tree_227.root
/store/group/phys_higgs/hbb/ntuples/VHbbPostNano/2018/V12/DYJetsToLL_Pt-100To250_TuneCP5_13TeV-amcatnloFXFX-pythia8/77f21ef6830e59d6a397723083c6d4a2852d407124210db91bde84cd/000000_000000/0000/tree_228.root
/store/group/phys_higgs/hbb/ntuples/VHbbPostNano/2018/V12/DYJetsToLL_Pt-100To250_TuneCP5_13TeV-amcatnloFXFX-pythia8/5410a94045e0131ab3425cc9d58dda573ca152052a893cf65c9e53f2/000000_000000/0000/tree_229.root
/store/group/phys_higgs/hbb/ntuples/VHbbPostNano/2018/V12/DYJetsToLL_Pt-100To250_TuneCP5_13TeV-amcatnloFXFX-pythia8/58f484f9379fcdae2d85f433e45fcbae7dfcce1ae23e480ee5e2e84d/000000_000000/0000/tree_230.root
/store/group/phys_higgs/hbb/ntuples/VHbbPostNano/2018/V12/DYJetsToLL_Pt-100To250_TuneCP5_13TeV-amcatnloFXFX-pythia8/8c8995e210e94bf87bcb32ed5ec951b60bf33cff9609dc96f72f4c27/000000_000000/0000/tree_231.root
/store/group/phys_higgs/hbb/ntuples/VHbbPostNano/2018/V12/DYJetsToLL_Pt-100To250_TuneCP5_13TeV-amcatnloFXFX-pythia8/c49b30e44dbcfdc9bca9afa0b1492d7293f3587b36ce5d5cf7f9c8c5/000000_000000/0000/tree_232.root
/store/group/phys_higgs/hbb/ntuples/VHbbPostNano/2018/V12/DYJetsToLL_Pt-100To250_TuneCP5_13TeV-amcatnloFXFX-pythia8/82b28420f91419b4c03b56dd429473053da973cd5ab09a8473b29ea0/000000_000000/0000/tree_233.root
/store/group/phys_higgs/hbb/ntuples/VHbbPostNano/2018/V12/DYJetsToLL_Pt-100To250_TuneCP5_13TeV-amcatnloFXFX-pythia8/3a8121c7c7fee7f5c9941144459b8b76a726fd9ea15ceee639d10eb6/000000_000000/0000/tree_234.root
/store/group/phys_higgs/hbb/ntuples/VHbbPostNano/2018/V12/DYJetsToLL_Pt-100To250_TuneCP5_13TeV-amcatnloFXFX-pythia8/fc8d24041b9418781f3ee62a7d9bbbf42d20b8221864eee0bfea0c0c/000000_000000/0000/tree_235.root
/store/group/phys_higgs/hbb/ntuples/VHbbPostNano/2018/V12/DYJetsToLL_Pt-100To250_TuneCP5_13TeV-amcatnloFXFX-pythia8/b93119c0a04df24c9abf768b631bf080e2a5b0579a9ffb55585b4f6d/000000_000000/0000/tree_236.root
/store/group/phys_higgs/hbb/ntuples/VHbbPostNano/2018/V12/DYJetsToLL_Pt-100To250_TuneCP5_13TeV-amcatnloFXFX-pythia8/941604c5865bab692c8984b705e00300ee1fd1ce785c8fc06d8dfb86/000000_000000/0000/tree_237.root
/store/group/phys_higgs/hbb/ntuples/VHbbPostNano/2018/V12/DYJetsToLL_Pt-100To250_TuneCP5_13TeV-amcatnloFXFX-pythia8/6f14aebc1c929e270ab909344d7f22f19ae1185ad0baeccffc534a28/000000_000000/0000/tree_238.root
/store/group/phys_higgs/hbb/ntuples/VHbbPostNano/2018/V12/DYJetsToLL_Pt-100To250_TuneCP5_13TeV-amcatnloFXFX-pythia8/c0c6e3d625eee7ab1d276e10d246c96aa1a91d86fa3323251ee21055/000000_000000/0000/tree_239.root
/store/group/phys_higgs/hbb/ntuples/VHbbPostNano/2018/V12/DYJetsToLL_Pt-100To250_TuneCP5_13TeV-amcatnloFXFX-pythia8/1f9aa0de11afcd70b3d1d1405c93d6292f71fe4216c756023562910a/000000_000000/0000/tree_240.root
/store/group/phys_higgs/hbb/ntuples/VHbbPostNano/2018/V12/DYJetsToLL_Pt-100To250_TuneCP5_13TeV-amcatnloFXFX-pythia8/e8de70025e95691ddd1f4496a58509b3824a9065bf5a50c681998af4/000000_000000/0000/tree_241.root
/store/group/phys_higgs/hbb/ntuples/VHbbPostNano/2018/V12/DYJetsToLL_Pt-100To250_TuneCP5_13TeV-amcatnloFXFX-pythia8/8139fb19ec6fbff5209723f7810140b17f54e56be5717800fafdc163/000000_000000/0000/tree_242.root
/store/group/phys_higgs/hbb/ntuples/VHbbPostNano/2018/V12/DYJetsToLL_Pt-100To250_TuneCP5_13TeV-amcatnloFXFX-pythia8/7832873205baafb8267fb8639fd687005514e9aae257ae8cec3e8f0c/000000_000000/0000/tree_243.root
/store/group/phys_higgs/hbb/ntuples/VHbbPostNano/2018/V12/DYJetsToLL_Pt-100To250_TuneCP5_13TeV-amcatnloFXFX-pythia8/243ca2bea06569ab02b4fe483da9fb424d3ab3dbf5c57ecb5d614a19/000000_000000/0000/tree_244.root
/store/group/phys_higgs/hbb/ntuples/VHbbPostNano/2018/V12/DYJetsToLL_Pt-100To250_TuneCP5_13TeV-amcatnloFXFX-pythia8/f33732d65935c5d41bb8920f69eafe94e297ea66a09c19776bf951d1/000000_000000/0000/tree_245.root
/store/group/phys_higgs/hbb/ntuples/VHbbPostNano/2018/V12/DYJetsToLL_Pt-100To250_TuneCP5_13TeV-amcatnloFXFX-pythia8/1074edea03112855de41537bf9d63e2abf6a3acd3d2165bc4d10995c/000000_000000/0000/tree_246.root
/store/group/phys_higgs/hbb/ntuples/VHbbPostNano/2018/V12/DYJetsToLL_Pt-100To250_TuneCP5_13TeV-amcatnloFXFX-pythia8/e4116b2ddb0d1f5b0b2276875977713ad5c207e62122033524c386e9/000000_000000/0000/tree_247.root
/store/group/phys_higgs/hbb/ntuples/VHbbPostNano/2018/V12/DYJetsToLL_Pt-100To250_TuneCP5_13TeV-amcatnloFXFX-pythia8/d45cdc95ab6fd730617271b100b2084c3429d7593d106809f66831ea/000000_000000/0000/tree_248.root
/store/group/phys_higgs/hbb/ntuples/VHbbPostNano/2018/V12/DYJetsToLL_Pt-100To250_TuneCP5_13TeV-amcatnloFXFX-pythia8/e52f45eba44b64e81c300fc18cf9b90062df0f13438cb7fdcdcb1a24/000000_000000/0000/tree_249.root
/store/group/phys_higgs/hbb/ntuples/VHbbPostNano/2018/V12/DYJetsToLL_Pt-100To250_TuneCP5_13TeV-amcatnloFXFX-pythia8/58ee2d3d9050963f0d16a8554479d75ce6d15e3ef129e38928681fa9/000000_000000/0000/tree_250.root
/store/group/phys_higgs/hbb/ntuples/VHbbPostNano/2018/V12/DYJetsToLL_Pt-100To250_TuneCP5_13TeV-amcatnloFXFX-pythia8/eadba58e15d0dd81033a9b4abd12b213f3f11dfe6bbee26a1cb06962/000000_000000/0000/tree_251.root
/store/group/phys_higgs/hbb/ntuples/VHbbPostNano/2018/V12/DYJetsToLL_Pt-100To250_TuneCP5_13TeV-amcatnloFXFX-pythia8/5ba19f5e1fdf8d4b408bf4ee759e90d4297d36f8471de541eaa96913/000000_000000/0000/tree_252.root
/store/group/phys_higgs/hbb/ntuples/VHbbPostNano/2018/V12/DYJetsToLL_Pt-100To250_TuneCP5_13TeV-amcatnloFXFX-pythia8/bdf373ac32cdfe8254bd956890d6ac2e23cc464c8b4d29c008ac657d/000000_000000/0000/tree_253.root
/store/group/phys_higgs/hbb/ntuples/VHbbPostNano/2018/V12/DYJetsToLL_Pt-100To250_TuneCP5_13TeV-amcatnloFXFX-pythia8/aefa65264ff3ac2ea944cf97609d55bbbad8c8458e3333c5219267bf/000000_000000/0000/tree_254.root
/store/group/phys_higgs/hbb/ntuples/VHbbPostNano/2018/V12/DYJetsToLL_Pt-100To250_TuneCP5_13TeV-amcatnloFXFX-pythia8/54c5a3758c70808a3af390c0037593aed74fd9d3116b5b7b7da66fcd/000000_000000/0000/tree_255.root
/store/group/phys_higgs/hbb/ntuples/VHbbPostNano/2018/V12/DYJetsToLL_Pt-100To250_TuneCP5_13TeV-amcatnloFXFX-pythia8/480116dc16221f7360276784e194803906905a02d8daf584439cc968/000000_000000/0000/tree_256.root
/store/group/phys_higgs/hbb/ntuples/VHbbPostNano/2018/V12/DYJetsToLL_Pt-100To250_TuneCP5_13TeV-amcatnloFXFX-pythia8/4025b9121890317d8a412766a99a288f2f6126deb481e936621f4d75/000000_000000/0000/tree_257.root
/store/group/phys_higgs/hbb/ntuples/VHbbPostNano/2018/V12/DYJetsToLL_Pt-100To250_TuneCP5_13TeV-amcatnloFXFX-pythia8/cf2b84d0ea780caad3cf3e90d80db4fe6eefe94fc3be493dd23f9131/000000_000000/0000/tree_258.root
/store/group/phys_higgs/hbb/ntuples/VHbbPostNano/2018/V12/DYJetsToLL_Pt-100To250_TuneCP5_13TeV-amcatnloFXFX-pythia8/36d9f1cd8f6031c4f65485424fad971163c07bb0e4d9e557ace6455b/000000_000000/0000/tree_259.root
/store/group/phys_higgs/hbb/ntuples/VHbbPostNano/2018/V12/DYJetsToLL_Pt-100To250_TuneCP5_13TeV-amcatnloFXFX-pythia8/cda720f1a30c525a35732d9ab6b5e0b3a6680a27a5773b7a4ae8d345/000000_000000/0000/tree_260.root
/store/group/phys_higgs/hbb/ntuples/VHbbPostNano/2018/V12/DYJetsToLL_Pt-100To250_TuneCP5_13TeV-amcatnloFXFX-pythia8/b59729d4976fa3622d037ef7dc13c23e32e639ff5fa10f9ca6d2999e/000000_000000/0000/tree_261.root
/store/group/phys_higgs/hbb/ntuples/VHbbPostNano/2018/V12/DYJetsToLL_Pt-100To250_TuneCP5_13TeV-amcatnloFXFX-pythia8/13c5f6f7b4acc17cdce04edc7dd375f8677007dcea5291aee38fae9b/000000_000000/0000/tree_262.root
/store/group/phys_higgs/hbb/ntuples/VHbbPostNano/2018/V12/DYJetsToLL_Pt-100To250_TuneCP5_13TeV-amcatnloFXFX-pythia8/a8f1fc80f05a516675b604bb4478faa26720a3358a527b0e944c0b6e/000000_000000/0000/tree_263.root
/store/group/phys_higgs/hbb/ntuples/VHbbPostNano/2018/V12/DYJetsToLL_Pt-100To250_TuneCP5_13TeV-amcatnloFXFX-pythia8/56e714d30f11f8005a830214fc4f26f0f0181d23eb2d8d4d9b12fb46/000000_000000/0000/tree_264.root
/store/group/phys_higgs/hbb/ntuples/VHbbPostNano/2018/V12/DYJetsToLL_Pt-100To250_TuneCP5_13TeV-amcatnloFXFX-pythia8/5990a976af2b7813a88ffc31e4baa2931a8f5616b8ce8b828284c03d/000000_000000/0000/tree_265.root
/store/group/phys_higgs/hbb/ntuples/VHbbPostNano/2018/V12/DYJetsToLL_Pt-100To250_TuneCP5_13TeV-amcatnloFXFX-pythia8/ba90ad1cfebf05af395b797665ab251c1baf9c6af3940f6718d29f6e/000000_000000/0000/tree_266.root
/store/group/phys_higgs/hbb/ntuples/VHbbPostNano/2018/V12/DYJetsToLL_Pt-100To250_TuneCP5_13TeV-amcatnloFXFX-pythia8/bfa29d2f0d4545b2f5fc50281752bd9085406b279985e5de67643dfc/000000_000000/0000/tree_267.root
/store/group/phys_higgs/hbb/ntuples/VHbbPostNano/2018/V12/DYJetsToLL_Pt-100To250_TuneCP5_13TeV-amcatnloFXFX-pythia8/3e283f2e5b411f1c06f5538b30372702d2256eeb445497da7197a5be/000000_000000/0000/tree_268.root
/store/group/phys_higgs/hbb/ntuples/VHbbPostNano/2018/V12/DYJetsToLL_Pt-100To250_TuneCP5_13TeV-amcatnloFXFX-pythia8/a0ca5116081b3b3098d6b07d511595600be728e12482c7fc1041f284/000000_000000/0000/tree_269.root
/store/group/phys_higgs/hbb/ntuples/VHbbPostNano/2018/V12/DYJetsToLL_Pt-100To250_TuneCP5_13TeV-amcatnloFXFX-pythia8/97d39bddfab6dbb5a91cebd573e44c99e581c284ce31f75b37cd812c/000000_000000/0000/tree_270.root
/store/group/phys_higgs/hbb/ntuples/VHbbPostNano/2018/V12/DYJetsToLL_Pt-100To250_TuneCP5_13TeV-amcatnloFXFX-pythia8/d813e812685da137ce6969689977d8708316021aa2766f9fcb74b86b/000000_000000/0000/tree_271.root
/store/group/phys_higgs/hbb/ntuples/VHbbPostNano/2018/V12/DYJetsToLL_Pt-100To250_TuneCP5_13TeV-amcatnloFXFX-pythia8/7786d2e4ddbe1a95fc7e3385521119f19990480a80e0c2c3829ddf62/000000_000000/0000/tree_272.root
/store/group/phys_higgs/hbb/ntuples/VHbbPostNano/2018/V12/DYJetsToLL_Pt-100To250_TuneCP5_13TeV-amcatnloFXFX-pythia8/72402e3f6dafac29d14cdd12e6019b0253dc149b5829bd78dffce7f7/000000_000000/0000/tree_273.root
/store/group/phys_higgs/hbb/ntuples/VHbbPostNano/2018/V12/DYJetsToLL_Pt-100To250_TuneCP5_13TeV-amcatnloFXFX-pythia8/b9da19b562160f44d0079eae21ecf105945c4e960c5e9db55498fbde/000000_000000/0000/tree_274.root
/store/group/phys_higgs/hbb/ntuples/VHbbPostNano/2018/V12/DYJetsToLL_Pt-100To250_TuneCP5_13TeV-amcatnloFXFX-pythia8/174f38afdf8d9f1245586b46284134d8068609907af373df427797ef/000000_000000/0000/tree_275.root
/store/group/phys_higgs/hbb/ntuples/VHbbPostNano/2018/V12/DYJetsToLL_Pt-100To250_TuneCP5_13TeV-amcatnloFXFX-pythia8/9c40cf98a475d6523c9dc35216a132e881665bb6c0fcc42429dcd1bb/000000_000000/0000/tree_276.root
/store/group/phys_higgs/hbb/ntuples/VHbbPostNano/2018/V12/DYJetsToLL_Pt-100To250_TuneCP5_13TeV-amcatnloFXFX-pythia8/43f7d3661e0af986607c8d6dd8e4c0835289e182f5bfc4f914867505/000000_000000/0000/tree_277.root
/store/group/phys_higgs/hbb/ntuples/VHbbPostNano/2018/V12/DYJetsToLL_Pt-100To250_TuneCP5_13TeV-amcatnloFXFX-pythia8/255e73755d108064e84d0453f75fbea903343d81179b42c12e6f11dd/000000_000000/0000/tree_278.root
/store/group/phys_higgs/hbb/ntuples/VHbbPostNano/2018/V12/DYJetsToLL_Pt-100To250_TuneCP5_13TeV-amcatnloFXFX-pythia8/4d949c094b75113c4a8680987174c9f7cc18b4250b1e9a47122d16ec/000000_000000/0000/tree_279.root
/store/group/phys_higgs/hbb/ntuples/VHbbPostNano/2018/V12/DYJetsToLL_Pt-100To250_TuneCP5_13TeV-amcatnloFXFX-pythia8/11668cb20664d5289408dc362efe9ee01efbea41990470afaf340feb/000000_000000/0000/tree_280.root
/store/group/phys_higgs/hbb/ntuples/VHbbPostNano/2018/V12/DYJetsToLL_Pt-100To250_TuneCP5_13TeV-amcatnloFXFX-pythia8/4e5c1ad2567ae1ad194ee5ca4e3c78719592897b63afb859e1388968/000000_000000/0000/tree_281.root
/store/group/phys_higgs/hbb/ntuples/VHbbPostNano/2018/V12/DYJetsToLL_Pt-100To250_TuneCP5_13TeV-amcatnloFXFX-pythia8/29c51b710404936dd22afa0a5ee1a6c68d72b6a1b499afe9187793f2/000000_000000/0000/tree_282.root
/store/group/phys_higgs/hbb/ntuples/VHbbPostNano/2018/V12/DYJetsToLL_Pt-100To250_TuneCP5_13TeV-amcatnloFXFX-pythia8/afa267eeeb324114fad3cd7b69fdfe8f92896962ebcf29215479620f/000000_000000/0000/tree_283.root
/store/group/phys_higgs/hbb/ntuples/VHbbPostNano/2018/V12/DYJetsToLL_Pt-100To250_TuneCP5_13TeV-amcatnloFXFX-pythia8/31fc0ce2e1d0e184510450e1f047c18c45158b7ece3c1d4be1656421/000000_000000/0000/tree_284.root
/store/group/phys_higgs/hbb/ntuples/VHbbPostNano/2018/V12/DYJetsToLL_Pt-100To250_TuneCP5_13TeV-amcatnloFXFX-pythia8/5c560ecb09fcda990df957138311f111e2a28bcf0282ce63ffdc9a69/000000_000000/0000/tree_285.root
/store/group/phys_higgs/hbb/ntuples/VHbbPostNano/2018/V12/DYJetsToLL_Pt-100To250_TuneCP5_13TeV-amcatnloFXFX-pythia8/deb954d5a55906319622b5ee3a062458f37e9d1d20d8177f3fd2ab06/000000_000000/0000/tree_286.root
/store/group/phys_higgs/hbb/ntuples/VHbbPostNano/2018/V12/DYJetsToLL_Pt-100To250_TuneCP5_13TeV-amcatnloFXFX-pythia8/480cf0d9facda4c6d9f5b42a82a3217992d133fbdf462f6e6d889999/000000_000000/0000/tree_287.root
/store/group/phys_higgs/hbb/ntuples/VHbbPostNano/2018/V12/DYJetsToLL_Pt-100To250_TuneCP5_13TeV-amcatnloFXFX-pythia8/b48e1d66c268ef95b09c002b36a3b19c0f2dad2d4797b87e6157d9e9/000000_000000/0000/tree_288.root
/store/group/phys_higgs/hbb/ntuples/VHbbPostNano/2018/V12/DYJetsToLL_Pt-100To250_TuneCP5_13TeV-amcatnloFXFX-pythia8/d9fd1e7a019c505d933cdd900f8823ed9b54eb36e4521427489f8ce0/000000_000000/0000/tree_289.root
/store/group/phys_higgs/hbb/ntuples/VHbbPostNano/2018/V12/DYJetsToLL_Pt-100To250_TuneCP5_13TeV-amcatnloFXFX-pythia8/ae3578e69189d87a0c507b162f105cd8031db396341f12c70a9762f8/000000_000000/0000/tree_290.root
/store/group/phys_higgs/hbb/ntuples/VHbbPostNano/2018/V12/DYJetsToLL_Pt-100To250_TuneCP5_13TeV-amcatnloFXFX-pythia8/d93f6eb328235f16cd5232fa3aa7a848fd9eab8eaafe466a8f3d52ab/000000_000000/0000/tree_291.root
/store/group/phys_higgs/hbb/ntuples/VHbbPostNano/2018/V12/DYJetsToLL_Pt-100To250_TuneCP5_13TeV-amcatnloFXFX-pythia8/f39d1b5ad9b59eade84c94b75ae485197f7ddb48c5627e752af427d8/000000_000000/0000/tree_292.root
/store/group/phys_higgs/hbb/ntuples/VHbbPostNano/2018/V12/DYJetsToLL_Pt-100To250_TuneCP5_13TeV-amcatnloFXFX-pythia8/8de877a8470b723e49d730226403e14f69b19a8c643527dc79f1ba20/000000_000000/0000/tree_293.root
/store/group/phys_higgs/hbb/ntuples/VHbbPostNano/2018/V12/DYJetsToLL_Pt-100To250_TuneCP5_13TeV-amcatnloFXFX-pythia8/94c0930c00d5b222f838f2f0cf49da4d074806b13b0095abbc6b3096/000000_000000/0000/tree_294.root
/store/group/phys_higgs/hbb/ntuples/VHbbPostNano/2018/V12/DYJetsToLL_Pt-100To250_TuneCP5_13TeV-amcatnloFXFX-pythia8/1dce7f0fce940e76369969a06d532c1be2a6322c2201bfb932d7cba8/000000_000000/0000/tree_295.root
/store/group/phys_higgs/hbb/ntuples/VHbbPostNano/2018/V12/DYJetsToLL_Pt-100To250_TuneCP5_13TeV-amcatnloFXFX-pythia8/b2b42ef5826a5d2569eb53a4b1c5b1f64caa7e758b2377b83c51ae2f/000000_000000/0000/tree_296.root
/store/group/phys_higgs/hbb/ntuples/VHbbPostNano/2018/V12/DYJetsToLL_Pt-100To250_TuneCP5_13TeV-amcatnloFXFX-pythia8/9b23bd0da07cdc6098ac311fdd0f5c29941b6b457cbc58ba893a5493/000000_000000/0000/tree_297.root
/store/group/phys_higgs/hbb/ntuples/VHbbPostNano/2018/V12/DYJetsToLL_Pt-100To250_TuneCP5_13TeV-amcatnloFXFX-pythia8/1933e0a471f389ca6c36b5191d4c5ad147a3fce000f152004bd815d5/000000_000000/0000/tree_298.root
/store/group/phys_higgs/hbb/ntuples/VHbbPostNano/2018/V12/DYJetsToLL_Pt-100To250_TuneCP5_13TeV-amcatnloFXFX-pythia8/a62fce73eb31709f760492f3b8df4bb81cd70981662772218b9b56a5/000000_000000/0000/tree_299.root
/store/group/phys_higgs/hbb/ntuples/VHbbPostNano/2018/V12/DYJetsToLL_Pt-100To250_TuneCP5_13TeV-amcatnloFXFX-pythia8/7ecf4ff53abc0ce3900b2da19eb32b1c2e7a9a5c708d37b5fd25ebb8/000000_000000/0000/tree_300.root
/store/group/phys_higgs/hbb/ntuples/VHbbPostNano/2018/V12/DYJetsToLL_Pt-100To250_TuneCP5_13TeV-amcatnloFXFX-pythia8/e321abc8a28e704940f8bc0d6f4fd97a90616bad6f3148c0caac5d4a/000000_000000/0000/tree_301.root
/store/group/phys_higgs/hbb/ntuples/VHbbPostNano/2018/V12/DYJetsToLL_Pt-100To250_TuneCP5_13TeV-amcatnloFXFX-pythia8/97fd4e5b3224f4b7820f6c3681ab215f00cbfcb72554872a26dd6d06/000000_000000/0000/tree_302.root
/store/group/phys_higgs/hbb/ntuples/VHbbPostNano/2018/V12/DYJetsToLL_Pt-100To250_TuneCP5_13TeV-amcatnloFXFX-pythia8/e3f94a082b4ebc899be7c6f57fbeaf59048c897f6e3d65461b7f83a0/000000_000000/0000/tree_303.root
/store/group/phys_higgs/hbb/ntuples/VHbbPostNano/2018/V12/DYJetsToLL_Pt-100To250_TuneCP5_13TeV-amcatnloFXFX-pythia8/983c7e22a4fe4a9ad79ffe6fcc46ca07780b27dbc2052576cf4ba6cd/000000_000000/0000/tree_304.root
/store/group/phys_higgs/hbb/ntuples/VHbbPostNano/2018/V12/DYJetsToLL_Pt-100To250_TuneCP5_13TeV-amcatnloFXFX-pythia8/0995f6e1d17a89551cff09d2e9a451173a6bf6570162fe0a8bb3a77e/000000_000000/0000/tree_305.root
/store/group/phys_higgs/hbb/ntuples/VHbbPostNano/2018/V12/DYJetsToLL_Pt-100To250_TuneCP5_13TeV-amcatnloFXFX-pythia8/fe715648f1295ac0a4ca3157883c38dd30ec539de84f1f7a4d0e837a/000000_000000/0000/tree_306.root
/store/group/phys_higgs/hbb/ntuples/VHbbPostNano/2018/V12/DYJetsToLL_Pt-100To250_TuneCP5_13TeV-amcatnloFXFX-pythia8/cbf80f9a5c0c171f536975e40b74ef18b763bc6d407b68d9592ca2ad/000000_000000/0000/tree_307.root
/store/group/phys_higgs/hbb/ntuples/VHbbPostNano/2018/V12/DYJetsToLL_Pt-100To250_TuneCP5_13TeV-amcatnloFXFX-pythia8/f1f57a0019c6a7685852c1a3ef28e2ec6aa2f031e7747104716f87d7/000000_000000/0000/tree_308.root
/store/group/phys_higgs/hbb/ntuples/VHbbPostNano/2018/V12/DYJetsToLL_Pt-100To250_TuneCP5_13TeV-amcatnloFXFX-pythia8/331707bcb46d98444a6269f082c538f23b6705e6c8e83dc653c7f074/000000_000000/0000/tree_309.root
/store/group/phys_higgs/hbb/ntuples/VHbbPostNano/2018/V12/DYJetsToLL_Pt-100To250_TuneCP5_13TeV-amcatnloFXFX-pythia8/c326f0a5aa7eb8cc9a25924caf8dab7b993bab8a7b2347b9e2b7968d/000000_000000/0000/tree_310.root
/store/group/phys_higgs/hbb/ntuples/VHbbPostNano/2018/V12/DYJetsToLL_Pt-100To250_TuneCP5_13TeV-amcatnloFXFX-pythia8/d69e617399e97212d15ae5c394f8e694f6f0bb93d43ee984b586811e/000000_000000/0000/tree_311.root
/store/group/phys_higgs/hbb/ntuples/VHbbPostNano/2018/V12/DYJetsToLL_Pt-100To250_TuneCP5_13TeV-amcatnloFXFX-pythia8/ddd781cbe6430cd0a017269b03a578091af16af1f835d4ec1f42211c/000000_000000/0000/tree_312.root
/store/group/phys_higgs/hbb/ntuples/VHbbPostNano/2018/V12/DYJetsToLL_Pt-100To250_TuneCP5_13TeV-amcatnloFXFX-pythia8/65f82f57971b22408d6172f1ae9ded8af4d7635aabcaecf7e7a74393/000000_000000/0000/tree_313.root
/store/group/phys_higgs/hbb/ntuples/VHbbPostNano/2018/V12/DYJetsToLL_Pt-100To250_TuneCP5_13TeV-amcatnloFXFX-pythia8/9bbb8155e14181e6ec3a75fc24cf7d9dcedcadcf8eb652310da3d6d9/000000_000000/0000/tree_314.root
/store/group/phys_higgs/hbb/ntuples/VHbbPostNano/2018/V12/DYJetsToLL_Pt-100To250_TuneCP5_13TeV-amcatnloFXFX-pythia8/edd77d34b1bf4767ccdd41ac8c17768a29cd4503a09a0566371ba92b/000000_000000/0000/tree_315.root
/store/group/phys_higgs/hbb/ntuples/VHbbPostNano/2018/V12/DYJetsToLL_Pt-100To250_TuneCP5_13TeV-amcatnloFXFX-pythia8/c319aba60b479d65224fca31191f0d126481d0b5bc1ca65242761ad7/000000_000000/0000/tree_316.root
/store/group/phys_higgs/hbb/ntuples/VHbbPostNano/2018/V12/DYJetsToLL_Pt-100To250_TuneCP5_13TeV-amcatnloFXFX-pythia8/c06e547636c7600a3fcecc10438303af4cc87cd86ee63f7a1dcee010/000000_000000/0000/tree_317.root
/store/group/phys_higgs/hbb/ntuples/VHbbPostNano/2018/V12/DYJetsToLL_Pt-100To250_TuneCP5_13TeV-amcatnloFXFX-pythia8/7d22630b582a69b522d631d42298de160f2e905b8ea06b7e4998c0e7/000000_000000/0000/tree_318.root
/store/group/phys_higgs/hbb/ntuples/VHbbPostNano/2018/V12/DYJetsToLL_Pt-100To250_TuneCP5_13TeV-amcatnloFXFX-pythia8/be81c8132db7e44cbc98cb9d430b9de040065edc4aebb2b9a8978d61/000000_000000/0000/tree_319.root
/store/group/phys_higgs/hbb/ntuples/VHbbPostNano/2018/V12/DYJetsToLL_Pt-100To250_TuneCP5_13TeV-amcatnloFXFX-pythia8/bae4b40391cdcc53b062ddfd0df8a489351a16f3607c17e86df4c8a4/000000_000000/0000/tree_320.root
/store/group/phys_higgs/hbb/ntuples/VHbbPostNano/2018/V12/DYJetsToLL_Pt-100To250_TuneCP5_13TeV-amcatnloFXFX-pythia8/2c184500c41fb21bdce6ba4e46a9fac7a31f0540b65a2f9a9dd236d4/000000_000000/0000/tree_321.root
/store/group/phys_higgs/hbb/ntuples/VHbbPostNano/2018/V12/DYJetsToLL_Pt-100To250_TuneCP5_13TeV-amcatnloFXFX-pythia8/6159de58b605627ceff6937090f31674ef1fde4f824e186a9ebd1b7f/000000_000000/0000/tree_322.root
/store/group/phys_higgs/hbb/ntuples/VHbbPostNano/2018/V12/DYJetsToLL_Pt-100To250_TuneCP5_13TeV-amcatnloFXFX-pythia8/a1cf93bba06181ed1d16eb5592a0af0706a9954ed5d669e4cd90e4ff/000000_000000/0000/tree_323.root
/store/group/phys_higgs/hbb/ntuples/VHbbPostNano/2018/V12/DYJetsToLL_Pt-100To250_TuneCP5_13TeV-amcatnloFXFX-pythia8/144dd5a22b0f47a6b61640c845d46b49bc7df9bf79a1d3a477201a7b/000000_000000/0000/tree_324.root
/store/group/phys_higgs/hbb/ntuples/VHbbPostNano/2018/V12/DYJetsToLL_Pt-100To250_TuneCP5_13TeV-amcatnloFXFX-pythia8/c1f16cf30cbce1219dd8c1ce924125c1362f15da524410965c33d226/000000_000000/0000/tree_325.root
/store/group/phys_higgs/hbb/ntuples/VHbbPostNano/2018/V12/DYJetsToLL_Pt-100To250_TuneCP5_13TeV-amcatnloFXFX-pythia8/db742f32083a76cc72f97c5b29eacd0de578c4d1b4bbb1a7e10495f6/000000_000000/0000/tree_326.root
/store/group/phys_higgs/hbb/ntuples/VHbbPostNano/2018/V12/DYJetsToLL_Pt-100To250_TuneCP5_13TeV-amcatnloFXFX-pythia8/ad3585a45bcf817327243404877a0e4a5cbce16ccfe4bcb65c308119/000000_000000/0000/tree_327.root
/store/group/phys_higgs/hbb/ntuples/VHbbPostNano/2018/V12/DYJetsToLL_Pt-100To250_TuneCP5_13TeV-amcatnloFXFX-pythia8/67fb8d639ce2cb52ebb642f4ac4b3444bde37d27bcf439d7c5f93863/000000_000000/0000/tree_328.root
/store/group/phys_higgs/hbb/ntuples/VHbbPostNano/2018/V12/DYJetsToLL_Pt-100To250_TuneCP5_13TeV-amcatnloFXFX-pythia8/62c6d3359994348e0c054cdd20c903a30440cf4ae1ac9e04c0db72f0/000000_000000/0000/tree_329.root
/store/group/phys_higgs/hbb/ntuples/VHbbPostNano/2018/V12/DYJetsToLL_Pt-100To250_TuneCP5_13TeV-amcatnloFXFX-pythia8/f7fb55e1198e7622f7c1f55b35b059a0a207f6eb4abc83b5f07a1b43/000000_000000/0000/tree_330.root
/store/group/phys_higgs/hbb/ntuples/VHbbPostNano/2018/V12/DYJetsToLL_Pt-100To250_TuneCP5_13TeV-amcatnloFXFX-pythia8/64e5eb7f0098955387b947b5037f6f8ea77873c205d5657ed8b2087a/000000_000000/0000/tree_331.root
/store/group/phys_higgs/hbb/ntuples/VHbbPostNano/2018/V12/DYJetsToLL_Pt-100To250_TuneCP5_13TeV-amcatnloFXFX-pythia8/d8115305d84d6aeec010b1078369a6a0987a25b1a00c67f92b49620c/000000_000000/0000/tree_332.root
/store/group/phys_higgs/hbb/ntuples/VHbbPostNano/2018/V12/DYJetsToLL_Pt-100To250_TuneCP5_13TeV-amcatnloFXFX-pythia8/deebcd8f0754a60247c11e7814aa15ebc00959d1f774edd483eab0ae/000000_000000/0000/tree_333.root
/store/group/phys_higgs/hbb/ntuples/VHbbPostNano/2018/V12/DYJetsToLL_Pt-100To250_TuneCP5_13TeV-amcatnloFXFX-pythia8/8b56d685b1d8dba8b4cca191c372ef010559a186640aebb261894598/000000_000000/0000/tree_334.root
/store/group/phys_higgs/hbb/ntuples/VHbbPostNano/2018/V12/DYJetsToLL_Pt-100To250_TuneCP5_13TeV-amcatnloFXFX-pythia8/db31011bf1795dd3c4f65ff14e7bf9500d0e7a79fcf98d0b005981b4/000000_000000/0000/tree_335.root
/store/group/phys_higgs/hbb/ntuples/VHbbPostNano/2018/V12/DYJetsToLL_Pt-100To250_TuneCP5_13TeV-amcatnloFXFX-pythia8/3c87942fe74b2283397e73b88e8c93e2401966b38a3fdc7dc7a073f7/000000_000000/0000/tree_336.root
/store/group/phys_higgs/hbb/ntuples/VHbbPostNano/2018/V12/DYJetsToLL_Pt-100To250_TuneCP5_13TeV-amcatnloFXFX-pythia8/71ad5fbc02bdc853e20f513c05bedde7259433e4291ccb6a6eda8505/000000_000000/0000/tree_337.root
/store/group/phys_higgs/hbb/ntuples/VHbbPostNano/2018/V12/DYJetsToLL_Pt-100To250_TuneCP5_13TeV-amcatnloFXFX-pythia8/1a52b92fdfa1107e8e0c9a1e56c902c16b06bba4e865cc83d48113a0/000000_000000/0000/tree_338.root
/store/group/phys_higgs/hbb/ntuples/VHbbPostNano/2018/V12/DYJetsToLL_Pt-100To250_TuneCP5_13TeV-amcatnloFXFX-pythia8/683ebbf00b8fba575b96f2ca865a90af7c6aeae376e1470158ab2ed9/000000_000000/0000/tree_339.root
/store/group/phys_higgs/hbb/ntuples/VHbbPostNano/2018/V12/DYJetsToLL_Pt-100To250_TuneCP5_13TeV-amcatnloFXFX-pythia8/419e9470181327fe1c6fb72e39426625e4f6db4bcfad24d034eaec4d/000000_000000/0000/tree_340.root
/store/group/phys_higgs/hbb/ntuples/VHbbPostNano/2018/V12/DYJetsToLL_Pt-100To250_TuneCP5_13TeV-amcatnloFXFX-pythia8/1d73385d305b73c41b0ca91a30a46593d32581c2d32b9a81d2386e11/000000_000000/0000/tree_341.root
/store/group/phys_higgs/hbb/ntuples/VHbbPostNano/2018/V12/DYJetsToLL_Pt-100To250_TuneCP5_13TeV-amcatnloFXFX-pythia8/b3c8625da389fef860780ed48ab2fbe83cdc0a1e223b7aa03bf7a44a/000000_000000/0000/tree_342.root
/store/group/phys_higgs/hbb/ntuples/VHbbPostNano/2018/V12/DYJetsToLL_Pt-100To250_TuneCP5_13TeV-amcatnloFXFX-pythia8/8eee1243be601f54420a4a14a7d144d130ff65a6a06ed14308c68d33/000000_000000/0000/tree_343.root
/store/group/phys_higgs/hbb/ntuples/VHbbPostNano/2018/V12/DYJetsToLL_Pt-100To250_TuneCP5_13TeV-amcatnloFXFX-pythia8/8f23d7682207ab572db45bf7c763d1c683b46a669adb027f21513afc/000000_000000/0000/tree_344.root
/store/group/phys_higgs/hbb/ntuples/VHbbPostNano/2018/V12/DYJetsToLL_Pt-100To250_TuneCP5_13TeV-amcatnloFXFX-pythia8/3ef642761ff9ea47d81bcb4aa5a1dd144b2ee3fd1b2d1817b94b9b3d/000000_000000/0000/tree_345.root
/store/group/phys_higgs/hbb/ntuples/VHbbPostNano/2018/V12/DYJetsToLL_Pt-100To250_TuneCP5_13TeV-amcatnloFXFX-pythia8/810c8e896190857c1a0c1a973ca868f638608903e875d27b6e2dcdda/000000_000000/0000/tree_346.root
/store/group/phys_higgs/hbb/ntuples/VHbbPostNano/2018/V12/DYJetsToLL_Pt-100To250_TuneCP5_13TeV-amcatnloFXFX-pythia8/f5a630aa04aeb32721a6c212a347a35992af328ebcfd718b6ab65afe/000000_000000/0000/tree_347.root
/store/group/phys_higgs/hbb/ntuples/VHbbPostNano/2018/V12/DYJetsToLL_Pt-100To250_TuneCP5_13TeV-amcatnloFXFX-pythia8/67df5dd41b9bc531a1879bf79572cc89c0bc420c00b9ce375f5b435e/000000_000000/0000/tree_348.root
/store/group/phys_higgs/hbb/ntuples/VHbbPostNano/2018/V12/DYJetsToLL_Pt-100To250_TuneCP5_13TeV-amcatnloFXFX-pythia8/ea62e5b823d57831e61e18b1c086c326f36d76c335569f95f252e741/000000_000000/0000/tree_349.root
/store/group/phys_higgs/hbb/ntuples/VHbbPostNano/2018/V12/DYJetsToLL_Pt-100To250_TuneCP5_13TeV-amcatnloFXFX-pythia8/bf4a12c3674f8d7b6cf837a9b82d068501e081523b01b912399cba48/000000_000000/0000/tree_350.root
/store/group/phys_higgs/hbb/ntuples/VHbbPostNano/2018/V12/DYJetsToLL_Pt-100To250_TuneCP5_13TeV-amcatnloFXFX-pythia8/52bad132e0e43c404891e1b905c232335d6a37f3da62ce62dc2f458f/000000_000000/0000/tree_351.root
/store/group/phys_higgs/hbb/ntuples/VHbbPostNano/2018/V12/DYJetsToLL_Pt-100To250_TuneCP5_13TeV-amcatnloFXFX-pythia8/d8ad0aaf7c84bda17dd83ba9220f0fc7f871ae2fbfbe18e11d1e47db/000000_000000/0000/tree_352.root
/store/group/phys_higgs/hbb/ntuples/VHbbPostNano/2018/V12/DYJetsToLL_Pt-100To250_TuneCP5_13TeV-amcatnloFXFX-pythia8/162e5750a64e80edf8f3a217ffbe8670bf2f8f231b0a293b9ba6f15e/000000_000000/0000/tree_353.root
/store/group/phys_higgs/hbb/ntuples/VHbbPostNano/2018/V12/DYJetsToLL_Pt-100To250_TuneCP5_13TeV-amcatnloFXFX-pythia8/6d67a9481597ead2cbd125a1df35e1f525ef9455b931e040e97eec73/000000_000000/0000/tree_354.root
/store/group/phys_higgs/hbb/ntuples/VHbbPostNano/2018/V12/DYJetsToLL_Pt-100To250_TuneCP5_13TeV-amcatnloFXFX-pythia8/5e5d8bbf96ea2dc8127ce9acbd69b8162759a168eb3738025ef79b11/000000_000000/0000/tree_355.root
/store/group/phys_higgs/hbb/ntuples/VHbbPostNano/2018/V12/DYJetsToLL_Pt-100To250_TuneCP5_13TeV-amcatnloFXFX-pythia8/3db09ec50b064bc843a94e94ed1e4608bc8e1c90fbffa102f31097e0/000000_000000/0000/tree_356.root
/store/group/phys_higgs/hbb/ntuples/VHbbPostNano/2018/V12/DYJetsToLL_Pt-100To250_TuneCP5_13TeV-amcatnloFXFX-pythia8/9f0546230ce198c47f34e2fe9277d3bada203e23c969de9b60acf87b/000000_000000/0000/tree_357.root
/store/group/phys_higgs/hbb/ntuples/VHbbPostNano/2018/V12/DYJetsToLL_Pt-100To250_TuneCP5_13TeV-amcatnloFXFX-pythia8/a4537cc1989c822751541d9b4a3e0dbb52571a4eb97bcc0ecdf0c84b/000000_000000/0000/tree_358.root
/store/group/phys_higgs/hbb/ntuples/VHbbPostNano/2018/V12/DYJetsToLL_Pt-100To250_TuneCP5_13TeV-amcatnloFXFX-pythia8/c40c1e6f05c407a3b0e5a0a9b47f70bf82849471b1434b48a075f823/000000_000000/0000/tree_359.root
/store/group/phys_higgs/hbb/ntuples/VHbbPostNano/2018/V12/DYJetsToLL_Pt-100To250_TuneCP5_13TeV-amcatnloFXFX-pythia8/1c13975e55ba79f058fc3fba4501576aa6d0b7a440557714089cd6e7/000000_000000/0000/tree_360.root
/store/group/phys_higgs/hbb/ntuples/VHbbPostNano/2018/V12/DYJetsToLL_Pt-100To250_TuneCP5_13TeV-amcatnloFXFX-pythia8/026633819c84060c56a9bbf35da0beb490c69cbfb1a365b6df5ee8a7/000000_000000/0000/tree_361.root
/store/group/phys_higgs/hbb/ntuples/VHbbPostNano/2018/V12/DYJetsToLL_Pt-100To250_TuneCP5_13TeV-amcatnloFXFX-pythia8/4e58cc291b90f7807bb1502f67e133990d084086e3839b03291b93df/000000_000000/0000/tree_362.root
/store/group/phys_higgs/hbb/ntuples/VHbbPostNano/2018/V12/DYJetsToLL_Pt-100To250_TuneCP5_13TeV-amcatnloFXFX-pythia8/ebf791662fd9565a21b9b990ab824afb16d84ffea35aadf000f5de61/000000_000000/0000/tree_363.root
/store/group/phys_higgs/hbb/ntuples/VHbbPostNano/2018/V12/DYJetsToLL_Pt-100To250_TuneCP5_13TeV-amcatnloFXFX-pythia8/82d36faa7c175d4662a3a3db53edc7cc2cdc6c16b4ecf736f69acb8b/000000_000000/0000/tree_364.root
/store/group/phys_higgs/hbb/ntuples/VHbbPostNano/2018/V12/DYJetsToLL_Pt-100To250_TuneCP5_13TeV-amcatnloFXFX-pythia8/96beb1580310a42ed9666ccdf509a70f694b0b18916ab2d85a849a1d/000000_000000/0000/tree_365.root
/store/group/phys_higgs/hbb/ntuples/VHbbPostNano/2018/V12/DYJetsToLL_Pt-100To250_TuneCP5_13TeV-amcatnloFXFX-pythia8/5533cd4be3b370850d606e55eaec49f9ef0e03bc2a02ece658ab585c/000000_000000/0000/tree_366.root
/store/group/phys_higgs/hbb/ntuples/VHbbPostNano/2018/V12/DYJetsToLL_Pt-100To250_TuneCP5_13TeV-amcatnloFXFX-pythia8/3d30d01ff33ac9de1fee2a88b4f64d52669743a25a5f89ae7f93cfed/000000_000000/0000/tree_367.root
/store/group/phys_higgs/hbb/ntuples/VHbbPostNano/2018/V12/DYJetsToLL_Pt-100To250_TuneCP5_13TeV-amcatnloFXFX-pythia8/8a126bb037c2b4436923f618c108f2d6e0ad856cf86c2d66b4f5daa9/000000_000000/0000/tree_368.root
/store/group/phys_higgs/hbb/ntuples/VHbbPostNano/2018/V12/DYJetsToLL_Pt-100To250_TuneCP5_13TeV-amcatnloFXFX-pythia8/a42ee6f8d8c0d031300fc4470b99f81511a1cfced8544987908ca0c5/000000_000000/0000/tree_369.root
/store/group/phys_higgs/hbb/ntuples/VHbbPostNano/2018/V12/DYJetsToLL_Pt-100To250_TuneCP5_13TeV-amcatnloFXFX-pythia8/6f70ea2380c53abbf566bb90ecffad470ae53ef1c6c8defeaf63f193/000000_000000/0000/tree_370.root
/store/group/phys_higgs/hbb/ntuples/VHbbPostNano/2018/V12/DYJetsToLL_Pt-100To250_TuneCP5_13TeV-amcatnloFXFX-pythia8/cc49a362c8ddf73c8c9da90662532bc524d1e0f2ce36d532aa1e40fd/000000_000000/0000/tree_371.root
/store/group/phys_higgs/hbb/ntuples/VHbbPostNano/2018/V12/DYJetsToLL_Pt-100To250_TuneCP5_13TeV-amcatnloFXFX-pythia8/d9c21659015c925d1e99313a2a77c8e5487705eb7da984d47cead66a/000000_000000/0000/tree_372.root
/store/group/phys_higgs/hbb/ntuples/VHbbPostNano/2018/V12/DYJetsToLL_Pt-100To250_TuneCP5_13TeV-amcatnloFXFX-pythia8/d49414025772598c9c2d7c3b0415ff06089da1b13ec8a1abc72008ab/000000_000000/0000/tree_373.root
/store/group/phys_higgs/hbb/ntuples/VHbbPostNano/2018/V12/DYJetsToLL_Pt-100To250_TuneCP5_13TeV-amcatnloFXFX-pythia8/d465d6a65bda4bb59cdc81e798ba5b9fee253d614e3626d42f4dbb95/000000_000000/0000/tree_374.root
/store/group/phys_higgs/hbb/ntuples/VHbbPostNano/2018/V12/DYJetsToLL_Pt-100To250_TuneCP5_13TeV-amcatnloFXFX-pythia8/f866a2b704c259b0cfc366f5dfb7aac5b994899f44af56780a410cbd/000000_000000/0000/tree_375.root
/store/group/phys_higgs/hbb/ntuples/VHbbPostNano/2018/V12/DYJetsToLL_Pt-100To250_TuneCP5_13TeV-amcatnloFXFX-pythia8/c764570663d42aac6f7e7bf463ae1389151642744e0669e037962178/000000_000000/0000/tree_376.root
/store/group/phys_higgs/hbb/ntuples/VHbbPostNano/2018/V12/DYJetsToLL_Pt-100To250_TuneCP5_13TeV-amcatnloFXFX-pythia8/ebb50e773101001cb39fd37f1201d2f2f6f6bf65c713c051f2aedcd1/000000_000000/0000/tree_377.root
/store/group/phys_higgs/hbb/ntuples/VHbbPostNano/2018/V12/DYJetsToLL_Pt-100To250_TuneCP5_13TeV-amcatnloFXFX-pythia8/7fab9a612997b99d3373c5f127d559568d52adc79b52123b33d1beed/000000_000000/0000/tree_378.root
/store/group/phys_higgs/hbb/ntuples/VHbbPostNano/2018/V12/DYJetsToLL_Pt-100To250_TuneCP5_13TeV-amcatnloFXFX-pythia8/08c7f67e753b9c0ccd0a0c672b2f4c7def47a7e66916a90057e0988a/000000_000000/0000/tree_379.root
/store/group/phys_higgs/hbb/ntuples/VHbbPostNano/2018/V12/DYJetsToLL_Pt-100To250_TuneCP5_13TeV-amcatnloFXFX-pythia8/614cf01042f81b2cf173ae725e52ec362509bd64e01c2932627ec6ef/000000_000000/0000/tree_380.root
/store/group/phys_higgs/hbb/ntuples/VHbbPostNano/2018/V12/DYJetsToLL_Pt-100To250_TuneCP5_13TeV-amcatnloFXFX-pythia8/7e986ca1fc1c1c3691877e76732b080220642fe1af42d25a1e18d660/000000_000000/0000/tree_381.root
/store/group/phys_higgs/hbb/ntuples/VHbbPostNano/2018/V12/DYJetsToLL_Pt-100To250_TuneCP5_13TeV-amcatnloFXFX-pythia8/2561dd1c2046540303ae4bd364f17fc4bf204cc45a594aafad53b14a/000000_000000/0000/tree_382.root
/store/group/phys_higgs/hbb/ntuples/VHbbPostNano/2018/V12/DYJetsToLL_Pt-100To250_TuneCP5_13TeV-amcatnloFXFX-pythia8/752388f8f8c0c56a4b937fcf027d3f18f4e9f0e980e60dde6d8305cc/000000_000000/0000/tree_383.root
/store/group/phys_higgs/hbb/ntuples/VHbbPostNano/2018/V12/DYJetsToLL_Pt-100To250_TuneCP5_13TeV-amcatnloFXFX-pythia8/fad9dad662645144b21c6e9cc7f614dfcf07b898ce586f274c9e3868/000000_000000/0000/tree_384.root
/store/group/phys_higgs/hbb/ntuples/VHbbPostNano/2018/V12/DYJetsToLL_Pt-100To250_TuneCP5_13TeV-amcatnloFXFX-pythia8/126a68b741cc689000f560ba1a7f1a877bb5e512c186d48d0ccb7dde/000000_000000/0000/tree_385.root
/store/group/phys_higgs/hbb/ntuples/VHbbPostNano/2018/V12/DYJetsToLL_Pt-100To250_TuneCP5_13TeV-amcatnloFXFX-pythia8/e05140261271a287406b5498b21cc45a37d54cb7d01b75c7d13fe138/000000_000000/0000/tree_386.root
/store/group/phys_higgs/hbb/ntuples/VHbbPostNano/2018/V12/DYJetsToLL_Pt-100To250_TuneCP5_13TeV-amcatnloFXFX-pythia8/aaf489b30e9b0888bce066e4f85ec5c5cf084dbc6830952dc7d5fdd2/000000_000000/0000/tree_387.root
/store/group/phys_higgs/hbb/ntuples/VHbbPostNano/2018/V12/DYJetsToLL_Pt-100To250_TuneCP5_13TeV-amcatnloFXFX-pythia8/cbf75a5643504e5fef2e0d19cbf226b6760a472a3ed73bb577622243/000000_000000/0000/tree_388.root
/store/group/phys_higgs/hbb/ntuples/VHbbPostNano/2018/V12/DYJetsToLL_Pt-100To250_TuneCP5_13TeV-amcatnloFXFX-pythia8/d6a18a036d141e7566a727cd856fab1fb5ceb3c1d5cf9d81a5bdc50a/000000_000000/0000/tree_389.root
/store/group/phys_higgs/hbb/ntuples/VHbbPostNano/2018/V12/DYJetsToLL_Pt-100To250_TuneCP5_13TeV-amcatnloFXFX-pythia8/6471951b167363896e1fbfe60a9a5980b62acf94b19a0af531a84e0a/000000_000000/0000/tree_390.root
/store/group/phys_higgs/hbb/ntuples/VHbbPostNano/2018/V12/DYJetsToLL_Pt-100To250_TuneCP5_13TeV-amcatnloFXFX-pythia8/5a6bd3a2b9f81f709f135a2e472cb21abff4ffdb729b0174211e5a66/000000_000000/0000/tree_391.root
/store/group/phys_higgs/hbb/ntuples/VHbbPostNano/2018/V12/DYJetsToLL_Pt-100To250_TuneCP5_13TeV-amcatnloFXFX-pythia8/f325b48af64f9ab22928f8850cda1c495804d932b15ed2d50fde8417/000000_000000/0000/tree_392.root
/store/group/phys_higgs/hbb/ntuples/VHbbPostNano/2018/V12/DYJetsToLL_Pt-100To250_TuneCP5_13TeV-amcatnloFXFX-pythia8/0e0c9e3cab797ba68e7febb5c3e5ef83e10c675b32715be20290d04c/000000_000000/0000/tree_393.root
/store/group/phys_higgs/hbb/ntuples/VHbbPostNano/2018/V12/DYJetsToLL_Pt-100To250_TuneCP5_13TeV-amcatnloFXFX-pythia8/ccc4f0ba00318ced0f958ffc560737f14da42e2851bb2444c01d4e72/000000_000000/0000/tree_394.root
/store/group/phys_higgs/hbb/ntuples/VHbbPostNano/2018/V12/DYJetsToLL_Pt-100To250_TuneCP5_13TeV-amcatnloFXFX-pythia8/6a4bb88dde4609aa9083f189556eb2d94beee10698bdb8916ae89494/000000_000000/0000/tree_395.root
/store/group/phys_higgs/hbb/ntuples/VHbbPostNano/2018/V12/DYJetsToLL_Pt-100To250_TuneCP5_13TeV-amcatnloFXFX-pythia8/df40395e74dfe610606bcd5f8eaf3f09e67e034f1dfc398a0394e9e4/000000_000000/0000/tree_396.root
/store/group/phys_higgs/hbb/ntuples/VHbbPostNano/2018/V12/DYJetsToLL_Pt-100To250_TuneCP5_13TeV-amcatnloFXFX-pythia8/3ca5b55623370e3c6d0a8e2a5f8725937c241a2dede2d2180fb3399d/000000_000000/0000/tree_397.root
/store/group/phys_higgs/hbb/ntuples/VHbbPostNano/2018/V12/DYJetsToLL_Pt-100To250_TuneCP5_13TeV-amcatnloFXFX-pythia8/f396b08ad75e82d87cb7073035233cf36a8887a4852a875e84bbc8d9/000000_000000/0000/tree_398.root
/store/group/phys_higgs/hbb/ntuples/VHbbPostNano/2018/V12/DYJetsToLL_Pt-100To250_TuneCP5_13TeV-amcatnloFXFX-pythia8/04113fc0aaef9908122e45a5af30793e79994be29175ec75811eda9c/000000_000000/0000/tree_399.root
/store/group/phys_higgs/hbb/ntuples/VHbbPostNano/2018/V12/DYJetsToLL_Pt-100To250_TuneCP5_13TeV-amcatnloFXFX-pythia8/5de7c294b7eb8a03d814593b1ef73c679a4cf8e06a37828005c9461b/000000_000000/0000/tree_400.root
/store/group/phys_higgs/hbb/ntuples/VHbbPostNano/2018/V12/DYJetsToLL_Pt-100To250_TuneCP5_13TeV-amcatnloFXFX-pythia8/7d0e06658a65974408b5c96c895eabbc2fef6cd408ebc358da835f64/000000_000000/0000/tree_401.root
/store/group/phys_higgs/hbb/ntuples/VHbbPostNano/2018/V12/DYJetsToLL_Pt-100To250_TuneCP5_13TeV-amcatnloFXFX-pythia8/796c9fa89248f98bb61b53e32c4c1caa2eb9f144e83057e38ee2d1df/000000_000000/0000/tree_402.root
/store/group/phys_higgs/hbb/ntuples/VHbbPostNano/2018/V12/DYJetsToLL_Pt-100To250_TuneCP5_13TeV-amcatnloFXFX-pythia8/9a086827dca6734f03972923c6de43f1b99518510f2db44a9eb6edb1/000000_000000/0000/tree_403.root
/store/group/phys_higgs/hbb/ntuples/VHbbPostNano/2018/V12/DYJetsToLL_Pt-100To250_TuneCP5_13TeV-amcatnloFXFX-pythia8/723d435cdfd176d080fff81d879688378ecc6bec0b454853079c5d60/000000_000000/0000/tree_404.root
/store/group/phys_higgs/hbb/ntuples/VHbbPostNano/2018/V12/DYJetsToLL_Pt-100To250_TuneCP5_13TeV-amcatnloFXFX-pythia8/ca6cc55f32748caa08335412687eb1aafc4863c1dc8407460174e8b6/000000_000000/0000/tree_405.root
/store/group/phys_higgs/hbb/ntuples/VHbbPostNano/2018/V12/DYJetsToLL_Pt-100To250_TuneCP5_13TeV-amcatnloFXFX-pythia8/f2deba76190879f5efb5e0f4005a3b8b10661f899b88ac9397214841/000000_000000/0000/tree_406.root
/store/group/phys_higgs/hbb/ntuples/VHbbPostNano/2018/V12/DYJetsToLL_Pt-100To250_TuneCP5_13TeV-amcatnloFXFX-pythia8/3f1131ff3c00a2f82dba7120525c5f3a2c3ebeee4fc4ebd871f80be9/000000_000000/0000/tree_407.root
/store/group/phys_higgs/hbb/ntuples/VHbbPostNano/2018/V12/DYJetsToLL_Pt-100To250_TuneCP5_13TeV-amcatnloFXFX-pythia8/277322a47d383d0a5204def9a0c7fc5efa8a16ac20e7da876c84a163/000000_000000/0000/tree_408.root
/store/group/phys_higgs/hbb/ntuples/VHbbPostNano/2018/V12/DYJetsToLL_Pt-100To250_TuneCP5_13TeV-amcatnloFXFX-pythia8/512fe4969d80c90c6647241651c5d8caf810530c9c51e552f721526d/000000_000000/0000/tree_409.root