10	63700860	6370086	1	DoubleEG
10	145519357	14551935	1	DoubleMuon
10	63520942	6352094	1	MET
10	110699455	11069945	1	SingleElectron
10	316379785	31637978	1	SingleMuon
10	1421870381	142187038	1	DYBJetsToLL_M-50_Zpt-100to200_TuneCP5_13TeV-madgraphMLM-pythia8
10	1499532577	149953257	1	DYBJetsToLL_M-50_Zpt-200toInf_TuneCP5_13TeV-madgraphMLM-pythia8
10	443616570	44361657	1	DYJetsToLL_0J_TuneCP5_13TeV-amcatnloFXFX-pythia8
10	864066531	86406653	1	DYJetsToLL_1J_TuneCP5_13TeV-amcatnloFXFX-pythia8
10	1111073135	111107313	1	DYJetsToLL_2J_TuneCP5_13TeV-amcatnloFXFX-pythia8
10	615836994	61583699	1	DYJetsToLL_LHEFilterPtZ-0To50_MatchEWPDG20_TuneCP5_13TeV-amcatnloFXFX-pythia8
10	1257279582	125727958	1	DYJetsToLL_LHEFilterPtZ-100To250_MatchEWPDG20_TuneCP5_13TeV-amcatnloFXFX-pythia8
10	2263783736	226378373	1	DYJetsToLL_LHEFilterPtZ-250To400_MatchEWPDG20_TuneCP5_13TeV-amcatnloFXFX-pythia8
10	2497562578	249756257	1	DYJetsToLL_LHEFilterPtZ-400To650_MatchEWPDG20_TuneCP5_13TeV-amcatnloFXFX-pythia8
10	1045169580	104516958	1	DYJetsToLL_LHEFilterPtZ-50To100_MatchEWPDG20_TuneCP5_13TeV-amcatnloFXFX-pythia8
10	2275622131	227562213	1	DYJetsToLL_LHEFilterPtZ-650ToInf_MatchEWPDG20_TuneCP5_13TeV-amcatnloFXFX-pythia8
10	45031764	4503176	1	DYJetsToLL_M-10to50_TuneCP5_13TeV-madgraphMLM-pythia8
10	1152090328	115209032	1	DYJetsToLL_M-50_HT-100to200_TuneCP5_PSweights_13TeV-madgraphMLM-pythia8
10	2669873031	266987303	1	DYJetsToLL_M-50_HT-1200to2500_TuneCP5_PSweights_13TeV-madgraphMLM-pythia8
10	1522901910	152290191	1	DYJetsToLL_M-50_HT-200to400_TuneCP5_PSweights_13TeV-madgraphMLM-pythia8
10	3043997920	304399792	1	DYJetsToLL_M-50_HT-2500toInf_TuneCP5_PSweights_13TeV-madgraphMLM-pythia8
10	2023015339	202301533	1	DYJetsToLL_M-50_HT-400to600_TuneCP5_PSweights_13TeV-madgraphMLM-pythia8
10	2102187818	210218781	1	DYJetsToLL_M-50_HT-600to800_TuneCP5_PSweights_13TeV-madgraphMLM-pythia8
10	1022075535	102207553	1	DYJetsToLL_M-50_HT-70to100_TuneCP5_PSweights_13TeV-madgraphMLM-pythia8
10	2295796273	229579627	1	DYJetsToLL_M-50_HT-800to1200_TuneCP5_PSweights_13TeV-madgraphMLM-pythia8
10	605875724	60587572	1	DYJetsToLL_M-50_TuneCP5_13TeV-amcatnloFXFX-pythia8
10	1475039950	147503995	1	DYJetsToLL_M-50_Zpt-100to200_BPSFilter_TuneCP5_13TeV-madgraphMLM-pythia8
10	1390716350	139071635	1	DYJetsToLL_Pt-100To250_MatchEWPDG20_TuneCP5_13TeV-amcatnloFXFX-pythia8
10	2276693343	227669334	1	DYJetsToLL_Pt-250To400_MatchEWPDG20_TuneCP5_13TeV-amcatnloFXFX-pythia8
10	2357387450	235738745	1	DYJetsToLL_Pt-400To650_MatchEWPDG20_TuneCP5_13TeV-amcatnloFXFX-pythia8
10	1020095474	102009547	1	DYJetsToLL_Pt-50To100_MatchEWPDG20_TuneCP5_13TeV-amcatnloFXFX-pythia8
10	2776102027	277610202	1	DYJetsToLL_Pt-650ToInf_MatchEWPDG20_TuneCP5_13TeV-amcatnloFXFX-pythia8
10	454873273	45487327	1	QCD_HT1000to1500_TuneCP5_PSWeights_13TeV-madgraph-pythia8
10	29947936	2994793	1	QCD_HT100to200_TuneCP5_PSWeights_13TeV-madgraph-pythia8
10	720157136	72015713	1	QCD_HT1500to2000_TuneCP5_PSWeights_13TeV-madgraph-pythia8
10	1184916819	118491681	1	QCD_HT2000toInf_TuneCP5_PSWeights_13TeV-madgraph-pythia8
10	38573977	3857397	1	QCD_HT200to300_TuneCP5_PSWeights_13TeV-madgraph-pythia8
10	55836511	5583651	1	QCD_HT300to500_TuneCP5_PSWeights_13TeV-madgraph-pythia8
10	119569081	11956908	1	QCD_HT500to700_TuneCP5_PSWeights_13TeV-madgraph-pythia8
10	29722563	2972256	1	QCD_HT50to100_TuneCP5_PSWeights_13TeV-madgraph-pythia8
10	232293052	23229305	1	QCD_HT700to1000_TuneCP5_PSWeights_13TeV-madgraph-pythia8
10	867881172	86788117	1	ST_s-channel_4f_leptonDecays_TuneCP5_13TeV-amcatnlo-pythia8
10	385866420	38586642	1	ST_t-channel_antitop_4f_InclusiveDecays_TuneCP5_13TeV-powheg-madspin-pythia8
10	367840861	36784086	1	ST_t-channel_antitop_5f_InclusiveDecays_TuneCP5_13TeV-powheg-pythia8
10	389641474	38964147	1	ST_t-channel_top_4f_InclusiveDecays_TuneCP5_13TeV-powheg-madspin-pythia8
10	363861205	36386120	1	ST_t-channel_top_5f_InclusiveDecays_TuneCP5_13TeV-powheg-pythia8
10	1366654454	136665445	1	ST_tW_antitop_5f_NoFullyHadronicDecays_TuneCP5_13TeV-powheg-pythia8
10	826178805	82617880	1	ST_tW_antitop_5f_inclusiveDecays_TuneCP5_13TeV-powheg-pythia8
10	1361720415	136172041	1	ST_tW_top_5f_NoFullyHadronicDecays_TuneCP5_13TeV-powheg-pythia8
10	764417818	76441781	1	ST_tW_top_5f_inclusiveDecays_TuneCP5_13TeV-powheg-pythia8
10	1889306383	188930638	1	TTTo2L2Nu_TuneCP5_13TeV-powheg-pythia8
10	248711964	24871196	1	TTToHadronic_TuneCP5_13TeV-powheg-pythia8
10	1485510706	148551070	1	TTToSemiLeptonic_TuneCP5_13TeV-powheg-pythia8
10	1110716767	111071676	1	WBJetsToLNu_Wpt-100to200_TuneCP5_13TeV-madgraphMLM-pythia8
10	1827047430	182704743	1	WBJetsToLNu_Wpt-200toInf_TuneCP5_13TeV-madgraphMLM-pythia8
10	123254114	12325411	1	WJetsToLNu_0J_TuneCP5_13TeV-amcatnloFXFX-pythia8
10	445143732	44514373	1	WJetsToLNu_1J_TuneCP5_13TeV-amcatnloFXFX-pythia8
10	683541634	68354163	1	WJetsToLNu_2J_TuneCP5_13TeV-amcatnloFXFX-pythia8
10	716933525	71693352	1	WJetsToLNu_HT-100To200_TuneCP5_13TeV-madgraphMLM-pythia8
10	2253578559	225357855	1	WJetsToLNu_HT-1200To2500_TuneCP5_13TeV-madgraphMLM-pythia8
10	1089423144	108942314	1	WJetsToLNu_HT-200To400_TuneCP5_13TeV-madgraphMLM-pythia8
10	2699459100	269945910	1	WJetsToLNu_HT-2500ToInf_TuneCP5_13TeV-madgraphMLM-pythia8
10	1497596417	149759641	1	WJetsToLNu_HT-400To600_TuneCP5_13TeV-madgraphMLM-pythia8
10	1746181195	174618119	1	WJetsToLNu_HT-600To800_TuneCP5_13TeV-madgraphMLM-pythia8
10	531019524	53101952	1	WJetsToLNu_HT-70To100_TuneCP5_13TeV-madgraphMLM-pythia8
10	1841993595	184199359	1	WJetsToLNu_HT-800To1200_TuneCP5_13TeV-madgraphMLM-pythia8
10	1980566046	198056604	1	WJetsToLNu_Pt-100To250_MatchEWPDG20_TuneCP5_13TeV-amcatnloFXFX-pythia8
10	2003634907	200363490	1	WJetsToLNu_Pt-250To400_MatchEWPDG20_TuneCP5_13TeV-amcatnloFXFX-pythia8
10	2285051794	228505179	1	WJetsToLNu_Pt-400To600_MatchEWPDG20_TuneCP5_13TeV-amcatnloFXFX-pythia8
10	2279140692	227914069	1	WJetsToLNu_Pt-600ToInf_MatchEWPDG20_TuneCP5_13TeV-amcatnloFXFX-pythia8
10	253787996	25378799	1	WJetsToLNu_TuneCP5_13TeV-amcatnloFXFX-pythia8
10	1839419922	183941992	1	WJetsToLNu_Wpt-200toInf_BPSFilter_TuneCP5_13TeV-madgraphMLM-pythia8
10	723446391	72344639	1	WWTo2L2Nu_TuneCP5_13TeV-powheg-pythia8
10	405333980	40533398	1	WW_TuneCP5_13TeV-pythia8
10	858932894	85893289	1	WZTo2Q2L_mllmin4p0_TuneCP5_13TeV-amcatnloFXFX-pythia8
10	348667603	34866760	1	WZ_TuneCP5_13TeV-pythia8
10	583037413	58303741	1	ZZTo2L2Nu_TuneCP5_13TeV_powheg_pythia8
10	944829445	94482944	1	ZZTo2Q2L_mllmin4p0_TuneCP5_13TeV-amcatnloFXFX-pythia8
10	236286089	23628608	1	ZZTo4L_M-1toInf_TuneCP5_13TeV_powheg_pythia8
10	297920603	29792060	1	ZZ_TuneCP5_13TeV-pythia8
