/store/group/phys_higgs/hbb/ntuples/VHbbPostNano/2018/V12/DYJetsToLL_Pt-100To250_TuneCP5_13TeV-amcatnloFXFX-pythia8/5367a8aab9c96ad7eff8dd3772c6f429b5983c15f73e948be8f16e6b/000000_000000/0000/tree_0.root
/store/group/phys_higgs/hbb/ntuples/VHbbPostNano/2018/V12/DYJetsToLL_Pt-100To250_TuneCP5_13TeV-amcatnloFXFX-pythia8/863094796d3764a0d6706f7b2b3aa4e5198651576b33e04a3cfec820/000000_000000/0000/tree_1.root
/store/group/phys_higgs/hbb/ntuples/VHbbPostNano/2018/V12/DYJetsToLL_Pt-100To250_TuneCP5_13TeV-amcatnloFXFX-pythia8/e5303a6a538e13dcf1bdfacd973d801eedfa81df519495f682b7b428/000000_000000/0000/tree_2.root
/store/group/phys_higgs/hbb/ntuples/VHbbPostNano/2018/V12/DYJetsToLL_Pt-100To250_TuneCP5_13TeV-amcatnloFXFX-pythia8/48ac0e74ef394f3808f3f8a049cc9185a75252fe101071f2e3656709/000000_000000/0000/tree_3.root
/store/group/phys_higgs/hbb/ntuples/VHbbPostNano/2018/V12/DYJetsToLL_Pt-100To250_TuneCP5_13TeV-amcatnloFXFX-pythia8/c7343dc3a3844e48e94af64855dba4c12b9a096b3783f01b6e6b5985/000000_000000/0000/tree_4.root
/store/group/phys_higgs/hbb/ntuples/VHbbPostNano/2018/V12/DYJetsToLL_Pt-100To250_TuneCP5_13TeV-amcatnloFXFX-pythia8/d5c191b14e4c3b4c820ab8f34c67b26e3b7aa02132f12384a0340f43/000000_000000/0000/tree_5.root
/store/group/phys_higgs/hbb/ntuples/VHbbPostNano/2018/V12/DYJetsToLL_Pt-100To250_TuneCP5_13TeV-amcatnloFXFX-pythia8/9d5c216587f107a9d2634524068d7209f84a61279547ebc3273a2e2b/000000_000000/0000/tree_6.root
/store/group/phys_higgs/hbb/ntuples/VHbbPostNano/2018/V12/DYJetsToLL_Pt-100To250_TuneCP5_13TeV-amcatnloFXFX-pythia8/b36620b1dbcff697d1a9b714d8c442da945a164047a9ebb55d8e7d26/000000_000000/0000/tree_7.root
/store/group/phys_higgs/hbb/ntuples/VHbbPostNano/2018/V12/DYJetsToLL_Pt-100To250_TuneCP5_13TeV-amcatnloFXFX-pythia8/c928e26b721286a92c924de7ddf0b66345b6b4cf12f9033f09025722/000000_000000/0000/tree_8.root
/store/group/phys_higgs/hbb/ntuples/VHbbPostNano/2018/V12/DYJetsToLL_Pt-100To250_TuneCP5_13TeV-amcatnloFXFX-pythia8/a6bd00717093752db9d1030580df7aa9d172f02f318507ca5a3ead79/000000_000000/0000/tree_9.root
/store/group/phys_higgs/hbb/ntuples/VHbbPostNano/2018/V12/DYJetsToLL_Pt-100To250_TuneCP5_13TeV-amcatnloFXFX-pythia8/d3b085f5f8c847e92a3ccf9161cf70a68efb3c333099e271af46ed28/000000_000000/0000/tree_10.root
/store/group/phys_higgs/hbb/ntuples/VHbbPostNano/2018/V12/DYJetsToLL_Pt-100To250_TuneCP5_13TeV-amcatnloFXFX-pythia8/949da355a4d34d3b8bf3276418f19985954f29c6b1033343e3b23342/000000_000000/0000/tree_11.root
/store/group/phys_higgs/hbb/ntuples/VHbbPostNano/2018/V12/DYJetsToLL_Pt-100To250_TuneCP5_13TeV-amcatnloFXFX-pythia8/c3aca359da1e9285459be0735bdf0a1bb3cbde4e533a3b1a11d95374/000000_000000/0000/tree_12.root
/store/group/phys_higgs/hbb/ntuples/VHbbPostNano/2018/V12/DYJetsToLL_Pt-100To250_TuneCP5_13TeV-amcatnloFXFX-pythia8/61811abbb65b06aac71485dfe13a3d1ecc5b386760a9b08857c5fe8b/000000_000000/0000/tree_13.root
/store/group/phys_higgs/hbb/ntuples/VHbbPostNano/2018/V12/DYJetsToLL_Pt-100To250_TuneCP5_13TeV-amcatnloFXFX-pythia8/8555c96200a60c38556e6c518fb08b4977f32b7abe23304e174b05bc/000000_000000/0000/tree_14.root
/store/group/phys_higgs/hbb/ntuples/VHbbPostNano/2018/V12/DYJetsToLL_Pt-100To250_TuneCP5_13TeV-amcatnloFXFX-pythia8/251d1eb3b65947d65f9c70b4a279803ca98b91c349a263ccde4b8a15/000000_000000/0000/tree_15.root
/store/group/phys_higgs/hbb/ntuples/VHbbPostNano/2018/V12/DYJetsToLL_Pt-100To250_TuneCP5_13TeV-amcatnloFXFX-pythia8/dd71a33ebb1c751a7c253e912ddaaffca2be2e9639f96d11807d444a/000000_000000/0000/tree_16.root
/store/group/phys_higgs/hbb/ntuples/VHbbPostNano/2018/V12/DYJetsToLL_Pt-100To250_TuneCP5_13TeV-amcatnloFXFX-pythia8/4bdab116f59b9c224029b1ddf427933ad31684fae78de2bcb069c8b6/000000_000000/0000/tree_17.root
/store/group/phys_higgs/hbb/ntuples/VHbbPostNano/2018/V12/DYJetsToLL_Pt-100To250_TuneCP5_13TeV-amcatnloFXFX-pythia8/44b8bfa3d41ce873ce52fca91dcf96bc78a2074d84a62fb937a2ab57/000000_000000/0000/tree_18.root
/store/group/phys_higgs/hbb/ntuples/VHbbPostNano/2018/V12/DYJetsToLL_Pt-100To250_TuneCP5_13TeV-amcatnloFXFX-pythia8/c85578e2800d0acde84d860c51c39db64582481a940ce174858ca318/000000_000000/0000/tree_19.root
/store/group/phys_higgs/hbb/ntuples/VHbbPostNano/2018/V12/DYJetsToLL_Pt-100To250_TuneCP5_13TeV-amcatnloFXFX-pythia8/30494240a1de2f5193251665ec30ddc458d6cacea3ddcb48e21fe450/000000_000000/0000/tree_20.root
/store/group/phys_higgs/hbb/ntuples/VHbbPostNano/2018/V12/DYJetsToLL_Pt-100To250_TuneCP5_13TeV-amcatnloFXFX-pythia8/1eaedca702ff9823689cb82025b35f74b0d977a3d9e1f894d54fa248/000000_000000/0000/tree_21.root
/store/group/phys_higgs/hbb/ntuples/VHbbPostNano/2018/V12/DYJetsToLL_Pt-100To250_TuneCP5_13TeV-amcatnloFXFX-pythia8/7b9aef825c1477afa64b2c695e8e946f451e214513d41bf8d2ce0893/000000_000000/0000/tree_22.root
/store/group/phys_higgs/hbb/ntuples/VHbbPostNano/2018/V12/DYJetsToLL_Pt-100To250_TuneCP5_13TeV-amcatnloFXFX-pythia8/03fb6b963bfa1c540332f50e4509f3177ca064a3684bea2ef768c5c5/000000_000000/0000/tree_23.root
/store/group/phys_higgs/hbb/ntuples/VHbbPostNano/2018/V12/DYJetsToLL_Pt-100To250_TuneCP5_13TeV-amcatnloFXFX-pythia8/3a61ee473703da8d6ef0145d874c76d69c2ab17cec6b1f4d6ee0ec9c/000000_000000/0000/tree_24.root
/store/group/phys_higgs/hbb/ntuples/VHbbPostNano/2018/V12/DYJetsToLL_Pt-100To250_TuneCP5_13TeV-amcatnloFXFX-pythia8/5f397d8ab41cf36d4564b4ec93ed88ed02fe9136a7ccbd9d207b43f1/000000_000000/0000/tree_25.root
/store/group/phys_higgs/hbb/ntuples/VHbbPostNano/2018/V12/DYJetsToLL_Pt-100To250_TuneCP5_13TeV-amcatnloFXFX-pythia8/b9449096309ac4cf61ec1e440a94a71ec62b4798feb2730192f8ff2c/000000_000000/0000/tree_26.root
/store/group/phys_higgs/hbb/ntuples/VHbbPostNano/2018/V12/DYJetsToLL_Pt-100To250_TuneCP5_13TeV-amcatnloFXFX-pythia8/f46f25e5878710273e8d55cbd718c6174c3fc9916fe7e605224c7e80/000000_000000/0000/tree_27.root
/store/group/phys_higgs/hbb/ntuples/VHbbPostNano/2018/V12/DYJetsToLL_Pt-100To250_TuneCP5_13TeV-amcatnloFXFX-pythia8/2de9c51e0a632aab14916c2241374aef274a88c45f632dff577d0f1f/000000_000000/0000/tree_28.root
/store/group/phys_higgs/hbb/ntuples/VHbbPostNano/2018/V12/DYJetsToLL_Pt-100To250_TuneCP5_13TeV-amcatnloFXFX-pythia8/1e22e35f5f2bc7f4893113ca032e34e2d36ef754ed35a4687e25b14e/000000_000000/0000/tree_29.root
/store/group/phys_higgs/hbb/ntuples/VHbbPostNano/2018/V12/DYJetsToLL_Pt-100To250_TuneCP5_13TeV-amcatnloFXFX-pythia8/1db381444783344c6e9c3ca06dad327c74fba4236dec42974a62c856/000000_000000/0000/tree_30.root
/store/group/phys_higgs/hbb/ntuples/VHbbPostNano/2018/V12/DYJetsToLL_Pt-100To250_TuneCP5_13TeV-amcatnloFXFX-pythia8/fb0e853387e84aa642f33e85a291d80e4dd64a991092a02f785a4f33/000000_000000/0000/tree_31.root
/store/group/phys_higgs/hbb/ntuples/VHbbPostNano/2018/V12/DYJetsToLL_Pt-100To250_TuneCP5_13TeV-amcatnloFXFX-pythia8/f6f647973baca74b2d9084098e2fef2b92ec7ec68a7f442ab26bc476/000000_000000/0000/tree_32.root
/store/group/phys_higgs/hbb/ntuples/VHbbPostNano/2018/V12/DYJetsToLL_Pt-100To250_TuneCP5_13TeV-amcatnloFXFX-pythia8/2c00550f9d7ff81fe96ce3600bd3ec3bb1fac43be1c58e57094bcd9b/000000_000000/0000/tree_33.root
/store/group/phys_higgs/hbb/ntuples/VHbbPostNano/2018/V12/DYJetsToLL_Pt-100To250_TuneCP5_13TeV-amcatnloFXFX-pythia8/3f8ff203ddb1f63cfb70813bc8ee356c62a063a726527c9241a84aeb/000000_000000/0000/tree_34.root
/store/group/phys_higgs/hbb/ntuples/VHbbPostNano/2018/V12/DYJetsToLL_Pt-100To250_TuneCP5_13TeV-amcatnloFXFX-pythia8/3992128d92540fa0ae9f847142b6623e0765b5b8e86db254ebbc5d5c/000000_000000/0000/tree_35.root
/store/group/phys_higgs/hbb/ntuples/VHbbPostNano/2018/V12/DYJetsToLL_Pt-100To250_TuneCP5_13TeV-amcatnloFXFX-pythia8/b369d7d207e06e367015650b5e6b0ec11617d7a80e0348f6bcf198c3/000000_000000/0000/tree_36.root
/store/group/phys_higgs/hbb/ntuples/VHbbPostNano/2018/V12/DYJetsToLL_Pt-100To250_TuneCP5_13TeV-amcatnloFXFX-pythia8/1025ffd2621062355bb6e596e61ddd6cc074a8a80fc4d8e04c016813/000000_000000/0000/tree_37.root
/store/group/phys_higgs/hbb/ntuples/VHbbPostNano/2018/V12/DYJetsToLL_Pt-100To250_TuneCP5_13TeV-amcatnloFXFX-pythia8/14f2f0c5fb978cd0e18ecd8a95e264181866f568edb9a6c4030df601/000000_000000/0000/tree_38.root
/store/group/phys_higgs/hbb/ntuples/VHbbPostNano/2018/V12/DYJetsToLL_Pt-100To250_TuneCP5_13TeV-amcatnloFXFX-pythia8/70074b6a1751295bfc69c1bb08cf83d606ab4ff807ef898538e7ebe4/000000_000000/0000/tree_39.root
/store/group/phys_higgs/hbb/ntuples/VHbbPostNano/2018/V12/DYJetsToLL_Pt-100To250_TuneCP5_13TeV-amcatnloFXFX-pythia8/037027d0dd31f9c5cb3bcd7ab9e410e23ec486e39a86aca46ac6c928/000000_000000/0000/tree_40.root
/store/group/phys_higgs/hbb/ntuples/VHbbPostNano/2018/V12/DYJetsToLL_Pt-100To250_TuneCP5_13TeV-amcatnloFXFX-pythia8/ece690fb8e3d21e9548ce04b318d6f2cd14fc5bd80e42ebced4be4e6/000000_000000/0000/tree_41.root
/store/group/phys_higgs/hbb/ntuples/VHbbPostNano/2018/V12/DYJetsToLL_Pt-100To250_TuneCP5_13TeV-amcatnloFXFX-pythia8/5264bae82d33a61c94881eec72032ee66481131f189d2bdf6a221841/000000_000000/0000/tree_42.root
/store/group/phys_higgs/hbb/ntuples/VHbbPostNano/2018/V12/DYJetsToLL_Pt-100To250_TuneCP5_13TeV-amcatnloFXFX-pythia8/e082269245fc802acf0023b77dd8909af8cab527138b0ed1e124bf56/000000_000000/0000/tree_43.root
/store/group/phys_higgs/hbb/ntuples/VHbbPostNano/2018/V12/DYJetsToLL_Pt-100To250_TuneCP5_13TeV-amcatnloFXFX-pythia8/bc6b517e3a10e7c6fb80a5f190eabbda8bfbed991601775ad5369877/000000_000000/0000/tree_44.root
/store/group/phys_higgs/hbb/ntuples/VHbbPostNano/2018/V12/DYJetsToLL_Pt-100To250_TuneCP5_13TeV-amcatnloFXFX-pythia8/5987b63a7cc12c4a4e9bbdf4e645d25350a97f42e0c40795663a3dce/000000_000000/0000/tree_45.root
/store/group/phys_higgs/hbb/ntuples/VHbbPostNano/2018/V12/DYJetsToLL_Pt-100To250_TuneCP5_13TeV-amcatnloFXFX-pythia8/51eaa37fb9386f8d8bb85c706ee74fdd30e0eb3e27fbd99fb99cdb60/000000_000000/0000/tree_46.root
/store/group/phys_higgs/hbb/ntuples/VHbbPostNano/2018/V12/DYJetsToLL_Pt-100To250_TuneCP5_13TeV-amcatnloFXFX-pythia8/78acb180561e265f549b01644ca03bf09ad5ee63f6f56ac18de27a55/000000_000000/0000/tree_47.root
/store/group/phys_higgs/hbb/ntuples/VHbbPostNano/2018/V12/DYJetsToLL_Pt-100To250_TuneCP5_13TeV-amcatnloFXFX-pythia8/3ad848311b08c842cb6b8042e32089a71973f31c48b3463338c5e7b5/000000_000000/0000/tree_48.root
/store/group/phys_higgs/hbb/ntuples/VHbbPostNano/2018/V12/DYJetsToLL_Pt-100To250_TuneCP5_13TeV-amcatnloFXFX-pythia8/efdeac6e691424c78b6c84c4a17e012ef600fc54aa1a5dc1681fef00/000000_000000/0000/tree_49.root
/store/group/phys_higgs/hbb/ntuples/VHbbPostNano/2018/V12/DYJetsToLL_Pt-100To250_TuneCP5_13TeV-amcatnloFXFX-pythia8/04bfb8a28286d9a68898f7be464a83a8d07ebd3e3653fe2595cfe664/000000_000000/0000/tree_50.root
/store/group/phys_higgs/hbb/ntuples/VHbbPostNano/2018/V12/DYJetsToLL_Pt-100To250_TuneCP5_13TeV-amcatnloFXFX-pythia8/8bb8a244b72fe1568c998f6be6b6db9d14a012b61149040272f264fa/000000_000000/0000/tree_51.root
/store/group/phys_higgs/hbb/ntuples/VHbbPostNano/2018/V12/DYJetsToLL_Pt-100To250_TuneCP5_13TeV-amcatnloFXFX-pythia8/7cef759baca8a08769d4599f962a2415e7a87c897b1db26a65268d36/000000_000000/0000/tree_52.root
/store/group/phys_higgs/hbb/ntuples/VHbbPostNano/2018/V12/DYJetsToLL_Pt-100To250_TuneCP5_13TeV-amcatnloFXFX-pythia8/263e39db06961d07079c3f1a38370d9cb61be72d8602cc42db1fb79c/000000_000000/0000/tree_53.root
/store/group/phys_higgs/hbb/ntuples/VHbbPostNano/2018/V12/DYJetsToLL_Pt-100To250_TuneCP5_13TeV-amcatnloFXFX-pythia8/ebd0b1991916f5020e1b939bed234a6d4c570060037271827fff74a1/000000_000000/0000/tree_54.root
/store/group/phys_higgs/hbb/ntuples/VHbbPostNano/2018/V12/DYJetsToLL_Pt-100To250_TuneCP5_13TeV-amcatnloFXFX-pythia8/1f0bd9c754de0e2e9e77e360a1e1d823e9dd4054333929ff2d4924db/000000_000000/0000/tree_55.root
/store/group/phys_higgs/hbb/ntuples/VHbbPostNano/2018/V12/DYJetsToLL_Pt-100To250_TuneCP5_13TeV-amcatnloFXFX-pythia8/33e990790c48ea4c35fbf1ab47d10b28b72e3eebc17b3ac0656e4ffa/000000_000000/0000/tree_56.root
/store/group/phys_higgs/hbb/ntuples/VHbbPostNano/2018/V12/DYJetsToLL_Pt-100To250_TuneCP5_13TeV-amcatnloFXFX-pythia8/09faf3a54d38e6d77197d15766965883255e73ac0a9e904c39bc48ee/000000_000000/0000/tree_57.root
/store/group/phys_higgs/hbb/ntuples/VHbbPostNano/2018/V12/DYJetsToLL_Pt-100To250_TuneCP5_13TeV-amcatnloFXFX-pythia8/0e2c82eaae0b3ba7ba9e6ed8c71ac001aae5ce8f9d89cc8813dd6d6a/000000_000000/0000/tree_58.root
/store/group/phys_higgs/hbb/ntuples/VHbbPostNano/2018/V12/DYJetsToLL_Pt-100To250_TuneCP5_13TeV-amcatnloFXFX-pythia8/d13a7d1d949adb244b064f5db958414ff7b057537ddf985f67556cdf/000000_000000/0000/tree_59.root
/store/group/phys_higgs/hbb/ntuples/VHbbPostNano/2018/V12/DYJetsToLL_Pt-100To250_TuneCP5_13TeV-amcatnloFXFX-pythia8/319cccc131292eff2303f7c70e6817ac47b4e7896f64daa10d8a8544/000000_000000/0000/tree_60.root
/store/group/phys_higgs/hbb/ntuples/VHbbPostNano/2018/V12/DYJetsToLL_Pt-100To250_TuneCP5_13TeV-amcatnloFXFX-pythia8/96e62c11b1f7e96fb11266c1cd0d28201969e9db286135bd59ab46ca/000000_000000/0000/tree_61.root
/store/group/phys_higgs/hbb/ntuples/VHbbPostNano/2018/V12/DYJetsToLL_Pt-100To250_TuneCP5_13TeV-amcatnloFXFX-pythia8/02835857ad938e1bc838df85ce380b5293be6e1267eb1561e492cd1b/000000_000000/0000/tree_62.root
/store/group/phys_higgs/hbb/ntuples/VHbbPostNano/2018/V12/DYJetsToLL_Pt-100To250_TuneCP5_13TeV-amcatnloFXFX-pythia8/cb4bf05d8521e26f3deacd4826cc404325a21df78be83a6d74fe858b/000000_000000/0000/tree_63.root
/store/group/phys_higgs/hbb/ntuples/VHbbPostNano/2018/V12/DYJetsToLL_Pt-100To250_TuneCP5_13TeV-amcatnloFXFX-pythia8/7cce15537cc72d041cddcd209bfe3ec0696f697c1b028fa1812b300b/000000_000000/0000/tree_64.root
/store/group/phys_higgs/hbb/ntuples/VHbbPostNano/2018/V12/DYJetsToLL_Pt-100To250_TuneCP5_13TeV-amcatnloFXFX-pythia8/f25826c6aefc285aa1a1b1a9f56edff3810cd70fc85e058461c0f4f6/000000_000000/0000/tree_65.root
/store/group/phys_higgs/hbb/ntuples/VHbbPostNano/2018/V12/DYJetsToLL_Pt-100To250_TuneCP5_13TeV-amcatnloFXFX-pythia8/ffd7bce4d0fb6f1cc9cc4fdc831a8a9956399fbd5df9eeb2753d196d/000000_000000/0000/tree_66.root
/store/group/phys_higgs/hbb/ntuples/VHbbPostNano/2018/V12/DYJetsToLL_Pt-100To250_TuneCP5_13TeV-amcatnloFXFX-pythia8/c7d88c7cf93c451c55c3b28f4073bd66c9433d25bf5436705bd6efe9/000000_000000/0000/tree_67.root
/store/group/phys_higgs/hbb/ntuples/VHbbPostNano/2018/V12/DYJetsToLL_Pt-100To250_TuneCP5_13TeV-amcatnloFXFX-pythia8/f6ea14a9cb0c36712f08804928e606bc712acbcad7c159167cac428b/000000_000000/0000/tree_68.root
/store/group/phys_higgs/hbb/ntuples/VHbbPostNano/2018/V12/DYJetsToLL_Pt-100To250_TuneCP5_13TeV-amcatnloFXFX-pythia8/4001323f941c6bf59707c20320fd89e19798fd2c2768fc2acd69ebfe/000000_000000/0000/tree_69.root
/store/group/phys_higgs/hbb/ntuples/VHbbPostNano/2018/V12/DYJetsToLL_Pt-100To250_TuneCP5_13TeV-amcatnloFXFX-pythia8/b67a86b445807fce1865bd445e3513198f1bbcf6ecbd882c6c676975/000000_000000/0000/tree_70.root
/store/group/phys_higgs/hbb/ntuples/VHbbPostNano/2018/V12/DYJetsToLL_Pt-100To250_TuneCP5_13TeV-amcatnloFXFX-pythia8/672ce99f5f3007b54542c2cace8a8f04492814880297ca11a3722591/000000_000000/0000/tree_71.root
/store/group/phys_higgs/hbb/ntuples/VHbbPostNano/2018/V12/DYJetsToLL_Pt-100To250_TuneCP5_13TeV-amcatnloFXFX-pythia8/18899e1ce47d4e1fb1605900526d1fafb1a10b9a1a4f7c873ba916cf/000000_000000/0000/tree_72.root
/store/group/phys_higgs/hbb/ntuples/VHbbPostNano/2018/V12/DYJetsToLL_Pt-100To250_TuneCP5_13TeV-amcatnloFXFX-pythia8/229d83c236d5acdbffbcae85f408225f6a6d37886de106f34cebaee9/000000_000000/0000/tree_73.root
/store/group/phys_higgs/hbb/ntuples/VHbbPostNano/2018/V12/DYJetsToLL_Pt-100To250_TuneCP5_13TeV-amcatnloFXFX-pythia8/f564dd14d7b5161afc65858ca4315d6a03fe968e76656e2c9e9ca89c/000000_000000/0000/tree_74.root
/store/group/phys_higgs/hbb/ntuples/VHbbPostNano/2018/V12/DYJetsToLL_Pt-100To250_TuneCP5_13TeV-amcatnloFXFX-pythia8/ba1250e65645638641f7e245db913e1685cbad6f1c610b381efb8a8c/000000_000000/0000/tree_75.root
/store/group/phys_higgs/hbb/ntuples/VHbbPostNano/2018/V12/DYJetsToLL_Pt-100To250_TuneCP5_13TeV-amcatnloFXFX-pythia8/7a81b41c5653c1f6744389f2e83ddf17658c01e2b28b0e8e02bd240b/000000_000000/0000/tree_76.root
/store/group/phys_higgs/hbb/ntuples/VHbbPostNano/2018/V12/DYJetsToLL_Pt-100To250_TuneCP5_13TeV-amcatnloFXFX-pythia8/aa5da0252d0d1327fadd555183972558ca108345e35e87ff62da777a/000000_000000/0000/tree_77.root
/store/group/phys_higgs/hbb/ntuples/VHbbPostNano/2018/V12/DYJetsToLL_Pt-100To250_TuneCP5_13TeV-amcatnloFXFX-pythia8/258ec83770d05566197a6a67b91647f1392d2a28bc4201ba3a14676d/000000_000000/0000/tree_78.root
/store/group/phys_higgs/hbb/ntuples/VHbbPostNano/2018/V12/DYJetsToLL_Pt-100To250_TuneCP5_13TeV-amcatnloFXFX-pythia8/c8bef66a572a0a5c7e66da1c067e6a056038a39c95731f8f516004f6/000000_000000/0000/tree_79.root
/store/group/phys_higgs/hbb/ntuples/VHbbPostNano/2018/V12/DYJetsToLL_Pt-100To250_TuneCP5_13TeV-amcatnloFXFX-pythia8/1363d27be8f150169c02d304b311117ec6cb6ced7752bdf0a9254f52/000000_000000/0000/tree_80.root
/store/group/phys_higgs/hbb/ntuples/VHbbPostNano/2018/V12/DYJetsToLL_Pt-100To250_TuneCP5_13TeV-amcatnloFXFX-pythia8/587d972e0d9ae3b814ecd18b4f5b67ca021e0ff2fcfa32e9b2fe4da6/000000_000000/0000/tree_81.root