/store/group/phys_higgs/hbb/ntuples/VHbbPostNano/2018/V12/DYJetsToLL_Pt-650ToInf_TuneCP5_13TeV-amcatnloFXFX-pythia8/4f1e549bac09aa42c73d4226981f1eb73553ce61dd7837d9055932e5/000000_000000/0000/tree_0.root
/store/group/phys_higgs/hbb/ntuples/VHbbPostNano/2018/V12/DYJetsToLL_Pt-650ToInf_TuneCP5_13TeV-amcatnloFXFX-pythia8/69595feefc9fec0d0390c7ced988e4d597c6a70c994531042aa6dbcf/000000_000000/0000/tree_1.root
/store/group/phys_higgs/hbb/ntuples/VHbbPostNano/2018/V12/DYJetsToLL_Pt-650ToInf_TuneCP5_13TeV-amcatnloFXFX-pythia8/749ad140cb94039b45adce2a8bf4501d94b5565a018f856b9555d8de/000000_000000/0000/tree_2.root
/store/group/phys_higgs/hbb/ntuples/VHbbPostNano/2018/V12/DYJetsToLL_Pt-650ToInf_TuneCP5_13TeV-amcatnloFXFX-pythia8/277981ad053027cdbbdc539aae37d8ce35bcba64509eaea2b1ca6974/000000_000000/0000/tree_3.root
/store/group/phys_higgs/hbb/ntuples/VHbbPostNano/2018/V12/DYJetsToLL_Pt-650ToInf_TuneCP5_13TeV-amcatnloFXFX-pythia8/00f33703558c850e5ce6eeaa066833e60eb1f61c28f59e79cc4ec35c/000000_000000/0000/tree_4.root
/store/group/phys_higgs/hbb/ntuples/VHbbPostNano/2018/V12/DYJetsToLL_Pt-650ToInf_TuneCP5_13TeV-amcatnloFXFX-pythia8/92352e2753cc6ab717814b7c3e02853dc2088fd48043536b06346404/000000_000000/0000/tree_5.root
/store/group/phys_higgs/hbb/ntuples/VHbbPostNano/2018/V12/DYJetsToLL_Pt-650ToInf_TuneCP5_13TeV-amcatnloFXFX-pythia8/ad8c0e06fcc4c07c5ca18eeb0f9a7ab0459cc69cb9b3051a30d0aab5/000000_000000/0000/tree_6.root