/store/group/phys_higgs/hbb/ntuples/VHbbPostNano/2017/V11/DYJetsToLL_M-50_HT-200to400_TuneCP5_13TeV-madgraphMLM-pythia8/RunIIFall17NanoAODv4-PU2017_12118/190426_132155/0000/tree_1.root
/store/group/phys_higgs/hbb/ntuples/VHbbPostNano/2017/V11/DYJetsToLL_M-50_HT-200to400_TuneCP5_13TeV-madgraphMLM-pythia8/RunIIFall17NanoAODv4-PU2017_1282/190509_150209/0000/tree_10.root
/store/group/phys_higgs/hbb/ntuples/VHbbPostNano/2017/V11/DYJetsToLL_M-50_HT-200to400_TuneCP5_13TeV-madgraphMLM-pythia8/RunIIFall17NanoAODv4-PU2017_1282/190509_150209/0000/tree_1.root
/store/group/phys_higgs/hbb/ntuples/VHbbPostNano/2017/V11/DYJetsToLL_M-50_HT-200to400_TuneCP5_13TeV-madgraphMLM-pythia8/RunIIFall17NanoAODv4-PU2017_1282/190509_150209/0000/tree_2.root
/store/group/phys_higgs/hbb/ntuples/VHbbPostNano/2017/V11/DYJetsToLL_M-50_HT-200to400_TuneCP5_13TeV-madgraphMLM-pythia8/RunIIFall17NanoAODv4-PU2017_1282/190509_150209/0000/tree_3.root
/store/group/phys_higgs/hbb/ntuples/VHbbPostNano/2017/V11/DYJetsToLL_M-50_HT-200to400_TuneCP5_13TeV-madgraphMLM-pythia8/RunIIFall17NanoAODv4-PU2017_1282/190509_150209/0000/tree_4.root
/store/group/phys_higgs/hbb/ntuples/VHbbPostNano/2017/V11/DYJetsToLL_M-50_HT-200to400_TuneCP5_13TeV-madgraphMLM-pythia8/RunIIFall17NanoAODv4-PU2017_1282/190509_150209/0000/tree_5.root
/store/group/phys_higgs/hbb/ntuples/VHbbPostNano/2017/V11/DYJetsToLL_M-50_HT-200to400_TuneCP5_13TeV-madgraphMLM-pythia8/RunIIFall17NanoAODv4-PU2017_1282/190509_150209/0000/tree_6.root
/store/group/phys_higgs/hbb/ntuples/VHbbPostNano/2017/V11/DYJetsToLL_M-50_HT-200to400_TuneCP5_13TeV-madgraphMLM-pythia8/RunIIFall17NanoAODv4-PU2017_1282/190509_150209/0000/tree_7.root
/store/group/phys_higgs/hbb/ntuples/VHbbPostNano/2017/V11/DYJetsToLL_M-50_HT-200to400_TuneCP5_13TeV-madgraphMLM-pythia8/RunIIFall17NanoAODv4-PU2017_1282/190509_150209/0000/tree_8.root
