/store/group/phys_higgs/hbb/ntuples/VHbbPostNano/2017/V11/QCD_HT500to700_TuneCP5_13TeV-madgraph-pythia8/RunIIFall17NanoAODv4-PU2017_1290/190426_111708/0000/tree_10.root
/store/group/phys_higgs/hbb/ntuples/VHbbPostNano/2017/V11/QCD_HT500to700_TuneCP5_13TeV-madgraph-pythia8/RunIIFall17NanoAODv4-PU2017_1290/190426_111708/0000/tree_1.root
/store/group/phys_higgs/hbb/ntuples/VHbbPostNano/2017/V11/QCD_HT500to700_TuneCP5_13TeV-madgraph-pythia8/RunIIFall17NanoAODv4-PU2017_1290/190426_111708/0000/tree_2.root
/store/group/phys_higgs/hbb/ntuples/VHbbPostNano/2017/V11/QCD_HT500to700_TuneCP5_13TeV-madgraph-pythia8/RunIIFall17NanoAODv4-PU2017_1290/190426_111708/0000/tree_3.root
/store/group/phys_higgs/hbb/ntuples/VHbbPostNano/2017/V11/QCD_HT500to700_TuneCP5_13TeV-madgraph-pythia8/RunIIFall17NanoAODv4-PU2017_1290/190426_111708/0000/tree_4.root
/store/group/phys_higgs/hbb/ntuples/VHbbPostNano/2017/V11/QCD_HT500to700_TuneCP5_13TeV-madgraph-pythia8/RunIIFall17NanoAODv4-PU2017_1290/190426_111708/0000/tree_5.root
/store/group/phys_higgs/hbb/ntuples/VHbbPostNano/2017/V11/QCD_HT500to700_TuneCP5_13TeV-madgraph-pythia8/RunIIFall17NanoAODv4-PU2017_1290/190426_111708/0000/tree_6.root
/store/group/phys_higgs/hbb/ntuples/VHbbPostNano/2017/V11/QCD_HT500to700_TuneCP5_13TeV-madgraph-pythia8/RunIIFall17NanoAODv4-PU2017_1290/190426_111708/0000/tree_7.root
/store/group/phys_higgs/hbb/ntuples/VHbbPostNano/2017/V11/QCD_HT500to700_TuneCP5_13TeV-madgraph-pythia8/RunIIFall17NanoAODv4-PU2017_1290/190426_111708/0000/tree_8.root
/store/group/phys_higgs/hbb/ntuples/VHbbPostNano/2017/V11/QCD_HT500to700_TuneCP5_13TeV-madgraph-pythia8/RunIIFall17NanoAODv4-PU2017_1290/190426_111708/0000/tree_9.root
