/store/group/phys_higgs/hbb/ntuples/VHbbPostNano/2018/V12/TTTo2L2Nu_TuneCP5_13TeV-powheg-pythia8/f34fd8fdc83022bcdc9094d900ba66adacba4bfce8ef494499f7a2cd/000000_000000/0000/tree_0.root
/store/group/phys_higgs/hbb/ntuples/VHbbPostNano/2018/V12/TTTo2L2Nu_TuneCP5_13TeV-powheg-pythia8/1487f1fe3e05b544b7983763339647d9ab21330b0b1bbf41fd1da9c9/000000_000000/0000/tree_1.root
/store/group/phys_higgs/hbb/ntuples/VHbbPostNano/2018/V12/TTTo2L2Nu_TuneCP5_13TeV-powheg-pythia8/a398f8391095f8dbfc29d74270cbb1e151052b23fc24bf1bc1c3a8fb/000000_000000/0000/tree_2.root
/store/group/phys_higgs/hbb/ntuples/VHbbPostNano/2018/V12/TTTo2L2Nu_TuneCP5_13TeV-powheg-pythia8/5e2381df67a08ab44fb5c8793df2f22bc1f59643e69a8732e6726283/000000_000000/0000/tree_3.root
/store/group/phys_higgs/hbb/ntuples/VHbbPostNano/2018/V12/TTTo2L2Nu_TuneCP5_13TeV-powheg-pythia8/16974e3033acc611696a94ccef562fe3e00f31ea6595331ef472337b/000000_000000/0000/tree_4.root
/store/group/phys_higgs/hbb/ntuples/VHbbPostNano/2018/V12/TTTo2L2Nu_TuneCP5_13TeV-powheg-pythia8/c832ece099f93297d51b5661455e5b231236a984676e96d3e1eacf8a/000000_000000/0000/tree_5.root
/store/group/phys_higgs/hbb/ntuples/VHbbPostNano/2018/V12/TTTo2L2Nu_TuneCP5_13TeV-powheg-pythia8/ad5c725790fb8a2cde64a3726b27f999529c1ccaba5828050d4bcab3/000000_000000/0000/tree_6.root
/store/group/phys_higgs/hbb/ntuples/VHbbPostNano/2018/V12/TTTo2L2Nu_TuneCP5_13TeV-powheg-pythia8/87b5656022eec181acf8a41bfb476340696d88784957fc089f2e0276/000000_000000/0000/tree_7.root
/store/group/phys_higgs/hbb/ntuples/VHbbPostNano/2018/V12/TTTo2L2Nu_TuneCP5_13TeV-powheg-pythia8/8d58aadd91891685f985c07f13bd9081db9bdc1097b6b64ec2bce402/000000_000000/0000/tree_8.root
/store/group/phys_higgs/hbb/ntuples/VHbbPostNano/2018/V12/TTTo2L2Nu_TuneCP5_13TeV-powheg-pythia8/17c2b01792af5ff74f214e477611c2c12858f062f3ca20693576ec38/000000_000000/0000/tree_9.root
/store/group/phys_higgs/hbb/ntuples/VHbbPostNano/2018/V12/TTTo2L2Nu_TuneCP5_13TeV-powheg-pythia8/cb723238bdee729582e6439cfe158e15f614053710561665fe2d3ba4/000000_000000/0000/tree_10.root
/store/group/phys_higgs/hbb/ntuples/VHbbPostNano/2018/V12/TTTo2L2Nu_TuneCP5_13TeV-powheg-pythia8/058c5ebb48b6f7b975744329ad8d76f1f19d6c3bf8f353549d2e8b09/000000_000000/0000/tree_11.root
/store/group/phys_higgs/hbb/ntuples/VHbbPostNano/2018/V12/TTTo2L2Nu_TuneCP5_13TeV-powheg-pythia8/f3fab0a44e00c6436ed57ac83a801d6b5d3d8512cfefeda55422e85a/000000_000000/0000/tree_12.root
/store/group/phys_higgs/hbb/ntuples/VHbbPostNano/2018/V12/TTTo2L2Nu_TuneCP5_13TeV-powheg-pythia8/d1fdbcdc4e4e9310f42f88155616071208ad28e54232e75102983b03/000000_000000/0000/tree_13.root
/store/group/phys_higgs/hbb/ntuples/VHbbPostNano/2018/V12/TTTo2L2Nu_TuneCP5_13TeV-powheg-pythia8/51f282c151230cb9a081ac8a9bcd78ba038fe2faa159d60e01f5d1e3/000000_000000/0000/tree_14.root
/store/group/phys_higgs/hbb/ntuples/VHbbPostNano/2018/V12/TTTo2L2Nu_TuneCP5_13TeV-powheg-pythia8/f4aa49cf00b4b9175961e106b7481e385318d3e528f0dd47d3c39b71/000000_000000/0000/tree_15.root
/store/group/phys_higgs/hbb/ntuples/VHbbPostNano/2018/V12/TTTo2L2Nu_TuneCP5_13TeV-powheg-pythia8/81e505a6b075289f6d3d22c83dab8e79b38001b69eb4c19e80d59351/000000_000000/0000/tree_16.root
/store/group/phys_higgs/hbb/ntuples/VHbbPostNano/2018/V12/TTTo2L2Nu_TuneCP5_13TeV-powheg-pythia8/2977235703375f0be8b998c850ea153ee5d8cb327bece02493c1bb08/000000_000000/0000/tree_17.root
/store/group/phys_higgs/hbb/ntuples/VHbbPostNano/2018/V12/TTTo2L2Nu_TuneCP5_13TeV-powheg-pythia8/5ffb94736c0178dbf1e600ea9acfab3edcd962c449a773eb027c3df6/000000_000000/0000/tree_18.root
/store/group/phys_higgs/hbb/ntuples/VHbbPostNano/2018/V12/TTTo2L2Nu_TuneCP5_13TeV-powheg-pythia8/002f24f781d8c47a5aaf2311606c0f91a8184553b5f6bd46c3770b46/000000_000000/0000/tree_19.root
/store/group/phys_higgs/hbb/ntuples/VHbbPostNano/2018/V12/TTTo2L2Nu_TuneCP5_13TeV-powheg-pythia8/bb31168dd42d65aba085bd6e130a20dce1b00babce6aca82cf5f2339/000000_000000/0000/tree_20.root
/store/group/phys_higgs/hbb/ntuples/VHbbPostNano/2018/V12/TTTo2L2Nu_TuneCP5_13TeV-powheg-pythia8/12a0c891bb710cdff2a170732c3228c7db6eddc08f0c9df268c85ce4/000000_000000/0000/tree_21.root
/store/group/phys_higgs/hbb/ntuples/VHbbPostNano/2018/V12/TTTo2L2Nu_TuneCP5_13TeV-powheg-pythia8/1d8899321c2bb1a9ff487b4c421749ad2788027d20efb07867ceb50b/000000_000000/0000/tree_22.root
/store/group/phys_higgs/hbb/ntuples/VHbbPostNano/2018/V12/TTTo2L2Nu_TuneCP5_13TeV-powheg-pythia8/aba979d711ae229b8a5c004afd0f37ff0088835066b7ba988fe85da4/000000_000000/0000/tree_23.root
/store/group/phys_higgs/hbb/ntuples/VHbbPostNano/2018/V12/TTTo2L2Nu_TuneCP5_13TeV-powheg-pythia8/a9d2a4d29c68349ed3b28ed01c7fbb9dde8214ab04d98084b259a9a3/000000_000000/0000/tree_24.root
/store/group/phys_higgs/hbb/ntuples/VHbbPostNano/2018/V12/TTTo2L2Nu_TuneCP5_13TeV-powheg-pythia8/a57c952b4fb7b916e5441b18c35b7493808f2b5b7afc47004f75db1b/000000_000000/0000/tree_25.root
/store/group/phys_higgs/hbb/ntuples/VHbbPostNano/2018/V12/TTTo2L2Nu_TuneCP5_13TeV-powheg-pythia8/cfdfb00987c35e1f508641f8917fea9bf07221382ce5f1945c905f1b/000000_000000/0000/tree_26.root
/store/group/phys_higgs/hbb/ntuples/VHbbPostNano/2018/V12/TTTo2L2Nu_TuneCP5_13TeV-powheg-pythia8/981be61fad4cbb47e0aec0a42c202c9c09a39f75b2c5166aa23f6ff2/000000_000000/0000/tree_27.root
/store/group/phys_higgs/hbb/ntuples/VHbbPostNano/2018/V12/TTTo2L2Nu_TuneCP5_13TeV-powheg-pythia8/df3de405155052e1f3d8726defd5b75d9547714cc02dfd1deabd5a19/000000_000000/0000/tree_28.root
/store/group/phys_higgs/hbb/ntuples/VHbbPostNano/2018/V12/TTTo2L2Nu_TuneCP5_13TeV-powheg-pythia8/258693e72f48b0a99090a2fed5eb88085aba2b695c47673e15ec6811/000000_000000/0000/tree_29.root
/store/group/phys_higgs/hbb/ntuples/VHbbPostNano/2018/V12/TTTo2L2Nu_TuneCP5_13TeV-powheg-pythia8/d97d6f823cd83aec405bae2de9496edb4b186f975407e638f289168b/000000_000000/0000/tree_30.root
/store/group/phys_higgs/hbb/ntuples/VHbbPostNano/2018/V12/TTTo2L2Nu_TuneCP5_13TeV-powheg-pythia8/06ad9825ede7ac73831bc2067f805ae4f5a7d49f571fdf17af7030eb/000000_000000/0000/tree_31.root
/store/group/phys_higgs/hbb/ntuples/VHbbPostNano/2018/V12/TTTo2L2Nu_TuneCP5_13TeV-powheg-pythia8/7367f71a4c808b6ef165ff80638ff46f1892fc2ec55e8fcd643cd7a8/000000_000000/0000/tree_32.root
/store/group/phys_higgs/hbb/ntuples/VHbbPostNano/2018/V12/TTTo2L2Nu_TuneCP5_13TeV-powheg-pythia8/c427644052ba533e41dcca1c93276759b3f1a606875c16a1625376f2/000000_000000/0000/tree_33.root
/store/group/phys_higgs/hbb/ntuples/VHbbPostNano/2018/V12/TTTo2L2Nu_TuneCP5_13TeV-powheg-pythia8/56ffbf4bdc6b1107b58ced89146806a653ebb4d4e11ab81552787dca/000000_000000/0000/tree_34.root
/store/group/phys_higgs/hbb/ntuples/VHbbPostNano/2018/V12/TTTo2L2Nu_TuneCP5_13TeV-powheg-pythia8/4217e18a484bfcbf6ac900ef88763067ab75c02ad340054bd4313c20/000000_000000/0000/tree_35.root
/store/group/phys_higgs/hbb/ntuples/VHbbPostNano/2018/V12/TTTo2L2Nu_TuneCP5_13TeV-powheg-pythia8/e68a7b78606f58a0cef67f8b6f576f7315c477ed7907275ce68daa1d/000000_000000/0000/tree_36.root
/store/group/phys_higgs/hbb/ntuples/VHbbPostNano/2018/V12/TTTo2L2Nu_TuneCP5_13TeV-powheg-pythia8/1cba9462e0ef1f60ccb00dde58966b620e9af8263799aad60858e49d/000000_000000/0000/tree_37.root
/store/group/phys_higgs/hbb/ntuples/VHbbPostNano/2018/V12/TTTo2L2Nu_TuneCP5_13TeV-powheg-pythia8/051d07a37871be80ed9cb52b52e24987f90fa9b3d98bb1473ce54259/000000_000000/0000/tree_38.root
/store/group/phys_higgs/hbb/ntuples/VHbbPostNano/2018/V12/TTTo2L2Nu_TuneCP5_13TeV-powheg-pythia8/eeea6c94ad76a3dca31f9adcc75118adf50761beb59afc6c32411681/000000_000000/0000/tree_39.root
/store/group/phys_higgs/hbb/ntuples/VHbbPostNano/2018/V12/TTTo2L2Nu_TuneCP5_13TeV-powheg-pythia8/a097fa3a391972a40d407e7791a35bdd4f4fa7a27469034ccc4692a5/000000_000000/0000/tree_40.root
/store/group/phys_higgs/hbb/ntuples/VHbbPostNano/2018/V12/TTTo2L2Nu_TuneCP5_13TeV-powheg-pythia8/388a46a7294b136faa38fe428025d6dbc09cdec629962f25aba96698/000000_000000/0000/tree_41.root