/store/group/phys_higgs/hbb/ntuples/VHbbPostNano/2018/V12/WJetsToLNu_HT-400To600_TuneCP5_13TeV-madgraphMLM-pythia8/87f3aaeebd201d2e8fac2dfdbe251dfd4e7d6cd535ec7b33c4b216b6/000000_000000/0000/tree_0.root
/store/group/phys_higgs/hbb/ntuples/VHbbPostNano/2018/V12/WJetsToLNu_HT-400To600_TuneCP5_13TeV-madgraphMLM-pythia8/09d5f24753d7baeb1155896fd775fccea904eca482341dd1d75883ee/000000_000000/0000/tree_1.root
/store/group/phys_higgs/hbb/ntuples/VHbbPostNano/2018/V12/WJetsToLNu_HT-400To600_TuneCP5_13TeV-madgraphMLM-pythia8/7f1a434c66b26713648699f84cf61db508b4f77ae845360a4357cf0f/000000_000000/0000/tree_2.root
/store/group/phys_higgs/hbb/ntuples/VHbbPostNano/2018/V12/WJetsToLNu_HT-400To600_TuneCP5_13TeV-madgraphMLM-pythia8/e411e0b8a396dbc8235facbd5a9442da53439a2bb009538a14c505a2/000000_000000/0000/tree_3.root
/store/group/phys_higgs/hbb/ntuples/VHbbPostNano/2018/V12/WJetsToLNu_HT-400To600_TuneCP5_13TeV-madgraphMLM-pythia8/06e74c908c9b586f4a5c8590558191548bfbdd7ec9f734081ead043f/000000_000000/0000/tree_4.root
/store/group/phys_higgs/hbb/ntuples/VHbbPostNano/2018/V12/WJetsToLNu_HT-400To600_TuneCP5_13TeV-madgraphMLM-pythia8/ddba8af28b998146e1bf6650ea51102a05800418aa8342cfca6015a9/000000_000000/0000/tree_5.root
/store/group/phys_higgs/hbb/ntuples/VHbbPostNano/2018/V12/WJetsToLNu_HT-400To600_TuneCP5_13TeV-madgraphMLM-pythia8/efa59c0617a65a6fc5d257323140a78c20213c2d1a30a9dcc2768f57/000000_000000/0000/tree_6.root
/store/group/phys_higgs/hbb/ntuples/VHbbPostNano/2018/V12/WJetsToLNu_HT-400To600_TuneCP5_13TeV-madgraphMLM-pythia8/ce9c5d9f624bf82035091080bc15beac63091cd1b4f8130e24221c91/000000_000000/0000/tree_7.root
/store/group/phys_higgs/hbb/ntuples/VHbbPostNano/2018/V12/WJetsToLNu_HT-400To600_TuneCP5_13TeV-madgraphMLM-pythia8/e449d75513f4c44d3319419fba8a14eb599353ea36ccf1ed36802c44/000000_000000/0000/tree_8.root
/store/group/phys_higgs/hbb/ntuples/VHbbPostNano/2018/V12/WJetsToLNu_HT-400To600_TuneCP5_13TeV-madgraphMLM-pythia8/da45dcbefad2b8026d8af762364537aea672601b5fe830c0ee76880d/000000_000000/0000/tree_9.root
/store/group/phys_higgs/hbb/ntuples/VHbbPostNano/2018/V12/WJetsToLNu_HT-400To600_TuneCP5_13TeV-madgraphMLM-pythia8/fcb0d601ee92eefb001b7b64c3968aab6e317f9877f82c1efd5027d5/000000_000000/0000/tree_10.root
/store/group/phys_higgs/hbb/ntuples/VHbbPostNano/2018/V12/WJetsToLNu_HT-400To600_TuneCP5_13TeV-madgraphMLM-pythia8/8e47f326314ee421e6849d86e4a5c645917324345f250151afd96eb7/000000_000000/0000/tree_11.root
/store/group/phys_higgs/hbb/ntuples/VHbbPostNano/2018/V12/WJetsToLNu_HT-400To600_TuneCP5_13TeV-madgraphMLM-pythia8/f93e7aa6c13a79379b3a013f8edcf8fa4f3bcd1e3cbfb6e4b5dfbb43/000000_000000/0000/tree_12.root