/store/group/phys_higgs/hbb/ntuples/VHbbPostNano/2018/V12/WJetsToLNu_HT-200To400_TuneCP5_13TeV-madgraphMLM-pythia8/5eed9c4c22727a9d02c2e219f04340f4e74db30c164fbd6499570f8c/000000_000000/0000/tree_0.root
/store/group/phys_higgs/hbb/ntuples/VHbbPostNano/2018/V12/WJetsToLNu_HT-200To400_TuneCP5_13TeV-madgraphMLM-pythia8/6dfb8d7f17dc9d873ac9e74b2bbecb9e11c7b0bebd05bb54319a911d/000000_000000/0000/tree_1.root
/store/group/phys_higgs/hbb/ntuples/VHbbPostNano/2018/V12/WJetsToLNu_HT-200To400_TuneCP5_13TeV-madgraphMLM-pythia8/d1685b6677507f175a02d83ea0cba38476b957bfa49842aeefcba187/000000_000000/0000/tree_2.root
/store/group/phys_higgs/hbb/ntuples/VHbbPostNano/2018/V12/WJetsToLNu_HT-200To400_TuneCP5_13TeV-madgraphMLM-pythia8/8eadf5f4a4373184e3fae2bed964b98c9cf106fe31270716ad1f8b00/000000_000000/0000/tree_3.root
/store/group/phys_higgs/hbb/ntuples/VHbbPostNano/2018/V12/WJetsToLNu_HT-200To400_TuneCP5_13TeV-madgraphMLM-pythia8/3fd10c7e8a873ec1c4d7df19797ab4837e326ecb6d3a76e011ce4ecb/000000_000000/0000/tree_4.root
/store/group/phys_higgs/hbb/ntuples/VHbbPostNano/2018/V12/WJetsToLNu_HT-200To400_TuneCP5_13TeV-madgraphMLM-pythia8/37f5bedf4fdd5a069d5962952a9b0fe7461580a861a90277f9bbac4f/000000_000000/0000/tree_5.root
/store/group/phys_higgs/hbb/ntuples/VHbbPostNano/2018/V12/WJetsToLNu_HT-200To400_TuneCP5_13TeV-madgraphMLM-pythia8/942b7b7d38be93826b26fbf1c6ce5d4f7ce65cda070dcaefe38fe355/000000_000000/0000/tree_6.root
/store/group/phys_higgs/hbb/ntuples/VHbbPostNano/2018/V12/WJetsToLNu_HT-200To400_TuneCP5_13TeV-madgraphMLM-pythia8/f0e44d40bb2f4c8c841066b31b634131d79c4df0f6ccbfa042ab82c6/000000_000000/0000/tree_7.root
/store/group/phys_higgs/hbb/ntuples/VHbbPostNano/2018/V12/WJetsToLNu_HT-200To400_TuneCP5_13TeV-madgraphMLM-pythia8/32d5599d883d15a5e36cbde3990035440d50fdcea529cab705a29ad6/000000_000000/0000/tree_8.root
/store/group/phys_higgs/hbb/ntuples/VHbbPostNano/2018/V12/WJetsToLNu_HT-200To400_TuneCP5_13TeV-madgraphMLM-pythia8/c3e89e73f519777ea43f454f45eaade4b06a50bcbc7eb0d8ec6535e8/000000_000000/0000/tree_9.root
/store/group/phys_higgs/hbb/ntuples/VHbbPostNano/2018/V12/WJetsToLNu_HT-200To400_TuneCP5_13TeV-madgraphMLM-pythia8/52b546c54df18ed83bfdd54e2e13563e9c62be87fed50c7f863667b3/000000_000000/0000/tree_10.root
/store/group/phys_higgs/hbb/ntuples/VHbbPostNano/2018/V12/WJetsToLNu_HT-200To400_TuneCP5_13TeV-madgraphMLM-pythia8/22424d44f946c22e0872a6f9d9458ff3e93afb88bf34b9f885173ccd/000000_000000/0000/tree_11.root
/store/group/phys_higgs/hbb/ntuples/VHbbPostNano/2018/V12/WJetsToLNu_HT-200To400_TuneCP5_13TeV-madgraphMLM-pythia8/9d4dcf9b560a2f4d38a4deb1dcca625ac1f3922174a4e46a399049d5/000000_000000/0000/tree_12.root
/store/group/phys_higgs/hbb/ntuples/VHbbPostNano/2018/V12/WJetsToLNu_HT-200To400_TuneCP5_13TeV-madgraphMLM-pythia8/31695dda899c488dbd177efd4063e55ee2f7bb58f5740f82b3f8c8d5/000000_000000/0000/tree_13.root
/store/group/phys_higgs/hbb/ntuples/VHbbPostNano/2018/V12/WJetsToLNu_HT-200To400_TuneCP5_13TeV-madgraphMLM-pythia8/2f1bc10d78bd1497d6efad99db8c6d4ced49bf141e7271ee7698b208/000000_000000/0000/tree_14.root
/store/group/phys_higgs/hbb/ntuples/VHbbPostNano/2018/V12/WJetsToLNu_HT-200To400_TuneCP5_13TeV-madgraphMLM-pythia8/90a6a05f3a8952e586cfcaa705668f1daccf59539c1a775b51c4b3da/000000_000000/0000/tree_15.root
/store/group/phys_higgs/hbb/ntuples/VHbbPostNano/2018/V12/WJetsToLNu_HT-200To400_TuneCP5_13TeV-madgraphMLM-pythia8/ad9d2883e719ef64819ef21c77834c81447541ee4696d842980d2614/000000_000000/0000/tree_16.root