/store/group/phys_higgs/hbb/ntuples/VHbbPostNano/2018/V12/ZBJetsToNuNu_Zpt-200toInf_TuneCP5_13TeV-madgraphMLM-pythia8/b56922329e73eb3c4e77d90c03c1a36fa0b17fbcf8d6d3eb35027f76/000000_000000/0000/tree_0.root
/store/group/phys_higgs/hbb/ntuples/VHbbPostNano/2018/V12/ZBJetsToNuNu_Zpt-200toInf_TuneCP5_13TeV-madgraphMLM-pythia8/12e8658b510419a7fdd8ef1028b54625cdb96b4e745ec1f8809df11d/000000_000000/0000/tree_1.root
/store/group/phys_higgs/hbb/ntuples/VHbbPostNano/2018/V12/ZBJetsToNuNu_Zpt-200toInf_TuneCP5_13TeV-madgraphMLM-pythia8/5d2c8e25386fabed748b6ba51d310ef6cbbba3eb37a3f3d7fe2efa4f/000000_000000/0000/tree_2.root
/store/group/phys_higgs/hbb/ntuples/VHbbPostNano/2018/V12/ZBJetsToNuNu_Zpt-200toInf_TuneCP5_13TeV-madgraphMLM-pythia8/5c2dde5c05841cc01edcf963315b2876f4faea7fd4c02015aa1ae204/000000_000000/0000/tree_3.root
/store/group/phys_higgs/hbb/ntuples/VHbbPostNano/2018/V12/ZBJetsToNuNu_Zpt-200toInf_TuneCP5_13TeV-madgraphMLM-pythia8/483d393fb2911960b6cde2916f26c0cbf55a6aa75970fc2208934170/000000_000000/0000/tree_4.root
/store/group/phys_higgs/hbb/ntuples/VHbbPostNano/2018/V12/ZBJetsToNuNu_Zpt-200toInf_TuneCP5_13TeV-madgraphMLM-pythia8/267f7f26b8e9c8c4792cdc3c5a11d31bd7d731bb3707e71194b36871/000000_000000/0000/tree_5.root
/store/group/phys_higgs/hbb/ntuples/VHbbPostNano/2018/V12/ZBJetsToNuNu_Zpt-200toInf_TuneCP5_13TeV-madgraphMLM-pythia8/e1a63417df8e61e29cf9adf1d8f4c9c04d2bfc73b49127e273982ff9/000000_000000/0000/tree_6.root
/store/group/phys_higgs/hbb/ntuples/VHbbPostNano/2018/V12/ZBJetsToNuNu_Zpt-200toInf_TuneCP5_13TeV-madgraphMLM-pythia8/f42e342d76af86b851bd107f5b275c07bff99890ad6ec660a407f92a/000000_000000/0000/tree_7.root
/store/group/phys_higgs/hbb/ntuples/VHbbPostNano/2018/V12/ZBJetsToNuNu_Zpt-200toInf_TuneCP5_13TeV-madgraphMLM-pythia8/f1157c531bfd73d7a65e391f250a04c1d3819eaf6c94e0f1ff433d9c/000000_000000/0000/tree_8.root
/store/group/phys_higgs/hbb/ntuples/VHbbPostNano/2018/V12/ZBJetsToNuNu_Zpt-200toInf_TuneCP5_13TeV-madgraphMLM-pythia8/58c908c1ad6b2ee5b03eaf0953860d18f696b70bfb2ced8a901112b3/000000_000000/0000/tree_9.root
/store/group/phys_higgs/hbb/ntuples/VHbbPostNano/2018/V12/ZBJetsToNuNu_Zpt-200toInf_TuneCP5_13TeV-madgraphMLM-pythia8/039ee174eeec425f8bc8d433d8c542e749bf164d30328d3ec20662d7/000000_000000/0000/tree_10.root
/store/group/phys_higgs/hbb/ntuples/VHbbPostNano/2018/V12/ZBJetsToNuNu_Zpt-200toInf_TuneCP5_13TeV-madgraphMLM-pythia8/ebce32eeb79c67e4e6fc279edf59f7d4f0242fef9abfd98d423d8381/000000_000000/0000/tree_11.root
/store/group/phys_higgs/hbb/ntuples/VHbbPostNano/2018/V12/ZBJetsToNuNu_Zpt-200toInf_TuneCP5_13TeV-madgraphMLM-pythia8/ea488b8cc222398f64b7a3c1fa882ad2517c9101e40774cbc496d72c/000000_000000/0000/tree_12.root
/store/group/phys_higgs/hbb/ntuples/VHbbPostNano/2018/V12/ZBJetsToNuNu_Zpt-200toInf_TuneCP5_13TeV-madgraphMLM-pythia8/ba804e43c359f9178189c084b5fa7b995ea32c0eb50f5b154ab632e4/000000_000000/0000/tree_13.root
/store/group/phys_higgs/hbb/ntuples/VHbbPostNano/2018/V12/ZBJetsToNuNu_Zpt-200toInf_TuneCP5_13TeV-madgraphMLM-pythia8/594d867e86dd8b7d0b689e90c76c928ac78de10004f080e7f3452f3a/000000_000000/0000/tree_14.root
/store/group/phys_higgs/hbb/ntuples/VHbbPostNano/2018/V12/ZBJetsToNuNu_Zpt-200toInf_TuneCP5_13TeV-madgraphMLM-pythia8/dc9e2bd23b0721cc02cd2a3def68d9c3b16506c56872d20a9bdeb8e8/000000_000000/0000/tree_15.root
/store/group/phys_higgs/hbb/ntuples/VHbbPostNano/2018/V12/ZBJetsToNuNu_Zpt-200toInf_TuneCP5_13TeV-madgraphMLM-pythia8/5aecb1adf32423a26eec015a6ba1d52909a04929a2a36cd2fb43d819/000000_000000/0000/tree_16.root
/store/group/phys_higgs/hbb/ntuples/VHbbPostNano/2018/V12/ZBJetsToNuNu_Zpt-200toInf_TuneCP5_13TeV-madgraphMLM-pythia8/e28792fddb1678fb41013cddb197488c612a0d15e44b417b29e715ed/000000_000000/0000/tree_17.root
/store/group/phys_higgs/hbb/ntuples/VHbbPostNano/2018/V12/ZBJetsToNuNu_Zpt-200toInf_TuneCP5_13TeV-madgraphMLM-pythia8/5e319d75fc64ba04627c69885c1d2f2fa779ec8eeb2acd046838823f/000000_000000/0000/tree_18.root
/store/group/phys_higgs/hbb/ntuples/VHbbPostNano/2018/V12/ZBJetsToNuNu_Zpt-200toInf_TuneCP5_13TeV-madgraphMLM-pythia8/fa4a8d02a59d071306ed5f7375fded93d4865815cdb6536230e81a14/000000_000000/0000/tree_19.root
/store/group/phys_higgs/hbb/ntuples/VHbbPostNano/2018/V12/ZBJetsToNuNu_Zpt-200toInf_TuneCP5_13TeV-madgraphMLM-pythia8/260eedcc2be2fee40bb809a3a09ffafb731478de98698e227c8e3995/000000_000000/0000/tree_20.root
/store/group/phys_higgs/hbb/ntuples/VHbbPostNano/2018/V12/ZBJetsToNuNu_Zpt-200toInf_TuneCP5_13TeV-madgraphMLM-pythia8/96c47643dc88bb44d467eaaca8948e5379f544e3cc54d9d29992823a/000000_000000/0000/tree_21.root
/store/group/phys_higgs/hbb/ntuples/VHbbPostNano/2018/V12/ZBJetsToNuNu_Zpt-200toInf_TuneCP5_13TeV-madgraphMLM-pythia8/1113e61fba9fabbe29008b06c26e7cfb6755764d2777cfd2eb0e86f2/000000_000000/0000/tree_22.root
/store/group/phys_higgs/hbb/ntuples/VHbbPostNano/2018/V12/ZBJetsToNuNu_Zpt-200toInf_TuneCP5_13TeV-madgraphMLM-pythia8/3ac3dce9b7ab0cf7b6da088afbd7f1419f2f7c617abfb9c66d940e67/000000_000000/0000/tree_23.root
/store/group/phys_higgs/hbb/ntuples/VHbbPostNano/2018/V12/ZBJetsToNuNu_Zpt-200toInf_TuneCP5_13TeV-madgraphMLM-pythia8/27dad323a2050c71a4722a16feef8fdf988f62be92b18ee6ce66f0ad/000000_000000/0000/tree_24.root
/store/group/phys_higgs/hbb/ntuples/VHbbPostNano/2018/V12/ZBJetsToNuNu_Zpt-200toInf_TuneCP5_13TeV-madgraphMLM-pythia8/559276b70ea049725df6f76a78b2554cf622faf353cacfde5d1a0124/000000_000000/0000/tree_25.root
/store/group/phys_higgs/hbb/ntuples/VHbbPostNano/2018/V12/ZBJetsToNuNu_Zpt-200toInf_TuneCP5_13TeV-madgraphMLM-pythia8/01f31d2410306653099764400c5ef679024245b169c1570019a9aaf4/000000_000000/0000/tree_26.root
/store/group/phys_higgs/hbb/ntuples/VHbbPostNano/2018/V12/ZBJetsToNuNu_Zpt-200toInf_TuneCP5_13TeV-madgraphMLM-pythia8/2dd4204f41f63cfbeb5d38da3ffa3623f2fb31c1354bc189e229db72/000000_000000/0000/tree_27.root
/store/group/phys_higgs/hbb/ntuples/VHbbPostNano/2018/V12/ZBJetsToNuNu_Zpt-200toInf_TuneCP5_13TeV-madgraphMLM-pythia8/a360026fb5534aa3df18f19a176b413ed9cbf94c8485751dcad53513/000000_000000/0000/tree_28.root
/store/group/phys_higgs/hbb/ntuples/VHbbPostNano/2018/V12/ZBJetsToNuNu_Zpt-200toInf_TuneCP5_13TeV-madgraphMLM-pythia8/3a6800bf42a09b051453692d8a2cfb4bd5efb8d012a38d1256666590/000000_000000/0000/tree_29.root
/store/group/phys_higgs/hbb/ntuples/VHbbPostNano/2018/V12/ZBJetsToNuNu_Zpt-200toInf_TuneCP5_13TeV-madgraphMLM-pythia8/42926842836052aa958eae32079d6a2da256b440cb886be7187fc0af/000000_000000/0000/tree_30.root