/store/group/phys_higgs/hbb/ntuples/VHbbPostNano/2018/V12/ZJetsToNuNu_HT-200To400_13TeV-madgraph/4ff1e484c6f0e039bfb7e56fba3f4ddd43ff21eb75b352828586a9d1/000000_000000/0000/tree_0.root
/store/group/phys_higgs/hbb/ntuples/VHbbPostNano/2018/V12/ZJetsToNuNu_HT-200To400_13TeV-madgraph/95bf98fc0000f24665d0bd14cf48ca685d93b5013e15af130151754b/000000_000000/0000/tree_1.root
/store/group/phys_higgs/hbb/ntuples/VHbbPostNano/2018/V12/ZJetsToNuNu_HT-200To400_13TeV-madgraph/a0c9f6748b56cb1d38045f02c028e2c327ba06cb0d29143a8fd68a53/000000_000000/0000/tree_2.root
/store/group/phys_higgs/hbb/ntuples/VHbbPostNano/2018/V12/ZJetsToNuNu_HT-200To400_13TeV-madgraph/2c7d62d2a9be4b9594d3ec356c83c788fd616dd727f42bc06b10b8ce/000000_000000/0000/tree_3.root
/store/group/phys_higgs/hbb/ntuples/VHbbPostNano/2018/V12/ZJetsToNuNu_HT-200To400_13TeV-madgraph/afc5e14a1391e8bd5f75e0e862f7370ca884301ec68bd78f6e4e3a01/000000_000000/0000/tree_4.root
/store/group/phys_higgs/hbb/ntuples/VHbbPostNano/2018/V12/ZJetsToNuNu_HT-200To400_13TeV-madgraph/bd746bacf147b2a1fa6ae53ae528a2f258e509b35b7d80d754ab4897/000000_000000/0000/tree_5.root
/store/group/phys_higgs/hbb/ntuples/VHbbPostNano/2018/V12/ZJetsToNuNu_HT-200To400_13TeV-madgraph/3a5945c8f096e09086891760daa64b0dbe76ebad9e9c768e836ae3e9/000000_000000/0000/tree_6.root
/store/group/phys_higgs/hbb/ntuples/VHbbPostNano/2018/V12/ZJetsToNuNu_HT-200To400_13TeV-madgraph/62f416ed0fc0c9f46ba6ffed79039d4e65578b0e15490e4e2cc0cb19/000000_000000/0000/tree_7.root
/store/group/phys_higgs/hbb/ntuples/VHbbPostNano/2018/V12/ZJetsToNuNu_HT-200To400_13TeV-madgraph/3f364e1ec167ad0f9d258111e9d33d16cd9543862cbcb0f73ba90276/000000_000000/0000/tree_8.root
/store/group/phys_higgs/hbb/ntuples/VHbbPostNano/2018/V12/ZJetsToNuNu_HT-200To400_13TeV-madgraph/1eb3eb89c74047e700352c0563622b88f82e34e43028f02630410cfd/000000_000000/0000/tree_9.root
/store/group/phys_higgs/hbb/ntuples/VHbbPostNano/2018/V12/ZJetsToNuNu_HT-200To400_13TeV-madgraph/fbe7290c315831b19e9828c3a00bf72c16aaf4532fd8134605f5ac4e/000000_000000/0000/tree_10.root
/store/group/phys_higgs/hbb/ntuples/VHbbPostNano/2018/V12/ZJetsToNuNu_HT-200To400_13TeV-madgraph/9f18a2a91e54f40409790dcec4a61f546222ad2a522f02bd9c08da66/000000_000000/0000/tree_11.root
/store/group/phys_higgs/hbb/ntuples/VHbbPostNano/2018/V12/ZJetsToNuNu_HT-200To400_13TeV-madgraph/af72c54bd2c23b00964095462df5d5c5561520b0ff8b279cd22c8943/000000_000000/0000/tree_12.root
/store/group/phys_higgs/hbb/ntuples/VHbbPostNano/2018/V12/ZJetsToNuNu_HT-200To400_13TeV-madgraph/8cdf958fcb7f751b93aec7d43b31df5dddd50ecd209bc11607532b9e/000000_000000/0000/tree_13.root
/store/group/phys_higgs/hbb/ntuples/VHbbPostNano/2018/V12/ZJetsToNuNu_HT-200To400_13TeV-madgraph/0f9edf1ff4ffe8450ff0ca6932224e869082667a127077ee7277ab49/000000_000000/0000/tree_14.root
/store/group/phys_higgs/hbb/ntuples/VHbbPostNano/2018/V12/ZJetsToNuNu_HT-200To400_13TeV-madgraph/5c212ffc23f560a0f3fbf99a729d5212c78feb0b4a0b26029f3ff3f1/000000_000000/0000/tree_15.root
/store/group/phys_higgs/hbb/ntuples/VHbbPostNano/2018/V12/ZJetsToNuNu_HT-200To400_13TeV-madgraph/199ea09deaf1bdaf1d2e3b8860f951ad2bfe606aa93c4d70222a8822/000000_000000/0000/tree_16.root
/store/group/phys_higgs/hbb/ntuples/VHbbPostNano/2018/V12/ZJetsToNuNu_HT-200To400_13TeV-madgraph/bd9e0f2bc59c54c477e4b26fa952f665e6b69c140014ae1b6e165191/000000_000000/0000/tree_17.root
/store/group/phys_higgs/hbb/ntuples/VHbbPostNano/2018/V12/ZJetsToNuNu_HT-200To400_13TeV-madgraph/7062341c4002c8561384d5f4e311a69c62179caf78a623fb48375769/000000_000000/0000/tree_18.root
/store/group/phys_higgs/hbb/ntuples/VHbbPostNano/2018/V12/ZJetsToNuNu_HT-200To400_13TeV-madgraph/913a0eef48031cfefdb228b4800154b04c7a393fdf6eb9b29a1eca72/000000_000000/0000/tree_19.root
/store/group/phys_higgs/hbb/ntuples/VHbbPostNano/2018/V12/ZJetsToNuNu_HT-200To400_13TeV-madgraph/797506485b70343f3839edfa48faaf2f589e4b5cd3f68ed83b82a78d/000000_000000/0000/tree_20.root
/store/group/phys_higgs/hbb/ntuples/VHbbPostNano/2018/V12/ZJetsToNuNu_HT-200To400_13TeV-madgraph/a3fd9b38e1d841472780758be1462bda30a49f6046c6e2bbaeb69711/000000_000000/0000/tree_21.root
/store/group/phys_higgs/hbb/ntuples/VHbbPostNano/2018/V12/ZJetsToNuNu_HT-200To400_13TeV-madgraph/fb8b994fbc44dff703510d1f55f06f6aac91b91e64c8286606238314/000000_000000/0000/tree_22.root
/store/group/phys_higgs/hbb/ntuples/VHbbPostNano/2018/V12/ZJetsToNuNu_HT-200To400_13TeV-madgraph/2fa4121a665e21a6eeea5f99229ff4607e437007c6fae0625e48dcad/000000_000000/0000/tree_23.root
/store/group/phys_higgs/hbb/ntuples/VHbbPostNano/2018/V12/ZJetsToNuNu_HT-200To400_13TeV-madgraph/a60021c47e0aa651dbc083e4863a3a54684b01a6aad7011d0e0d6d4a/000000_000000/0000/tree_24.root
/store/group/phys_higgs/hbb/ntuples/VHbbPostNano/2018/V12/ZJetsToNuNu_HT-200To400_13TeV-madgraph/6650f6a50bc277761717bcc3a1e41a2a777021e3df442a2cd0262edd/000000_000000/0000/tree_25.root
/store/group/phys_higgs/hbb/ntuples/VHbbPostNano/2018/V12/ZJetsToNuNu_HT-200To400_13TeV-madgraph/d56f66305080e13a0be68c17b6f7eef1a9c0ed685cd70a9b521d7dac/000000_000000/0000/tree_26.root
/store/group/phys_higgs/hbb/ntuples/VHbbPostNano/2018/V12/ZJetsToNuNu_HT-200To400_13TeV-madgraph/bd2f60f53656d72e0e7e1e029c2f01dbb8a3c18af3545a4e9a129577/000000_000000/0000/tree_27.root
/store/group/phys_higgs/hbb/ntuples/VHbbPostNano/2018/V12/ZJetsToNuNu_HT-200To400_13TeV-madgraph/4260d164de014422ac90be86cc2ac5f616da3458223818513cb20434/000000_000000/0000/tree_28.root
/store/group/phys_higgs/hbb/ntuples/VHbbPostNano/2018/V12/ZJetsToNuNu_HT-200To400_13TeV-madgraph/19fc5f767c13d54d9ee5a186ebfd9b4352e2e492b91eec547151fcb3/000000_000000/0000/tree_29.root
/store/group/phys_higgs/hbb/ntuples/VHbbPostNano/2018/V12/ZJetsToNuNu_HT-200To400_13TeV-madgraph/dbadad545bcd7be48730c85323cd996f864ccdcf61abc87e278e124f/000000_000000/0000/tree_30.root
/store/group/phys_higgs/hbb/ntuples/VHbbPostNano/2018/V12/ZJetsToNuNu_HT-200To400_13TeV-madgraph/43a2e81ec426e43616b42e9565dd4f14a6949a051a0d613207a63bb3/000000_000000/0000/tree_31.root