/store/group/phys_higgs/hbb/ntuples/VHbbPostNano/2018/V12/DYJetsToLL_M-50_HT-200to400_TuneCP5_PSweights_13TeV-madgraphMLM-pythia8/2a72223948bedba7a8f5963c40f748c8c533ba28c9c31383764808d2/000000_000000/0000/tree_0.root
/store/group/phys_higgs/hbb/ntuples/VHbbPostNano/2018/V12/DYJetsToLL_M-50_HT-200to400_TuneCP5_PSweights_13TeV-madgraphMLM-pythia8/2016a1ff2fffaab980307dddc11f39dbcbf1cd94806afd4bb7282ebb/000000_000000/0000/tree_1.root
/store/group/phys_higgs/hbb/ntuples/VHbbPostNano/2018/V12/DYJetsToLL_M-50_HT-200to400_TuneCP5_PSweights_13TeV-madgraphMLM-pythia8/b531ff4965d36c699363c47b9357590fe7d60168d6525612f64e97ab/000000_000000/0000/tree_2.root
/store/group/phys_higgs/hbb/ntuples/VHbbPostNano/2018/V12/DYJetsToLL_M-50_HT-200to400_TuneCP5_PSweights_13TeV-madgraphMLM-pythia8/648da9ca6d6ce4c9697a43dc5ab996d0a60a11a5cb136464a6bef047/000000_000000/0000/tree_3.root
/store/group/phys_higgs/hbb/ntuples/VHbbPostNano/2018/V12/DYJetsToLL_M-50_HT-200to400_TuneCP5_PSweights_13TeV-madgraphMLM-pythia8/1f5d3e84f38db0fa9cb79368a6fb3e0d3c3a9d6faea3ceab94797a71/000000_000000/0000/tree_4.root
/store/group/phys_higgs/hbb/ntuples/VHbbPostNano/2018/V12/DYJetsToLL_M-50_HT-200to400_TuneCP5_PSweights_13TeV-madgraphMLM-pythia8/d9b39770330c91d41a2a54b752d10b78503aee9f4dc1b03c0d63c3fd/000000_000000/0000/tree_5.root
/store/group/phys_higgs/hbb/ntuples/VHbbPostNano/2018/V12/DYJetsToLL_M-50_HT-200to400_TuneCP5_PSweights_13TeV-madgraphMLM-pythia8/5fa399fb7e6d51b909f8c8b6b2887cde3c0e8c1c3ec2f1dc721880d5/000000_000000/0000/tree_6.root
/store/group/phys_higgs/hbb/ntuples/VHbbPostNano/2018/V12/DYJetsToLL_M-50_HT-200to400_TuneCP5_PSweights_13TeV-madgraphMLM-pythia8/f97831d95f158512bfc7049f6207d21ee1ecccf87ac8a8c2e04e470a/000000_000000/0000/tree_7.root
/store/group/phys_higgs/hbb/ntuples/VHbbPostNano/2018/V12/DYJetsToLL_M-50_HT-200to400_TuneCP5_PSweights_13TeV-madgraphMLM-pythia8/3a56dda2d706990c8337a123af4818c2681f182a4c5aaf8d093ce87b/000000_000000/0000/tree_8.root
/store/group/phys_higgs/hbb/ntuples/VHbbPostNano/2018/V12/DYJetsToLL_M-50_HT-200to400_TuneCP5_PSweights_13TeV-madgraphMLM-pythia8/312e6740c68c94bffdd45e7b45d119198c6da32bf07f667c5b29523f/000000_000000/0000/tree_9.root
/store/group/phys_higgs/hbb/ntuples/VHbbPostNano/2018/V12/DYJetsToLL_M-50_HT-200to400_TuneCP5_PSweights_13TeV-madgraphMLM-pythia8/83953397811ec3ebb52da11fdcc405b29c5eb33cedc2453f2649563f/000000_000000/0000/tree_10.root
/store/group/phys_higgs/hbb/ntuples/VHbbPostNano/2018/V12/DYJetsToLL_M-50_HT-200to400_TuneCP5_PSweights_13TeV-madgraphMLM-pythia8/4f0109176ba2b07c96dce8f336b43903d0936ad086f430ef1031a5df/000000_000000/0000/tree_11.root
/store/group/phys_higgs/hbb/ntuples/VHbbPostNano/2018/V12/DYJetsToLL_M-50_HT-200to400_TuneCP5_PSweights_13TeV-madgraphMLM-pythia8/15eb3258bda43a4279a3133ed58c1b8efd1bf45df88624494f9d7b0a/000000_000000/0000/tree_12.root
/store/group/phys_higgs/hbb/ntuples/VHbbPostNano/2018/V12/DYJetsToLL_M-50_HT-200to400_TuneCP5_PSweights_13TeV-madgraphMLM-pythia8/f4821a0ddde2fb344ef7a15a1961de2535c96c0ecb45aeb2dbda8564/000000_000000/0000/tree_13.root
/store/group/phys_higgs/hbb/ntuples/VHbbPostNano/2018/V12/DYJetsToLL_M-50_HT-200to400_TuneCP5_PSweights_13TeV-madgraphMLM-pythia8/2b956135963fd04b46d685fd0a0a1e96644a346fb2b8630faa40758d/000000_000000/0000/tree_14.root
/store/group/phys_higgs/hbb/ntuples/VHbbPostNano/2018/V12/DYJetsToLL_M-50_HT-200to400_TuneCP5_PSweights_13TeV-madgraphMLM-pythia8/761d7caa24171b0a219baec881adabff8a3183c52262d677d537a7d0/000000_000000/0000/tree_15.root
/store/group/phys_higgs/hbb/ntuples/VHbbPostNano/2018/V12/DYJetsToLL_M-50_HT-200to400_TuneCP5_PSweights_13TeV-madgraphMLM-pythia8/c39820c838754c5f79ce0420e8e594024af299ea00a1147081a2e9e0/000000_000000/0000/tree_16.root
/store/group/phys_higgs/hbb/ntuples/VHbbPostNano/2018/V12/DYJetsToLL_M-50_HT-200to400_TuneCP5_PSweights_13TeV-madgraphMLM-pythia8/d7cbedac585dd70eb031585c4f4e572482519ac01e219ebf80584854/000000_000000/0000/tree_17.root
/store/group/phys_higgs/hbb/ntuples/VHbbPostNano/2018/V12/DYJetsToLL_M-50_HT-200to400_TuneCP5_PSweights_13TeV-madgraphMLM-pythia8/a4243174bc1db4ad0b8a781e7b8f7879f27ac59dcc76ba3d874ac69a/000000_000000/0000/tree_18.root
/store/group/phys_higgs/hbb/ntuples/VHbbPostNano/2018/V12/DYJetsToLL_M-50_HT-200to400_TuneCP5_PSweights_13TeV-madgraphMLM-pythia8/27045bc8a914113748360dbd8e7af79492c012a52409c462bf029e67/000000_000000/0000/tree_19.root
/store/group/phys_higgs/hbb/ntuples/VHbbPostNano/2018/V12/DYJetsToLL_M-50_HT-200to400_TuneCP5_PSweights_13TeV-madgraphMLM-pythia8/a012efb62d3642e4b423d95e70295c546d710c0f5b79f3882122ee12/000000_000000/0000/tree_20.root
/store/group/phys_higgs/hbb/ntuples/VHbbPostNano/2018/V12/DYJetsToLL_M-50_HT-200to400_TuneCP5_PSweights_13TeV-madgraphMLM-pythia8/85111a37763aa43bb098350dbc79a04730d539816634a94607cd2607/000000_000000/0000/tree_21.root
/store/group/phys_higgs/hbb/ntuples/VHbbPostNano/2018/V12/DYJetsToLL_M-50_HT-200to400_TuneCP5_PSweights_13TeV-madgraphMLM-pythia8/698ee81eeff54bdc5d1d57129ea5ebd8cf05c91f711e13410467d3e6/000000_000000/0000/tree_22.root
/store/group/phys_higgs/hbb/ntuples/VHbbPostNano/2018/V12/DYJetsToLL_M-50_HT-200to400_TuneCP5_PSweights_13TeV-madgraphMLM-pythia8/5e8f959a2f673842158aa91df375912eff12605ce29d96d0ea746010/000000_000000/0000/tree_23.root
/store/group/phys_higgs/hbb/ntuples/VHbbPostNano/2018/V12/DYJetsToLL_M-50_HT-200to400_TuneCP5_PSweights_13TeV-madgraphMLM-pythia8/8bffcc0cfe866040bd9754e88d1704baeb1498df62f5995eb6a7a681/000000_000000/0000/tree_24.root
/store/group/phys_higgs/hbb/ntuples/VHbbPostNano/2018/V12/DYJetsToLL_M-50_HT-200to400_TuneCP5_PSweights_13TeV-madgraphMLM-pythia8/2328c5f5342e66846a0aa5286c2a4fadc061292c05612a395244b394/000000_000000/0000/tree_25.root
/store/group/phys_higgs/hbb/ntuples/VHbbPostNano/2018/V12/DYJetsToLL_M-50_HT-200to400_TuneCP5_PSweights_13TeV-madgraphMLM-pythia8/04acbeed4d74b64488cb49a8eef51424c7a2f0dbe6ea5aabbeab49ad/000000_000000/0000/tree_26.root
/store/group/phys_higgs/hbb/ntuples/VHbbPostNano/2018/V12/DYJetsToLL_M-50_HT-200to400_TuneCP5_PSweights_13TeV-madgraphMLM-pythia8/555105af502a27d1f815e3463c405a2fdfc276e3bdbcaf347326d6d9/000000_000000/0000/tree_27.root
/store/group/phys_higgs/hbb/ntuples/VHbbPostNano/2018/V12/DYJetsToLL_M-50_HT-200to400_TuneCP5_PSweights_13TeV-madgraphMLM-pythia8/5d67e633d46314cd1ac6a4670524ce14e5d10d97efd8a70c668cc6f7/000000_000000/0000/tree_28.root
/store/group/phys_higgs/hbb/ntuples/VHbbPostNano/2018/V12/DYJetsToLL_M-50_HT-200to400_TuneCP5_PSweights_13TeV-madgraphMLM-pythia8/c7debcf163bbe370294a6f4c4d0df5cd0b7892bb26c92c32531a84d0/000000_000000/0000/tree_29.root
/store/group/phys_higgs/hbb/ntuples/VHbbPostNano/2018/V12/DYJetsToLL_M-50_HT-200to400_TuneCP5_PSweights_13TeV-madgraphMLM-pythia8/80322cc3484604608c6889719b70f0e354d61833fc95d2e58c2fbbfd/000000_000000/0000/tree_30.root
/store/group/phys_higgs/hbb/ntuples/VHbbPostNano/2018/V12/DYJetsToLL_M-50_HT-200to400_TuneCP5_PSweights_13TeV-madgraphMLM-pythia8/0504c82c4ceadb3571a6530884c0c8a46efd7ce94e516fb2c0a466a7/000000_000000/0000/tree_31.root
/store/group/phys_higgs/hbb/ntuples/VHbbPostNano/2018/V12/DYJetsToLL_M-50_HT-200to400_TuneCP5_PSweights_13TeV-madgraphMLM-pythia8/881b25416755c52f09e4f6ddd30717d35df24487e96b9defffec8c04/000000_000000/0000/tree_32.root
/store/group/phys_higgs/hbb/ntuples/VHbbPostNano/2018/V12/DYJetsToLL_M-50_HT-200to400_TuneCP5_PSweights_13TeV-madgraphMLM-pythia8/c3da9af0799e25bb12566a01940a78e8b95389b641c48fe5e6602071/000000_000000/0000/tree_33.root
/store/group/phys_higgs/hbb/ntuples/VHbbPostNano/2018/V12/DYJetsToLL_M-50_HT-200to400_TuneCP5_PSweights_13TeV-madgraphMLM-pythia8/1cdef1b4a57b5d882c0deda1e8e0b2902a696db4ecf2e9818b3f5f4e/000000_000000/0000/tree_34.root
/store/group/phys_higgs/hbb/ntuples/VHbbPostNano/2018/V12/DYJetsToLL_M-50_HT-200to400_TuneCP5_PSweights_13TeV-madgraphMLM-pythia8/7a213946fe4c0342ac2562daffde1880c1b7b3acd2e0dfb18bd5d856/000000_000000/0000/tree_35.root
/store/group/phys_higgs/hbb/ntuples/VHbbPostNano/2018/V12/DYJetsToLL_M-50_HT-200to400_TuneCP5_PSweights_13TeV-madgraphMLM-pythia8/6791027153ff9d820d4d408b8924234486bbb9cc5e9362755e3f54b0/000000_000000/0000/tree_36.root
/store/group/phys_higgs/hbb/ntuples/VHbbPostNano/2018/V12/DYJetsToLL_M-50_HT-200to400_TuneCP5_PSweights_13TeV-madgraphMLM-pythia8/df321c0a75228d625191abe5b6899c587e5aa1eea52044b081dd0682/000000_000000/0000/tree_37.root
/store/group/phys_higgs/hbb/ntuples/VHbbPostNano/2018/V12/DYJetsToLL_M-50_HT-200to400_TuneCP5_PSweights_13TeV-madgraphMLM-pythia8/159beccc7c90081e1693bd282f984a24b6b1da1ef5a473855439c456/000000_000000/0000/tree_38.root
/store/group/phys_higgs/hbb/ntuples/VHbbPostNano/2018/V12/DYJetsToLL_M-50_HT-200to400_TuneCP5_PSweights_13TeV-madgraphMLM-pythia8/9c32b5e93eadb8cc941f496b406fd32526e3a013ae8f64dc1a606c5f/000000_000000/0000/tree_39.root
/store/group/phys_higgs/hbb/ntuples/VHbbPostNano/2018/V12/DYJetsToLL_M-50_HT-200to400_TuneCP5_PSweights_13TeV-madgraphMLM-pythia8/88df0a34cf6c011aaff4ff1243da726b6b7aab1e291e52fbbecd29db/000000_000000/0000/tree_40.root
/store/group/phys_higgs/hbb/ntuples/VHbbPostNano/2018/V12/DYJetsToLL_M-50_HT-200to400_TuneCP5_PSweights_13TeV-madgraphMLM-pythia8/528b40fa74a2423cb6d0f877c615527d5f7a928a24e23a6bf34d5f25/000000_000000/0000/tree_41.root
/store/group/phys_higgs/hbb/ntuples/VHbbPostNano/2018/V12/DYJetsToLL_M-50_HT-200to400_TuneCP5_PSweights_13TeV-madgraphMLM-pythia8/e5652baa5e45c3d7cd471a0a82cb56c2f7a2177b61ded88fa3f7599b/000000_000000/0000/tree_42.root
/store/group/phys_higgs/hbb/ntuples/VHbbPostNano/2018/V12/DYJetsToLL_M-50_HT-200to400_TuneCP5_PSweights_13TeV-madgraphMLM-pythia8/dbf58fdfe30049db1509a9d36e19c4cc2e15946fc4a9e06b61116593/000000_000000/0000/tree_43.root