/store/group/phys_higgs/hbb/ntuples/VHbbPostNano/2018/V12/ZZTo2L2Q_13TeV_amcatnloFXFX_madspin_pythia8/b6dcd3fcdbe44987d9b5614cf1d4e2c7099470d23c08647f07136a84/000000_000000/0000/tree_0.root
/store/group/phys_higgs/hbb/ntuples/VHbbPostNano/2018/V12/ZZTo2L2Q_13TeV_amcatnloFXFX_madspin_pythia8/deacc35c5221181e2eba745a67323ba50ee971363d3cc761dd4956d0/000000_000000/0000/tree_1.root
/store/group/phys_higgs/hbb/ntuples/VHbbPostNano/2018/V12/ZZTo2L2Q_13TeV_amcatnloFXFX_madspin_pythia8/03a39b6e9b48205ffe980ddf03fda86f7bded740e7319d13f00ac1fe/000000_000000/0000/tree_2.root
/store/group/phys_higgs/hbb/ntuples/VHbbPostNano/2018/V12/ZZTo2L2Q_13TeV_amcatnloFXFX_madspin_pythia8/38121e8ba6e17e8665df1eaaab08853302b2325ace868dd97c5edbee/000000_000000/0000/tree_3.root
/store/group/phys_higgs/hbb/ntuples/VHbbPostNano/2018/V12/ZZTo2L2Q_13TeV_amcatnloFXFX_madspin_pythia8/98138cf7a97d3e10220b711877f2c296a7b4d2a772ffc557d80f0d21/000000_000000/0000/tree_4.root
/store/group/phys_higgs/hbb/ntuples/VHbbPostNano/2018/V12/ZZTo2L2Q_13TeV_amcatnloFXFX_madspin_pythia8/e8ca7bd7359b7a13a47659ffc811434c86f60ad8cc7b0ecda9b5fb17/000000_000000/0000/tree_5.root
/store/group/phys_higgs/hbb/ntuples/VHbbPostNano/2018/V12/ZZTo2L2Q_13TeV_amcatnloFXFX_madspin_pythia8/34f68a67eb2494362f22bb326f90d96b0c70c6f49815b5ca1a0c64c2/000000_000000/0000/tree_6.root
/store/group/phys_higgs/hbb/ntuples/VHbbPostNano/2018/V12/ZZTo2L2Q_13TeV_amcatnloFXFX_madspin_pythia8/5f9ef44628f729bd71121d274fee1290b73afb411ef5a03f51cbaff2/000000_000000/0000/tree_7.root
/store/group/phys_higgs/hbb/ntuples/VHbbPostNano/2018/V12/ZZTo2L2Q_13TeV_amcatnloFXFX_madspin_pythia8/12e35011a969ba982578932ddacbdfc9e1cafa3959475cc06e17758d/000000_000000/0000/tree_8.root
/store/group/phys_higgs/hbb/ntuples/VHbbPostNano/2018/V12/ZZTo2L2Q_13TeV_amcatnloFXFX_madspin_pythia8/0832cb80441e689271041a37ec67a5ed3b2847425179286f16cfd30d/000000_000000/0000/tree_9.root
/store/group/phys_higgs/hbb/ntuples/VHbbPostNano/2018/V12/ZZTo2L2Q_13TeV_amcatnloFXFX_madspin_pythia8/9a0b8e17ae0af67857066070d79eb77294b43cfc472c1daceaedf78b/000000_000000/0000/tree_10.root
/store/group/phys_higgs/hbb/ntuples/VHbbPostNano/2018/V12/ZZTo2L2Q_13TeV_amcatnloFXFX_madspin_pythia8/4e226d3e9acf18388d782afa463283e9d387d2c7002ef5c1311ed88e/000000_000000/0000/tree_11.root
/store/group/phys_higgs/hbb/ntuples/VHbbPostNano/2018/V12/ZZTo2L2Q_13TeV_amcatnloFXFX_madspin_pythia8/83ab5eb1df681fc4a55ac64cb1ea2bd6a25d15292c979423a87e5035/000000_000000/0000/tree_12.root
/store/group/phys_higgs/hbb/ntuples/VHbbPostNano/2018/V12/ZZTo2L2Q_13TeV_amcatnloFXFX_madspin_pythia8/5bb243ce9ff581bbf7c2485d093c924c32f1d7553f02f1be39e45d71/000000_000000/0000/tree_13.root
/store/group/phys_higgs/hbb/ntuples/VHbbPostNano/2018/V12/ZZTo2L2Q_13TeV_amcatnloFXFX_madspin_pythia8/d79c9cc6930f5bb350c8ac96e3210d7909681605fe7a277fc0925ed7/000000_000000/0000/tree_14.root
/store/group/phys_higgs/hbb/ntuples/VHbbPostNano/2018/V12/ZZTo2L2Q_13TeV_amcatnloFXFX_madspin_pythia8/422d17a12d69f55ffb8e441bdfa6494d8047b9cfb8226005785db18e/000000_000000/0000/tree_15.root
/store/group/phys_higgs/hbb/ntuples/VHbbPostNano/2018/V12/ZZTo2L2Q_13TeV_amcatnloFXFX_madspin_pythia8/373aa77f5766a1853372a4f58e7fbfcafe4ba96f301f83704985c138/000000_000000/0000/tree_16.root
/store/group/phys_higgs/hbb/ntuples/VHbbPostNano/2018/V12/ZZTo2L2Q_13TeV_amcatnloFXFX_madspin_pythia8/fba36400bd1a2f4c20cd8feeb5537d3659f78a3348eb38e5d4b0a153/000000_000000/0000/tree_17.root
/store/group/phys_higgs/hbb/ntuples/VHbbPostNano/2018/V12/ZZTo2L2Q_13TeV_amcatnloFXFX_madspin_pythia8/feec29887f0011d77f70781359f46596fc6f6fb1ddae28dd66414469/000000_000000/0000/tree_18.root
/store/group/phys_higgs/hbb/ntuples/VHbbPostNano/2018/V12/ZZTo2L2Q_13TeV_amcatnloFXFX_madspin_pythia8/e2f42bc52ffd7970ccedb7d179282a6f449a6a4c75be87a7493cec17/000000_000000/0000/tree_19.root
/store/group/phys_higgs/hbb/ntuples/VHbbPostNano/2018/V12/ZZTo2L2Q_13TeV_amcatnloFXFX_madspin_pythia8/e632ab436d51f58850ba97c504c2e3b6fc9e7e1d8d4a67146e893738/000000_000000/0000/tree_20.root
/store/group/phys_higgs/hbb/ntuples/VHbbPostNano/2018/V12/ZZTo2L2Q_13TeV_amcatnloFXFX_madspin_pythia8/506a9a99525d752bb175a18228f21638c806c31363186c255f61f510/000000_000000/0000/tree_21.root
/store/group/phys_higgs/hbb/ntuples/VHbbPostNano/2018/V12/ZZTo2L2Q_13TeV_amcatnloFXFX_madspin_pythia8/7d110910e570ed6fb87bd8d562f4995be15b2e40f5d6beaaf96ad83c/000000_000000/0000/tree_22.root
/store/group/phys_higgs/hbb/ntuples/VHbbPostNano/2018/V12/ZZTo2L2Q_13TeV_amcatnloFXFX_madspin_pythia8/94fcab9985fbc9dbd8dc0f05cf9efb0a8580cec43806ff86bab0d472/000000_000000/0000/tree_23.root
/store/group/phys_higgs/hbb/ntuples/VHbbPostNano/2018/V12/ZZTo2L2Q_13TeV_amcatnloFXFX_madspin_pythia8/df23aa2b2aee5492ec71761f8e7efff0221dc7706dff9c2d0a8b5364/000000_000000/0000/tree_24.root
/store/group/phys_higgs/hbb/ntuples/VHbbPostNano/2018/V12/ZZTo2L2Q_13TeV_amcatnloFXFX_madspin_pythia8/741bb2869cd9866cd91c6803f4edbc6c495242dd8c4a11d8a5fd46a8/000000_000000/0000/tree_25.root
/store/group/phys_higgs/hbb/ntuples/VHbbPostNano/2018/V12/ZZTo2L2Q_13TeV_amcatnloFXFX_madspin_pythia8/83c98964d7c6d1ffb4d2fb1f52d013ce51425bb084e62c6846b6330c/000000_000000/0000/tree_26.root
/store/group/phys_higgs/hbb/ntuples/VHbbPostNano/2018/V12/ZZTo2L2Q_13TeV_amcatnloFXFX_madspin_pythia8/54913c439d5ffe55474b92ceb0bbf1fb81699d380116ffde85e3e35a/000000_000000/0000/tree_27.root
/store/group/phys_higgs/hbb/ntuples/VHbbPostNano/2018/V12/ZZTo2L2Q_13TeV_amcatnloFXFX_madspin_pythia8/4fe155f9c60963724e8f6e21deb43f12c8384d793f0fdfad63181ddd/000000_000000/0000/tree_28.root
/store/group/phys_higgs/hbb/ntuples/VHbbPostNano/2018/V12/ZZTo2L2Q_13TeV_amcatnloFXFX_madspin_pythia8/c6a8e6b0c75ef6bafcdfe49e3ad58990a64930df7486dac163002c66/000000_000000/0000/tree_29.root
/store/group/phys_higgs/hbb/ntuples/VHbbPostNano/2018/V12/ZZTo2L2Q_13TeV_amcatnloFXFX_madspin_pythia8/cd596f745a02fcdf3dea04db19451a0c4c05cd738ef4cec42855ecb1/000000_000000/0000/tree_30.root
/store/group/phys_higgs/hbb/ntuples/VHbbPostNano/2018/V12/ZZTo2L2Q_13TeV_amcatnloFXFX_madspin_pythia8/5b6a229ed6ef1443221398129241b5423d8609e46e44cd6a344cebfa/000000_000000/0000/tree_31.root
/store/group/phys_higgs/hbb/ntuples/VHbbPostNano/2018/V12/ZZTo2L2Q_13TeV_amcatnloFXFX_madspin_pythia8/dcfd4705bbaba66e9e3755cbb8b1c709abde892289a0fc34298c0e74/000000_000000/0000/tree_32.root
/store/group/phys_higgs/hbb/ntuples/VHbbPostNano/2018/V12/ZZTo2L2Q_13TeV_amcatnloFXFX_madspin_pythia8/dd3771b7497c9b91bc46df20553f122ae393b787991d6a8c9d7c6f63/000000_000000/0000/tree_33.root
/store/group/phys_higgs/hbb/ntuples/VHbbPostNano/2018/V12/ZZTo2L2Q_13TeV_amcatnloFXFX_madspin_pythia8/1c427521608a72c4b43f167e406a357f3d72ad3031bbc8dcf54a3b4a/000000_000000/0000/tree_34.root
/store/group/phys_higgs/hbb/ntuples/VHbbPostNano/2018/V12/ZZTo2L2Q_13TeV_amcatnloFXFX_madspin_pythia8/920fdb874f2d45226b604ecbad7ce19289f695b6966f75d517195edf/000000_000000/0000/tree_35.root
/store/group/phys_higgs/hbb/ntuples/VHbbPostNano/2018/V12/ZZTo2L2Q_13TeV_amcatnloFXFX_madspin_pythia8/7d1212777583af7678b241a7c42c69231483271e2a9864cc80a32ea7/000000_000000/0000/tree_36.root
/store/group/phys_higgs/hbb/ntuples/VHbbPostNano/2018/V12/ZZTo2L2Q_13TeV_amcatnloFXFX_madspin_pythia8/a0eece8805531eacf5ce691bca1b75d8521c852b67827cf891a73c52/000000_000000/0000/tree_37.root
/store/group/phys_higgs/hbb/ntuples/VHbbPostNano/2018/V12/ZZTo2L2Q_13TeV_amcatnloFXFX_madspin_pythia8/cbd89d68387ef236ecb5c32ab6363c288670c391e622cf32a40f5424/000000_000000/0000/tree_38.root
/store/group/phys_higgs/hbb/ntuples/VHbbPostNano/2018/V12/ZZTo2L2Q_13TeV_amcatnloFXFX_madspin_pythia8/92bb1d6be2a3307a24170facf4ad1c7a74f414479d10b64add265a81/000000_000000/0000/tree_39.root
/store/group/phys_higgs/hbb/ntuples/VHbbPostNano/2018/V12/ZZTo2L2Q_13TeV_amcatnloFXFX_madspin_pythia8/3ba868c22fe0dac4929875dbb326f186177b8a3d2cf23dafd87477f7/000000_000000/0000/tree_40.root
/store/group/phys_higgs/hbb/ntuples/VHbbPostNano/2018/V12/ZZTo2L2Q_13TeV_amcatnloFXFX_madspin_pythia8/1d0be9a825cec9124aedbc31a50b3bb4c7191192dcec455f5f2a66e6/000000_000000/0000/tree_41.root
/store/group/phys_higgs/hbb/ntuples/VHbbPostNano/2018/V12/ZZTo2L2Q_13TeV_amcatnloFXFX_madspin_pythia8/8fb37d204629202b6d8e1b533711e81f312dc8873a6c749d3cf6d537/000000_000000/0000/tree_42.root
/store/group/phys_higgs/hbb/ntuples/VHbbPostNano/2018/V12/ZZTo2L2Q_13TeV_amcatnloFXFX_madspin_pythia8/3602a3ec7f7b32e8e1cf001ceb836d3b03c84341442fb872c7ed9883/000000_000000/0000/tree_43.root
/store/group/phys_higgs/hbb/ntuples/VHbbPostNano/2018/V12/ZZTo2L2Q_13TeV_amcatnloFXFX_madspin_pythia8/83f7fc12df116e1c634bdb5f3d9f72c1b4ae0a4be1a25666b18e5ede/000000_000000/0000/tree_44.root
/store/group/phys_higgs/hbb/ntuples/VHbbPostNano/2018/V12/ZZTo2L2Q_13TeV_amcatnloFXFX_madspin_pythia8/bfc769dcd59f33631245d8ef5df1c96d8806dfe2bd37d3ea24380b7f/000000_000000/0000/tree_45.root
/store/group/phys_higgs/hbb/ntuples/VHbbPostNano/2018/V12/ZZTo2L2Q_13TeV_amcatnloFXFX_madspin_pythia8/6b766cc74b64b37d36effd396823feb4b0c60af0f5e455754fd7b8cb/000000_000000/0000/tree_46.root
/store/group/phys_higgs/hbb/ntuples/VHbbPostNano/2018/V12/ZZTo2L2Q_13TeV_amcatnloFXFX_madspin_pythia8/9b3f21bb89db1a18f0ac39cc9b7f9932a914b16820b23eb083acc30f/000000_000000/0000/tree_47.root
/store/group/phys_higgs/hbb/ntuples/VHbbPostNano/2018/V12/ZZTo2L2Q_13TeV_amcatnloFXFX_madspin_pythia8/5934cee388f089d969559e645f5a9d7c81164ee5e1b1c6d9872106aa/000000_000000/0000/tree_48.root
/store/group/phys_higgs/hbb/ntuples/VHbbPostNano/2018/V12/ZZTo2L2Q_13TeV_amcatnloFXFX_madspin_pythia8/eb153a144f70a2af71a0479bde39b0d8541df4c8d9d6ff4a75e2e945/000000_000000/0000/tree_49.root
/store/group/phys_higgs/hbb/ntuples/VHbbPostNano/2018/V12/ZZTo2L2Q_13TeV_amcatnloFXFX_madspin_pythia8/e35c04d0f6d4959f606e39865bdadb695a54387b208b9c3cdec095e2/000000_000000/0000/tree_50.root
/store/group/phys_higgs/hbb/ntuples/VHbbPostNano/2018/V12/ZZTo2L2Q_13TeV_amcatnloFXFX_madspin_pythia8/2026ea97a8186bba3919ed53e16476532088243ef0ae8453865a0dee/000000_000000/0000/tree_51.root
/store/group/phys_higgs/hbb/ntuples/VHbbPostNano/2018/V12/ZZTo2L2Q_13TeV_amcatnloFXFX_madspin_pythia8/d2f4de7a8af52dbb6ba1788f9ad6e0caec9ca4ff6aa5a25eb1396b02/000000_000000/0000/tree_52.root
/store/group/phys_higgs/hbb/ntuples/VHbbPostNano/2018/V12/ZZTo2L2Q_13TeV_amcatnloFXFX_madspin_pythia8/f24797674d1197fef5fead84a82bd81dfc52a84ecbe4b06848f07db8/000000_000000/0000/tree_53.root
/store/group/phys_higgs/hbb/ntuples/VHbbPostNano/2018/V12/ZZTo2L2Q_13TeV_amcatnloFXFX_madspin_pythia8/4cd7866fe5dbee0ba502d213904ea1f42320ecaecc0b5f8006ddd69c/000000_000000/0000/tree_54.root
/store/group/phys_higgs/hbb/ntuples/VHbbPostNano/2018/V12/ZZTo2L2Q_13TeV_amcatnloFXFX_madspin_pythia8/b7d151b4ad321e3c721a25d64d05957ef2d615601eb1fd1ee68c7c9c/000000_000000/0000/tree_55.root
/store/group/phys_higgs/hbb/ntuples/VHbbPostNano/2018/V12/ZZTo2L2Q_13TeV_amcatnloFXFX_madspin_pythia8/9263779252e2dfaf999c9f6a07dcad6537691e6fa4e61b0365dff067/000000_000000/0000/tree_56.root
/store/group/phys_higgs/hbb/ntuples/VHbbPostNano/2018/V12/ZZTo2L2Q_13TeV_amcatnloFXFX_madspin_pythia8/f2ff8ec469c9c8b1e8d0a048fd5cfb0835d5d4daa2410c34ca290dde/000000_000000/0000/tree_57.root
/store/group/phys_higgs/hbb/ntuples/VHbbPostNano/2018/V12/ZZTo2L2Q_13TeV_amcatnloFXFX_madspin_pythia8/682ebea4415f83bbfd69cae0ae71ea2335d8df11523bf7c1ba7d2ccc/000000_000000/0000/tree_58.root
/store/group/phys_higgs/hbb/ntuples/VHbbPostNano/2018/V12/ZZTo2L2Q_13TeV_amcatnloFXFX_madspin_pythia8/e32df39ae71b428dc1acdd87574852197a26fd89e6bf1b3e1f6d9c0c/000000_000000/0000/tree_59.root
/store/group/phys_higgs/hbb/ntuples/VHbbPostNano/2018/V12/ZZTo2L2Q_13TeV_amcatnloFXFX_madspin_pythia8/cf2e484cd5ff25ee44df5f8e89187b4055dfa413748b5e2a9ac2fb60/000000_000000/0000/tree_60.root
/store/group/phys_higgs/hbb/ntuples/VHbbPostNano/2018/V12/ZZTo2L2Q_13TeV_amcatnloFXFX_madspin_pythia8/a35b2bae7afb2a12e7e74f753c76f2375f08fd3e2d6f0085fb25578f/000000_000000/0000/tree_61.root
/store/group/phys_higgs/hbb/ntuples/VHbbPostNano/2018/V12/ZZTo2L2Q_13TeV_amcatnloFXFX_madspin_pythia8/bc400b4f95689ea4e7307f8e3f57da4d07a0a3cbe79df953d23f6399/000000_000000/0000/tree_62.root
/store/group/phys_higgs/hbb/ntuples/VHbbPostNano/2018/V12/ZZTo2L2Q_13TeV_amcatnloFXFX_madspin_pythia8/bf89f49ed9898a93be82d65dc739536e43511da616d8f015715b01a4/000000_000000/0000/tree_63.root
/store/group/phys_higgs/hbb/ntuples/VHbbPostNano/2018/V12/ZZTo2L2Q_13TeV_amcatnloFXFX_madspin_pythia8/6050baab093c7801fb4c7b16defe6fd943f3a69e402de296ab71f2b5/000000_000000/0000/tree_64.root
/store/group/phys_higgs/hbb/ntuples/VHbbPostNano/2018/V12/ZZTo2L2Q_13TeV_amcatnloFXFX_madspin_pythia8/db6e37ad9ca0898bb3945e02deaf3f1bc1c93203d0f5a779240d1abe/000000_000000/0000/tree_65.root
/store/group/phys_higgs/hbb/ntuples/VHbbPostNano/2018/V12/ZZTo2L2Q_13TeV_amcatnloFXFX_madspin_pythia8/81bfca440aaaa93fa316cb8d7dd7dc7d4577a7b62b56edeb0411f469/000000_000000/0000/tree_66.root
/store/group/phys_higgs/hbb/ntuples/VHbbPostNano/2018/V12/ZZTo2L2Q_13TeV_amcatnloFXFX_madspin_pythia8/a854ca623d7719759928c7c29d8ce703ee988694a2cbbebc88ad8e4c/000000_000000/0000/tree_67.root
/store/group/phys_higgs/hbb/ntuples/VHbbPostNano/2018/V12/ZZTo2L2Q_13TeV_amcatnloFXFX_madspin_pythia8/2f885c26c1d4990844377a44d7cb45c7ced71465a1a8508b4d788dfe/000000_000000/0000/tree_68.root
/store/group/phys_higgs/hbb/ntuples/VHbbPostNano/2018/V12/ZZTo2L2Q_13TeV_amcatnloFXFX_madspin_pythia8/89df2a6a315123159d55286138660a4ab47fe106efd684938e5e01c7/000000_000000/0000/tree_69.root
/store/group/phys_higgs/hbb/ntuples/VHbbPostNano/2018/V12/ZZTo2L2Q_13TeV_amcatnloFXFX_madspin_pythia8/68c143bca0316f3edc52c35494389c2495d0389cafbad56b2145528c/000000_000000/0000/tree_70.root
/store/group/phys_higgs/hbb/ntuples/VHbbPostNano/2018/V12/ZZTo2L2Q_13TeV_amcatnloFXFX_madspin_pythia8/9eab66ebeb315d9efb81a3003ce7c391db3fdaa806b0910953ed27fb/000000_000000/0000/tree_71.root
/store/group/phys_higgs/hbb/ntuples/VHbbPostNano/2018/V12/ZZTo2L2Q_13TeV_amcatnloFXFX_madspin_pythia8/15c3e712e7cd83cc4c7762dfdf59f7a4dfa032777e61ca965fb4d7d7/000000_000000/0000/tree_72.root
/store/group/phys_higgs/hbb/ntuples/VHbbPostNano/2018/V12/ZZTo2L2Q_13TeV_amcatnloFXFX_madspin_pythia8/f9ac38ab86b9f8b775ec886165af1cbf2f148989839687d77e7bffc1/000000_000000/0000/tree_73.root
/store/group/phys_higgs/hbb/ntuples/VHbbPostNano/2018/V12/ZZTo2L2Q_13TeV_amcatnloFXFX_madspin_pythia8/8b2c1723e330fe78ab93fe5ca588d5ed24d3ed7ed85d9940e01dfb3d/000000_000000/0000/tree_74.root
/store/group/phys_higgs/hbb/ntuples/VHbbPostNano/2018/V12/ZZTo2L2Q_13TeV_amcatnloFXFX_madspin_pythia8/8bdb14fa6bcf2a4eac4515f8d8599f7e85c87ed63b1cd89b2605a710/000000_000000/0000/tree_75.root
/store/group/phys_higgs/hbb/ntuples/VHbbPostNano/2018/V12/ZZTo2L2Q_13TeV_amcatnloFXFX_madspin_pythia8/562b8d7f226488c40de8db8065d9989be0574cabbc3117b43adab812/000000_000000/0000/tree_76.root
/store/group/phys_higgs/hbb/ntuples/VHbbPostNano/2018/V12/ZZTo2L2Q_13TeV_amcatnloFXFX_madspin_pythia8/ac155593902f3d33c5b92ebf0af8e1e98f5bf18a32584d624607305c/000000_000000/0000/tree_77.root
/store/group/phys_higgs/hbb/ntuples/VHbbPostNano/2018/V12/ZZTo2L2Q_13TeV_amcatnloFXFX_madspin_pythia8/810d9eed7c9f5595a5d47ec954812cd804d4170e876f8fc7d4a932b3/000000_000000/0000/tree_78.root
/store/group/phys_higgs/hbb/ntuples/VHbbPostNano/2018/V12/ZZTo2L2Q_13TeV_amcatnloFXFX_madspin_pythia8/c9ab8074c9f81a102175fe1115996ecc7790542bbb44200eeb9764f5/000000_000000/0000/tree_79.root
/store/group/phys_higgs/hbb/ntuples/VHbbPostNano/2018/V12/ZZTo2L2Q_13TeV_amcatnloFXFX_madspin_pythia8/eb0e878fcdf4e1859cb5f839024c21b64ff7b94c2c235c76da3e99c8/000000_000000/0000/tree_80.root
/store/group/phys_higgs/hbb/ntuples/VHbbPostNano/2018/V12/ZZTo2L2Q_13TeV_amcatnloFXFX_madspin_pythia8/945591dc5bdd3c0a31848ca1165a634862215d02833bee5fdc8bd875/000000_000000/0000/tree_81.root
/store/group/phys_higgs/hbb/ntuples/VHbbPostNano/2018/V12/ZZTo2L2Q_13TeV_amcatnloFXFX_madspin_pythia8/e2a6215c0cc59b3f967ee0992fb467bb95bbf313ddf8669a3b2f8704/000000_000000/0000/tree_82.root
/store/group/phys_higgs/hbb/ntuples/VHbbPostNano/2018/V12/ZZTo2L2Q_13TeV_amcatnloFXFX_madspin_pythia8/7fd2a06edcebe7b70d46fdf098735a2f0f1bb1829d7e9b762bc9afea/000000_000000/0000/tree_83.root
/store/group/phys_higgs/hbb/ntuples/VHbbPostNano/2018/V12/ZZTo2L2Q_13TeV_amcatnloFXFX_madspin_pythia8/1d1ee4379cb002daadfd0b8e4268a6162f3f8f614deab177326377ad/000000_000000/0000/tree_84.root
/store/group/phys_higgs/hbb/ntuples/VHbbPostNano/2018/V12/ZZTo2L2Q_13TeV_amcatnloFXFX_madspin_pythia8/586b83c6fd2d027b07a0417d75fb023fe76152b3856d1365b90b952d/000000_000000/0000/tree_85.root
/store/group/phys_higgs/hbb/ntuples/VHbbPostNano/2018/V12/ZZTo2L2Q_13TeV_amcatnloFXFX_madspin_pythia8/8747c32a15f428cc768f12cc1cb4b38c0667527f3c195d8ada0028ce/000000_000000/0000/tree_86.root
/store/group/phys_higgs/hbb/ntuples/VHbbPostNano/2018/V12/ZZTo2L2Q_13TeV_amcatnloFXFX_madspin_pythia8/e7ca51fe815704f3236b3b562cad97a4e72faff6e64700d87787303e/000000_000000/0000/tree_87.root
/store/group/phys_higgs/hbb/ntuples/VHbbPostNano/2018/V12/ZZTo2L2Q_13TeV_amcatnloFXFX_madspin_pythia8/f1631b3081c9b9396d2c961cb671be8a2168fb84f189fceadbc9b933/000000_000000/0000/tree_88.root
/store/group/phys_higgs/hbb/ntuples/VHbbPostNano/2018/V12/ZZTo2L2Q_13TeV_amcatnloFXFX_madspin_pythia8/4e40f768f6a2d3ce960b6b4c82681b080919d93c3615827ed6d1fba6/000000_000000/0000/tree_89.root
/store/group/phys_higgs/hbb/ntuples/VHbbPostNano/2018/V12/ZZTo2L2Q_13TeV_amcatnloFXFX_madspin_pythia8/675863e670827722ad304835834baf0cb3251159f905af5d6ab69bd0/000000_000000/0000/tree_90.root
/store/group/phys_higgs/hbb/ntuples/VHbbPostNano/2018/V12/ZZTo2L2Q_13TeV_amcatnloFXFX_madspin_pythia8/0b71ce0036865104b64ecec0e56d2958ef1f1f923ec9454e92afab5b/000000_000000/0000/tree_91.root
/store/group/phys_higgs/hbb/ntuples/VHbbPostNano/2018/V12/ZZTo2L2Q_13TeV_amcatnloFXFX_madspin_pythia8/69ead5f94f01dbc123eda98c76d21c1f3e5c1d37dbd2be616a65e330/000000_000000/0000/tree_92.root
/store/group/phys_higgs/hbb/ntuples/VHbbPostNano/2018/V12/ZZTo2L2Q_13TeV_amcatnloFXFX_madspin_pythia8/ddec98df26f2269260372cc9124885105f123fe77620b56d940e2104/000000_000000/0000/tree_93.root
/store/group/phys_higgs/hbb/ntuples/VHbbPostNano/2018/V12/ZZTo2L2Q_13TeV_amcatnloFXFX_madspin_pythia8/b3a354fa2294019ed318e2b026f9fd96fa96f69704254fe5de301296/000000_000000/0000/tree_94.root
/store/group/phys_higgs/hbb/ntuples/VHbbPostNano/2018/V12/ZZTo2L2Q_13TeV_amcatnloFXFX_madspin_pythia8/3b1c5a1379dc1550936f4d6267b3e813dd3ab22699c52cfea8e9bb16/000000_000000/0000/tree_95.root
/store/group/phys_higgs/hbb/ntuples/VHbbPostNano/2018/V12/ZZTo2L2Q_13TeV_amcatnloFXFX_madspin_pythia8/8923fc6c6462dac3afafbf4ef7e7c29ec2bfbeb9e5dcaca77dbd2e13/000000_000000/0000/tree_96.root
/store/group/phys_higgs/hbb/ntuples/VHbbPostNano/2018/V12/ZZTo2L2Q_13TeV_amcatnloFXFX_madspin_pythia8/15371ffbc84fa9acfa71bee43437cedb82b1d14390cb385b22e3e78b/000000_000000/0000/tree_97.root
/store/group/phys_higgs/hbb/ntuples/VHbbPostNano/2018/V12/ZZTo2L2Q_13TeV_amcatnloFXFX_madspin_pythia8/e5d926688e008cef48ac853bd47ef6cf2cfc7a21f4de7130a866f1ea/000000_000000/0000/tree_98.root
/store/group/phys_higgs/hbb/ntuples/VHbbPostNano/2018/V12/ZZTo2L2Q_13TeV_amcatnloFXFX_madspin_pythia8/da49707882cb4b0e622da1ccac28eabcd561faa498ce6c3f13c44d3e/000000_000000/0000/tree_99.root
/store/group/phys_higgs/hbb/ntuples/VHbbPostNano/2018/V12/ZZTo2L2Q_13TeV_amcatnloFXFX_madspin_pythia8/e9386b4ddf0db0068d58001cf4b4205d0612e7e14b4698b5e18f0199/000000_000000/0000/tree_100.root
/store/group/phys_higgs/hbb/ntuples/VHbbPostNano/2018/V12/ZZTo2L2Q_13TeV_amcatnloFXFX_madspin_pythia8/2da108fc4447b286fd79a1ae26e347fcc87c58222badee2a6bc47f9c/000000_000000/0000/tree_101.root
/store/group/phys_higgs/hbb/ntuples/VHbbPostNano/2018/V12/ZZTo2L2Q_13TeV_amcatnloFXFX_madspin_pythia8/ce8bfd53b48bbee8f7ac95b063a6eead5759bc3d4062930cfb228d7f/000000_000000/0000/tree_102.root
/store/group/phys_higgs/hbb/ntuples/VHbbPostNano/2018/V12/ZZTo2L2Q_13TeV_amcatnloFXFX_madspin_pythia8/a92ef6a39e1d607973ce8f5cafec76e0c1ef97bac5bee7c28bf74ef7/000000_000000/0000/tree_103.root
/store/group/phys_higgs/hbb/ntuples/VHbbPostNano/2018/V12/ZZTo2L2Q_13TeV_amcatnloFXFX_madspin_pythia8/2d037fa98a68fa8f5aebff7d39466af6cfe0cf55b7ac11b9b0c6e55b/000000_000000/0000/tree_104.root
/store/group/phys_higgs/hbb/ntuples/VHbbPostNano/2018/V12/ZZTo2L2Q_13TeV_amcatnloFXFX_madspin_pythia8/72292c16934801775c2b37026aab05a575f5426f11b557c23d405982/000000_000000/0000/tree_105.root
/store/group/phys_higgs/hbb/ntuples/VHbbPostNano/2018/V12/ZZTo2L2Q_13TeV_amcatnloFXFX_madspin_pythia8/e578fd8171f2b779bcf5ecbbc8cb604f765e98323e5f2aacba2394ea/000000_000000/0000/tree_106.root
/store/group/phys_higgs/hbb/ntuples/VHbbPostNano/2018/V12/ZZTo2L2Q_13TeV_amcatnloFXFX_madspin_pythia8/be79e5a1319592e97661a2a77e5897068647d3e1f8e85935af4c1d0b/000000_000000/0000/tree_107.root
/store/group/phys_higgs/hbb/ntuples/VHbbPostNano/2018/V12/ZZTo2L2Q_13TeV_amcatnloFXFX_madspin_pythia8/f237038b3d59ad9dc3b6e910f5848daa099f2d722eea0dab1e0aff61/000000_000000/0000/tree_108.root
/store/group/phys_higgs/hbb/ntuples/VHbbPostNano/2018/V12/ZZTo2L2Q_13TeV_amcatnloFXFX_madspin_pythia8/56000329664faee2b9d6b7edd023a2e52d9b51a3fbcf10a70f6ee44d/000000_000000/0000/tree_109.root
/store/group/phys_higgs/hbb/ntuples/VHbbPostNano/2018/V12/ZZTo2L2Q_13TeV_amcatnloFXFX_madspin_pythia8/4d3889dbb177d22cd6c9935498078976f712be154bb08817f6ea988d/000000_000000/0000/tree_110.root
/store/group/phys_higgs/hbb/ntuples/VHbbPostNano/2018/V12/ZZTo2L2Q_13TeV_amcatnloFXFX_madspin_pythia8/5dd35c97358edfa47c8980dd9a71da562280a455681aacbb95956b36/000000_000000/0000/tree_111.root
/store/group/phys_higgs/hbb/ntuples/VHbbPostNano/2018/V12/ZZTo2L2Q_13TeV_amcatnloFXFX_madspin_pythia8/ea23b9ba76cc2bc20f2bcec7cba073d809f5cd41a225c823788b0af7/000000_000000/0000/tree_112.root