/store/group/phys_higgs/hbb/ntuples/VHbbPostNano/2018/V11/DoubleMuon/6b2f6a5dc7cfd77df839b6da0324fa8a65e97957f7332d361e888e4d/000000_000000/0000/tree_0.root
/store/group/phys_higgs/hbb/ntuples/VHbbPostNano/2018/V11/DoubleMuon/e53982f3939a8daeed00484df6e250ad897ee29613de494a4ea64a00/000000_000000/0000/tree_1.root
/store/group/phys_higgs/hbb/ntuples/VHbbPostNano/2018/V11/DoubleMuon/e7a9e0567cc40ec5f07f08ac0a37a83c34cc4207fddf31d282c063fb/000000_000000/0000/tree_2.root
/store/group/phys_higgs/hbb/ntuples/VHbbPostNano/2018/V11/DoubleMuon/39b03c9f88c28dcfc9801ac496b73b90d0c54972c1bcd78e898a1fe2/000000_000000/0000/tree_3.root
/store/group/phys_higgs/hbb/ntuples/VHbbPostNano/2018/V11/DoubleMuon/d287f26ce9829cb7bd3c8cae99645f7478096aa6371659b57d85bab9/000000_000000/0000/tree_4.root
/store/group/phys_higgs/hbb/ntuples/VHbbPostNano/2018/V11/DoubleMuon/1ba41311fb622f38ba21ab45002ea36053c0fc8dbe78ba5130597343/000000_000000/0000/tree_5.root
/store/group/phys_higgs/hbb/ntuples/VHbbPostNano/2018/V11/DoubleMuon/50d19a4148c2f526f0a58cf8a4d901b2529722de9f7389d70c92fd9b/000000_000000/0000/tree_6.root
/store/group/phys_higgs/hbb/ntuples/VHbbPostNano/2018/V11/DoubleMuon/3df3e5c517d88d3e85e085aa06e8d7de93f5b5fa63eb640d453c4190/000000_000000/0000/tree_7.root
/store/group/phys_higgs/hbb/ntuples/VHbbPostNano/2018/V11/DoubleMuon/1734704faae079e87a8b0eac5077440cb48b80cc43fc501088a6e9cf/000000_000000/0000/tree_8.root
/store/group/phys_higgs/hbb/ntuples/VHbbPostNano/2018/V11/DoubleMuon/1e6eee1deadce120ca8e5448430567e89e6cdd4cc6ecaff54d51b5c0/000000_000000/0000/tree_9.root
/store/group/phys_higgs/hbb/ntuples/VHbbPostNano/2018/V11/DoubleMuon/2e7aac4c3c7a4d5107b0b98b2869aa90032f727cf18829665318db92/000000_000000/0000/tree_10.root
/store/group/phys_higgs/hbb/ntuples/VHbbPostNano/2018/V11/DoubleMuon/596cec22e7c2bb0c7de21f9425c225f1bf5f46b2352100b4108843df/000000_000000/0000/tree_11.root
/store/group/phys_higgs/hbb/ntuples/VHbbPostNano/2018/V11/DoubleMuon/b2bce09e1d54795545508c426aa52d229f50e6e950d97ec665607f7d/000000_000000/0000/tree_12.root
/store/group/phys_higgs/hbb/ntuples/VHbbPostNano/2018/V11/DoubleMuon/2cc568c98bc1efee1284add31c42676e2a2233fecd04df83c05e7f06/000000_000000/0000/tree_13.root
/store/group/phys_higgs/hbb/ntuples/VHbbPostNano/2018/V11/DoubleMuon/9a07f393ea205aabe3b1ce45e42eab2fecac0291ecbabb73d2bdd126/000000_000000/0000/tree_14.root
/store/group/phys_higgs/hbb/ntuples/VHbbPostNano/2018/V11/DoubleMuon/822062fdf333227fe5505560491b37349b56908635d6a0cdda4d08bb/000000_000000/0000/tree_15.root
/store/group/phys_higgs/hbb/ntuples/VHbbPostNano/2018/V11/DoubleMuon/9a6b53b19f8d7a0fa3d89541d78b1b5c57a00ea5d34d1f48fd007aff/000000_000000/0000/tree_16.root
/store/group/phys_higgs/hbb/ntuples/VHbbPostNano/2018/V11/DoubleMuon/a7530f120f8ee2547d36d6a4eba3c22a1dce10e456a7d38686a53932/000000_000000/0000/tree_17.root
/store/group/phys_higgs/hbb/ntuples/VHbbPostNano/2018/V11/DoubleMuon/bc4466f3630c9056b0ff556bdff6699c5a2d60e48a379a3efdf41f50/000000_000000/0000/tree_18.root
/store/group/phys_higgs/hbb/ntuples/VHbbPostNano/2018/V11/DoubleMuon/67aa86acefd52a48f1cb28575ff1e451f5d455c67fcdb8e57be4d179/000000_000000/0000/tree_19.root
/store/group/phys_higgs/hbb/ntuples/VHbbPostNano/2018/V11/DoubleMuon/00c0efa75d21e0ec62e734d17a07d187cc52eba64e28663846cf9ef0/000000_000000/0000/tree_20.root
/store/group/phys_higgs/hbb/ntuples/VHbbPostNano/2018/V11/DoubleMuon/557fa4b80b73934b00102b4d9dcd1cfd16e352beaadaf00eac12ba33/000000_000000/0000/tree_21.root
/store/group/phys_higgs/hbb/ntuples/VHbbPostNano/2018/V11/DoubleMuon/c6ca591d8e76ef0de989bff670fe0cda3e85033cc3743017b834c5f3/000000_000000/0000/tree_22.root
/store/group/phys_higgs/hbb/ntuples/VHbbPostNano/2018/V11/DoubleMuon/7bd64219cb60b80fe6f0419c1162d8d918ae3d26af24d5a4744b4d4e/000000_000000/0000/tree_23.root
/store/group/phys_higgs/hbb/ntuples/VHbbPostNano/2018/V11/DoubleMuon/7d7e0da09b599ec3703edfd6f03346b221918baeba6c58ea796bf371/000000_000000/0000/tree_24.root
/store/group/phys_higgs/hbb/ntuples/VHbbPostNano/2018/V11/DoubleMuon/35ca537ef101e20c5a609c9bdb578e1a54d24aa37b70df7923429121/000000_000000/0000/tree_25.root
/store/group/phys_higgs/hbb/ntuples/VHbbPostNano/2018/V11/DoubleMuon/e10739cb8e928c18a87e3c089ccccf83ddaa7fb943d8b63158fb92e7/000000_000000/0000/tree_26.root
/store/group/phys_higgs/hbb/ntuples/VHbbPostNano/2018/V11/DoubleMuon/609f9167cd4c0a44400a8d5a87ce1aae47dbf4cf1e7907b16af273c0/000000_000000/0000/tree_27.root
/store/group/phys_higgs/hbb/ntuples/VHbbPostNano/2018/V11/DoubleMuon/a73ce83bd1fe2c32f2ec61d30add563063421681a3d92b70266b9053/000000_000000/0000/tree_28.root
/store/group/phys_higgs/hbb/ntuples/VHbbPostNano/2018/V11/DoubleMuon/c007a06896984e8816ad5331f26eb3efa951997a97aef1f39b6bd035/000000_000000/0000/tree_29.root
/store/group/phys_higgs/hbb/ntuples/VHbbPostNano/2018/V11/DoubleMuon/f68a24fe64d273fddb769cd9d07b219174c177dae4e36005cff93fe7/000000_000000/0000/tree_30.root
/store/group/phys_higgs/hbb/ntuples/VHbbPostNano/2018/V11/DoubleMuon/36b95ac25799de419a35b37f1469388278440ff02b8f2b7e65469809/000000_000000/0000/tree_31.root
/store/group/phys_higgs/hbb/ntuples/VHbbPostNano/2018/V11/DoubleMuon/78393cdedaf6802ec7ee46e4e1fba574d0f9bb822f57766a8eb3afd6/000000_000000/0000/tree_32.root
/store/group/phys_higgs/hbb/ntuples/VHbbPostNano/2018/V11/DoubleMuon/4350575c357207d4d4a5f28c8663dd0ae75361257a6853bf7c09b898/000000_000000/0000/tree_33.root
/store/group/phys_higgs/hbb/ntuples/VHbbPostNano/2018/V11/DoubleMuon/6dd1bbad2368e413450f41b8f6ee988a946a547cb427b61068786928/000000_000000/0000/tree_34.root
/store/group/phys_higgs/hbb/ntuples/VHbbPostNano/2018/V11/DoubleMuon/aec80a93615ad3177bdfa08f342b1014d87ee49705bf610c60129ccd/000000_000000/0000/tree_35.root
/store/group/phys_higgs/hbb/ntuples/VHbbPostNano/2018/V11/DoubleMuon/a02e9b79eb16acdf73b165f1059f2b49bf5deba2c9f6535a08cb5da8/000000_000000/0000/tree_36.root
/store/group/phys_higgs/hbb/ntuples/VHbbPostNano/2018/V11/DoubleMuon/bbdd0fdcff5ada0dc6b2b70b686a06a76357efb5322748f0938236b4/000000_000000/0000/tree_37.root
/store/group/phys_higgs/hbb/ntuples/VHbbPostNano/2018/V11/DoubleMuon/03559484596d04040ab6dd4844582190acfab03efba560da6b4658e8/000000_000000/0000/tree_38.root
/store/group/phys_higgs/hbb/ntuples/VHbbPostNano/2018/V11/DoubleMuon/c011be24b4e02d311206500aefc7cda0855555a62937607336c3ac79/000000_000000/0000/tree_39.root
/store/group/phys_higgs/hbb/ntuples/VHbbPostNano/2018/V11/DoubleMuon/592b738f6e626e890b5b156ae6afbfe487e344214e8f5bb48548899f/000000_000000/0000/tree_40.root
/store/group/phys_higgs/hbb/ntuples/VHbbPostNano/2018/V11/DoubleMuon/4025682b83b800d7fa41913d997fe7f26b7d63ffef9927cb16474849/000000_000000/0000/tree_41.root
/store/group/phys_higgs/hbb/ntuples/VHbbPostNano/2018/V11/DoubleMuon/5af036b23b0a8ddeee310b47899642aec71fda15b302dc7b08056b4b/000000_000000/0000/tree_42.root
/store/group/phys_higgs/hbb/ntuples/VHbbPostNano/2018/V11/DoubleMuon/ae37bc25258087cc7c7dac121351413ea366e605b47d2f7735374aaf/000000_000000/0000/tree_43.root
/store/group/phys_higgs/hbb/ntuples/VHbbPostNano/2018/V11/DoubleMuon/0d65291b3757a63f5063db57cf218578fa9829ef46250c7c184e2665/000000_000000/0000/tree_44.root
/store/group/phys_higgs/hbb/ntuples/VHbbPostNano/2018/V11/DoubleMuon/3dd34b35fe82460c0a4fe44181ce3c07b7244eba37f746c3c7b722d9/000000_000000/0000/tree_45.root
/store/group/phys_higgs/hbb/ntuples/VHbbPostNano/2018/V11/DoubleMuon/b3304c583b561a074cd49f7286c03d403dfbc560d06b27a0880e4990/000000_000000/0000/tree_46.root
/store/group/phys_higgs/hbb/ntuples/VHbbPostNano/2018/V11/DoubleMuon/870d58bb98f3936c4476e1fbdb214e5a0fe28ee6cb337797da6d883e/000000_000000/0000/tree_47.root
/store/group/phys_higgs/hbb/ntuples/VHbbPostNano/2018/V11/DoubleMuon/4ad985ca9d3d5d114f975a241ce4a10400bd99f184b11091cfc06588/000000_000000/0000/tree_48.root
/store/group/phys_higgs/hbb/ntuples/VHbbPostNano/2018/V11/DoubleMuon/6ec3add68d7aabe909f5d2899bc8c3641e812725af3503aec3543606/000000_000000/0000/tree_49.root
/store/group/phys_higgs/hbb/ntuples/VHbbPostNano/2018/V11/DoubleMuon/98c1827e1732eac2b3d98216a814e27efcae9d77fdd15a7abf1a7ed6/000000_000000/0000/tree_50.root
/store/group/phys_higgs/hbb/ntuples/VHbbPostNano/2018/V11/DoubleMuon/e4f579277e1c72cd9f121913bf621a9710487b960848e55ccaab593b/000000_000000/0000/tree_51.root
/store/group/phys_higgs/hbb/ntuples/VHbbPostNano/2018/V11/DoubleMuon/431b578253d7b3c910224c7ab835a5c5719a2952d81e5e018b99ba3e/000000_000000/0000/tree_52.root
/store/group/phys_higgs/hbb/ntuples/VHbbPostNano/2018/V11/DoubleMuon/89d9dc039f2368291e948772121dab8711418621737b70a6b34a054b/000000_000000/0000/tree_53.root
/store/group/phys_higgs/hbb/ntuples/VHbbPostNano/2018/V11/DoubleMuon/1a36999e1f2505dddcacb9bed1a0ba6636e156de630d8f08dc619ec8/000000_000000/0000/tree_54.root
/store/group/phys_higgs/hbb/ntuples/VHbbPostNano/2018/V11/DoubleMuon/a4fababe28849c9f8639f4db2a7795ec681b1204254148a1ea181ba9/000000_000000/0000/tree_55.root
/store/group/phys_higgs/hbb/ntuples/VHbbPostNano/2018/V11/DoubleMuon/99600c1fcc60d08f70e13297d3e8b984698d5e79599786594d65c937/000000_000000/0000/tree_56.root
/store/group/phys_higgs/hbb/ntuples/VHbbPostNano/2018/V11/DoubleMuon/c31d20e3af767c40cc0d9abdc4756ea908cd7a0ce27af4e6f8e2e480/000000_000000/0000/tree_57.root
/store/group/phys_higgs/hbb/ntuples/VHbbPostNano/2018/V11/DoubleMuon/14d86b120952d4957279c92789b8f95bd5fc68b4d8bed8aacdac1a7f/000000_000000/0000/tree_58.root
/store/group/phys_higgs/hbb/ntuples/VHbbPostNano/2018/V11/DoubleMuon/1086b99db013c0d7b1137e33eb042daa128450b7a00c16addf2f302a/000000_000000/0000/tree_59.root
/store/group/phys_higgs/hbb/ntuples/VHbbPostNano/2018/V11/DoubleMuon/788f10e0e4d35232f7c60a2e3f88d1806becff12b21cbc6149b980c6/000000_000000/0000/tree_60.root
/store/group/phys_higgs/hbb/ntuples/VHbbPostNano/2018/V11/DoubleMuon/746030d7037097c9728058bbdfee105a1d58c99bbba5457a2a6ac589/000000_000000/0000/tree_61.root
/store/group/phys_higgs/hbb/ntuples/VHbbPostNano/2018/V11/DoubleMuon/62d3a4b98e6f8c52e9c59b5a8ae73d12cf588ea50b5090425fcab2bc/000000_000000/0000/tree_62.root
/store/group/phys_higgs/hbb/ntuples/VHbbPostNano/2018/V11/DoubleMuon/5759082b9ec64078c985af4835297231cbcdfa16a3487b343671e377/000000_000000/0000/tree_63.root
/store/group/phys_higgs/hbb/ntuples/VHbbPostNano/2018/V11/DoubleMuon/16e88768cff691a38affbbea00035145b541aa8b79fd919cd6edc71f/000000_000000/0000/tree_64.root
/store/group/phys_higgs/hbb/ntuples/VHbbPostNano/2018/V11/DoubleMuon/4afbfe0d10d085325e74964432a54549ff2c870744d9ff3dd4ebdab4/000000_000000/0000/tree_65.root
/store/group/phys_higgs/hbb/ntuples/VHbbPostNano/2018/V11/DoubleMuon/6ac9838a2c6ad9c7430d9199ce7f9cea7d015f79b4ff56e72d2f6c68/000000_000000/0000/tree_66.root
/store/group/phys_higgs/hbb/ntuples/VHbbPostNano/2018/V11/DoubleMuon/f2ec5bc969789fef8172cfcd46d4a31a19b8d2bd212a9f0ee82d0ae8/000000_000000/0000/tree_67.root
/store/group/phys_higgs/hbb/ntuples/VHbbPostNano/2018/V11/DoubleMuon/ed4152a303c7029629fa41695ac676763a088a043fb3fc20daa58207/000000_000000/0000/tree_68.root
/store/group/phys_higgs/hbb/ntuples/VHbbPostNano/2018/V11/DoubleMuon/03703cde6edb1802b5c36c58555b4e6263d31821c03705c692e7bbb6/000000_000000/0000/tree_69.root
/store/group/phys_higgs/hbb/ntuples/VHbbPostNano/2018/V11/DoubleMuon/45dcb54df8535f841b2d53e95be6881cef0033b09c4b1ea7b220dcd8/000000_000000/0000/tree_70.root
/store/group/phys_higgs/hbb/ntuples/VHbbPostNano/2018/V11/DoubleMuon/9ee0d5130c26fd825dd5988ec8ad7e95e25d1e1297737c7765d73d11/000000_000000/0000/tree_71.root
/store/group/phys_higgs/hbb/ntuples/VHbbPostNano/2018/V11/DoubleMuon/128a70ebe98a813eba521b99376ad1c3297d0f59bc3ddbae82b82378/000000_000000/0000/tree_72.root
/store/group/phys_higgs/hbb/ntuples/VHbbPostNano/2018/V11/DoubleMuon/804ecf95608bc7402a2e19efc194db9943a51abf74b4dbad0161d1ae/000000_000000/0000/tree_73.root