/store/group/phys_higgs/hbb/ntuples/VHbbPostNano/2018/V11_bis/DYJetsToLL_M-50_HT-100to200_TuneCP5_PSweights_13TeV-madgraphMLM-pythia8/7dccf8bd1d6123e33cdeec372d88366ae4c2cd0c40c9d7f1e1bc6b5f/000000_000000/0000/tree_0.root
/store/group/phys_higgs/hbb/ntuples/VHbbPostNano/2018/V11_bis/DYJetsToLL_M-50_HT-100to200_TuneCP5_PSweights_13TeV-madgraphMLM-pythia8/3d2363afe479726b9727615989199601412b707afb9bc2df240981b2/000000_000000/0000/tree_1.root
/store/group/phys_higgs/hbb/ntuples/VHbbPostNano/2018/V11_bis/DYJetsToLL_M-50_HT-100to200_TuneCP5_PSweights_13TeV-madgraphMLM-pythia8/275c0a9c760169c913fd6864976b644b24a96111b57918c196d194c4/000000_000000/0000/tree_2.root
/store/group/phys_higgs/hbb/ntuples/VHbbPostNano/2018/V11_bis/DYJetsToLL_M-50_HT-100to200_TuneCP5_PSweights_13TeV-madgraphMLM-pythia8/5a8a8f0378fa3153f607d7271d301825be817a57ea993270c56a5d12/000000_000000/0000/tree_3.root
/store/group/phys_higgs/hbb/ntuples/VHbbPostNano/2018/V11_bis/DYJetsToLL_M-50_HT-100to200_TuneCP5_PSweights_13TeV-madgraphMLM-pythia8/4a073d39200106262c401d1ea8dd14ec13a7d43232d437df69d1542a/000000_000000/0000/tree_4.root
/store/group/phys_higgs/hbb/ntuples/VHbbPostNano/2018/V11_bis/DYJetsToLL_M-50_HT-100to200_TuneCP5_PSweights_13TeV-madgraphMLM-pythia8/a95440ca63675012fb3bec3593b59e333de44c679036ba66c37565ad/000000_000000/0000/tree_5.root
/store/group/phys_higgs/hbb/ntuples/VHbbPostNano/2018/V11_bis/DYJetsToLL_M-50_HT-100to200_TuneCP5_PSweights_13TeV-madgraphMLM-pythia8/84c58c3c6e312e77925b40a92b7ffff271c01b60ff0e8fc2fac21e35/000000_000000/0000/tree_6.root
/store/group/phys_higgs/hbb/ntuples/VHbbPostNano/2018/V11_bis/DYJetsToLL_M-50_HT-100to200_TuneCP5_PSweights_13TeV-madgraphMLM-pythia8/34227e31c7581dc1677075ab6676372d5821e02e951ebbc8fd7ed42c/000000_000000/0000/tree_7.root