/store/group/phys_higgs/hbb/ntuples/VHbbPostNano/2018/V11_bis/DYJetsToLL_BGenFilter_Zpt-200toInf_M-50_TuneCP5_13TeV-madgraphMLM-pythia8/2617e006847bcf48282d4ecd5b77e5ce936c4a1fbc50694044f80e1f/000000_000000/0000/tree_0.root
/store/group/phys_higgs/hbb/ntuples/VHbbPostNano/2018/V11_bis/DYJetsToLL_BGenFilter_Zpt-200toInf_M-50_TuneCP5_13TeV-madgraphMLM-pythia8/b992ab9265f5320885b4c18d9770ab2a7ffe579813adf6240c71d943/000000_000000/0000/tree_1.root
/store/group/phys_higgs/hbb/ntuples/VHbbPostNano/2018/V11_bis/DYJetsToLL_BGenFilter_Zpt-200toInf_M-50_TuneCP5_13TeV-madgraphMLM-pythia8/fd551012a5b110fdccee84f9a4f4bf30f2f34977221f60320f123907/000000_000000/0000/tree_2.root
/store/group/phys_higgs/hbb/ntuples/VHbbPostNano/2018/V11_bis/DYJetsToLL_BGenFilter_Zpt-200toInf_M-50_TuneCP5_13TeV-madgraphMLM-pythia8/2aacd79f5ecee5baf6ef102d2a1fc5ace0011100f9399e0072fb06a2/000000_000000/0000/tree_3.root
/store/group/phys_higgs/hbb/ntuples/VHbbPostNano/2018/V11_bis/DYJetsToLL_BGenFilter_Zpt-200toInf_M-50_TuneCP5_13TeV-madgraphMLM-pythia8/9c2ef8203a48a52c4b80b3e6afece18350e4289bead470d3f40c1607/000000_000000/0000/tree_4.root
/store/group/phys_higgs/hbb/ntuples/VHbbPostNano/2018/V11_bis/DYJetsToLL_BGenFilter_Zpt-200toInf_M-50_TuneCP5_13TeV-madgraphMLM-pythia8/bff60595e0b82e003f961a25808e1a9c42ac59e43044664296e20ad8/000000_000000/0000/tree_5.root
/store/group/phys_higgs/hbb/ntuples/VHbbPostNano/2018/V11_bis/DYJetsToLL_BGenFilter_Zpt-200toInf_M-50_TuneCP5_13TeV-madgraphMLM-pythia8/0dc8cd92d338dd3bffb5f34e310cba75c08e45af619eb0fddf071d5e/000000_000000/0000/tree_6.root
/store/group/phys_higgs/hbb/ntuples/VHbbPostNano/2018/V11_bis/DYJetsToLL_BGenFilter_Zpt-200toInf_M-50_TuneCP5_13TeV-madgraphMLM-pythia8/f0d81789c1cb4c62d095a66992971db15801193e28521abdea6a0cc7/000000_000000/0000/tree_7.root
/store/group/phys_higgs/hbb/ntuples/VHbbPostNano/2018/V11_bis/DYJetsToLL_BGenFilter_Zpt-200toInf_M-50_TuneCP5_13TeV-madgraphMLM-pythia8/daa625f8258083e3023785c8b8bbdb78c92678a02f2828be29ddc2d5/000000_000000/0000/tree_8.root
/store/group/phys_higgs/hbb/ntuples/VHbbPostNano/2018/V11_bis/DYJetsToLL_BGenFilter_Zpt-200toInf_M-50_TuneCP5_13TeV-madgraphMLM-pythia8/0fbef11c2a49cecebd305e6576d30c861d06f7f2a05b46cbd8652252/000000_000000/0000/tree_9.root
/store/group/phys_higgs/hbb/ntuples/VHbbPostNano/2018/V11_bis/DYJetsToLL_BGenFilter_Zpt-200toInf_M-50_TuneCP5_13TeV-madgraphMLM-pythia8/950cc89681f107301e3e560e2011a6a33d5291ee160ecb76bb91b23d/000000_000000/0000/tree_10.root
/store/group/phys_higgs/hbb/ntuples/VHbbPostNano/2018/V11_bis/DYJetsToLL_BGenFilter_Zpt-200toInf_M-50_TuneCP5_13TeV-madgraphMLM-pythia8/5aaa2d804ffd4d084a2e2b96e4ec9f79dd781cc6e259766762bac249/000000_000000/0000/tree_11.root
/store/group/phys_higgs/hbb/ntuples/VHbbPostNano/2018/V11_bis/DYJetsToLL_BGenFilter_Zpt-200toInf_M-50_TuneCP5_13TeV-madgraphMLM-pythia8/59c4e7f87ab10a61ced3c3a09e0e58913afe23324df4abbeca049267/000000_000000/0000/tree_12.root
/store/group/phys_higgs/hbb/ntuples/VHbbPostNano/2018/V11_bis/DYJetsToLL_BGenFilter_Zpt-200toInf_M-50_TuneCP5_13TeV-madgraphMLM-pythia8/725ced944c6d7d462021b7ca628e57fc94a4ee3aac1dd507955216ad/000000_000000/0000/tree_13.root
/store/group/phys_higgs/hbb/ntuples/VHbbPostNano/2018/V11_bis/DYJetsToLL_BGenFilter_Zpt-200toInf_M-50_TuneCP5_13TeV-madgraphMLM-pythia8/a644dee176855a6c83602123be8242a28376e792bbe00251241c2b3f/000000_000000/0000/tree_14.root
/store/group/phys_higgs/hbb/ntuples/VHbbPostNano/2018/V11_bis/DYJetsToLL_BGenFilter_Zpt-200toInf_M-50_TuneCP5_13TeV-madgraphMLM-pythia8/d78aba0d1da2fcb6b3646df8dd3a2c234ce2d0a40b55e95dad918536/000000_000000/0000/tree_15.root
/store/group/phys_higgs/hbb/ntuples/VHbbPostNano/2018/V11_bis/DYJetsToLL_BGenFilter_Zpt-200toInf_M-50_TuneCP5_13TeV-madgraphMLM-pythia8/96d0eafc660f9724feb485d8323956424477f964a5aed0294f9bce43/000000_000000/0000/tree_16.root
/store/group/phys_higgs/hbb/ntuples/VHbbPostNano/2018/V11_bis/DYJetsToLL_BGenFilter_Zpt-200toInf_M-50_TuneCP5_13TeV-madgraphMLM-pythia8/f658ff0d97abcc169eb85ee34b24538e6a8734f3b87c8e9bdb32af13/000000_000000/0000/tree_17.root
/store/group/phys_higgs/hbb/ntuples/VHbbPostNano/2018/V11_bis/DYJetsToLL_BGenFilter_Zpt-200toInf_M-50_TuneCP5_13TeV-madgraphMLM-pythia8/1256d55675d0b1690525eb723e03a02ce8816091302936b66b5dbec0/000000_000000/0000/tree_18.root