/store/group/phys_higgs/hbb/ntuples/VHbbPostNano/2018/V11_bis/DYJetsToLL_M-50_HT-200to400_TuneCP5_PSweights_13TeV-madgraphMLM-pythia8/81bcd2f6e29c164d218f3f436b485cb87ce931d253c85d3b7e4b6811/000000_000000/0000/tree_0.root
/store/group/phys_higgs/hbb/ntuples/VHbbPostNano/2018/V11_bis/DYJetsToLL_M-50_HT-200to400_TuneCP5_PSweights_13TeV-madgraphMLM-pythia8/c0151cfcc93182e5856543162e782b34bd64190e87df1d8342b627dd/000000_000000/0000/tree_1.root
/store/group/phys_higgs/hbb/ntuples/VHbbPostNano/2018/V11_bis/DYJetsToLL_M-50_HT-200to400_TuneCP5_PSweights_13TeV-madgraphMLM-pythia8/e483a5fdfa33cabce829dfbc55bdeb210df3ea4450b0340fd3cf1cbf/000000_000000/0000/tree_2.root
/store/group/phys_higgs/hbb/ntuples/VHbbPostNano/2018/V11_bis/DYJetsToLL_M-50_HT-200to400_TuneCP5_PSweights_13TeV-madgraphMLM-pythia8/202399c85d5b0827b09db81b6222e2ea8900ac4c0d9bdf82dc1c82fd/000000_000000/0000/tree_3.root
/store/group/phys_higgs/hbb/ntuples/VHbbPostNano/2018/V11_bis/DYJetsToLL_M-50_HT-200to400_TuneCP5_PSweights_13TeV-madgraphMLM-pythia8/2972412d37c91b14c3637d5581b23cc5349d61ecb56cee21b2281f89/000000_000000/0000/tree_4.root
/store/group/phys_higgs/hbb/ntuples/VHbbPostNano/2018/V11_bis/DYJetsToLL_M-50_HT-200to400_TuneCP5_PSweights_13TeV-madgraphMLM-pythia8/3db1615b5da227e008a4bc7ce9c5b99446f941864bcd3b90019831ce/000000_000000/0000/tree_5.root
/store/group/phys_higgs/hbb/ntuples/VHbbPostNano/2018/V11_bis/DYJetsToLL_M-50_HT-200to400_TuneCP5_PSweights_13TeV-madgraphMLM-pythia8/09ce5cbe2ca5f5f49414b51ba84b632a4bb579b8e5756d570c3cef6e/000000_000000/0000/tree_6.root
/store/group/phys_higgs/hbb/ntuples/VHbbPostNano/2018/V11_bis/DYJetsToLL_M-50_HT-200to400_TuneCP5_PSweights_13TeV-madgraphMLM-pythia8/25c80afbdd214d364d46ca7c285fafddfd7cfb160e4208b14a760fad/000000_000000/0000/tree_7.root