/eos/cms/store/group/phys_higgs/ec/hbb/ntuples/VHbbPostNano/UL/EFT/2017/V1/MET/Run2017B-UL2017_MiniAODv2_NanoA80/220805_134905/0000/tree_1.root
/eos/cms/store/group/phys_higgs/ec/hbb/ntuples/VHbbPostNano/UL/EFT/2017/V1/MET/Run2017B-UL2017_MiniAODv2_NanoA80/220805_134905/0000/tree_10.root
/eos/cms/store/group/phys_higgs/ec/hbb/ntuples/VHbbPostNano/UL/EFT/2017/V1/MET/Run2017B-UL2017_MiniAODv2_NanoA80/220805_134905/0000/tree_100.root
/eos/cms/store/group/phys_higgs/ec/hbb/ntuples/VHbbPostNano/UL/EFT/2017/V1/MET/Run2017B-UL2017_MiniAODv2_NanoA80/220805_134905/0000/tree_101.root
/eos/cms/store/group/phys_higgs/ec/hbb/ntuples/VHbbPostNano/UL/EFT/2017/V1/MET/Run2017B-UL2017_MiniAODv2_NanoA80/220805_134905/0000/tree_102.root
/eos/cms/store/group/phys_higgs/ec/hbb/ntuples/VHbbPostNano/UL/EFT/2017/V1/MET/Run2017B-UL2017_MiniAODv2_NanoA80/220805_134905/0000/tree_103.root
/eos/cms/store/group/phys_higgs/ec/hbb/ntuples/VHbbPostNano/UL/EFT/2017/V1/MET/Run2017B-UL2017_MiniAODv2_NanoA80/220805_134905/0000/tree_104.root
/eos/cms/store/group/phys_higgs/ec/hbb/ntuples/VHbbPostNano/UL/EFT/2017/V1/MET/Run2017B-UL2017_MiniAODv2_NanoA80/220805_134905/0000/tree_105.root
/eos/cms/store/group/phys_higgs/ec/hbb/ntuples/VHbbPostNano/UL/EFT/2017/V1/MET/Run2017B-UL2017_MiniAODv2_NanoA80/220805_134905/0000/tree_106.root
/eos/cms/store/group/phys_higgs/ec/hbb/ntuples/VHbbPostNano/UL/EFT/2017/V1/MET/Run2017B-UL2017_MiniAODv2_NanoA80/220805_134905/0000/tree_107.root
