/eos/cms/store/group/phys_higgs/ec/hbb/ntuples/VHbbPostNano/UL/EFT/2016_preVFP/V1/DoubleEG/Run2016B-ver2_HIPM_UL2016_Mini99/220601_161648/0000/tree_1.root
/eos/cms/store/group/phys_higgs/ec/hbb/ntuples/VHbbPostNano/UL/EFT/2016_preVFP/V1/DoubleEG/Run2016B-ver2_HIPM_UL2016_Mini99/220601_161648/0000/tree_10.root
/eos/cms/store/group/phys_higgs/ec/hbb/ntuples/VHbbPostNano/UL/EFT/2016_preVFP/V1/DoubleEG/Run2016B-ver2_HIPM_UL2016_Mini99/220601_161648/0000/tree_100.root
/eos/cms/store/group/phys_higgs/ec/hbb/ntuples/VHbbPostNano/UL/EFT/2016_preVFP/V1/DoubleEG/Run2016B-ver2_HIPM_UL2016_Mini99/220601_161648/0000/tree_101.root
/eos/cms/store/group/phys_higgs/ec/hbb/ntuples/VHbbPostNano/UL/EFT/2016_preVFP/V1/DoubleEG/Run2016B-ver2_HIPM_UL2016_Mini99/220601_161648/0000/tree_102.root
/eos/cms/store/group/phys_higgs/ec/hbb/ntuples/VHbbPostNano/UL/EFT/2016_preVFP/V1/DoubleEG/Run2016B-ver2_HIPM_UL2016_Mini99/220601_161648/0000/tree_103.root
/eos/cms/store/group/phys_higgs/ec/hbb/ntuples/VHbbPostNano/UL/EFT/2016_preVFP/V1/DoubleEG/Run2016B-ver2_HIPM_UL2016_Mini99/220601_161648/0000/tree_104.root
/eos/cms/store/group/phys_higgs/ec/hbb/ntuples/VHbbPostNano/UL/EFT/2016_preVFP/V1/DoubleEG/Run2016B-ver2_HIPM_UL2016_Mini99/220601_161648/0000/tree_105.root
/eos/cms/store/group/phys_higgs/ec/hbb/ntuples/VHbbPostNano/UL/EFT/2016_preVFP/V1/DoubleEG/Run2016B-ver2_HIPM_UL2016_Mini99/220601_161648/0000/tree_106.root
/eos/cms/store/group/phys_higgs/ec/hbb/ntuples/VHbbPostNano/UL/EFT/2016_preVFP/V1/DoubleEG/Run2016B-ver2_HIPM_UL2016_Mini99/220601_161648/0000/tree_107.root
