/store/group/phys_higgs/hbb/ntuples/VHbbPostNano/2018/V12/DYJetsToLL_BGenFilter_Zpt-100to200_M-50_TuneCP5_13TeV-madgraphMLM-pythia8/89ae1b9ab2b1f06031f053a93847ecfae0f4c3da76def3d247c03042/000000_000000/0000/tree_0.root
/store/group/phys_higgs/hbb/ntuples/VHbbPostNano/2018/V12/DYJetsToLL_BGenFilter_Zpt-100to200_M-50_TuneCP5_13TeV-madgraphMLM-pythia8/cdb5648cd4f9ab7d6622a54b4f4c18ddb7a043836b8818b1e39f6074/000000_000000/0000/tree_1.root
/store/group/phys_higgs/hbb/ntuples/VHbbPostNano/2018/V12/DYJetsToLL_BGenFilter_Zpt-100to200_M-50_TuneCP5_13TeV-madgraphMLM-pythia8/c26eb7be8836ab17aaab6ade1614c2ade6267fdff7ce8aee56784b25/000000_000000/0000/tree_2.root
/store/group/phys_higgs/hbb/ntuples/VHbbPostNano/2018/V12/DYJetsToLL_BGenFilter_Zpt-100to200_M-50_TuneCP5_13TeV-madgraphMLM-pythia8/13d5ee9b573393dd31ae967e0aefd2125482e6705f51f16dc6e5b4c1/000000_000000/0000/tree_3.root
/store/group/phys_higgs/hbb/ntuples/VHbbPostNano/2018/V12/DYJetsToLL_BGenFilter_Zpt-100to200_M-50_TuneCP5_13TeV-madgraphMLM-pythia8/4e67e03923ed1e51444f028d2022b0ddecae61e27b1fc71461ab8e90/000000_000000/0000/tree_4.root
/store/group/phys_higgs/hbb/ntuples/VHbbPostNano/2018/V12/DYJetsToLL_BGenFilter_Zpt-100to200_M-50_TuneCP5_13TeV-madgraphMLM-pythia8/b1d9c6cb0e982a7b6cd09ccae1d99d08da63f771e0d76acde3a2b569/000000_000000/0000/tree_5.root
/store/group/phys_higgs/hbb/ntuples/VHbbPostNano/2018/V12/DYJetsToLL_BGenFilter_Zpt-100to200_M-50_TuneCP5_13TeV-madgraphMLM-pythia8/d0f346f6aefc7a17a9d5696b41c49976e72db30318fcb973ea5532e3/000000_000000/0000/tree_6.root
/store/group/phys_higgs/hbb/ntuples/VHbbPostNano/2018/V12/DYJetsToLL_BGenFilter_Zpt-100to200_M-50_TuneCP5_13TeV-madgraphMLM-pythia8/b472f701a5dad91337c4b2d3e64293d567a71c47e1e2ffc2315a9a30/000000_000000/0000/tree_7.root
/store/group/phys_higgs/hbb/ntuples/VHbbPostNano/2018/V12/DYJetsToLL_BGenFilter_Zpt-100to200_M-50_TuneCP5_13TeV-madgraphMLM-pythia8/1df65f252133c4f948680392855db07e8328bf19d46d9ad2e80cd4e0/000000_000000/0000/tree_8.root
/store/group/phys_higgs/hbb/ntuples/VHbbPostNano/2018/V12/DYJetsToLL_BGenFilter_Zpt-100to200_M-50_TuneCP5_13TeV-madgraphMLM-pythia8/f31304d5547e4a66f6e7711dbfb14b36b8a14dd282c3e746d8f620bb/000000_000000/0000/tree_9.root
/store/group/phys_higgs/hbb/ntuples/VHbbPostNano/2018/V12/DYJetsToLL_BGenFilter_Zpt-100to200_M-50_TuneCP5_13TeV-madgraphMLM-pythia8/143bf79d50eddf7cfbd82e4abfdb250cc636d819776ceac28bdb4df0/000000_000000/0000/tree_10.root
/store/group/phys_higgs/hbb/ntuples/VHbbPostNano/2018/V12/DYJetsToLL_BGenFilter_Zpt-100to200_M-50_TuneCP5_13TeV-madgraphMLM-pythia8/fa09cef898a6010d06994a67db1dcb404f7d67cdb41ed708be04d4dd/000000_000000/0000/tree_11.root
/store/group/phys_higgs/hbb/ntuples/VHbbPostNano/2018/V12/DYJetsToLL_BGenFilter_Zpt-100to200_M-50_TuneCP5_13TeV-madgraphMLM-pythia8/d8213ea4e55f2800235ba26ddfc545b3622369c329c25ead3fcf747a/000000_000000/0000/tree_12.root
/store/group/phys_higgs/hbb/ntuples/VHbbPostNano/2018/V12/DYJetsToLL_BGenFilter_Zpt-100to200_M-50_TuneCP5_13TeV-madgraphMLM-pythia8/d532cbd36df2e6373651f5a36aa435fe62998b78a55e379cdfed265c/000000_000000/0000/tree_13.root
/store/group/phys_higgs/hbb/ntuples/VHbbPostNano/2018/V12/DYJetsToLL_BGenFilter_Zpt-100to200_M-50_TuneCP5_13TeV-madgraphMLM-pythia8/ea0fded26b94c8747326fa836888139cbb3e4c59ba0096602a0fa2b2/000000_000000/0000/tree_14.root
/store/group/phys_higgs/hbb/ntuples/VHbbPostNano/2018/V12/DYJetsToLL_BGenFilter_Zpt-100to200_M-50_TuneCP5_13TeV-madgraphMLM-pythia8/402c2634a9c10fe008b056526c9c8f0d8f7a2c8eac3748df7cbeaf1c/000000_000000/0000/tree_15.root
/store/group/phys_higgs/hbb/ntuples/VHbbPostNano/2018/V12/DYJetsToLL_BGenFilter_Zpt-100to200_M-50_TuneCP5_13TeV-madgraphMLM-pythia8/fc1212cd181d3f7c79111919bae4987aef1c35f33e4a870aef69ca3b/000000_000000/0000/tree_16.root
/store/group/phys_higgs/hbb/ntuples/VHbbPostNano/2018/V12/DYJetsToLL_BGenFilter_Zpt-100to200_M-50_TuneCP5_13TeV-madgraphMLM-pythia8/7444f61c93da5fdcfaed55fe6e2c9c5f11cdeb3ed6f0c2fbb344330b/000000_000000/0000/tree_17.root
/store/group/phys_higgs/hbb/ntuples/VHbbPostNano/2018/V12/DYJetsToLL_BGenFilter_Zpt-100to200_M-50_TuneCP5_13TeV-madgraphMLM-pythia8/572d7663a62c92ba52620f699a1b81d21c45d45991dcf575921376be/000000_000000/0000/tree_18.root
/store/group/phys_higgs/hbb/ntuples/VHbbPostNano/2018/V12/DYJetsToLL_BGenFilter_Zpt-100to200_M-50_TuneCP5_13TeV-madgraphMLM-pythia8/5cdfb4611346103e4a22f72be3e2bb35a3d4adb4c8c7c63cc93bd6f3/000000_000000/0000/tree_19.root
/store/group/phys_higgs/hbb/ntuples/VHbbPostNano/2018/V12/DYJetsToLL_BGenFilter_Zpt-100to200_M-50_TuneCP5_13TeV-madgraphMLM-pythia8/b378d60f4eaa6fb1a21dda22ce3243f3462ce3d3e4320a5609960a2c/000000_000000/0000/tree_20.root
/store/group/phys_higgs/hbb/ntuples/VHbbPostNano/2018/V12/DYJetsToLL_BGenFilter_Zpt-100to200_M-50_TuneCP5_13TeV-madgraphMLM-pythia8/6cfde41928b907662164c81e021238a448c15089fb315efe6a13af76/000000_000000/0000/tree_21.root
/store/group/phys_higgs/hbb/ntuples/VHbbPostNano/2018/V12/DYJetsToLL_BGenFilter_Zpt-100to200_M-50_TuneCP5_13TeV-madgraphMLM-pythia8/276eb0fff3b1b8567c2faf28ed126a11e7d9aa46dc4b9b2f07cd5d85/000000_000000/0000/tree_22.root
/store/group/phys_higgs/hbb/ntuples/VHbbPostNano/2018/V12/DYJetsToLL_BGenFilter_Zpt-100to200_M-50_TuneCP5_13TeV-madgraphMLM-pythia8/c53b5ecd093d5718e5a14cc14fba5c8316a19c365572cfca9ec7787f/000000_000000/0000/tree_23.root
/store/group/phys_higgs/hbb/ntuples/VHbbPostNano/2018/V12/DYJetsToLL_BGenFilter_Zpt-100to200_M-50_TuneCP5_13TeV-madgraphMLM-pythia8/5b5894c471669fa338a7bb95a2ea8044a8dbd50b0600f215a7da330a/000000_000000/0000/tree_24.root
/store/group/phys_higgs/hbb/ntuples/VHbbPostNano/2018/V12/DYJetsToLL_BGenFilter_Zpt-100to200_M-50_TuneCP5_13TeV-madgraphMLM-pythia8/bfab77e890d2fe047ead635f3492841e3e2d14122fab663c7b0988d1/000000_000000/0000/tree_25.root
/store/group/phys_higgs/hbb/ntuples/VHbbPostNano/2018/V12/DYJetsToLL_BGenFilter_Zpt-100to200_M-50_TuneCP5_13TeV-madgraphMLM-pythia8/f73aaab6aab8efc5903dd754f250a2d51ecd4293c13cf1cccc6e074a/000000_000000/0000/tree_26.root
/store/group/phys_higgs/hbb/ntuples/VHbbPostNano/2018/V12/DYJetsToLL_BGenFilter_Zpt-100to200_M-50_TuneCP5_13TeV-madgraphMLM-pythia8/14c8e3fb031e7901761d4c445f269ce66b4cf73e3e797ba275b79514/000000_000000/0000/tree_27.root
/store/group/phys_higgs/hbb/ntuples/VHbbPostNano/2018/V12/DYJetsToLL_BGenFilter_Zpt-100to200_M-50_TuneCP5_13TeV-madgraphMLM-pythia8/8ea9c2760709b870449bf4abde328a62c7d120db4619adb0cdc2f46b/000000_000000/0000/tree_28.root
/store/group/phys_higgs/hbb/ntuples/VHbbPostNano/2018/V12/DYJetsToLL_BGenFilter_Zpt-100to200_M-50_TuneCP5_13TeV-madgraphMLM-pythia8/4db4fc71354394dfd52060b52cfded20fe9ea3b551615f82dc69da1b/000000_000000/0000/tree_29.root
/store/group/phys_higgs/hbb/ntuples/VHbbPostNano/2018/V12/DYJetsToLL_BGenFilter_Zpt-100to200_M-50_TuneCP5_13TeV-madgraphMLM-pythia8/13b7335e3682181d7854ede3a8027f650b8b9c006dfbee4a9af143f9/000000_000000/0000/tree_30.root
/store/group/phys_higgs/hbb/ntuples/VHbbPostNano/2018/V12/DYJetsToLL_BGenFilter_Zpt-100to200_M-50_TuneCP5_13TeV-madgraphMLM-pythia8/47918bcf9f1a6341f641c5d56f9b4c4f81af7abb0eff3e8a2a4aebcb/000000_000000/0000/tree_31.root
/store/group/phys_higgs/hbb/ntuples/VHbbPostNano/2018/V12/DYJetsToLL_BGenFilter_Zpt-100to200_M-50_TuneCP5_13TeV-madgraphMLM-pythia8/194430dc0bfb9bff0cbbbcc3ec68a2ba055b854b2be07460844a94dd/000000_000000/0000/tree_32.root
/store/group/phys_higgs/hbb/ntuples/VHbbPostNano/2018/V12/DYJetsToLL_BGenFilter_Zpt-100to200_M-50_TuneCP5_13TeV-madgraphMLM-pythia8/f44c144504a3b02ee7f6ffa20635c809b6ebf25b0df30173c6cf0f21/000000_000000/0000/tree_33.root
/store/group/phys_higgs/hbb/ntuples/VHbbPostNano/2018/V12/DYJetsToLL_BGenFilter_Zpt-100to200_M-50_TuneCP5_13TeV-madgraphMLM-pythia8/30fa87380e47c0052f0ff52c345ec23d80842798d3b1d274fe6c577b/000000_000000/0000/tree_34.root
/store/group/phys_higgs/hbb/ntuples/VHbbPostNano/2018/V12/DYJetsToLL_BGenFilter_Zpt-100to200_M-50_TuneCP5_13TeV-madgraphMLM-pythia8/8abab06cb74210c239f88f438a754f9465e99f17ab0602e097ee2ebf/000000_000000/0000/tree_35.root
/store/group/phys_higgs/hbb/ntuples/VHbbPostNano/2018/V12/DYJetsToLL_BGenFilter_Zpt-100to200_M-50_TuneCP5_13TeV-madgraphMLM-pythia8/19b3caed7c8da121f61da88d424b9758612e1defd5e0b5166ea0e9d0/000000_000000/0000/tree_36.root
/store/group/phys_higgs/hbb/ntuples/VHbbPostNano/2018/V12/DYJetsToLL_BGenFilter_Zpt-100to200_M-50_TuneCP5_13TeV-madgraphMLM-pythia8/a413d57a8fd15e7f6dc242d2c501153f0c411fcd3af9b0100b87cab2/000000_000000/0000/tree_37.root
/store/group/phys_higgs/hbb/ntuples/VHbbPostNano/2018/V12/DYJetsToLL_BGenFilter_Zpt-100to200_M-50_TuneCP5_13TeV-madgraphMLM-pythia8/7eed1246cf3e23275cb350ba10d1cdac599652bd596d5715ba050ec1/000000_000000/0000/tree_38.root
/store/group/phys_higgs/hbb/ntuples/VHbbPostNano/2018/V12/DYJetsToLL_BGenFilter_Zpt-100to200_M-50_TuneCP5_13TeV-madgraphMLM-pythia8/6fe48a16fd8045ea1e88de533119a253630d1318cad4c8ef77d866b0/000000_000000/0000/tree_39.root
/store/group/phys_higgs/hbb/ntuples/VHbbPostNano/2018/V12/DYJetsToLL_BGenFilter_Zpt-100to200_M-50_TuneCP5_13TeV-madgraphMLM-pythia8/8b671157a82f0dfdb5d6d60f2c9da70fa99ef832eeff90956305c050/000000_000000/0000/tree_40.root
/store/group/phys_higgs/hbb/ntuples/VHbbPostNano/2018/V12/DYJetsToLL_BGenFilter_Zpt-100to200_M-50_TuneCP5_13TeV-madgraphMLM-pythia8/c1e7d213a318a82b4414c79e71144ea263adbc6fc45ddf580214cbec/000000_000000/0000/tree_41.root
/store/group/phys_higgs/hbb/ntuples/VHbbPostNano/2018/V12/DYJetsToLL_BGenFilter_Zpt-100to200_M-50_TuneCP5_13TeV-madgraphMLM-pythia8/4f6f6db417bae905125e4220aafc5bb63e84d21ee9d389693d6fac3b/000000_000000/0000/tree_42.root
/store/group/phys_higgs/hbb/ntuples/VHbbPostNano/2018/V12/DYJetsToLL_BGenFilter_Zpt-100to200_M-50_TuneCP5_13TeV-madgraphMLM-pythia8/9f1817ccf6478596e02e088f0dbcac72f0bb25a2e307a41c599f22d0/000000_000000/0000/tree_43.root
/store/group/phys_higgs/hbb/ntuples/VHbbPostNano/2018/V12/DYJetsToLL_BGenFilter_Zpt-100to200_M-50_TuneCP5_13TeV-madgraphMLM-pythia8/4cfd04df9101f20d66698ce29a119af5ec993092934ce13583f72615/000000_000000/0000/tree_44.root
/store/group/phys_higgs/hbb/ntuples/VHbbPostNano/2018/V12/DYJetsToLL_BGenFilter_Zpt-100to200_M-50_TuneCP5_13TeV-madgraphMLM-pythia8/7cf30f918472b0247b7a943be32670f8597bf96aa345529059cbd164/000000_000000/0000/tree_45.root
/store/group/phys_higgs/hbb/ntuples/VHbbPostNano/2018/V12/DYJetsToLL_BGenFilter_Zpt-100to200_M-50_TuneCP5_13TeV-madgraphMLM-pythia8/964e00881531eaeaca3dec24d7a29c3da7b70040f5751b7f678fe0b0/000000_000000/0000/tree_46.root
/store/group/phys_higgs/hbb/ntuples/VHbbPostNano/2018/V12/DYJetsToLL_BGenFilter_Zpt-100to200_M-50_TuneCP5_13TeV-madgraphMLM-pythia8/95118a63d79cf6e28bf1cb02d649c30e62f1764bfa21333a16fbfa7b/000000_000000/0000/tree_47.root
/store/group/phys_higgs/hbb/ntuples/VHbbPostNano/2018/V12/DYJetsToLL_BGenFilter_Zpt-100to200_M-50_TuneCP5_13TeV-madgraphMLM-pythia8/569ee7f63fe352dd0aeac4205be32487ae2db997f24ef2951c5decf1/000000_000000/0000/tree_48.root
/store/group/phys_higgs/hbb/ntuples/VHbbPostNano/2018/V12/DYJetsToLL_BGenFilter_Zpt-100to200_M-50_TuneCP5_13TeV-madgraphMLM-pythia8/2feff0d3760b50230c21793d8744207750b9353b25e3b15f00045202/000000_000000/0000/tree_49.root
/store/group/phys_higgs/hbb/ntuples/VHbbPostNano/2018/V12/DYJetsToLL_BGenFilter_Zpt-100to200_M-50_TuneCP5_13TeV-madgraphMLM-pythia8/b65fd59aa786969b5fc904753090705d0849eed735afca12119d270e/000000_000000/0000/tree_50.root
/store/group/phys_higgs/hbb/ntuples/VHbbPostNano/2018/V12/DYJetsToLL_BGenFilter_Zpt-100to200_M-50_TuneCP5_13TeV-madgraphMLM-pythia8/ab305f2683c51ab28731e7e7302a66459188ec7fb6638965ef06d706/000000_000000/0000/tree_51.root