/store/group/phys_higgs/hbb/ntuples/VHbbPostNano/2018/V12/EGamma/81567ca0cb9abd84b54cf618d470c17fbc6cba3206c6eca08dfd0454/000000_000000/0000/tree_0.root
/store/group/phys_higgs/hbb/ntuples/VHbbPostNano/2018/V12/EGamma/edaf373cf9195cadcd36ce1afedf21cc4f4ef42f325a69ed26124e59/000000_000000/0000/tree_1.root
/store/group/phys_higgs/hbb/ntuples/VHbbPostNano/2018/V12/EGamma/fa26dcebeb0b19ea0c192293c25126bc48b1e227ed346adf2e20148d/000000_000000/0000/tree_2.root
/store/group/phys_higgs/hbb/ntuples/VHbbPostNano/2018/V12/EGamma/a63e314c573b03459e4e6e6cce7ec6b2312e4d0c865bd58712333075/000000_000000/0000/tree_3.root
/store/group/phys_higgs/hbb/ntuples/VHbbPostNano/2018/V12/EGamma/44f86b51fb9a6f4af3e6a59dfccf9aa1af581593f44e5cd03313059f/000000_000000/0000/tree_4.root
/store/group/phys_higgs/hbb/ntuples/VHbbPostNano/2018/V12/EGamma/95e923d9e1a62b78a33af104dc1ee35f91a5e4dad3cc4868b6ae790e/000000_000000/0000/tree_5.root
/store/group/phys_higgs/hbb/ntuples/VHbbPostNano/2018/V12/EGamma/f6110d14fd309037c10f31683be7ef1186cef65318897929586be7ce/000000_000000/0000/tree_6.root
/store/group/phys_higgs/hbb/ntuples/VHbbPostNano/2018/V12/EGamma/da23ad9d2f34057cdeac263890ebf011e1ff583227536caacd13f6ef/000000_000000/0000/tree_7.root
/store/group/phys_higgs/hbb/ntuples/VHbbPostNano/2018/V12/EGamma/9534cebbf778311d2e71fcc9aa493c7f3c3c3eb4a061cbc34711b670/000000_000000/0000/tree_8.root
/store/group/phys_higgs/hbb/ntuples/VHbbPostNano/2018/V12/EGamma/fcac05c7df9336fc8bac4e5fae8c158950dd29ed5d17efd138daddff/000000_000000/0000/tree_9.root
/store/group/phys_higgs/hbb/ntuples/VHbbPostNano/2018/V12/EGamma/bd4c68f0c4b53e3cc1023704bb7d0ce850a6c9581cf2ead7c676a394/000000_000000/0000/tree_10.root
/store/group/phys_higgs/hbb/ntuples/VHbbPostNano/2018/V12/EGamma/3adf641f0317db973a852bee00527180bc4fa1ff2d3289483326bbfe/000000_000000/0000/tree_11.root
/store/group/phys_higgs/hbb/ntuples/VHbbPostNano/2018/V12/EGamma/574171d0d5a7a3fc35eb7de082b996623d98d7fb340a80b6415abb6b/000000_000000/0000/tree_12.root
/store/group/phys_higgs/hbb/ntuples/VHbbPostNano/2018/V12/EGamma/577120488722ced768dea1eab3e957ac104211a457d5fbf8acee43d6/000000_000000/0000/tree_13.root
/store/group/phys_higgs/hbb/ntuples/VHbbPostNano/2018/V12/EGamma/c9fdee1036d7d5f0b980874d6b32e2f5255719edf936f97fdebf47eb/000000_000000/0000/tree_14.root
/store/group/phys_higgs/hbb/ntuples/VHbbPostNano/2018/V12/EGamma/454d1092dea94aee08f4013b8fba44fff9c90e63446840d680d063f6/000000_000000/0000/tree_15.root
/store/group/phys_higgs/hbb/ntuples/VHbbPostNano/2018/V12/EGamma/8ff07e525dafbef1ed55e8fe236afcd9f62c84010744b33ff82919d4/000000_000000/0000/tree_16.root
/store/group/phys_higgs/hbb/ntuples/VHbbPostNano/2018/V12/EGamma/c43651e0aca4868dff2f19346b677f10e04f7d59b3e79d75a64b5776/000000_000000/0000/tree_17.root
/store/group/phys_higgs/hbb/ntuples/VHbbPostNano/2018/V12/EGamma/ad02a07fe6f56e0461e4b8e86bf6e22941cb4ff2db38897cef7ce6c7/000000_000000/0000/tree_18.root
/store/group/phys_higgs/hbb/ntuples/VHbbPostNano/2018/V12/EGamma/74d9c5064b21838d430b934c9e38dde49e45ed8eb4839e35d930400a/000000_000000/0000/tree_19.root
/store/group/phys_higgs/hbb/ntuples/VHbbPostNano/2018/V12/EGamma/65b33256b2b8e68726b4eacd4ff97c41a5aff24d47bb3ff53d0094ae/000000_000000/0000/tree_20.root
/store/group/phys_higgs/hbb/ntuples/VHbbPostNano/2018/V12/EGamma/55f203d78af178402c9a01bc5509ac978c069527f94a84f5becc030a/000000_000000/0000/tree_21.root
/store/group/phys_higgs/hbb/ntuples/VHbbPostNano/2018/V12/EGamma/ad04f202919af9a67e0fdf8ed165cbadf7225a88a3c2bb3c3bedbee4/000000_000000/0000/tree_22.root
/store/group/phys_higgs/hbb/ntuples/VHbbPostNano/2018/V12/EGamma/4e3aac68f73d0b2da8ab0722af7cbed9a0276e373efcca78df119cb7/000000_000000/0000/tree_23.root
/store/group/phys_higgs/hbb/ntuples/VHbbPostNano/2018/V12/EGamma/6ccade4e28099f5f1c7ad4370e21170e96a049e5df6b495a06d12614/000000_000000/0000/tree_24.root
/store/group/phys_higgs/hbb/ntuples/VHbbPostNano/2018/V12/EGamma/4ed4c9f70431a9cba793d658bc500a993435c10f9446cba87832136c/000000_000000/0000/tree_25.root
/store/group/phys_higgs/hbb/ntuples/VHbbPostNano/2018/V12/EGamma/80141cb0bcdce5b06aea68c4d6fe338ab205efa775861bd5df067b9e/000000_000000/0000/tree_26.root
/store/group/phys_higgs/hbb/ntuples/VHbbPostNano/2018/V12/EGamma/4f8ac250432425bf4af6325bb84a2e859d170b7a39c8134da90768ba/000000_000000/0000/tree_27.root
/store/group/phys_higgs/hbb/ntuples/VHbbPostNano/2018/V12/EGamma/14fc1db1ee8872b38f1a69f22828563d2a71cf26cce031e669e30d89/000000_000000/0000/tree_28.root
/store/group/phys_higgs/hbb/ntuples/VHbbPostNano/2018/V12/EGamma/8a3b3c303d8519f99152df735e64bbd88c7d8c43a32eac141b1f3edf/000000_000000/0000/tree_29.root
/store/group/phys_higgs/hbb/ntuples/VHbbPostNano/2018/V12/EGamma/51600882eaeb2da6132519f0e2df309ebc88a0a4399e0ccbf515497e/000000_000000/0000/tree_30.root
/store/group/phys_higgs/hbb/ntuples/VHbbPostNano/2018/V12/EGamma/59cd06744128df3f728981f5f2f839bac417b4d171dd3c5997efeaaa/000000_000000/0000/tree_31.root
/store/group/phys_higgs/hbb/ntuples/VHbbPostNano/2018/V12/EGamma/456f0107de1267e8dc136f46765ba6761ebda6f4ce5508bed0ae0852/000000_000000/0000/tree_32.root
/store/group/phys_higgs/hbb/ntuples/VHbbPostNano/2018/V12/EGamma/a8d1ef91ef1ff13d0ffd38ca2cc40f9955850a38e49ad33f7b303229/000000_000000/0000/tree_33.root
/store/group/phys_higgs/hbb/ntuples/VHbbPostNano/2018/V12/EGamma/ff687ed5205f4d838707b0284954c0d710edd79baa24dc89f4903f6b/000000_000000/0000/tree_34.root
/store/group/phys_higgs/hbb/ntuples/VHbbPostNano/2018/V12/EGamma/6b20ea7b66a06e1ed8fffb034b40dea804826b57c4c455381bd00489/000000_000000/0000/tree_35.root
/store/group/phys_higgs/hbb/ntuples/VHbbPostNano/2018/V12/EGamma/bc32e1775a62d54f185d4b30cb82b4281ce4c496b6afabd18d1cdfc8/000000_000000/0000/tree_36.root
/store/group/phys_higgs/hbb/ntuples/VHbbPostNano/2018/V12/EGamma/61469508f7c1cedeb1c7165ad3a54d6827349cd0df622c14e427cfa8/000000_000000/0000/tree_37.root
/store/group/phys_higgs/hbb/ntuples/VHbbPostNano/2018/V12/EGamma/136cfdc80279f7fd8523ec09a85cf06d3e39328e321a6e0c23b17a52/000000_000000/0000/tree_38.root
/store/group/phys_higgs/hbb/ntuples/VHbbPostNano/2018/V12/EGamma/cfaf84e26e7ab4f33fb5999afcdc955daa8226c68d04f49a52e38af0/000000_000000/0000/tree_39.root
/store/group/phys_higgs/hbb/ntuples/VHbbPostNano/2018/V12/EGamma/20b56452cd191c783611b4df068db8c0c9f361a6ef6f639bd4620739/000000_000000/0000/tree_40.root
/store/group/phys_higgs/hbb/ntuples/VHbbPostNano/2018/V12/EGamma/4870e5df9867111c258393475c6a81a7530450b10817f265085159c6/000000_000000/0000/tree_41.root
/store/group/phys_higgs/hbb/ntuples/VHbbPostNano/2018/V12/EGamma/24937cd160652f5cb14602fcb32a1def64dc19ea540dc2d8291e3f67/000000_000000/0000/tree_42.root
/store/group/phys_higgs/hbb/ntuples/VHbbPostNano/2018/V12/EGamma/6b6db2daa1e2397d8607c47265182650ea5d9d503ab97a83a2272e03/000000_000000/0000/tree_43.root
/store/group/phys_higgs/hbb/ntuples/VHbbPostNano/2018/V12/EGamma/dcf1cae8b76f491f3db12f3ea434fffced85a736f6d15da50e04cfa2/000000_000000/0000/tree_44.root
/store/group/phys_higgs/hbb/ntuples/VHbbPostNano/2018/V12/EGamma/7ea7b975e93bf783b3b886177bd2f5bc03d417bd293bc56f8f9ac3b7/000000_000000/0000/tree_45.root
/store/group/phys_higgs/hbb/ntuples/VHbbPostNano/2018/V12/EGamma/67045bdc935eb08b843f5ecc6c97b1e8663e8dc0ee43a5db1105fa65/000000_000000/0000/tree_46.root
/store/group/phys_higgs/hbb/ntuples/VHbbPostNano/2018/V12/EGamma/771e667c3b3daaf4abf4f6f3ae838871295466146a202b425b59f2ff/000000_000000/0000/tree_47.root
/store/group/phys_higgs/hbb/ntuples/VHbbPostNano/2018/V12/EGamma/8d2397e97a17a9696cb2fddb414376c767c51021f65cff977d485cb4/000000_000000/0000/tree_48.root
/store/group/phys_higgs/hbb/ntuples/VHbbPostNano/2018/V12/EGamma/62a5859e4572bfa5140423711aca89a21b65c6c94a090b8d223a759e/000000_000000/0000/tree_49.root
/store/group/phys_higgs/hbb/ntuples/VHbbPostNano/2018/V12/EGamma/e316b3ccadbc32ca885b09c0c39f49470661669f03afcb187005e850/000000_000000/0000/tree_50.root
/store/group/phys_higgs/hbb/ntuples/VHbbPostNano/2018/V12/EGamma/c911ed563032ef244e490fc328413e355fd5d1fef3312d82da47009c/000000_000000/0000/tree_51.root
/store/group/phys_higgs/hbb/ntuples/VHbbPostNano/2018/V12/EGamma/8d6aba47f63aba8e1d9a94d374a25fac5b800918a04f3defa5571d9c/000000_000000/0000/tree_52.root
/store/group/phys_higgs/hbb/ntuples/VHbbPostNano/2018/V12/EGamma/2f6e4b296685ea82885243a8e9b30d21a70adc805084d23b2c0cb3dd/000000_000000/0000/tree_53.root
/store/group/phys_higgs/hbb/ntuples/VHbbPostNano/2018/V12/EGamma/15d754f3bba8676a228baf2f0356abebae7d23edbbbb60ab19d5510d/000000_000000/0000/tree_54.root
/store/group/phys_higgs/hbb/ntuples/VHbbPostNano/2018/V12/EGamma/0edad7bb22b0e16aa9358d59f35657f7f11ad763bcdcdc6fa723349b/000000_000000/0000/tree_55.root
/store/group/phys_higgs/hbb/ntuples/VHbbPostNano/2018/V12/EGamma/1329dd408de096b08fdff673da1573bdfcd4953812c5cfaad352ebf6/000000_000000/0000/tree_56.root
/store/group/phys_higgs/hbb/ntuples/VHbbPostNano/2018/V12/EGamma/3e0fc78b9b7505b373742995340655f9d4eda2c5ae0450f09155d8c8/000000_000000/0000/tree_57.root
/store/group/phys_higgs/hbb/ntuples/VHbbPostNano/2018/V12/EGamma/357da1e2a7e78ef641d57df436dfd3498594079b633341a31879e061/000000_000000/0000/tree_58.root
/store/group/phys_higgs/hbb/ntuples/VHbbPostNano/2018/V12/EGamma/061c33a4b203853adf7361ffd152897a99fdd52cbcca9207d5500230/000000_000000/0000/tree_59.root
/store/group/phys_higgs/hbb/ntuples/VHbbPostNano/2018/V12/EGamma/2fa23c7f4c7393cb15667e7b760582beebb1cce71a5520de0e8f24cf/000000_000000/0000/tree_60.root
/store/group/phys_higgs/hbb/ntuples/VHbbPostNano/2018/V12/EGamma/783556ea88aaa6b5272aca6f8bd18dda9e9fe462352431a847f7616d/000000_000000/0000/tree_61.root
/store/group/phys_higgs/hbb/ntuples/VHbbPostNano/2018/V12/EGamma/ae3d3424fb7c94e9508ffd2dec54d173ae338d9c76a4614276814244/000000_000000/0000/tree_62.root
/store/group/phys_higgs/hbb/ntuples/VHbbPostNano/2018/V12/EGamma/0dc42b0eeecf36e2d603b19dba3b348a167f25c90635312026ff8e59/000000_000000/0000/tree_63.root
/store/group/phys_higgs/hbb/ntuples/VHbbPostNano/2018/V12/EGamma/a91ff0bb367e946e21cf6138aec43e72d4539c8c30f77f87744bb2d8/000000_000000/0000/tree_64.root
/store/group/phys_higgs/hbb/ntuples/VHbbPostNano/2018/V12/EGamma/e5b2fa74384113c465b3658a2d55d3830ed63ef17f98fee112cc25df/000000_000000/0000/tree_65.root
/store/group/phys_higgs/hbb/ntuples/VHbbPostNano/2018/V12/EGamma/883d5e1d85bbdd32a56c29876261ccf491123802f70148bf8d43bc65/000000_000000/0000/tree_66.root
/store/group/phys_higgs/hbb/ntuples/VHbbPostNano/2018/V12/EGamma/260ea04bc0536f0120d4e9cae7df9668b4aadc7d7a4460576e819dee/000000_000000/0000/tree_67.root
/store/group/phys_higgs/hbb/ntuples/VHbbPostNano/2018/V12/EGamma/63738ab0a1fc74243559faa44477173b025ee90b213beda7838b46d2/000000_000000/0000/tree_68.root
/store/group/phys_higgs/hbb/ntuples/VHbbPostNano/2018/V12/EGamma/81c26ccc3c31e95d9040a1be3f77bc3d848eb51d7b27dba057e62571/000000_000000/0000/tree_69.root
/store/group/phys_higgs/hbb/ntuples/VHbbPostNano/2018/V12/EGamma/135d85d9e4b7a919903f9cd9de0732a5174d106e99034288ade32f98/000000_000000/0000/tree_70.root
/store/group/phys_higgs/hbb/ntuples/VHbbPostNano/2018/V12/EGamma/6650a2113e66ee6e6d77959a5cdcd8c484d51f00cead33915533fd6f/000000_000000/0000/tree_71.root