/eos/cms/store/group/phys_higgs/hbb/ntuples/VHbbPostNano/UL/EFT/2018/V1/DYJetsToLL_2J_TuneCP5_13TeV-amcatnloFXFX-pythia8/f311749bc28d60e6bea5f1d8d71428d22c67a74f44d3f06364b3b413/000000_000000/0000/tree_0.root
/eos/cms/store/group/phys_higgs/hbb/ntuples/VHbbPostNano/UL/EFT/2018/V1/DYJetsToLL_2J_TuneCP5_13TeV-amcatnloFXFX-pythia8/93e0e6b22f3ef896142ff24e8bab58ed794f5d2f90f4d4bc37ef2678/000000_000000/0000/tree_1.root
/eos/cms/store/group/phys_higgs/hbb/ntuples/VHbbPostNano/UL/EFT/2018/V1/DYJetsToLL_2J_TuneCP5_13TeV-amcatnloFXFX-pythia8/06b250aa9c609360dea8e781637196b63c226173ad9b3c2b572c0078/000000_000000/0000/tree_2.root
/eos/cms/store/group/phys_higgs/hbb/ntuples/VHbbPostNano/UL/EFT/2018/V1/DYJetsToLL_2J_TuneCP5_13TeV-amcatnloFXFX-pythia8/3542c2a57ae67d4182d646e5b4d992c7c430a1be2f2fbcd472aab1a6/000000_000000/0000/tree_3.root
/eos/cms/store/group/phys_higgs/hbb/ntuples/VHbbPostNano/UL/EFT/2018/V1/DYJetsToLL_2J_TuneCP5_13TeV-amcatnloFXFX-pythia8/d887ed9fd7b75c3b04a21285c6c7b26af23fa96dfdb93eb5ec6def00/000000_000000/0000/tree_4.root
/eos/cms/store/group/phys_higgs/hbb/ntuples/VHbbPostNano/UL/EFT/2018/V1/DYJetsToLL_2J_TuneCP5_13TeV-amcatnloFXFX-pythia8/d32bee33278e8e1d3ed318f7a5d5b56e63525863286e91b21e68eec2/000000_000000/0000/tree_5.root
/eos/cms/store/group/phys_higgs/hbb/ntuples/VHbbPostNano/UL/EFT/2018/V1/DYJetsToLL_2J_TuneCP5_13TeV-amcatnloFXFX-pythia8/ebbc515eb2859808457191f4a099d68e3a31a7346bd24d0a2cbd2cb7/000000_000000/0000/tree_6.root
/eos/cms/store/group/phys_higgs/hbb/ntuples/VHbbPostNano/UL/EFT/2018/V1/DYJetsToLL_2J_TuneCP5_13TeV-amcatnloFXFX-pythia8/d8d939d20eb616f05443721f4fec9769a297f6b83c5d6a91fe558288/000000_000000/0000/tree_7.root
/eos/cms/store/group/phys_higgs/hbb/ntuples/VHbbPostNano/UL/EFT/2018/V1/DYJetsToLL_2J_TuneCP5_13TeV-amcatnloFXFX-pythia8/b4daef20fe93103e2455de84b827c8bef26b3fe955b95269891a9f9f/000000_000000/0000/tree_8.root
/eos/cms/store/group/phys_higgs/hbb/ntuples/VHbbPostNano/UL/EFT/2018/V1/DYJetsToLL_2J_TuneCP5_13TeV-amcatnloFXFX-pythia8/2e349c8327c1e6c0fc5264ef2552fa8d48ccd7de2191628a6ae634b1/000000_000000/0000/tree_9.root
/eos/cms/store/group/phys_higgs/hbb/ntuples/VHbbPostNano/UL/EFT/2018/V1/DYJetsToLL_2J_TuneCP5_13TeV-amcatnloFXFX-pythia8/22cbac222f1cff5be6c6f0cb1287dba26c4bdfc2bc5204d11e49f35a/000000_000000/0000/tree_10.root
/eos/cms/store/group/phys_higgs/hbb/ntuples/VHbbPostNano/UL/EFT/2018/V1/DYJetsToLL_2J_TuneCP5_13TeV-amcatnloFXFX-pythia8/fd662bf14ce6851e5a6c4427ed04fb582b3f81f8c92c6c6447f9eb47/000000_000000/0000/tree_11.root
/eos/cms/store/group/phys_higgs/hbb/ntuples/VHbbPostNano/UL/EFT/2018/V1/DYJetsToLL_2J_TuneCP5_13TeV-amcatnloFXFX-pythia8/7ff92a617e0dd50dd7a4feb60fdfa3982105a563a59e9bed4be0d14c/000000_000000/0000/tree_12.root
/eos/cms/store/group/phys_higgs/hbb/ntuples/VHbbPostNano/UL/EFT/2018/V1/DYJetsToLL_2J_TuneCP5_13TeV-amcatnloFXFX-pythia8/10f0b2495272320e3550111ebc683bf06bee73558a37e49635c7431c/000000_000000/0000/tree_13.root
/eos/cms/store/group/phys_higgs/hbb/ntuples/VHbbPostNano/UL/EFT/2018/V1/DYJetsToLL_2J_TuneCP5_13TeV-amcatnloFXFX-pythia8/44eb58f1669b0f7ba81beb9aa1ad913cf8a24499a422da7328b3be41/000000_000000/0000/tree_14.root
/eos/cms/store/group/phys_higgs/hbb/ntuples/VHbbPostNano/UL/EFT/2018/V1/DYJetsToLL_2J_TuneCP5_13TeV-amcatnloFXFX-pythia8/fac06e8065de87114cfd1dafa44aaeed2d59bad81e0d734b9cae46b1/000000_000000/0000/tree_15.root
/eos/cms/store/group/phys_higgs/hbb/ntuples/VHbbPostNano/UL/EFT/2018/V1/DYJetsToLL_2J_TuneCP5_13TeV-amcatnloFXFX-pythia8/9efca2292af345d3d0282fff4c2f08c8a705616338d9e6ccfa723117/000000_000000/0000/tree_16.root
/eos/cms/store/group/phys_higgs/hbb/ntuples/VHbbPostNano/UL/EFT/2018/V1/DYJetsToLL_2J_TuneCP5_13TeV-amcatnloFXFX-pythia8/6f00ed38bf14139f5f023dcf37c1af93803ac20818f4ada5e0d41039/000000_000000/0000/tree_17.root
/eos/cms/store/group/phys_higgs/hbb/ntuples/VHbbPostNano/UL/EFT/2018/V1/DYJetsToLL_2J_TuneCP5_13TeV-amcatnloFXFX-pythia8/7e0abab86877507e496d36a0d8684a54e2b819e83befe8f4d85af460/000000_000000/0000/tree_18.root
/eos/cms/store/group/phys_higgs/hbb/ntuples/VHbbPostNano/UL/EFT/2018/V1/DYJetsToLL_2J_TuneCP5_13TeV-amcatnloFXFX-pythia8/b3096edfbd54940652281f05432f0d1b508258d96fab7030c615ec11/000000_000000/0000/tree_19.root
/eos/cms/store/group/phys_higgs/hbb/ntuples/VHbbPostNano/UL/EFT/2018/V1/DYJetsToLL_2J_TuneCP5_13TeV-amcatnloFXFX-pythia8/1fd4a57dfae50ad820e4b5a1528eed6112dee49f378a077a26947c8b/000000_000000/0000/tree_20.root
/eos/cms/store/group/phys_higgs/hbb/ntuples/VHbbPostNano/UL/EFT/2018/V1/DYJetsToLL_2J_TuneCP5_13TeV-amcatnloFXFX-pythia8/3984bbc3d28ec357049270252d883342e0b116ed283d66239d4fa37e/000000_000000/0000/tree_21.root
/eos/cms/store/group/phys_higgs/hbb/ntuples/VHbbPostNano/UL/EFT/2018/V1/DYJetsToLL_2J_TuneCP5_13TeV-amcatnloFXFX-pythia8/8deda3fb7429c07c6062f427ffe33c95fbc3e013a94db434e124531b/000000_000000/0000/tree_22.root
/eos/cms/store/group/phys_higgs/hbb/ntuples/VHbbPostNano/UL/EFT/2018/V1/DYJetsToLL_2J_TuneCP5_13TeV-amcatnloFXFX-pythia8/2acd196bcde589c6bd299c1060fb10e497fe4351a336584c51d6d06d/000000_000000/0000/tree_23.root
/eos/cms/store/group/phys_higgs/hbb/ntuples/VHbbPostNano/UL/EFT/2018/V1/DYJetsToLL_2J_TuneCP5_13TeV-amcatnloFXFX-pythia8/ff8f09d0b6801e954a471a91066e55f213ad2e8b2ddfe6714b4fdacf/000000_000000/0000/tree_24.root
/eos/cms/store/group/phys_higgs/hbb/ntuples/VHbbPostNano/UL/EFT/2018/V1/DYJetsToLL_2J_TuneCP5_13TeV-amcatnloFXFX-pythia8/b4d2de6c308914c4eaf74880d2e99e589ee39c0f10863c995678c26f/000000_000000/0000/tree_25.root
/eos/cms/store/group/phys_higgs/hbb/ntuples/VHbbPostNano/UL/EFT/2018/V1/DYJetsToLL_2J_TuneCP5_13TeV-amcatnloFXFX-pythia8/e24c7f5bdcb58a7e1ecd745cfaa0ed9f29381c11f0238a9f0b38b77b/000000_000000/0000/tree_26.root
/eos/cms/store/group/phys_higgs/hbb/ntuples/VHbbPostNano/UL/EFT/2018/V1/DYJetsToLL_2J_TuneCP5_13TeV-amcatnloFXFX-pythia8/ccabca4bbb966121c3ff0696572dae074a5457532ceccffc2309012f/000000_000000/0000/tree_27.root
/eos/cms/store/group/phys_higgs/hbb/ntuples/VHbbPostNano/UL/EFT/2018/V1/DYJetsToLL_2J_TuneCP5_13TeV-amcatnloFXFX-pythia8/0168426059c35a209e8eb8731b43f4b1f658c73308b808da46573a74/000000_000000/0000/tree_28.root
/eos/cms/store/group/phys_higgs/hbb/ntuples/VHbbPostNano/UL/EFT/2018/V1/DYJetsToLL_2J_TuneCP5_13TeV-amcatnloFXFX-pythia8/1848e156135217cf818f71d232a4482faeeba865aedd8da631b3d053/000000_000000/0000/tree_29.root
/eos/cms/store/group/phys_higgs/hbb/ntuples/VHbbPostNano/UL/EFT/2018/V1/DYJetsToLL_2J_TuneCP5_13TeV-amcatnloFXFX-pythia8/cd55d75da360a588eaac753d2a88ef0939574f9cb608585e4b772d53/000000_000000/0000/tree_30.root
/eos/cms/store/group/phys_higgs/hbb/ntuples/VHbbPostNano/UL/EFT/2018/V1/DYJetsToLL_2J_TuneCP5_13TeV-amcatnloFXFX-pythia8/8e84947632695cf7135dc007bda4172f2e3ef7bb151ee473b8e3a471/000000_000000/0000/tree_31.root
/eos/cms/store/group/phys_higgs/hbb/ntuples/VHbbPostNano/UL/EFT/2018/V1/DYJetsToLL_2J_TuneCP5_13TeV-amcatnloFXFX-pythia8/5342d9fb1195cac3580756efd86c495ecc614ec08067481a48198cf6/000000_000000/0000/tree_32.root
/eos/cms/store/group/phys_higgs/hbb/ntuples/VHbbPostNano/UL/EFT/2018/V1/DYJetsToLL_2J_TuneCP5_13TeV-amcatnloFXFX-pythia8/8b2f46679ea4f52cf7ba721d86048c834d15f6345f475c3e66ca2534/000000_000000/0000/tree_33.root
/eos/cms/store/group/phys_higgs/hbb/ntuples/VHbbPostNano/UL/EFT/2018/V1/DYJetsToLL_2J_TuneCP5_13TeV-amcatnloFXFX-pythia8/9fb7af107942bda4770714490b931f465472d6607e966b44323ab345/000000_000000/0000/tree_34.root
/eos/cms/store/group/phys_higgs/hbb/ntuples/VHbbPostNano/UL/EFT/2018/V1/DYJetsToLL_2J_TuneCP5_13TeV-amcatnloFXFX-pythia8/63db818fe3e66cba5909fdd6546ccf01ddb66186eed856a773ffaef9/000000_000000/0000/tree_35.root
/eos/cms/store/group/phys_higgs/hbb/ntuples/VHbbPostNano/UL/EFT/2018/V1/DYJetsToLL_2J_TuneCP5_13TeV-amcatnloFXFX-pythia8/457e66c5089d0484d78f5dbfaf2f03acd8a0fb6324095962882fa8ee/000000_000000/0000/tree_36.root
/eos/cms/store/group/phys_higgs/hbb/ntuples/VHbbPostNano/UL/EFT/2018/V1/DYJetsToLL_2J_TuneCP5_13TeV-amcatnloFXFX-pythia8/8e04b65d6862f662c11dab1e265a30aaa4af0f58fa5b38196ae1b61c/000000_000000/0000/tree_37.root
/eos/cms/store/group/phys_higgs/hbb/ntuples/VHbbPostNano/UL/EFT/2018/V1/DYJetsToLL_2J_TuneCP5_13TeV-amcatnloFXFX-pythia8/59cd2cdca07d6b64deb3673ef559dce3399ac3af9f5074b623c0f564/000000_000000/0000/tree_38.root
/eos/cms/store/group/phys_higgs/hbb/ntuples/VHbbPostNano/UL/EFT/2018/V1/DYJetsToLL_2J_TuneCP5_13TeV-amcatnloFXFX-pythia8/9468ff2308a02e0cf1935226dabf2c1737d2c5f06b2cb3dd39788028/000000_000000/0000/tree_39.root
/eos/cms/store/group/phys_higgs/hbb/ntuples/VHbbPostNano/UL/EFT/2018/V1/DYJetsToLL_2J_TuneCP5_13TeV-amcatnloFXFX-pythia8/19205d33fd6bfeb4c9d1c4b356d8933a59a4e004e54290b3883b0bc1/000000_000000/0000/tree_40.root
/eos/cms/store/group/phys_higgs/hbb/ntuples/VHbbPostNano/UL/EFT/2018/V1/DYJetsToLL_2J_TuneCP5_13TeV-amcatnloFXFX-pythia8/f2d4ef346169d31a61d3604143f457b7741a3e97e05c6e34f554df17/000000_000000/0000/tree_41.root
/eos/cms/store/group/phys_higgs/hbb/ntuples/VHbbPostNano/UL/EFT/2018/V1/DYJetsToLL_2J_TuneCP5_13TeV-amcatnloFXFX-pythia8/4d397d75636ba8fe23cb8ac1e0b087e93a549af21d5834ece90d2b35/000000_000000/0000/tree_42.root
/eos/cms/store/group/phys_higgs/hbb/ntuples/VHbbPostNano/UL/EFT/2018/V1/DYJetsToLL_2J_TuneCP5_13TeV-amcatnloFXFX-pythia8/57ddd58bad99fcdfb516857dde252e66a55dc0b528e317c2ee52f54d/000000_000000/0000/tree_43.root
/eos/cms/store/group/phys_higgs/hbb/ntuples/VHbbPostNano/UL/EFT/2018/V1/DYJetsToLL_2J_TuneCP5_13TeV-amcatnloFXFX-pythia8/12b0d70f6bc02001be6fbde33e12486639216bebfa5663ec4e01aaab/000000_000000/0000/tree_44.root
/eos/cms/store/group/phys_higgs/hbb/ntuples/VHbbPostNano/UL/EFT/2018/V1/DYJetsToLL_2J_TuneCP5_13TeV-amcatnloFXFX-pythia8/9bfb63c3721935a0e22969ed655a7dd971e6786ed9adcce3805df70e/000000_000000/0000/tree_45.root
/eos/cms/store/group/phys_higgs/hbb/ntuples/VHbbPostNano/UL/EFT/2018/V1/DYJetsToLL_2J_TuneCP5_13TeV-amcatnloFXFX-pythia8/578c3cadb099edf942688cd70ebcb2232f6aeb4c07706644da9e646e/000000_000000/0000/tree_46.root
/eos/cms/store/group/phys_higgs/hbb/ntuples/VHbbPostNano/UL/EFT/2018/V1/DYJetsToLL_2J_TuneCP5_13TeV-amcatnloFXFX-pythia8/79d7d5d593f23bdc26add373483e1232b2dc93e4043cafdfb695a18b/000000_000000/0000/tree_47.root
/eos/cms/store/group/phys_higgs/hbb/ntuples/VHbbPostNano/UL/EFT/2018/V1/DYJetsToLL_2J_TuneCP5_13TeV-amcatnloFXFX-pythia8/b20af6135f0afcbb8fa293f54e36f4a9177be1187bd69cc822b33452/000000_000000/0000/tree_48.root
/eos/cms/store/group/phys_higgs/hbb/ntuples/VHbbPostNano/UL/EFT/2018/V1/DYJetsToLL_2J_TuneCP5_13TeV-amcatnloFXFX-pythia8/63882ffe2c4fd213c54ab4d36b223ccd8e89fd536e5b115312a69901/000000_000000/0000/tree_49.root
/eos/cms/store/group/phys_higgs/hbb/ntuples/VHbbPostNano/UL/EFT/2018/V1/DYJetsToLL_2J_TuneCP5_13TeV-amcatnloFXFX-pythia8/0d1e1f495022d3a7e1d3b28485b1937e5f95a533b2c947f38eae6af1/000000_000000/0000/tree_50.root
/eos/cms/store/group/phys_higgs/hbb/ntuples/VHbbPostNano/UL/EFT/2018/V1/DYJetsToLL_2J_TuneCP5_13TeV-amcatnloFXFX-pythia8/a804405ee990654b30d09693c0eb0c26ef77a0368019a27a09486429/000000_000000/0000/tree_51.root
/eos/cms/store/group/phys_higgs/hbb/ntuples/VHbbPostNano/UL/EFT/2018/V1/DYJetsToLL_2J_TuneCP5_13TeV-amcatnloFXFX-pythia8/5f49fb2b0119a6a0de52b31c45b2b6d856c7ac67f3f3b63aec09ed5d/000000_000000/0000/tree_52.root
/eos/cms/store/group/phys_higgs/hbb/ntuples/VHbbPostNano/UL/EFT/2018/V1/DYJetsToLL_2J_TuneCP5_13TeV-amcatnloFXFX-pythia8/d203181e8d9c7d3a908645067d257d1bdd960673d884a9eb31b9b644/000000_000000/0000/tree_53.root
/eos/cms/store/group/phys_higgs/hbb/ntuples/VHbbPostNano/UL/EFT/2018/V1/DYJetsToLL_2J_TuneCP5_13TeV-amcatnloFXFX-pythia8/c7a9202cdada12e1441a62fc4385cafb7c50c6cafd9d4354382ada5c/000000_000000/0000/tree_54.root
/eos/cms/store/group/phys_higgs/hbb/ntuples/VHbbPostNano/UL/EFT/2018/V1/DYJetsToLL_2J_TuneCP5_13TeV-amcatnloFXFX-pythia8/3b5969e79060ad22778dda8aec449040b4a31f31d6126df21004ebfb/000000_000000/0000/tree_55.root
/eos/cms/store/group/phys_higgs/hbb/ntuples/VHbbPostNano/UL/EFT/2018/V1/DYJetsToLL_2J_TuneCP5_13TeV-amcatnloFXFX-pythia8/d27b888a67a0d1af4d44f2f408f6d8715827ba378438e8d24645d117/000000_000000/0000/tree_56.root
/eos/cms/store/group/phys_higgs/hbb/ntuples/VHbbPostNano/UL/EFT/2018/V1/DYJetsToLL_2J_TuneCP5_13TeV-amcatnloFXFX-pythia8/d53682ae689e230f7fc1f6bc6cb7db8fde536d688475dea64bfd09cb/000000_000000/0000/tree_57.root
/eos/cms/store/group/phys_higgs/hbb/ntuples/VHbbPostNano/UL/EFT/2018/V1/DYJetsToLL_2J_TuneCP5_13TeV-amcatnloFXFX-pythia8/d98c2d75563db1f4bbccda5f31439ba3c49853b414c699ad9e7ad5d9/000000_000000/0000/tree_58.root
/eos/cms/store/group/phys_higgs/hbb/ntuples/VHbbPostNano/UL/EFT/2018/V1/DYJetsToLL_2J_TuneCP5_13TeV-amcatnloFXFX-pythia8/0fd018d67126eaa061d96a8aabbc8109cfc7be35008a81eca4e0eafd/000000_000000/0000/tree_59.root
/eos/cms/store/group/phys_higgs/hbb/ntuples/VHbbPostNano/UL/EFT/2018/V1/DYJetsToLL_2J_TuneCP5_13TeV-amcatnloFXFX-pythia8/8bdab98e713d2af6d481ab7b86a5455af0b96a8b4e4ca83af3c6958f/000000_000000/0000/tree_60.root
/eos/cms/store/group/phys_higgs/hbb/ntuples/VHbbPostNano/UL/EFT/2018/V1/DYJetsToLL_2J_TuneCP5_13TeV-amcatnloFXFX-pythia8/8851f607d0652efdbd8de85afab4e1f6d9bdcd425bb728116d6f0450/000000_000000/0000/tree_61.root
/eos/cms/store/group/phys_higgs/hbb/ntuples/VHbbPostNano/UL/EFT/2018/V1/DYJetsToLL_2J_TuneCP5_13TeV-amcatnloFXFX-pythia8/6a6f7c7f1d1627a71dd75645190aeccc4842103779c5037359e5e4eb/000000_000000/0000/tree_62.root
/eos/cms/store/group/phys_higgs/hbb/ntuples/VHbbPostNano/UL/EFT/2018/V1/DYJetsToLL_2J_TuneCP5_13TeV-amcatnloFXFX-pythia8/b611f04f1296fbf85f1b4f1b3349ffca050fcf4fd76df869887925b2/000000_000000/0000/tree_63.root
/eos/cms/store/group/phys_higgs/hbb/ntuples/VHbbPostNano/UL/EFT/2018/V1/DYJetsToLL_2J_TuneCP5_13TeV-amcatnloFXFX-pythia8/9cd8c572fbb8f98e550a1d1500bfb3344b111c79a92339af5e95eb52/000000_000000/0000/tree_64.root
/eos/cms/store/group/phys_higgs/hbb/ntuples/VHbbPostNano/UL/EFT/2018/V1/DYJetsToLL_2J_TuneCP5_13TeV-amcatnloFXFX-pythia8/1e68c4cbd918015d1181d13bcd176d1e15f5786dcb37214036871e65/000000_000000/0000/tree_65.root
/eos/cms/store/group/phys_higgs/hbb/ntuples/VHbbPostNano/UL/EFT/2018/V1/DYJetsToLL_2J_TuneCP5_13TeV-amcatnloFXFX-pythia8/08c7bd2bca4f9b4f7fcc79ede367effc4522c16b4ca7e57cc8122b90/000000_000000/0000/tree_66.root
/eos/cms/store/group/phys_higgs/hbb/ntuples/VHbbPostNano/UL/EFT/2018/V1/DYJetsToLL_2J_TuneCP5_13TeV-amcatnloFXFX-pythia8/e7043d9a14dabfc022f3d70f034e1a1d2a60016fe3205267158ee85a/000000_000000/0000/tree_67.root
/eos/cms/store/group/phys_higgs/hbb/ntuples/VHbbPostNano/UL/EFT/2018/V1/DYJetsToLL_2J_TuneCP5_13TeV-amcatnloFXFX-pythia8/20fd5f613f60dd5d5691a28d4206ee9aeeb82f3644da6446367bbdd3/000000_000000/0000/tree_68.root
/eos/cms/store/group/phys_higgs/hbb/ntuples/VHbbPostNano/UL/EFT/2018/V1/DYJetsToLL_2J_TuneCP5_13TeV-amcatnloFXFX-pythia8/6d0b6556a18171714bbb683a2617b1a390275bdedcf1c560ee505572/000000_000000/0000/tree_69.root
/eos/cms/store/group/phys_higgs/hbb/ntuples/VHbbPostNano/UL/EFT/2018/V1/DYJetsToLL_2J_TuneCP5_13TeV-amcatnloFXFX-pythia8/9810c210030e078c53f749e3c575652afa3dba22630ea7869fc255fe/000000_000000/0000/tree_70.root
/eos/cms/store/group/phys_higgs/hbb/ntuples/VHbbPostNano/UL/EFT/2018/V1/DYJetsToLL_2J_TuneCP5_13TeV-amcatnloFXFX-pythia8/e993b3dfd502b7001c36ea07d14dd1f57c36b8828c2a322b8cc452ae/000000_000000/0000/tree_71.root
/eos/cms/store/group/phys_higgs/hbb/ntuples/VHbbPostNano/UL/EFT/2018/V1/DYJetsToLL_2J_TuneCP5_13TeV-amcatnloFXFX-pythia8/163abf733c6b95854e9326c57d8147e491adcdfdde2f4d29967f449e/000000_000000/0000/tree_72.root
/eos/cms/store/group/phys_higgs/hbb/ntuples/VHbbPostNano/UL/EFT/2018/V1/DYJetsToLL_2J_TuneCP5_13TeV-amcatnloFXFX-pythia8/dcda7f93801712d01a498fec898d0c19afc401cfdcac1a6ba95760b4/000000_000000/0000/tree_73.root
/eos/cms/store/group/phys_higgs/hbb/ntuples/VHbbPostNano/UL/EFT/2018/V1/DYJetsToLL_2J_TuneCP5_13TeV-amcatnloFXFX-pythia8/634ed715d8b04cee98d8267a2a3098bf46a32d9e029cc72cff4ad1a4/000000_000000/0000/tree_74.root
/eos/cms/store/group/phys_higgs/hbb/ntuples/VHbbPostNano/UL/EFT/2018/V1/DYJetsToLL_2J_TuneCP5_13TeV-amcatnloFXFX-pythia8/03b128165c6a1915256ccfb3e047c9994418e8d6dbb3eab13448162d/000000_000000/0000/tree_75.root
/eos/cms/store/group/phys_higgs/hbb/ntuples/VHbbPostNano/UL/EFT/2018/V1/DYJetsToLL_2J_TuneCP5_13TeV-amcatnloFXFX-pythia8/621f426e7a02b964a0ee95872b7984e579b685e8a6163d7f0f08e1a8/000000_000000/0000/tree_76.root
/eos/cms/store/group/phys_higgs/hbb/ntuples/VHbbPostNano/UL/EFT/2018/V1/DYJetsToLL_2J_TuneCP5_13TeV-amcatnloFXFX-pythia8/421f5deb17ab8d62bf1369c1cc345ed1c22e6e81770ec84ab7bff744/000000_000000/0000/tree_77.root
/eos/cms/store/group/phys_higgs/hbb/ntuples/VHbbPostNano/UL/EFT/2018/V1/DYJetsToLL_2J_TuneCP5_13TeV-amcatnloFXFX-pythia8/17add4cb1b9d9ac28c0c55bcb66b19bdd8e4056ca524801d909ec94d/000000_000000/0000/tree_78.root
/eos/cms/store/group/phys_higgs/hbb/ntuples/VHbbPostNano/UL/EFT/2018/V1/DYJetsToLL_2J_TuneCP5_13TeV-amcatnloFXFX-pythia8/b5a1914ccf4b2d0df62628f4367d673d52ec7cddc0ffc9b9a4942b11/000000_000000/0000/tree_79.root
/eos/cms/store/group/phys_higgs/hbb/ntuples/VHbbPostNano/UL/EFT/2018/V1/DYJetsToLL_2J_TuneCP5_13TeV-amcatnloFXFX-pythia8/26952c54ba191e0c05b770bcb6f0c31822980b28ac803e74dbbbe7ff/000000_000000/0000/tree_80.root
/eos/cms/store/group/phys_higgs/hbb/ntuples/VHbbPostNano/UL/EFT/2018/V1/DYJetsToLL_2J_TuneCP5_13TeV-amcatnloFXFX-pythia8/f8f27a0a78286c4797fb8fadbe53847fe526250dd4b716283d09868e/000000_000000/0000/tree_81.root
/eos/cms/store/group/phys_higgs/hbb/ntuples/VHbbPostNano/UL/EFT/2018/V1/DYJetsToLL_2J_TuneCP5_13TeV-amcatnloFXFX-pythia8/9f9bf891f2f231dcbc5407ca4dc0b6d1bfb648defeeb7f49fae7fb12/000000_000000/0000/tree_82.root
/eos/cms/store/group/phys_higgs/hbb/ntuples/VHbbPostNano/UL/EFT/2018/V1/DYJetsToLL_2J_TuneCP5_13TeV-amcatnloFXFX-pythia8/56b280dcdaaef2f260b9ec482c8047291710b6da551d3c7f45d3cc9c/000000_000000/0000/tree_83.root
/eos/cms/store/group/phys_higgs/hbb/ntuples/VHbbPostNano/UL/EFT/2018/V1/DYJetsToLL_2J_TuneCP5_13TeV-amcatnloFXFX-pythia8/9287341b331722a08eb5aff79fdfead7cc11b6ffbeae9502474eff5d/000000_000000/0000/tree_84.root
/eos/cms/store/group/phys_higgs/hbb/ntuples/VHbbPostNano/UL/EFT/2018/V1/DYJetsToLL_2J_TuneCP5_13TeV-amcatnloFXFX-pythia8/fd3794d86b79bcb293cb4c3ba3ae22bc511a08f961c4dcbd2cdb5a19/000000_000000/0000/tree_85.root
/eos/cms/store/group/phys_higgs/hbb/ntuples/VHbbPostNano/UL/EFT/2018/V1/DYJetsToLL_2J_TuneCP5_13TeV-amcatnloFXFX-pythia8/a6ea37235826c5029105ac332a5348c52151d00acaf531382da72439/000000_000000/0000/tree_86.root
/eos/cms/store/group/phys_higgs/hbb/ntuples/VHbbPostNano/UL/EFT/2018/V1/DYJetsToLL_2J_TuneCP5_13TeV-amcatnloFXFX-pythia8/b9da33513117b30ad0a56c34d71a3ed234045b416233a2732a7b8fb4/000000_000000/0000/tree_87.root
/eos/cms/store/group/phys_higgs/hbb/ntuples/VHbbPostNano/UL/EFT/2018/V1/DYJetsToLL_2J_TuneCP5_13TeV-amcatnloFXFX-pythia8/00b5b198923c4dd421cff73a589782be8218ee510c334b85ddd75a51/000000_000000/0000/tree_88.root
/eos/cms/store/group/phys_higgs/hbb/ntuples/VHbbPostNano/UL/EFT/2018/V1/DYJetsToLL_2J_TuneCP5_13TeV-amcatnloFXFX-pythia8/1a2a5343e1e6831f713b2369eebc830d511d7b203cc0203b5dc2b141/000000_000000/0000/tree_89.root
/eos/cms/store/group/phys_higgs/hbb/ntuples/VHbbPostNano/UL/EFT/2018/V1/DYJetsToLL_2J_TuneCP5_13TeV-amcatnloFXFX-pythia8/c9fcecdc197a344304e55dc05c4cf2ed69cf6751831a8699712d7061/000000_000000/0000/tree_90.root
/eos/cms/store/group/phys_higgs/hbb/ntuples/VHbbPostNano/UL/EFT/2018/V1/DYJetsToLL_2J_TuneCP5_13TeV-amcatnloFXFX-pythia8/10fb6c06bada52b96f1148640a99f7e03a12310983415297d28a8587/000000_000000/0000/tree_91.root
/eos/cms/store/group/phys_higgs/hbb/ntuples/VHbbPostNano/UL/EFT/2018/V1/DYJetsToLL_2J_TuneCP5_13TeV-amcatnloFXFX-pythia8/0f101746dc40b1485417fc02cd4e4b190be8b7aee28c3d3bf440f13d/000000_000000/0000/tree_92.root
/eos/cms/store/group/phys_higgs/hbb/ntuples/VHbbPostNano/UL/EFT/2018/V1/DYJetsToLL_2J_TuneCP5_13TeV-amcatnloFXFX-pythia8/c08be47c3f4681b298be8fcfcf2687a7627fb60d0aeef7327d025157/000000_000000/0000/tree_93.root
/eos/cms/store/group/phys_higgs/hbb/ntuples/VHbbPostNano/UL/EFT/2018/V1/DYJetsToLL_2J_TuneCP5_13TeV-amcatnloFXFX-pythia8/8d1aed869d836c6a9bf4d1c41f7e1c71dc2e0cbca40f1b2605dba0bb/000000_000000/0000/tree_94.root
/eos/cms/store/group/phys_higgs/hbb/ntuples/VHbbPostNano/UL/EFT/2018/V1/DYJetsToLL_2J_TuneCP5_13TeV-amcatnloFXFX-pythia8/0caca3f9a84d2e4392e2eb9de57d1aeea4e7fe1f94683087921a71e0/000000_000000/0000/tree_95.root
/eos/cms/store/group/phys_higgs/hbb/ntuples/VHbbPostNano/UL/EFT/2018/V1/DYJetsToLL_2J_TuneCP5_13TeV-amcatnloFXFX-pythia8/53a01e165121c223788b23d8e590368559920d54bc8330ab1837d429/000000_000000/0000/tree_96.root
/eos/cms/store/group/phys_higgs/hbb/ntuples/VHbbPostNano/UL/EFT/2018/V1/DYJetsToLL_2J_TuneCP5_13TeV-amcatnloFXFX-pythia8/38b0855b05cab6597522dc06633ea5de2704ed161533c542584271ea/000000_000000/0000/tree_97.root
/eos/cms/store/group/phys_higgs/hbb/ntuples/VHbbPostNano/UL/EFT/2018/V1/DYJetsToLL_2J_TuneCP5_13TeV-amcatnloFXFX-pythia8/56bb116cd6e6ccb209e2ca131af1791819e3269e3754c38d2f77c642/000000_000000/0000/tree_98.root
/eos/cms/store/group/phys_higgs/hbb/ntuples/VHbbPostNano/UL/EFT/2018/V1/DYJetsToLL_2J_TuneCP5_13TeV-amcatnloFXFX-pythia8/89f1cbadadaa3f5211f6258f8ace718031a8b1c4c9af9273092ed9cb/000000_000000/0000/tree_99.root
/eos/cms/store/group/phys_higgs/hbb/ntuples/VHbbPostNano/UL/EFT/2018/V1/DYJetsToLL_2J_TuneCP5_13TeV-amcatnloFXFX-pythia8/766d8176598924b6e91962d03fe31cd82c590e643197b88f75508366/000000_000000/0000/tree_100.root
/eos/cms/store/group/phys_higgs/hbb/ntuples/VHbbPostNano/UL/EFT/2018/V1/DYJetsToLL_2J_TuneCP5_13TeV-amcatnloFXFX-pythia8/e2094db4cda342b68b565e61f535abf78e24a53acaafc04762c093c3/000000_000000/0000/tree_101.root
/eos/cms/store/group/phys_higgs/hbb/ntuples/VHbbPostNano/UL/EFT/2018/V1/DYJetsToLL_2J_TuneCP5_13TeV-amcatnloFXFX-pythia8/fbeb067d1c9da79fff446482ce4ce1c544351dad67b6db4511c7304f/000000_000000/0000/tree_102.root
/eos/cms/store/group/phys_higgs/hbb/ntuples/VHbbPostNano/UL/EFT/2018/V1/DYJetsToLL_2J_TuneCP5_13TeV-amcatnloFXFX-pythia8/b885171af19bad5f16ea9880d3583c8a65dd5dc031fc7673426bcd10/000000_000000/0000/tree_103.root
/eos/cms/store/group/phys_higgs/hbb/ntuples/VHbbPostNano/UL/EFT/2018/V1/DYJetsToLL_2J_TuneCP5_13TeV-amcatnloFXFX-pythia8/b890d6af9c85714e37ba24b6d59ea1c519d51ad66d06b2fa9acb52f2/000000_000000/0000/tree_104.root
/eos/cms/store/group/phys_higgs/hbb/ntuples/VHbbPostNano/UL/EFT/2018/V1/DYJetsToLL_2J_TuneCP5_13TeV-amcatnloFXFX-pythia8/8ff41987d98b176ac81fc8ee036f21c88a5f8a1099f0bf5561f3db15/000000_000000/0000/tree_105.root
/eos/cms/store/group/phys_higgs/hbb/ntuples/VHbbPostNano/UL/EFT/2018/V1/DYJetsToLL_2J_TuneCP5_13TeV-amcatnloFXFX-pythia8/19a52af9194c761443c2240ea4860c0f95e91777aacbcd5e209b4666/000000_000000/0000/tree_106.root
/eos/cms/store/group/phys_higgs/hbb/ntuples/VHbbPostNano/UL/EFT/2018/V1/DYJetsToLL_2J_TuneCP5_13TeV-amcatnloFXFX-pythia8/320bdb49c167133a4601792fdf6fccccffeb7a63b2added94a591e28/000000_000000/0000/tree_107.root
/eos/cms/store/group/phys_higgs/hbb/ntuples/VHbbPostNano/UL/EFT/2018/V1/DYJetsToLL_2J_TuneCP5_13TeV-amcatnloFXFX-pythia8/7b8d5a5e0e543d0e76cf7a09054941bbe247f18f80d42f07ae7cd580/000000_000000/0000/tree_108.root
/eos/cms/store/group/phys_higgs/hbb/ntuples/VHbbPostNano/UL/EFT/2018/V1/DYJetsToLL_2J_TuneCP5_13TeV-amcatnloFXFX-pythia8/d79c1cac5b2cf74ffde88b04a0461cd0163f54622d2269a66df82f8d/000000_000000/0000/tree_109.root
/eos/cms/store/group/phys_higgs/hbb/ntuples/VHbbPostNano/UL/EFT/2018/V1/DYJetsToLL_2J_TuneCP5_13TeV-amcatnloFXFX-pythia8/628c1571c6f738bf522b3e051ae72609d859d7f1f794bd60ae44c480/000000_000000/0000/tree_110.root
/eos/cms/store/group/phys_higgs/hbb/ntuples/VHbbPostNano/UL/EFT/2018/V1/DYJetsToLL_2J_TuneCP5_13TeV-amcatnloFXFX-pythia8/98703da1de4a23e36373e44172a65ee4c7045fca9ecda8bb03ae8fa0/000000_000000/0000/tree_111.root
/eos/cms/store/group/phys_higgs/hbb/ntuples/VHbbPostNano/UL/EFT/2018/V1/DYJetsToLL_2J_TuneCP5_13TeV-amcatnloFXFX-pythia8/fbcbf63fa5749006312cb4a635d2c757ed59fc55f8277f4a900dfa6f/000000_000000/0000/tree_112.root
/eos/cms/store/group/phys_higgs/hbb/ntuples/VHbbPostNano/UL/EFT/2018/V1/DYJetsToLL_2J_TuneCP5_13TeV-amcatnloFXFX-pythia8/6863151ad4d2703675c3b4f9b89f9bb3781cdb5b8d579e1884e5b201/000000_000000/0000/tree_113.root
/eos/cms/store/group/phys_higgs/hbb/ntuples/VHbbPostNano/UL/EFT/2018/V1/DYJetsToLL_2J_TuneCP5_13TeV-amcatnloFXFX-pythia8/2b7ac769fee07685e616788013877637e9cc5dccfea2a4653e4b9071/000000_000000/0000/tree_114.root
/eos/cms/store/group/phys_higgs/hbb/ntuples/VHbbPostNano/UL/EFT/2018/V1/DYJetsToLL_2J_TuneCP5_13TeV-amcatnloFXFX-pythia8/f150130cb480d33b518c943e649472d4904bc8a3c285f71e1b34744a/000000_000000/0000/tree_115.root
/eos/cms/store/group/phys_higgs/hbb/ntuples/VHbbPostNano/UL/EFT/2018/V1/DYJetsToLL_2J_TuneCP5_13TeV-amcatnloFXFX-pythia8/cc42e2b0b59d76befb66ed884bd42bbf3f0ca3a4956358fe8f5c111c/000000_000000/0000/tree_116.root
/eos/cms/store/group/phys_higgs/hbb/ntuples/VHbbPostNano/UL/EFT/2018/V1/DYJetsToLL_2J_TuneCP5_13TeV-amcatnloFXFX-pythia8/2207ae123b9a568a77bf5086024bb365d1d563b1c692fafb12d3a8f3/000000_000000/0000/tree_117.root
/eos/cms/store/group/phys_higgs/hbb/ntuples/VHbbPostNano/UL/EFT/2018/V1/DYJetsToLL_2J_TuneCP5_13TeV-amcatnloFXFX-pythia8/f7889b1842d67e7f1dd62532994c66ec842bd6ff3932003efba91f35/000000_000000/0000/tree_118.root
/eos/cms/store/group/phys_higgs/hbb/ntuples/VHbbPostNano/UL/EFT/2018/V1/DYJetsToLL_2J_TuneCP5_13TeV-amcatnloFXFX-pythia8/9a42087435dd39204e0906c4914f6e6569ede1b9402345236421d6a3/000000_000000/0000/tree_119.root
/eos/cms/store/group/phys_higgs/hbb/ntuples/VHbbPostNano/UL/EFT/2018/V1/DYJetsToLL_2J_TuneCP5_13TeV-amcatnloFXFX-pythia8/d9dc61e89f487bba743dc1f720778c208f3501d16d247c74d184b026/000000_000000/0000/tree_120.root
/eos/cms/store/group/phys_higgs/hbb/ntuples/VHbbPostNano/UL/EFT/2018/V1/DYJetsToLL_2J_TuneCP5_13TeV-amcatnloFXFX-pythia8/71ca0665397ec00e03ba5af05635b948e6fb8461f87e3003b2f7b924/000000_000000/0000/tree_121.root
/eos/cms/store/group/phys_higgs/hbb/ntuples/VHbbPostNano/UL/EFT/2018/V1/DYJetsToLL_2J_TuneCP5_13TeV-amcatnloFXFX-pythia8/4e8b077fb80655eb003e3e311746b16ec79040873bafe61e0f54e5a0/000000_000000/0000/tree_122.root
/eos/cms/store/group/phys_higgs/hbb/ntuples/VHbbPostNano/UL/EFT/2018/V1/DYJetsToLL_2J_TuneCP5_13TeV-amcatnloFXFX-pythia8/535e1d68c28b35f22eff890f92634cda07328edf4db8c84e8a2b689f/000000_000000/0000/tree_123.root
/eos/cms/store/group/phys_higgs/hbb/ntuples/VHbbPostNano/UL/EFT/2018/V1/DYJetsToLL_2J_TuneCP5_13TeV-amcatnloFXFX-pythia8/dda56b6c4b6d0b09d0457091e040313b6dbd2a3a32e114fccb43c2ab/000000_000000/0000/tree_124.root
/eos/cms/store/group/phys_higgs/hbb/ntuples/VHbbPostNano/UL/EFT/2018/V1/DYJetsToLL_2J_TuneCP5_13TeV-amcatnloFXFX-pythia8/f01c48fe927fdc9c6f3839b5a210dfe0db8571f834a16c717712eee7/000000_000000/0000/tree_125.root
/eos/cms/store/group/phys_higgs/hbb/ntuples/VHbbPostNano/UL/EFT/2018/V1/DYJetsToLL_2J_TuneCP5_13TeV-amcatnloFXFX-pythia8/b1001dfd9b2231af3000904df7a568e8310241efe161d0d730ef2a9c/000000_000000/0000/tree_126.root
/eos/cms/store/group/phys_higgs/hbb/ntuples/VHbbPostNano/UL/EFT/2018/V1/DYJetsToLL_2J_TuneCP5_13TeV-amcatnloFXFX-pythia8/946fca57fdb0d5d257da5ddea22a9164700eb1383bf46072264c9c7f/000000_000000/0000/tree_127.root
/eos/cms/store/group/phys_higgs/hbb/ntuples/VHbbPostNano/UL/EFT/2018/V1/DYJetsToLL_2J_TuneCP5_13TeV-amcatnloFXFX-pythia8/ce6c048192aa047e5f823703c430bb563bb2d94894ef5d104142a7ef/000000_000000/0000/tree_128.root
/eos/cms/store/group/phys_higgs/hbb/ntuples/VHbbPostNano/UL/EFT/2018/V1/DYJetsToLL_2J_TuneCP5_13TeV-amcatnloFXFX-pythia8/5e1a3b7c3cde88bcf9bd6d1c35fdfce0325868d2f7568dc7313a6aff/000000_000000/0000/tree_129.root