/eos/cms/store/group/phys_higgs/ec/hbb/ntuples/VHbbPostNano/UL/EFT/2018/V1/DYJetsToLL_LHEFilterPtZ-50To100_MatchEWPDG20_TuneCP5_13TeV-amcatnloFXFX-pythia8/680e27d9ccc84289bb77f3a0fdd39001df6f8b6216c2621647f83dbe/000000_000000/0000/tree_0.root
/eos/cms/store/group/phys_higgs/ec/hbb/ntuples/VHbbPostNano/UL/EFT/2018/V1/DYJetsToLL_LHEFilterPtZ-50To100_MatchEWPDG20_TuneCP5_13TeV-amcatnloFXFX-pythia8/e808ffc0de27576e00a314060b8f18fb4ae8e781f82d553547a0610e/000000_000000/0000/tree_1.root
/eos/cms/store/group/phys_higgs/ec/hbb/ntuples/VHbbPostNano/UL/EFT/2018/V1/DYJetsToLL_LHEFilterPtZ-50To100_MatchEWPDG20_TuneCP5_13TeV-amcatnloFXFX-pythia8/a747baf254d230ba4885df1e705a60af259fec89186a129250c11adc/000000_000000/0000/tree_2.root
/eos/cms/store/group/phys_higgs/ec/hbb/ntuples/VHbbPostNano/UL/EFT/2018/V1/DYJetsToLL_LHEFilterPtZ-50To100_MatchEWPDG20_TuneCP5_13TeV-amcatnloFXFX-pythia8/acb6a5761afea71dacdca9ae6e53013010f131aac3a38cfa2a7a5bf2/000000_000000/0000/tree_3.root
/eos/cms/store/group/phys_higgs/ec/hbb/ntuples/VHbbPostNano/UL/EFT/2018/V1/DYJetsToLL_LHEFilterPtZ-50To100_MatchEWPDG20_TuneCP5_13TeV-amcatnloFXFX-pythia8/a6192756b5ad61b167fbc5ac108695720f826516b6bfa83c7e064544/000000_000000/0000/tree_4.root
/eos/cms/store/group/phys_higgs/ec/hbb/ntuples/VHbbPostNano/UL/EFT/2018/V1/DYJetsToLL_LHEFilterPtZ-50To100_MatchEWPDG20_TuneCP5_13TeV-amcatnloFXFX-pythia8/9913992c1756b5cbf0d186734bad524dcc54eb25be23a60ae10176f4/000000_000000/0000/tree_5.root
/eos/cms/store/group/phys_higgs/ec/hbb/ntuples/VHbbPostNano/UL/EFT/2018/V1/DYJetsToLL_LHEFilterPtZ-50To100_MatchEWPDG20_TuneCP5_13TeV-amcatnloFXFX-pythia8/ebac963a31538761ef44d8e8effe590ad0b572dfd52e6b1d0018d48e/000000_000000/0000/tree_6.root
/eos/cms/store/group/phys_higgs/ec/hbb/ntuples/VHbbPostNano/UL/EFT/2018/V1/DYJetsToLL_LHEFilterPtZ-50To100_MatchEWPDG20_TuneCP5_13TeV-amcatnloFXFX-pythia8/e488800578d1348d980f4b0a1a3833798d33985e4f49bd0c61cc2938/000000_000000/0000/tree_7.root
/eos/cms/store/group/phys_higgs/ec/hbb/ntuples/VHbbPostNano/UL/EFT/2018/V1/DYJetsToLL_LHEFilterPtZ-50To100_MatchEWPDG20_TuneCP5_13TeV-amcatnloFXFX-pythia8/3ebacff154727f370a798a31255d67b6761292a8da86da04e6e2af84/000000_000000/0000/tree_8.root
/eos/cms/store/group/phys_higgs/ec/hbb/ntuples/VHbbPostNano/UL/EFT/2018/V1/DYJetsToLL_LHEFilterPtZ-50To100_MatchEWPDG20_TuneCP5_13TeV-amcatnloFXFX-pythia8/715054aa829d20462965175144a63047026410737812c78268fa7c78/000000_000000/0000/tree_9.root
/eos/cms/store/group/phys_higgs/ec/hbb/ntuples/VHbbPostNano/UL/EFT/2018/V1/DYJetsToLL_LHEFilterPtZ-50To100_MatchEWPDG20_TuneCP5_13TeV-amcatnloFXFX-pythia8/5e37a5601a222dcb6e09c2605aed26ad9f016d2fd594e941bdadd476/000000_000000/0000/tree_10.root
/eos/cms/store/group/phys_higgs/ec/hbb/ntuples/VHbbPostNano/UL/EFT/2018/V1/DYJetsToLL_LHEFilterPtZ-50To100_MatchEWPDG20_TuneCP5_13TeV-amcatnloFXFX-pythia8/a3e03f2e8e5ce670625a8c7929746749e20f82fd1f818e4689f46ee6/000000_000000/0000/tree_11.root
/eos/cms/store/group/phys_higgs/ec/hbb/ntuples/VHbbPostNano/UL/EFT/2018/V1/DYJetsToLL_LHEFilterPtZ-50To100_MatchEWPDG20_TuneCP5_13TeV-amcatnloFXFX-pythia8/4ec1b217bee857faaac7b30887bc6bf9f90178ef69ec3bee7b43dccd/000000_000000/0000/tree_12.root
/eos/cms/store/group/phys_higgs/ec/hbb/ntuples/VHbbPostNano/UL/EFT/2018/V1/DYJetsToLL_LHEFilterPtZ-50To100_MatchEWPDG20_TuneCP5_13TeV-amcatnloFXFX-pythia8/f1cf7eddd74edc26c01046cd24d8f0ec578026470ad84c984a573986/000000_000000/0000/tree_13.root
/eos/cms/store/group/phys_higgs/ec/hbb/ntuples/VHbbPostNano/UL/EFT/2018/V1/DYJetsToLL_LHEFilterPtZ-50To100_MatchEWPDG20_TuneCP5_13TeV-amcatnloFXFX-pythia8/e9ccc2904924881c4a58da7e79df827867dc779a85ce23850ec1876f/000000_000000/0000/tree_14.root
/eos/cms/store/group/phys_higgs/ec/hbb/ntuples/VHbbPostNano/UL/EFT/2018/V1/DYJetsToLL_LHEFilterPtZ-50To100_MatchEWPDG20_TuneCP5_13TeV-amcatnloFXFX-pythia8/0ef579b6174dfd848640f2b9da135b99e389d72fb5d687fbe6a1afa6/000000_000000/0000/tree_15.root
/eos/cms/store/group/phys_higgs/ec/hbb/ntuples/VHbbPostNano/UL/EFT/2018/V1/DYJetsToLL_LHEFilterPtZ-50To100_MatchEWPDG20_TuneCP5_13TeV-amcatnloFXFX-pythia8/ca189cdf83fe1ddfe0cb4126dc0417c769cf2b17ab947d58be525e78/000000_000000/0000/tree_16.root
/eos/cms/store/group/phys_higgs/ec/hbb/ntuples/VHbbPostNano/UL/EFT/2018/V1/DYJetsToLL_LHEFilterPtZ-50To100_MatchEWPDG20_TuneCP5_13TeV-amcatnloFXFX-pythia8/573a2b03d3cd3cc98b27dbe92f9240c6a4a88ea354475bdccf02ca22/000000_000000/0000/tree_17.root
/eos/cms/store/group/phys_higgs/ec/hbb/ntuples/VHbbPostNano/UL/EFT/2018/V1/DYJetsToLL_LHEFilterPtZ-50To100_MatchEWPDG20_TuneCP5_13TeV-amcatnloFXFX-pythia8/a76123845888c9f51bc7057231a24009ae22e7f8122538f4694837fb/000000_000000/0000/tree_18.root
/eos/cms/store/group/phys_higgs/ec/hbb/ntuples/VHbbPostNano/UL/EFT/2018/V1/DYJetsToLL_LHEFilterPtZ-50To100_MatchEWPDG20_TuneCP5_13TeV-amcatnloFXFX-pythia8/e9ded5869be82e213ecf0aadcae3b356382fe2218a5ae9cfddf2b800/000000_000000/0000/tree_19.root
/eos/cms/store/group/phys_higgs/ec/hbb/ntuples/VHbbPostNano/UL/EFT/2018/V1/DYJetsToLL_LHEFilterPtZ-50To100_MatchEWPDG20_TuneCP5_13TeV-amcatnloFXFX-pythia8/0270c48d38549ad4b724dc7d800af6b4b40e00aa841bebe2087b7778/000000_000000/0000/tree_20.root
/eos/cms/store/group/phys_higgs/ec/hbb/ntuples/VHbbPostNano/UL/EFT/2018/V1/DYJetsToLL_LHEFilterPtZ-50To100_MatchEWPDG20_TuneCP5_13TeV-amcatnloFXFX-pythia8/343a964f6974942b056b30ac724f5271129310dc032c3f7a30cf4150/000000_000000/0000/tree_21.root
/eos/cms/store/group/phys_higgs/ec/hbb/ntuples/VHbbPostNano/UL/EFT/2018/V1/DYJetsToLL_LHEFilterPtZ-50To100_MatchEWPDG20_TuneCP5_13TeV-amcatnloFXFX-pythia8/9f0fa41f3883dbfcdd1444f168b4d2fa94a0d523b0a130e9518953c8/000000_000000/0000/tree_22.root
/eos/cms/store/group/phys_higgs/ec/hbb/ntuples/VHbbPostNano/UL/EFT/2018/V1/DYJetsToLL_LHEFilterPtZ-50To100_MatchEWPDG20_TuneCP5_13TeV-amcatnloFXFX-pythia8/94ad133facfeec497524c19afc104b04fffd97b867498169828222eb/000000_000000/0000/tree_23.root
/eos/cms/store/group/phys_higgs/ec/hbb/ntuples/VHbbPostNano/UL/EFT/2018/V1/DYJetsToLL_LHEFilterPtZ-50To100_MatchEWPDG20_TuneCP5_13TeV-amcatnloFXFX-pythia8/c54387dea77db35a43f18c6c23184a2c26338bdf952645d0969c4d3e/000000_000000/0000/tree_24.root
/eos/cms/store/group/phys_higgs/ec/hbb/ntuples/VHbbPostNano/UL/EFT/2018/V1/DYJetsToLL_LHEFilterPtZ-50To100_MatchEWPDG20_TuneCP5_13TeV-amcatnloFXFX-pythia8/78efb3781ef5292dfe4f3c21d4d6fb866398c7e928241498eea961a3/000000_000000/0000/tree_25.root
/eos/cms/store/group/phys_higgs/ec/hbb/ntuples/VHbbPostNano/UL/EFT/2018/V1/DYJetsToLL_LHEFilterPtZ-50To100_MatchEWPDG20_TuneCP5_13TeV-amcatnloFXFX-pythia8/9a8d98ee89d3c5d69c2650a8033383be26840f1cb56f3dda1e906f9c/000000_000000/0000/tree_26.root
/eos/cms/store/group/phys_higgs/ec/hbb/ntuples/VHbbPostNano/UL/EFT/2018/V1/DYJetsToLL_LHEFilterPtZ-50To100_MatchEWPDG20_TuneCP5_13TeV-amcatnloFXFX-pythia8/6579987c23a8b878b0b89c6ab7d0f7d1ff40660dcb87481504347db9/000000_000000/0000/tree_27.root
/eos/cms/store/group/phys_higgs/ec/hbb/ntuples/VHbbPostNano/UL/EFT/2018/V1/DYJetsToLL_LHEFilterPtZ-50To100_MatchEWPDG20_TuneCP5_13TeV-amcatnloFXFX-pythia8/ddbc3e6d7d068e9f2152b98ddaa9d6f3f330d508ee8b5b39f738dcf8/000000_000000/0000/tree_28.root
/eos/cms/store/group/phys_higgs/ec/hbb/ntuples/VHbbPostNano/UL/EFT/2018/V1/DYJetsToLL_LHEFilterPtZ-50To100_MatchEWPDG20_TuneCP5_13TeV-amcatnloFXFX-pythia8/2981aa197c5727af4690fb26b6227abd8d5e7d8393f2a4433e4f4d7c/000000_000000/0000/tree_29.root
/eos/cms/store/group/phys_higgs/ec/hbb/ntuples/VHbbPostNano/UL/EFT/2018/V1/DYJetsToLL_LHEFilterPtZ-50To100_MatchEWPDG20_TuneCP5_13TeV-amcatnloFXFX-pythia8/4778d6595c7fb559b0330c0e2099a41fd31a36840ebb5ab0c5bb6a4a/000000_000000/0000/tree_30.root
/eos/cms/store/group/phys_higgs/ec/hbb/ntuples/VHbbPostNano/UL/EFT/2018/V1/DYJetsToLL_LHEFilterPtZ-50To100_MatchEWPDG20_TuneCP5_13TeV-amcatnloFXFX-pythia8/2bd33d1808170d65bf3d12c57859679537c68d45732396a6cc086d13/000000_000000/0000/tree_31.root
/eos/cms/store/group/phys_higgs/ec/hbb/ntuples/VHbbPostNano/UL/EFT/2018/V1/DYJetsToLL_LHEFilterPtZ-50To100_MatchEWPDG20_TuneCP5_13TeV-amcatnloFXFX-pythia8/2ad51b2539839e9bca956588451f70b49add44a172695a6ec74b2e4f/000000_000000/0000/tree_32.root
/eos/cms/store/group/phys_higgs/ec/hbb/ntuples/VHbbPostNano/UL/EFT/2018/V1/DYJetsToLL_LHEFilterPtZ-50To100_MatchEWPDG20_TuneCP5_13TeV-amcatnloFXFX-pythia8/7b483bc15489b2db345de639ee650366fe67a29e8172f044ce345eb1/000000_000000/0000/tree_33.root
/eos/cms/store/group/phys_higgs/ec/hbb/ntuples/VHbbPostNano/UL/EFT/2018/V1/DYJetsToLL_LHEFilterPtZ-50To100_MatchEWPDG20_TuneCP5_13TeV-amcatnloFXFX-pythia8/a90de3fd823c4f7dcd6ed1539803de38c8e430e35a705fcf26f9263c/000000_000000/0000/tree_34.root
/eos/cms/store/group/phys_higgs/ec/hbb/ntuples/VHbbPostNano/UL/EFT/2018/V1/DYJetsToLL_LHEFilterPtZ-50To100_MatchEWPDG20_TuneCP5_13TeV-amcatnloFXFX-pythia8/e58c73ecea22734fd0a680229dad1fec94218aa65eb8fc9104803dd5/000000_000000/0000/tree_35.root
/eos/cms/store/group/phys_higgs/ec/hbb/ntuples/VHbbPostNano/UL/EFT/2018/V1/DYJetsToLL_LHEFilterPtZ-50To100_MatchEWPDG20_TuneCP5_13TeV-amcatnloFXFX-pythia8/ad49004b2ed9f63e8e3d796f16bcda40902f26bd7fbfcf7337d52046/000000_000000/0000/tree_36.root
/eos/cms/store/group/phys_higgs/ec/hbb/ntuples/VHbbPostNano/UL/EFT/2018/V1/DYJetsToLL_LHEFilterPtZ-50To100_MatchEWPDG20_TuneCP5_13TeV-amcatnloFXFX-pythia8/613c1c6bc7780e389e31d400cd9985f86794f9cec6c08121c8ca614b/000000_000000/0000/tree_37.root
/eos/cms/store/group/phys_higgs/ec/hbb/ntuples/VHbbPostNano/UL/EFT/2018/V1/DYJetsToLL_LHEFilterPtZ-50To100_MatchEWPDG20_TuneCP5_13TeV-amcatnloFXFX-pythia8/292fa5535f9884975c5f9e0e2a4af470c81b04eb42d6389fbbb6c698/000000_000000/0000/tree_38.root
/eos/cms/store/group/phys_higgs/ec/hbb/ntuples/VHbbPostNano/UL/EFT/2018/V1/DYJetsToLL_LHEFilterPtZ-50To100_MatchEWPDG20_TuneCP5_13TeV-amcatnloFXFX-pythia8/9573f3785851203373bef3cf1647c54ebaf2b0d5c46704c196499ee3/000000_000000/0000/tree_39.root
/eos/cms/store/group/phys_higgs/ec/hbb/ntuples/VHbbPostNano/UL/EFT/2018/V1/DYJetsToLL_LHEFilterPtZ-50To100_MatchEWPDG20_TuneCP5_13TeV-amcatnloFXFX-pythia8/f99813653c31b3312af5e8b417850114244b26366c7a894e125ae638/000000_000000/0000/tree_40.root
/eos/cms/store/group/phys_higgs/ec/hbb/ntuples/VHbbPostNano/UL/EFT/2018/V1/DYJetsToLL_LHEFilterPtZ-50To100_MatchEWPDG20_TuneCP5_13TeV-amcatnloFXFX-pythia8/5bc912088fdfd9a45a37057c4f0306b687b3d2001f7ebd5afaca141f/000000_000000/0000/tree_41.root
/eos/cms/store/group/phys_higgs/ec/hbb/ntuples/VHbbPostNano/UL/EFT/2018/V1/DYJetsToLL_LHEFilterPtZ-50To100_MatchEWPDG20_TuneCP5_13TeV-amcatnloFXFX-pythia8/985f4ade4049d2ac4accd724ef0deb270f2cc3d841a53bfac7f8ef34/000000_000000/0000/tree_42.root
/eos/cms/store/group/phys_higgs/ec/hbb/ntuples/VHbbPostNano/UL/EFT/2018/V1/DYJetsToLL_LHEFilterPtZ-50To100_MatchEWPDG20_TuneCP5_13TeV-amcatnloFXFX-pythia8/a3baaad55240a846a8c5170322bd4b4791d3c58818baf546890b0fc5/000000_000000/0000/tree_43.root
/eos/cms/store/group/phys_higgs/ec/hbb/ntuples/VHbbPostNano/UL/EFT/2018/V1/DYJetsToLL_LHEFilterPtZ-50To100_MatchEWPDG20_TuneCP5_13TeV-amcatnloFXFX-pythia8/3484eb6ffcdab1671fd78b10751dcdbab9d34e128a01932c9113840a/000000_000000/0000/tree_44.root
/eos/cms/store/group/phys_higgs/ec/hbb/ntuples/VHbbPostNano/UL/EFT/2018/V1/DYJetsToLL_LHEFilterPtZ-50To100_MatchEWPDG20_TuneCP5_13TeV-amcatnloFXFX-pythia8/9b34939327411004ced83d21d9023ed4c83b7cc3232f94a034099339/000000_000000/0000/tree_45.root
/eos/cms/store/group/phys_higgs/ec/hbb/ntuples/VHbbPostNano/UL/EFT/2018/V1/DYJetsToLL_LHEFilterPtZ-50To100_MatchEWPDG20_TuneCP5_13TeV-amcatnloFXFX-pythia8/1a45be707e9dac7f3d920bb8d3f6742afa9c429bdf6307e2c8db40af/000000_000000/0000/tree_46.root
/eos/cms/store/group/phys_higgs/ec/hbb/ntuples/VHbbPostNano/UL/EFT/2018/V1/DYJetsToLL_LHEFilterPtZ-50To100_MatchEWPDG20_TuneCP5_13TeV-amcatnloFXFX-pythia8/a77e496cf60ff9e082b604fa2994bed0d95d1c2bbc949ac820c1f9a8/000000_000000/0000/tree_47.root
/eos/cms/store/group/phys_higgs/ec/hbb/ntuples/VHbbPostNano/UL/EFT/2018/V1/DYJetsToLL_LHEFilterPtZ-50To100_MatchEWPDG20_TuneCP5_13TeV-amcatnloFXFX-pythia8/03c493b7b9f6d943dfebbf99dabf5d7a443efd9b2ebe3eb622be3c34/000000_000000/0000/tree_48.root
/eos/cms/store/group/phys_higgs/ec/hbb/ntuples/VHbbPostNano/UL/EFT/2018/V1/DYJetsToLL_LHEFilterPtZ-50To100_MatchEWPDG20_TuneCP5_13TeV-amcatnloFXFX-pythia8/ec6ce5571c3451b1c0bee10e2fc29af8957a033d530431482f43d6fc/000000_000000/0000/tree_49.root
/eos/cms/store/group/phys_higgs/ec/hbb/ntuples/VHbbPostNano/UL/EFT/2018/V1/DYJetsToLL_LHEFilterPtZ-50To100_MatchEWPDG20_TuneCP5_13TeV-amcatnloFXFX-pythia8/15a4d1676384419e7075a1903684d52abf0b3383553be97e75df3cb7/000000_000000/0000/tree_50.root
/eos/cms/store/group/phys_higgs/ec/hbb/ntuples/VHbbPostNano/UL/EFT/2018/V1/DYJetsToLL_LHEFilterPtZ-50To100_MatchEWPDG20_TuneCP5_13TeV-amcatnloFXFX-pythia8/18c92c9f89f005786db92766ac56b6c8b0e0f33887d4b93ad6779a02/000000_000000/0000/tree_51.root
/eos/cms/store/group/phys_higgs/ec/hbb/ntuples/VHbbPostNano/UL/EFT/2018/V1/DYJetsToLL_LHEFilterPtZ-50To100_MatchEWPDG20_TuneCP5_13TeV-amcatnloFXFX-pythia8/f70eb23896fcb066d23a2124144e54c35f4a1992b186c63052dd97fa/000000_000000/0000/tree_52.root
/eos/cms/store/group/phys_higgs/ec/hbb/ntuples/VHbbPostNano/UL/EFT/2018/V1/DYJetsToLL_LHEFilterPtZ-50To100_MatchEWPDG20_TuneCP5_13TeV-amcatnloFXFX-pythia8/21b3708d6cac46d10df7938bb7c9c7548eb1cc98c2f276254b9b9fff/000000_000000/0000/tree_53.root
/eos/cms/store/group/phys_higgs/ec/hbb/ntuples/VHbbPostNano/UL/EFT/2018/V1/DYJetsToLL_LHEFilterPtZ-50To100_MatchEWPDG20_TuneCP5_13TeV-amcatnloFXFX-pythia8/c5883d32321e7e07373a387b1fa20f439d7d1f9a91566279eb344073/000000_000000/0000/tree_54.root
/eos/cms/store/group/phys_higgs/ec/hbb/ntuples/VHbbPostNano/UL/EFT/2018/V1/DYJetsToLL_LHEFilterPtZ-50To100_MatchEWPDG20_TuneCP5_13TeV-amcatnloFXFX-pythia8/5d517319f7d12e9326535716a71b775cb1edfc578484fffcf478378a/000000_000000/0000/tree_55.root
/eos/cms/store/group/phys_higgs/ec/hbb/ntuples/VHbbPostNano/UL/EFT/2018/V1/DYJetsToLL_LHEFilterPtZ-50To100_MatchEWPDG20_TuneCP5_13TeV-amcatnloFXFX-pythia8/2aaa96b459995e0c8d49c909592aee13542cbd9155b8ee6eca0f4688/000000_000000/0000/tree_56.root
/eos/cms/store/group/phys_higgs/ec/hbb/ntuples/VHbbPostNano/UL/EFT/2018/V1/DYJetsToLL_LHEFilterPtZ-50To100_MatchEWPDG20_TuneCP5_13TeV-amcatnloFXFX-pythia8/17f081e66fdb33ceaad62654a75dd9f9e289eb87112fe5b7502f61a2/000000_000000/0000/tree_57.root
/eos/cms/store/group/phys_higgs/ec/hbb/ntuples/VHbbPostNano/UL/EFT/2018/V1/DYJetsToLL_LHEFilterPtZ-50To100_MatchEWPDG20_TuneCP5_13TeV-amcatnloFXFX-pythia8/03e9f1313383a7c67d0c00ee5d19a605b4f84df79407e220059add0d/000000_000000/0000/tree_58.root
/eos/cms/store/group/phys_higgs/ec/hbb/ntuples/VHbbPostNano/UL/EFT/2018/V1/DYJetsToLL_LHEFilterPtZ-50To100_MatchEWPDG20_TuneCP5_13TeV-amcatnloFXFX-pythia8/b9c1271543fc8b048e6c26bbb0ec838e39697d626715ed544803e71a/000000_000000/0000/tree_59.root
/eos/cms/store/group/phys_higgs/ec/hbb/ntuples/VHbbPostNano/UL/EFT/2018/V1/DYJetsToLL_LHEFilterPtZ-50To100_MatchEWPDG20_TuneCP5_13TeV-amcatnloFXFX-pythia8/e04eb218c510e4543db678a7ee3a25256c912c54f800c6e52ddcc860/000000_000000/0000/tree_60.root
/eos/cms/store/group/phys_higgs/ec/hbb/ntuples/VHbbPostNano/UL/EFT/2018/V1/DYJetsToLL_LHEFilterPtZ-50To100_MatchEWPDG20_TuneCP5_13TeV-amcatnloFXFX-pythia8/cd222d158993b90bf4e23d8e28fa5234dcf0eda24020d23f277ae891/000000_000000/0000/tree_61.root
/eos/cms/store/group/phys_higgs/ec/hbb/ntuples/VHbbPostNano/UL/EFT/2018/V1/DYJetsToLL_LHEFilterPtZ-50To100_MatchEWPDG20_TuneCP5_13TeV-amcatnloFXFX-pythia8/ed174eb8a6cf52fcd9633fee25994d0052c101f759a2ce59317bef3c/000000_000000/0000/tree_62.root
/eos/cms/store/group/phys_higgs/ec/hbb/ntuples/VHbbPostNano/UL/EFT/2018/V1/DYJetsToLL_LHEFilterPtZ-50To100_MatchEWPDG20_TuneCP5_13TeV-amcatnloFXFX-pythia8/31e3802383e01c6efc4c83a1073b128323ed58c13ce177911359ebcd/000000_000000/0000/tree_63.root
/eos/cms/store/group/phys_higgs/ec/hbb/ntuples/VHbbPostNano/UL/EFT/2018/V1/DYJetsToLL_LHEFilterPtZ-50To100_MatchEWPDG20_TuneCP5_13TeV-amcatnloFXFX-pythia8/a2b32f4429bf35dc9f8e93f72c36711d05bf3db78cd8f76dfe3a0165/000000_000000/0000/tree_64.root
/eos/cms/store/group/phys_higgs/ec/hbb/ntuples/VHbbPostNano/UL/EFT/2018/V1/DYJetsToLL_LHEFilterPtZ-50To100_MatchEWPDG20_TuneCP5_13TeV-amcatnloFXFX-pythia8/9fd1f415a457ba2adab5b536cf56e49ab1387c97cf7bffbf88051b32/000000_000000/0000/tree_65.root
/eos/cms/store/group/phys_higgs/ec/hbb/ntuples/VHbbPostNano/UL/EFT/2018/V1/DYJetsToLL_LHEFilterPtZ-50To100_MatchEWPDG20_TuneCP5_13TeV-amcatnloFXFX-pythia8/6d09ba628216d61d167208839e4a7e2a299a4f355f8c7047665b4bf1/000000_000000/0000/tree_66.root
/eos/cms/store/group/phys_higgs/ec/hbb/ntuples/VHbbPostNano/UL/EFT/2018/V1/DYJetsToLL_LHEFilterPtZ-50To100_MatchEWPDG20_TuneCP5_13TeV-amcatnloFXFX-pythia8/36f77e69240a5017052e18ac5c50da33dce796175a4c399be9d68ec6/000000_000000/0000/tree_67.root
/eos/cms/store/group/phys_higgs/ec/hbb/ntuples/VHbbPostNano/UL/EFT/2018/V1/DYJetsToLL_LHEFilterPtZ-50To100_MatchEWPDG20_TuneCP5_13TeV-amcatnloFXFX-pythia8/0f6e661919ba70c09e8fc8e7e4c5a7b3024b55789ae02b92c9e89938/000000_000000/0000/tree_68.root
/eos/cms/store/group/phys_higgs/ec/hbb/ntuples/VHbbPostNano/UL/EFT/2018/V1/DYJetsToLL_LHEFilterPtZ-50To100_MatchEWPDG20_TuneCP5_13TeV-amcatnloFXFX-pythia8/fe98581fd10ae6408308ff89f5bc34a6ab5a7a1da423529002450f72/000000_000000/0000/tree_69.root
/eos/cms/store/group/phys_higgs/ec/hbb/ntuples/VHbbPostNano/UL/EFT/2018/V1/DYJetsToLL_LHEFilterPtZ-50To100_MatchEWPDG20_TuneCP5_13TeV-amcatnloFXFX-pythia8/8d2c480cca5ae6a4a2950d470e87689f780e6b82cf57ca7c3ef0345c/000000_000000/0000/tree_70.root
/eos/cms/store/group/phys_higgs/ec/hbb/ntuples/VHbbPostNano/UL/EFT/2018/V1/DYJetsToLL_LHEFilterPtZ-50To100_MatchEWPDG20_TuneCP5_13TeV-amcatnloFXFX-pythia8/34533a9e5fe12b2ab413052f52214f7b43b00633716a4006c612a4b0/000000_000000/0000/tree_71.root
/eos/cms/store/group/phys_higgs/ec/hbb/ntuples/VHbbPostNano/UL/EFT/2018/V1/DYJetsToLL_LHEFilterPtZ-50To100_MatchEWPDG20_TuneCP5_13TeV-amcatnloFXFX-pythia8/a70f4e02eb1a4bd56cbc87627a7ada6a18a15e801d71e3eb4d9f78ba/000000_000000/0000/tree_72.root
/eos/cms/store/group/phys_higgs/ec/hbb/ntuples/VHbbPostNano/UL/EFT/2018/V1/DYJetsToLL_LHEFilterPtZ-50To100_MatchEWPDG20_TuneCP5_13TeV-amcatnloFXFX-pythia8/ca9887101030d1148a8c8c7e5ee86f6054cef0e9c3a3d2f92e7ee7a2/000000_000000/0000/tree_73.root
/eos/cms/store/group/phys_higgs/ec/hbb/ntuples/VHbbPostNano/UL/EFT/2018/V1/DYJetsToLL_LHEFilterPtZ-50To100_MatchEWPDG20_TuneCP5_13TeV-amcatnloFXFX-pythia8/7eb2ac5cd891cfff2a558519131996be53c07d258a5a8f9e77bba3a2/000000_000000/0000/tree_74.root
/eos/cms/store/group/phys_higgs/ec/hbb/ntuples/VHbbPostNano/UL/EFT/2018/V1/DYJetsToLL_LHEFilterPtZ-50To100_MatchEWPDG20_TuneCP5_13TeV-amcatnloFXFX-pythia8/85164e6212b59e6a38f22032e99d4e59729fd888d2b0f8f800b6a1cc/000000_000000/0000/tree_75.root
/eos/cms/store/group/phys_higgs/ec/hbb/ntuples/VHbbPostNano/UL/EFT/2018/V1/DYJetsToLL_LHEFilterPtZ-50To100_MatchEWPDG20_TuneCP5_13TeV-amcatnloFXFX-pythia8/bbf5d71f2a30544fad1ff640f9e35bbf3d5b64fd8fdcbbdc51fe4953/000000_000000/0000/tree_76.root
/eos/cms/store/group/phys_higgs/ec/hbb/ntuples/VHbbPostNano/UL/EFT/2018/V1/DYJetsToLL_LHEFilterPtZ-50To100_MatchEWPDG20_TuneCP5_13TeV-amcatnloFXFX-pythia8/e84f312bdaaf43d9fedf78bb09398dcfe7fc1c1d3761fd8e5a83f21a/000000_000000/0000/tree_77.root
/eos/cms/store/group/phys_higgs/ec/hbb/ntuples/VHbbPostNano/UL/EFT/2018/V1/DYJetsToLL_LHEFilterPtZ-50To100_MatchEWPDG20_TuneCP5_13TeV-amcatnloFXFX-pythia8/94767a14bffcd3b945f1796bee740a6ac5301e0685f34656df8f2c34/000000_000000/0000/tree_78.root
/eos/cms/store/group/phys_higgs/ec/hbb/ntuples/VHbbPostNano/UL/EFT/2018/V1/DYJetsToLL_LHEFilterPtZ-50To100_MatchEWPDG20_TuneCP5_13TeV-amcatnloFXFX-pythia8/eb19d58e405594758fe4f71aa5365ed02410c3e1821c82d5ae3f1dc0/000000_000000/0000/tree_79.root
/eos/cms/store/group/phys_higgs/ec/hbb/ntuples/VHbbPostNano/UL/EFT/2018/V1/DYJetsToLL_LHEFilterPtZ-50To100_MatchEWPDG20_TuneCP5_13TeV-amcatnloFXFX-pythia8/085cdd9f70db4d5aa45502f3271a568de00a909edcdff4feae4c9665/000000_000000/0000/tree_80.root
/eos/cms/store/group/phys_higgs/ec/hbb/ntuples/VHbbPostNano/UL/EFT/2018/V1/DYJetsToLL_LHEFilterPtZ-50To100_MatchEWPDG20_TuneCP5_13TeV-amcatnloFXFX-pythia8/8ecf64582192caf2bb9cab86371bb2207684d2ce95cbd12c719dee46/000000_000000/0000/tree_81.root
/eos/cms/store/group/phys_higgs/ec/hbb/ntuples/VHbbPostNano/UL/EFT/2018/V1/DYJetsToLL_LHEFilterPtZ-50To100_MatchEWPDG20_TuneCP5_13TeV-amcatnloFXFX-pythia8/30bb392e808fd9b6d6630eb81f2a00b1c84993e4f7ade1a1591b4c10/000000_000000/0000/tree_82.root
/eos/cms/store/group/phys_higgs/ec/hbb/ntuples/VHbbPostNano/UL/EFT/2018/V1/DYJetsToLL_LHEFilterPtZ-50To100_MatchEWPDG20_TuneCP5_13TeV-amcatnloFXFX-pythia8/6e0e15884cf08b0a9de07d6ede9e18eb9ea6b5237fa9864b3023d68b/000000_000000/0000/tree_83.root
/eos/cms/store/group/phys_higgs/ec/hbb/ntuples/VHbbPostNano/UL/EFT/2018/V1/DYJetsToLL_LHEFilterPtZ-50To100_MatchEWPDG20_TuneCP5_13TeV-amcatnloFXFX-pythia8/157db8f87882c84e0163242e52ee47f77b20688e3fda3fda051ff197/000000_000000/0000/tree_84.root
/eos/cms/store/group/phys_higgs/ec/hbb/ntuples/VHbbPostNano/UL/EFT/2018/V1/DYJetsToLL_LHEFilterPtZ-50To100_MatchEWPDG20_TuneCP5_13TeV-amcatnloFXFX-pythia8/0269a54f9495205cff5992f3ae5ceca7f2b69519c104fc9e1e24f8c6/000000_000000/0000/tree_85.root
/eos/cms/store/group/phys_higgs/ec/hbb/ntuples/VHbbPostNano/UL/EFT/2018/V1/DYJetsToLL_LHEFilterPtZ-50To100_MatchEWPDG20_TuneCP5_13TeV-amcatnloFXFX-pythia8/f7d27aa408c4a32e8bf0f407e91e2df798e5c4aa19e4bbff480d5930/000000_000000/0000/tree_86.root
/eos/cms/store/group/phys_higgs/ec/hbb/ntuples/VHbbPostNano/UL/EFT/2018/V1/DYJetsToLL_LHEFilterPtZ-50To100_MatchEWPDG20_TuneCP5_13TeV-amcatnloFXFX-pythia8/0fe601dc45cd5f79678b0041072792c9f3121f4197a640a089604b50/000000_000000/0000/tree_87.root
/eos/cms/store/group/phys_higgs/ec/hbb/ntuples/VHbbPostNano/UL/EFT/2018/V1/DYJetsToLL_LHEFilterPtZ-50To100_MatchEWPDG20_TuneCP5_13TeV-amcatnloFXFX-pythia8/d6a4986d19ab3bcac331e4e99485b310bfa67d0e16c438e12ead797b/000000_000000/0000/tree_88.root
/eos/cms/store/group/phys_higgs/ec/hbb/ntuples/VHbbPostNano/UL/EFT/2018/V1/DYJetsToLL_LHEFilterPtZ-50To100_MatchEWPDG20_TuneCP5_13TeV-amcatnloFXFX-pythia8/15d8222d514a556e0a59121f7af3b8c91440873de531513dcb7b6e60/000000_000000/0000/tree_89.root
/eos/cms/store/group/phys_higgs/ec/hbb/ntuples/VHbbPostNano/UL/EFT/2018/V1/DYJetsToLL_LHEFilterPtZ-50To100_MatchEWPDG20_TuneCP5_13TeV-amcatnloFXFX-pythia8/671810e83a807f00f03efbbfcbcbacd954891551e471b231c38f7f4a/000000_000000/0000/tree_90.root
/eos/cms/store/group/phys_higgs/ec/hbb/ntuples/VHbbPostNano/UL/EFT/2018/V1/DYJetsToLL_LHEFilterPtZ-50To100_MatchEWPDG20_TuneCP5_13TeV-amcatnloFXFX-pythia8/f48eecd4f918891bd5932ad215ebf2dd4be2cb160eb62b83c3dbb264/000000_000000/0000/tree_91.root
/eos/cms/store/group/phys_higgs/ec/hbb/ntuples/VHbbPostNano/UL/EFT/2018/V1/DYJetsToLL_LHEFilterPtZ-50To100_MatchEWPDG20_TuneCP5_13TeV-amcatnloFXFX-pythia8/cf8eef697e2aa09b4a9e3266c0ebd9b5aedec541c98229e368ebe4e5/000000_000000/0000/tree_92.root
/eos/cms/store/group/phys_higgs/ec/hbb/ntuples/VHbbPostNano/UL/EFT/2018/V1/DYJetsToLL_LHEFilterPtZ-50To100_MatchEWPDG20_TuneCP5_13TeV-amcatnloFXFX-pythia8/d13201492eec64ddb9b0bf6e6489884c98cdacda90e16f95b06c7821/000000_000000/0000/tree_93.root
/eos/cms/store/group/phys_higgs/ec/hbb/ntuples/VHbbPostNano/UL/EFT/2018/V1/DYJetsToLL_LHEFilterPtZ-50To100_MatchEWPDG20_TuneCP5_13TeV-amcatnloFXFX-pythia8/bf17cb2202f4c9aa3cb63835a3f809b50e617a82561404daa0f94f3e/000000_000000/0000/tree_94.root
/eos/cms/store/group/phys_higgs/ec/hbb/ntuples/VHbbPostNano/UL/EFT/2018/V1/DYJetsToLL_LHEFilterPtZ-50To100_MatchEWPDG20_TuneCP5_13TeV-amcatnloFXFX-pythia8/ae05f9e070fda9610f744bfddf97ee1397da3d6b2151b58ce89c5ef6/000000_000000/0000/tree_95.root
/eos/cms/store/group/phys_higgs/ec/hbb/ntuples/VHbbPostNano/UL/EFT/2018/V1/DYJetsToLL_LHEFilterPtZ-50To100_MatchEWPDG20_TuneCP5_13TeV-amcatnloFXFX-pythia8/9bbb55fec03c224d491b175bceeb2ec138240356904132dc84c0a70a/000000_000000/0000/tree_96.root
/eos/cms/store/group/phys_higgs/ec/hbb/ntuples/VHbbPostNano/UL/EFT/2018/V1/DYJetsToLL_LHEFilterPtZ-50To100_MatchEWPDG20_TuneCP5_13TeV-amcatnloFXFX-pythia8/4c7c9458ce2b8dccaff6dcc5bcd65a360452165ac202abc4b4b33c7f/000000_000000/0000/tree_97.root
/eos/cms/store/group/phys_higgs/ec/hbb/ntuples/VHbbPostNano/UL/EFT/2018/V1/DYJetsToLL_LHEFilterPtZ-50To100_MatchEWPDG20_TuneCP5_13TeV-amcatnloFXFX-pythia8/43b5879b2433807722d364f20def04c8ee050d01cf6d081ded473254/000000_000000/0000/tree_98.root
/eos/cms/store/group/phys_higgs/ec/hbb/ntuples/VHbbPostNano/UL/EFT/2018/V1/DYJetsToLL_LHEFilterPtZ-50To100_MatchEWPDG20_TuneCP5_13TeV-amcatnloFXFX-pythia8/9072124d0899d89a5bc7565887dd0ff6454f7bb5ab479bc22d3988eb/000000_000000/0000/tree_99.root
/eos/cms/store/group/phys_higgs/ec/hbb/ntuples/VHbbPostNano/UL/EFT/2018/V1/DYJetsToLL_LHEFilterPtZ-50To100_MatchEWPDG20_TuneCP5_13TeV-amcatnloFXFX-pythia8/f23537782586c525667b2707a0f67f9f2b7bfce38f2f68a84dace45c/000000_000000/0000/tree_100.root
/eos/cms/store/group/phys_higgs/ec/hbb/ntuples/VHbbPostNano/UL/EFT/2018/V1/DYJetsToLL_LHEFilterPtZ-50To100_MatchEWPDG20_TuneCP5_13TeV-amcatnloFXFX-pythia8/784255d1ea90d203982a1a40963a880ce7b14a6a871f566e7c7be50d/000000_000000/0000/tree_101.root
/eos/cms/store/group/phys_higgs/ec/hbb/ntuples/VHbbPostNano/UL/EFT/2018/V1/DYJetsToLL_LHEFilterPtZ-50To100_MatchEWPDG20_TuneCP5_13TeV-amcatnloFXFX-pythia8/3b55adf7763e3e558389f64d34dae74ca75c68440a18629d413542a6/000000_000000/0000/tree_102.root
/eos/cms/store/group/phys_higgs/ec/hbb/ntuples/VHbbPostNano/UL/EFT/2018/V1/DYJetsToLL_LHEFilterPtZ-50To100_MatchEWPDG20_TuneCP5_13TeV-amcatnloFXFX-pythia8/b5db4e45809b5481d545cb9e803e945fa32f2b8a723853776c5a3ac0/000000_000000/0000/tree_103.root
/eos/cms/store/group/phys_higgs/ec/hbb/ntuples/VHbbPostNano/UL/EFT/2018/V1/DYJetsToLL_LHEFilterPtZ-50To100_MatchEWPDG20_TuneCP5_13TeV-amcatnloFXFX-pythia8/fb2c950663d1bfa099ffb46505f985e8a8d89288bc03bb594987b9f2/000000_000000/0000/tree_104.root
/eos/cms/store/group/phys_higgs/ec/hbb/ntuples/VHbbPostNano/UL/EFT/2018/V1/DYJetsToLL_LHEFilterPtZ-50To100_MatchEWPDG20_TuneCP5_13TeV-amcatnloFXFX-pythia8/4a1e4f32005a1509fe59129b97122e8e3a433e20bc130ac589ba88a4/000000_000000/0000/tree_105.root
/eos/cms/store/group/phys_higgs/ec/hbb/ntuples/VHbbPostNano/UL/EFT/2018/V1/DYJetsToLL_LHEFilterPtZ-50To100_MatchEWPDG20_TuneCP5_13TeV-amcatnloFXFX-pythia8/36fa0943eb946795d2360a4c70597078603f86ceafef72b5bd56031c/000000_000000/0000/tree_106.root
/eos/cms/store/group/phys_higgs/ec/hbb/ntuples/VHbbPostNano/UL/EFT/2018/V1/DYJetsToLL_LHEFilterPtZ-50To100_MatchEWPDG20_TuneCP5_13TeV-amcatnloFXFX-pythia8/d6b1a73f0cfe9ae4efeeea6295c729cc575b3f6eb676a201aa7e619b/000000_000000/0000/tree_107.root
/eos/cms/store/group/phys_higgs/ec/hbb/ntuples/VHbbPostNano/UL/EFT/2018/V1/DYJetsToLL_LHEFilterPtZ-50To100_MatchEWPDG20_TuneCP5_13TeV-amcatnloFXFX-pythia8/706c3d2a97256eab493090569e5de740e7ae4625be4208ca2f321314/000000_000000/0000/tree_108.root
/eos/cms/store/group/phys_higgs/ec/hbb/ntuples/VHbbPostNano/UL/EFT/2018/V1/DYJetsToLL_LHEFilterPtZ-50To100_MatchEWPDG20_TuneCP5_13TeV-amcatnloFXFX-pythia8/ceae7f8aaaa1af8a10c842b47cbf6e5c101ff1b93baaa63e62c4b581/000000_000000/0000/tree_109.root
/eos/cms/store/group/phys_higgs/ec/hbb/ntuples/VHbbPostNano/UL/EFT/2018/V1/DYJetsToLL_LHEFilterPtZ-50To100_MatchEWPDG20_TuneCP5_13TeV-amcatnloFXFX-pythia8/f521b9ff4e2d4b430967097d21c87f87e04c360a9f4d46529558fa61/000000_000000/0000/tree_110.root
/eos/cms/store/group/phys_higgs/ec/hbb/ntuples/VHbbPostNano/UL/EFT/2018/V1/DYJetsToLL_LHEFilterPtZ-50To100_MatchEWPDG20_TuneCP5_13TeV-amcatnloFXFX-pythia8/67f971f16055bc88bab439668671a3638b4c41fd27b271ed729ed3a1/000000_000000/0000/tree_111.root
/eos/cms/store/group/phys_higgs/ec/hbb/ntuples/VHbbPostNano/UL/EFT/2018/V1/DYJetsToLL_LHEFilterPtZ-50To100_MatchEWPDG20_TuneCP5_13TeV-amcatnloFXFX-pythia8/daa897f3b8487ea9efe757510a4a0285beda12b660916bb261f87ea9/000000_000000/0000/tree_112.root
/eos/cms/store/group/phys_higgs/ec/hbb/ntuples/VHbbPostNano/UL/EFT/2018/V1/DYJetsToLL_LHEFilterPtZ-50To100_MatchEWPDG20_TuneCP5_13TeV-amcatnloFXFX-pythia8/f2ca9006af6c7b75e34a93a923e118a5b4ea53550298df7809340cb6/000000_000000/0000/tree_113.root
/eos/cms/store/group/phys_higgs/ec/hbb/ntuples/VHbbPostNano/UL/EFT/2018/V1/DYJetsToLL_LHEFilterPtZ-50To100_MatchEWPDG20_TuneCP5_13TeV-amcatnloFXFX-pythia8/f82203b740637f0d3a948c52e9ea59ab02e16b1d4f862a96e357c860/000000_000000/0000/tree_114.root
/eos/cms/store/group/phys_higgs/ec/hbb/ntuples/VHbbPostNano/UL/EFT/2018/V1/DYJetsToLL_LHEFilterPtZ-50To100_MatchEWPDG20_TuneCP5_13TeV-amcatnloFXFX-pythia8/84e2dfaa384243ed70075b1fa1b8f83261f0a331f394f5a74d8b4fdd/000000_000000/0000/tree_115.root
/eos/cms/store/group/phys_higgs/ec/hbb/ntuples/VHbbPostNano/UL/EFT/2018/V1/DYJetsToLL_LHEFilterPtZ-50To100_MatchEWPDG20_TuneCP5_13TeV-amcatnloFXFX-pythia8/5078c73059ba14198689cae6f28d91524828bae52d3820d4d65cb7e6/000000_000000/0000/tree_116.root
/eos/cms/store/group/phys_higgs/ec/hbb/ntuples/VHbbPostNano/UL/EFT/2018/V1/DYJetsToLL_LHEFilterPtZ-50To100_MatchEWPDG20_TuneCP5_13TeV-amcatnloFXFX-pythia8/fdd4667d83079fe33144d168bd59bc2a98869a86e46e7f1307790f22/000000_000000/0000/tree_117.root
/eos/cms/store/group/phys_higgs/ec/hbb/ntuples/VHbbPostNano/UL/EFT/2018/V1/DYJetsToLL_LHEFilterPtZ-50To100_MatchEWPDG20_TuneCP5_13TeV-amcatnloFXFX-pythia8/093c742810c3c4e1c6582a41bbb7b630957bcc0463de4811d90bde0c/000000_000000/0000/tree_118.root
/eos/cms/store/group/phys_higgs/ec/hbb/ntuples/VHbbPostNano/UL/EFT/2018/V1/DYJetsToLL_LHEFilterPtZ-50To100_MatchEWPDG20_TuneCP5_13TeV-amcatnloFXFX-pythia8/56ad7e4239bde60474c172ebd745ef82b265e5bc0fcc69053b27bcac/000000_000000/0000/tree_119.root
/eos/cms/store/group/phys_higgs/ec/hbb/ntuples/VHbbPostNano/UL/EFT/2018/V1/DYJetsToLL_LHEFilterPtZ-50To100_MatchEWPDG20_TuneCP5_13TeV-amcatnloFXFX-pythia8/e49d24d9d69ecea42bdb12235da39718208bb9f688429b6fc6411e26/000000_000000/0000/tree_120.root
/eos/cms/store/group/phys_higgs/ec/hbb/ntuples/VHbbPostNano/UL/EFT/2018/V1/DYJetsToLL_LHEFilterPtZ-50To100_MatchEWPDG20_TuneCP5_13TeV-amcatnloFXFX-pythia8/f55921327b8b4ce77e80f046d775c21cbd31b4639633d0b19bccd5be/000000_000000/0000/tree_121.root
/eos/cms/store/group/phys_higgs/ec/hbb/ntuples/VHbbPostNano/UL/EFT/2018/V1/DYJetsToLL_LHEFilterPtZ-50To100_MatchEWPDG20_TuneCP5_13TeV-amcatnloFXFX-pythia8/046ccb613d0a4f43597a8021c41e1f1425cebcb2ce268c814133a334/000000_000000/0000/tree_122.root
/eos/cms/store/group/phys_higgs/ec/hbb/ntuples/VHbbPostNano/UL/EFT/2018/V1/DYJetsToLL_LHEFilterPtZ-50To100_MatchEWPDG20_TuneCP5_13TeV-amcatnloFXFX-pythia8/5d7adf5292cd295d33d3b5c8008f72f89fd6f3f11df3bd0cb19431f5/000000_000000/0000/tree_123.root
/eos/cms/store/group/phys_higgs/ec/hbb/ntuples/VHbbPostNano/UL/EFT/2018/V1/DYJetsToLL_LHEFilterPtZ-50To100_MatchEWPDG20_TuneCP5_13TeV-amcatnloFXFX-pythia8/7173b4afa7f77b8316165fde660d824364cdd14fad5430039b7359cc/000000_000000/0000/tree_124.root
/eos/cms/store/group/phys_higgs/ec/hbb/ntuples/VHbbPostNano/UL/EFT/2018/V1/DYJetsToLL_LHEFilterPtZ-50To100_MatchEWPDG20_TuneCP5_13TeV-amcatnloFXFX-pythia8/aaccdfe17201225fdc1e17f791774f6f0977aea3bcb49c0820f4ae2a/000000_000000/0000/tree_125.root
/eos/cms/store/group/phys_higgs/ec/hbb/ntuples/VHbbPostNano/UL/EFT/2018/V1/DYJetsToLL_LHEFilterPtZ-50To100_MatchEWPDG20_TuneCP5_13TeV-amcatnloFXFX-pythia8/17af770d23f683978b0c6e4996eea80d2b559993da81b99ab8e3b1cd/000000_000000/0000/tree_126.root
/eos/cms/store/group/phys_higgs/ec/hbb/ntuples/VHbbPostNano/UL/EFT/2018/V1/DYJetsToLL_LHEFilterPtZ-50To100_MatchEWPDG20_TuneCP5_13TeV-amcatnloFXFX-pythia8/d1740d305684efc0dd492dd29a8efbd3e4aa73fc642a82ddaedf0c08/000000_000000/0000/tree_127.root
/eos/cms/store/group/phys_higgs/ec/hbb/ntuples/VHbbPostNano/UL/EFT/2018/V1/DYJetsToLL_LHEFilterPtZ-50To100_MatchEWPDG20_TuneCP5_13TeV-amcatnloFXFX-pythia8/5c6df7943951266325d55fab0ef950f56e54ee1a43750eca96a5ddea/000000_000000/0000/tree_128.root
/eos/cms/store/group/phys_higgs/ec/hbb/ntuples/VHbbPostNano/UL/EFT/2018/V1/DYJetsToLL_LHEFilterPtZ-50To100_MatchEWPDG20_TuneCP5_13TeV-amcatnloFXFX-pythia8/40207927bb87d19dd7281ab8552d185e1874467e0e6e11ffd4805d81/000000_000000/0000/tree_129.root
/eos/cms/store/group/phys_higgs/ec/hbb/ntuples/VHbbPostNano/UL/EFT/2018/V1/DYJetsToLL_LHEFilterPtZ-50To100_MatchEWPDG20_TuneCP5_13TeV-amcatnloFXFX-pythia8/2ecdae96ff5047d7efbaae1eabceb2e6156491ed821e343f94b7f89d/000000_000000/0000/tree_130.root
/eos/cms/store/group/phys_higgs/ec/hbb/ntuples/VHbbPostNano/UL/EFT/2018/V1/DYJetsToLL_LHEFilterPtZ-50To100_MatchEWPDG20_TuneCP5_13TeV-amcatnloFXFX-pythia8/64785a80f9526adfbfa53e033b73671d8b46b79b923f3f367afd8108/000000_000000/0000/tree_131.root
/eos/cms/store/group/phys_higgs/ec/hbb/ntuples/VHbbPostNano/UL/EFT/2018/V1/DYJetsToLL_LHEFilterPtZ-50To100_MatchEWPDG20_TuneCP5_13TeV-amcatnloFXFX-pythia8/845f2726b46e2a16538c4072f799526622aa28d4518733d90d941d5e/000000_000000/0000/tree_132.root
/eos/cms/store/group/phys_higgs/ec/hbb/ntuples/VHbbPostNano/UL/EFT/2018/V1/DYJetsToLL_LHEFilterPtZ-50To100_MatchEWPDG20_TuneCP5_13TeV-amcatnloFXFX-pythia8/3e91480f716eca6b91abacafe5592904e2bbe41d94f4b84d4d34ce29/000000_000000/0000/tree_133.root
/eos/cms/store/group/phys_higgs/ec/hbb/ntuples/VHbbPostNano/UL/EFT/2018/V1/DYJetsToLL_LHEFilterPtZ-50To100_MatchEWPDG20_TuneCP5_13TeV-amcatnloFXFX-pythia8/f7e52733b93994c24bfacc0995a9305c2b6a72f7d93a15a3b16ea8c2/000000_000000/0000/tree_134.root
/eos/cms/store/group/phys_higgs/ec/hbb/ntuples/VHbbPostNano/UL/EFT/2018/V1/DYJetsToLL_LHEFilterPtZ-50To100_MatchEWPDG20_TuneCP5_13TeV-amcatnloFXFX-pythia8/82e81476490ebb323629cfbe03129884f43dc8ac741039a46486efee/000000_000000/0000/tree_135.root
/eos/cms/store/group/phys_higgs/ec/hbb/ntuples/VHbbPostNano/UL/EFT/2018/V1/DYJetsToLL_LHEFilterPtZ-50To100_MatchEWPDG20_TuneCP5_13TeV-amcatnloFXFX-pythia8/ce5e864e8523712b9383eb4ff45d036b176101309a85a4f40c4f84a0/000000_000000/0000/tree_136.root
/eos/cms/store/group/phys_higgs/ec/hbb/ntuples/VHbbPostNano/UL/EFT/2018/V1/DYJetsToLL_LHEFilterPtZ-50To100_MatchEWPDG20_TuneCP5_13TeV-amcatnloFXFX-pythia8/3443e096fb0dd0dece4c3f0af7e3c8ffbcd9c22cb2bc88c919ae2e14/000000_000000/0000/tree_137.root
/eos/cms/store/group/phys_higgs/ec/hbb/ntuples/VHbbPostNano/UL/EFT/2018/V1/DYJetsToLL_LHEFilterPtZ-50To100_MatchEWPDG20_TuneCP5_13TeV-amcatnloFXFX-pythia8/ac43f009138d65ad38248863742ede4ea7c2c59e37ab6f8f75207d85/000000_000000/0000/tree_138.root
/eos/cms/store/group/phys_higgs/ec/hbb/ntuples/VHbbPostNano/UL/EFT/2018/V1/DYJetsToLL_LHEFilterPtZ-50To100_MatchEWPDG20_TuneCP5_13TeV-amcatnloFXFX-pythia8/7706cd130f2a1725d5d9b9259fef5561009f5565ecd6ef4f14d5d6ba/000000_000000/0000/tree_139.root
/eos/cms/store/group/phys_higgs/ec/hbb/ntuples/VHbbPostNano/UL/EFT/2018/V1/DYJetsToLL_LHEFilterPtZ-50To100_MatchEWPDG20_TuneCP5_13TeV-amcatnloFXFX-pythia8/7c3110f0dc598817e7bda0bc78182a96b945d1f412e4832f3f16b9b7/000000_000000/0000/tree_140.root
/eos/cms/store/group/phys_higgs/ec/hbb/ntuples/VHbbPostNano/UL/EFT/2018/V1/DYJetsToLL_LHEFilterPtZ-50To100_MatchEWPDG20_TuneCP5_13TeV-amcatnloFXFX-pythia8/f69e2e729df8135314c5b76dd93f5135c691d672de08756ab88fb5e9/000000_000000/0000/tree_141.root
/eos/cms/store/group/phys_higgs/ec/hbb/ntuples/VHbbPostNano/UL/EFT/2018/V1/DYJetsToLL_LHEFilterPtZ-50To100_MatchEWPDG20_TuneCP5_13TeV-amcatnloFXFX-pythia8/0815b08524350de677235bb90d5a597789e8afb1310d9aff937d3b40/000000_000000/0000/tree_142.root
/eos/cms/store/group/phys_higgs/ec/hbb/ntuples/VHbbPostNano/UL/EFT/2018/V1/DYJetsToLL_LHEFilterPtZ-50To100_MatchEWPDG20_TuneCP5_13TeV-amcatnloFXFX-pythia8/a96691627c02bc7b8b83bf973b04cb5c124f17fde1b3df77f5439905/000000_000000/0000/tree_143.root
/eos/cms/store/group/phys_higgs/ec/hbb/ntuples/VHbbPostNano/UL/EFT/2018/V1/DYJetsToLL_LHEFilterPtZ-50To100_MatchEWPDG20_TuneCP5_13TeV-amcatnloFXFX-pythia8/6d9469eb300cf7c1b058a0cc339ef66e04ade00a853aca01018be2e3/000000_000000/0000/tree_144.root
/eos/cms/store/group/phys_higgs/ec/hbb/ntuples/VHbbPostNano/UL/EFT/2018/V1/DYJetsToLL_LHEFilterPtZ-50To100_MatchEWPDG20_TuneCP5_13TeV-amcatnloFXFX-pythia8/f6b21d9a0c439ac39b078b7a3af93e12535a9ef9f2023cecce7ba884/000000_000000/0000/tree_145.root
/eos/cms/store/group/phys_higgs/ec/hbb/ntuples/VHbbPostNano/UL/EFT/2018/V1/DYJetsToLL_LHEFilterPtZ-50To100_MatchEWPDG20_TuneCP5_13TeV-amcatnloFXFX-pythia8/308276fceef03f56b2484d9e7d0cccd86053a4da6a3b05e3bcc52e99/000000_000000/0000/tree_146.root
/eos/cms/store/group/phys_higgs/ec/hbb/ntuples/VHbbPostNano/UL/EFT/2018/V1/DYJetsToLL_LHEFilterPtZ-50To100_MatchEWPDG20_TuneCP5_13TeV-amcatnloFXFX-pythia8/e256876b35c833a751922b40904f22ded21b79eedf6438f9c7629626/000000_000000/0000/tree_147.root
/eos/cms/store/group/phys_higgs/ec/hbb/ntuples/VHbbPostNano/UL/EFT/2018/V1/DYJetsToLL_LHEFilterPtZ-50To100_MatchEWPDG20_TuneCP5_13TeV-amcatnloFXFX-pythia8/38fb137f53c0e7fcbb6a794d61b0b26bbf556c7f2dfff61df14e500b/000000_000000/0000/tree_148.root
/eos/cms/store/group/phys_higgs/ec/hbb/ntuples/VHbbPostNano/UL/EFT/2018/V1/DYJetsToLL_LHEFilterPtZ-50To100_MatchEWPDG20_TuneCP5_13TeV-amcatnloFXFX-pythia8/04bf5548bc203f066c8214c773b7dab5f18b36f3c1b3f88b8c0c8e7e/000000_000000/0000/tree_149.root
/eos/cms/store/group/phys_higgs/ec/hbb/ntuples/VHbbPostNano/UL/EFT/2018/V1/DYJetsToLL_LHEFilterPtZ-50To100_MatchEWPDG20_TuneCP5_13TeV-amcatnloFXFX-pythia8/1274d24e323cf7c3ab0c11a740ab81beec88a02e713b87e228abf411/000000_000000/0000/tree_150.root
/eos/cms/store/group/phys_higgs/ec/hbb/ntuples/VHbbPostNano/UL/EFT/2018/V1/DYJetsToLL_LHEFilterPtZ-50To100_MatchEWPDG20_TuneCP5_13TeV-amcatnloFXFX-pythia8/b6d2a0b2c543fe3d3ff54bc6fcf9a353865244b257167c606e834a20/000000_000000/0000/tree_151.root
/eos/cms/store/group/phys_higgs/ec/hbb/ntuples/VHbbPostNano/UL/EFT/2018/V1/DYJetsToLL_LHEFilterPtZ-50To100_MatchEWPDG20_TuneCP5_13TeV-amcatnloFXFX-pythia8/306fe1aeab52ad5a67ae7fd759fe4b7b11e08e7eecc86c3fb6343a1e/000000_000000/0000/tree_152.root
/eos/cms/store/group/phys_higgs/ec/hbb/ntuples/VHbbPostNano/UL/EFT/2018/V1/DYJetsToLL_LHEFilterPtZ-50To100_MatchEWPDG20_TuneCP5_13TeV-amcatnloFXFX-pythia8/8aa46962f38d094b44927aa2c8147b5ee2ea19a043c7dddc8a699a30/000000_000000/0000/tree_153.root
/eos/cms/store/group/phys_higgs/ec/hbb/ntuples/VHbbPostNano/UL/EFT/2018/V1/DYJetsToLL_LHEFilterPtZ-50To100_MatchEWPDG20_TuneCP5_13TeV-amcatnloFXFX-pythia8/4ba59151ce82f8ca46efed63a1a6566b08a3437b41707e26bc4535cd/000000_000000/0000/tree_154.root
/eos/cms/store/group/phys_higgs/ec/hbb/ntuples/VHbbPostNano/UL/EFT/2018/V1/DYJetsToLL_LHEFilterPtZ-50To100_MatchEWPDG20_TuneCP5_13TeV-amcatnloFXFX-pythia8/a2e66a87c40680a951098fef4afa487ffc5a1be0d90bd598d527a15f/000000_000000/0000/tree_155.root
/eos/cms/store/group/phys_higgs/ec/hbb/ntuples/VHbbPostNano/UL/EFT/2018/V1/DYJetsToLL_LHEFilterPtZ-50To100_MatchEWPDG20_TuneCP5_13TeV-amcatnloFXFX-pythia8/4e98a2b01fd0c58f7e42782eea99be59350a8a3d16d710ed4c73b356/000000_000000/0000/tree_156.root
/eos/cms/store/group/phys_higgs/ec/hbb/ntuples/VHbbPostNano/UL/EFT/2018/V1/DYJetsToLL_LHEFilterPtZ-50To100_MatchEWPDG20_TuneCP5_13TeV-amcatnloFXFX-pythia8/59b5134b1342d390a194853b891f3e8c395704b1dad70e543958010f/000000_000000/0000/tree_157.root
/eos/cms/store/group/phys_higgs/ec/hbb/ntuples/VHbbPostNano/UL/EFT/2018/V1/DYJetsToLL_LHEFilterPtZ-50To100_MatchEWPDG20_TuneCP5_13TeV-amcatnloFXFX-pythia8/78708ecb0120b6bb64328b763167b37d016e5544df041a307d099e1f/000000_000000/0000/tree_158.root
/eos/cms/store/group/phys_higgs/ec/hbb/ntuples/VHbbPostNano/UL/EFT/2018/V1/DYJetsToLL_LHEFilterPtZ-50To100_MatchEWPDG20_TuneCP5_13TeV-amcatnloFXFX-pythia8/e13aad6845f42b4080e426db41273313b1dcd67a7095368098c5fa62/000000_000000/0000/tree_159.root
/eos/cms/store/group/phys_higgs/ec/hbb/ntuples/VHbbPostNano/UL/EFT/2018/V1/DYJetsToLL_LHEFilterPtZ-50To100_MatchEWPDG20_TuneCP5_13TeV-amcatnloFXFX-pythia8/fae007a5d98dd6def23a65f42b3f414f53a780edfebdfdd4d0a3943c/000000_000000/0000/tree_160.root
/eos/cms/store/group/phys_higgs/ec/hbb/ntuples/VHbbPostNano/UL/EFT/2018/V1/DYJetsToLL_LHEFilterPtZ-50To100_MatchEWPDG20_TuneCP5_13TeV-amcatnloFXFX-pythia8/e64ccd6f872e61fb7e61804f4718fe9425cd404040a798b819769ede/000000_000000/0000/tree_161.root
/eos/cms/store/group/phys_higgs/ec/hbb/ntuples/VHbbPostNano/UL/EFT/2018/V1/DYJetsToLL_LHEFilterPtZ-50To100_MatchEWPDG20_TuneCP5_13TeV-amcatnloFXFX-pythia8/1d7501b4f8d56c407ae682f20fdb0fa14c2cd6045bda8549da61d73e/000000_000000/0000/tree_162.root
/eos/cms/store/group/phys_higgs/ec/hbb/ntuples/VHbbPostNano/UL/EFT/2018/V1/DYJetsToLL_LHEFilterPtZ-50To100_MatchEWPDG20_TuneCP5_13TeV-amcatnloFXFX-pythia8/984bd7783c6a29be45f8ac3c8e05c09c77d2b16c9c714709c640f666/000000_000000/0000/tree_163.root
/eos/cms/store/group/phys_higgs/ec/hbb/ntuples/VHbbPostNano/UL/EFT/2018/V1/DYJetsToLL_LHEFilterPtZ-50To100_MatchEWPDG20_TuneCP5_13TeV-amcatnloFXFX-pythia8/fb27463b172874791b91c586730950d41c028b828bea38055145386b/000000_000000/0000/tree_164.root
/eos/cms/store/group/phys_higgs/ec/hbb/ntuples/VHbbPostNano/UL/EFT/2018/V1/DYJetsToLL_LHEFilterPtZ-50To100_MatchEWPDG20_TuneCP5_13TeV-amcatnloFXFX-pythia8/b30384e75b8f333c36b248d2fef098d9c81b2b318ec73edc2b9475a3/000000_000000/0000/tree_165.root
/eos/cms/store/group/phys_higgs/ec/hbb/ntuples/VHbbPostNano/UL/EFT/2018/V1/DYJetsToLL_LHEFilterPtZ-50To100_MatchEWPDG20_TuneCP5_13TeV-amcatnloFXFX-pythia8/bc5d4b4e69feced643611cc38072f3961e3f356ce5a979ef6ab3f00f/000000_000000/0000/tree_166.root
/eos/cms/store/group/phys_higgs/ec/hbb/ntuples/VHbbPostNano/UL/EFT/2018/V1/DYJetsToLL_LHEFilterPtZ-50To100_MatchEWPDG20_TuneCP5_13TeV-amcatnloFXFX-pythia8/3bac63fb0e3983843de356c0defb99a493ef1526fcf9e7585ee61873/000000_000000/0000/tree_167.root
/eos/cms/store/group/phys_higgs/ec/hbb/ntuples/VHbbPostNano/UL/EFT/2018/V1/DYJetsToLL_LHEFilterPtZ-50To100_MatchEWPDG20_TuneCP5_13TeV-amcatnloFXFX-pythia8/a06d5e4446f153e418fa2ba5fef9df94a071eb0972fb8c3ef48a7c96/000000_000000/0000/tree_168.root
/eos/cms/store/group/phys_higgs/ec/hbb/ntuples/VHbbPostNano/UL/EFT/2018/V1/DYJetsToLL_LHEFilterPtZ-50To100_MatchEWPDG20_TuneCP5_13TeV-amcatnloFXFX-pythia8/c293970bfd5cf96a466eb104643ee18a2ffdc4da2250f3901f7dedde/000000_000000/0000/tree_169.root
/eos/cms/store/group/phys_higgs/ec/hbb/ntuples/VHbbPostNano/UL/EFT/2018/V1/DYJetsToLL_LHEFilterPtZ-50To100_MatchEWPDG20_TuneCP5_13TeV-amcatnloFXFX-pythia8/0f576927ccb84e0dd015fa2c111fe3a5ccb83ebdac3540e5d163a8ea/000000_000000/0000/tree_170.root
/eos/cms/store/group/phys_higgs/ec/hbb/ntuples/VHbbPostNano/UL/EFT/2018/V1/DYJetsToLL_LHEFilterPtZ-50To100_MatchEWPDG20_TuneCP5_13TeV-amcatnloFXFX-pythia8/75fa1e396b33d18dfceb8c3cd3547917b287d0b0e65a226fcdb77fc7/000000_000000/0000/tree_171.root
/eos/cms/store/group/phys_higgs/ec/hbb/ntuples/VHbbPostNano/UL/EFT/2018/V1/DYJetsToLL_LHEFilterPtZ-50To100_MatchEWPDG20_TuneCP5_13TeV-amcatnloFXFX-pythia8/6037724df1838e79a51d15fc7e1a158d279a8f27f2b41269b52bde86/000000_000000/0000/tree_172.root
/eos/cms/store/group/phys_higgs/ec/hbb/ntuples/VHbbPostNano/UL/EFT/2018/V1/DYJetsToLL_LHEFilterPtZ-50To100_MatchEWPDG20_TuneCP5_13TeV-amcatnloFXFX-pythia8/f97a09cd46200e54c24584d9e350e9ba212923c9d2cd91d0024dde9f/000000_000000/0000/tree_173.root
/eos/cms/store/group/phys_higgs/ec/hbb/ntuples/VHbbPostNano/UL/EFT/2018/V1/DYJetsToLL_LHEFilterPtZ-50To100_MatchEWPDG20_TuneCP5_13TeV-amcatnloFXFX-pythia8/5e08a7a6bfbb77bf079956dcbad9478954bff87d30eceb7d50402208/000000_000000/0000/tree_174.root
/eos/cms/store/group/phys_higgs/ec/hbb/ntuples/VHbbPostNano/UL/EFT/2018/V1/DYJetsToLL_LHEFilterPtZ-50To100_MatchEWPDG20_TuneCP5_13TeV-amcatnloFXFX-pythia8/f439ee2b210cf7ed42c9ae35091f822aa44eadea38e1bfd6e0242d59/000000_000000/0000/tree_175.root
/eos/cms/store/group/phys_higgs/ec/hbb/ntuples/VHbbPostNano/UL/EFT/2018/V1/DYJetsToLL_LHEFilterPtZ-50To100_MatchEWPDG20_TuneCP5_13TeV-amcatnloFXFX-pythia8/3725fd103161ae333e0984f87cd5e3be39c34699bf659c517e41d687/000000_000000/0000/tree_176.root
/eos/cms/store/group/phys_higgs/ec/hbb/ntuples/VHbbPostNano/UL/EFT/2018/V1/DYJetsToLL_LHEFilterPtZ-50To100_MatchEWPDG20_TuneCP5_13TeV-amcatnloFXFX-pythia8/eded2218969ad71c1ee78e0989cb9275f05bb8e8e895fed17f668c14/000000_000000/0000/tree_177.root
/eos/cms/store/group/phys_higgs/ec/hbb/ntuples/VHbbPostNano/UL/EFT/2018/V1/DYJetsToLL_LHEFilterPtZ-50To100_MatchEWPDG20_TuneCP5_13TeV-amcatnloFXFX-pythia8/bab294c0d139464b3753b6f7499d4fa1329a522ada9a97a2b2f8372b/000000_000000/0000/tree_178.root
/eos/cms/store/group/phys_higgs/ec/hbb/ntuples/VHbbPostNano/UL/EFT/2018/V1/DYJetsToLL_LHEFilterPtZ-50To100_MatchEWPDG20_TuneCP5_13TeV-amcatnloFXFX-pythia8/ec3dfe38f29a49f65c60053d0fc345493e1c001f13b7a1e5d5fb6d14/000000_000000/0000/tree_179.root
/eos/cms/store/group/phys_higgs/ec/hbb/ntuples/VHbbPostNano/UL/EFT/2018/V1/DYJetsToLL_LHEFilterPtZ-50To100_MatchEWPDG20_TuneCP5_13TeV-amcatnloFXFX-pythia8/bf118789b13b7b164fae7c38df9ef2c77ebaa77f10f43bf2e077c70d/000000_000000/0000/tree_180.root
/eos/cms/store/group/phys_higgs/ec/hbb/ntuples/VHbbPostNano/UL/EFT/2018/V1/DYJetsToLL_LHEFilterPtZ-50To100_MatchEWPDG20_TuneCP5_13TeV-amcatnloFXFX-pythia8/b1fd2a7a6685fb7b845abfe4f52fc9c81443b7eb833d742f8ee1a461/000000_000000/0000/tree_181.root
/eos/cms/store/group/phys_higgs/ec/hbb/ntuples/VHbbPostNano/UL/EFT/2018/V1/DYJetsToLL_LHEFilterPtZ-50To100_MatchEWPDG20_TuneCP5_13TeV-amcatnloFXFX-pythia8/ac668ded8760968a2240d39a84583875823a3a8fde3aa3cbfb6ba9f4/000000_000000/0000/tree_182.root
/eos/cms/store/group/phys_higgs/ec/hbb/ntuples/VHbbPostNano/UL/EFT/2018/V1/DYJetsToLL_LHEFilterPtZ-50To100_MatchEWPDG20_TuneCP5_13TeV-amcatnloFXFX-pythia8/5785d6ee2ee21c67ac3655545bee0f0fa5bd204a06a0f2e976ed3dc1/000000_000000/0000/tree_183.root
/eos/cms/store/group/phys_higgs/ec/hbb/ntuples/VHbbPostNano/UL/EFT/2018/V1/DYJetsToLL_LHEFilterPtZ-50To100_MatchEWPDG20_TuneCP5_13TeV-amcatnloFXFX-pythia8/ee063f5d8bed0e9b798f5445ce3e8a2f1467a85eab09eaaa4da8129f/000000_000000/0000/tree_184.root
/eos/cms/store/group/phys_higgs/ec/hbb/ntuples/VHbbPostNano/UL/EFT/2018/V1/DYJetsToLL_LHEFilterPtZ-50To100_MatchEWPDG20_TuneCP5_13TeV-amcatnloFXFX-pythia8/0c25802e60094eed7c11572dbb86c8437d7d70ca2c340cf9f13bbf52/000000_000000/0000/tree_185.root
/eos/cms/store/group/phys_higgs/ec/hbb/ntuples/VHbbPostNano/UL/EFT/2018/V1/DYJetsToLL_LHEFilterPtZ-50To100_MatchEWPDG20_TuneCP5_13TeV-amcatnloFXFX-pythia8/dd51d33123823b3ec8872cfc1c0350a3a4c99295bbe9575c2c5c2e91/000000_000000/0000/tree_186.root
/eos/cms/store/group/phys_higgs/ec/hbb/ntuples/VHbbPostNano/UL/EFT/2018/V1/DYJetsToLL_LHEFilterPtZ-50To100_MatchEWPDG20_TuneCP5_13TeV-amcatnloFXFX-pythia8/982808fb6c5f9ccb83688e2ab0a9d9f8bab1a444b4b99aba2f330b78/000000_000000/0000/tree_187.root
/eos/cms/store/group/phys_higgs/ec/hbb/ntuples/VHbbPostNano/UL/EFT/2018/V1/DYJetsToLL_LHEFilterPtZ-50To100_MatchEWPDG20_TuneCP5_13TeV-amcatnloFXFX-pythia8/9f0ba4c0bc4d9f747f4e90288d325ed9f308da73cb58ea8849e1caf9/000000_000000/0000/tree_188.root
/eos/cms/store/group/phys_higgs/ec/hbb/ntuples/VHbbPostNano/UL/EFT/2018/V1/DYJetsToLL_LHEFilterPtZ-50To100_MatchEWPDG20_TuneCP5_13TeV-amcatnloFXFX-pythia8/110eaeee09dedb2fb0321ab02b118eee76f339153c36e0a3054c9f36/000000_000000/0000/tree_189.root
/eos/cms/store/group/phys_higgs/ec/hbb/ntuples/VHbbPostNano/UL/EFT/2018/V1/DYJetsToLL_LHEFilterPtZ-50To100_MatchEWPDG20_TuneCP5_13TeV-amcatnloFXFX-pythia8/be04ee49fd6eb2e1cd7c3d28e53dfba07380887141a91cae26775c39/000000_000000/0000/tree_190.root
/eos/cms/store/group/phys_higgs/ec/hbb/ntuples/VHbbPostNano/UL/EFT/2018/V1/DYJetsToLL_LHEFilterPtZ-50To100_MatchEWPDG20_TuneCP5_13TeV-amcatnloFXFX-pythia8/08090fb015d66ad447b16cf02709b8cdd25e6fdc77ce0acffb711dd3/000000_000000/0000/tree_191.root
/eos/cms/store/group/phys_higgs/ec/hbb/ntuples/VHbbPostNano/UL/EFT/2018/V1/DYJetsToLL_LHEFilterPtZ-50To100_MatchEWPDG20_TuneCP5_13TeV-amcatnloFXFX-pythia8/5405efd65f4b3da5dadf3c6940c810b8e3e957899cf8b98c36e027a1/000000_000000/0000/tree_192.root
/eos/cms/store/group/phys_higgs/ec/hbb/ntuples/VHbbPostNano/UL/EFT/2018/V1/DYJetsToLL_LHEFilterPtZ-50To100_MatchEWPDG20_TuneCP5_13TeV-amcatnloFXFX-pythia8/137215eeb45331ea7dd9173c45d763942509ae9d30a643e2a59023a7/000000_000000/0000/tree_193.root
/eos/cms/store/group/phys_higgs/ec/hbb/ntuples/VHbbPostNano/UL/EFT/2018/V1/DYJetsToLL_LHEFilterPtZ-50To100_MatchEWPDG20_TuneCP5_13TeV-amcatnloFXFX-pythia8/79c8f665a817e17010921e3cf8d507478dec27eed37028b5adad5db3/000000_000000/0000/tree_194.root
/eos/cms/store/group/phys_higgs/ec/hbb/ntuples/VHbbPostNano/UL/EFT/2018/V1/DYJetsToLL_LHEFilterPtZ-50To100_MatchEWPDG20_TuneCP5_13TeV-amcatnloFXFX-pythia8/27e369a7a58fbf858bf0466f24ad5d1d1b4fc4a443c8c9efc0eb87ec/000000_000000/0000/tree_195.root
/eos/cms/store/group/phys_higgs/ec/hbb/ntuples/VHbbPostNano/UL/EFT/2018/V1/DYJetsToLL_LHEFilterPtZ-50To100_MatchEWPDG20_TuneCP5_13TeV-amcatnloFXFX-pythia8/ae0990ebfbf5eb1b85c857dfc761bed193c36d8e0e16c492e5a3137b/000000_000000/0000/tree_196.root
/eos/cms/store/group/phys_higgs/ec/hbb/ntuples/VHbbPostNano/UL/EFT/2018/V1/DYJetsToLL_LHEFilterPtZ-50To100_MatchEWPDG20_TuneCP5_13TeV-amcatnloFXFX-pythia8/1bca8ebad29ee8142da2b7ad500d6490103f069ee5796b6f7c77e30d/000000_000000/0000/tree_197.root
/eos/cms/store/group/phys_higgs/ec/hbb/ntuples/VHbbPostNano/UL/EFT/2018/V1/DYJetsToLL_LHEFilterPtZ-50To100_MatchEWPDG20_TuneCP5_13TeV-amcatnloFXFX-pythia8/4ccaaecbc8a457292a126580c310e3bd2f904ed22c0b73537add26c2/000000_000000/0000/tree_198.root
/eos/cms/store/group/phys_higgs/ec/hbb/ntuples/VHbbPostNano/UL/EFT/2018/V1/DYJetsToLL_LHEFilterPtZ-50To100_MatchEWPDG20_TuneCP5_13TeV-amcatnloFXFX-pythia8/6ca3b3275bc6dc20bebf54184d22a93e14b782ca6a1e09552bba4c07/000000_000000/0000/tree_199.root
/eos/cms/store/group/phys_higgs/ec/hbb/ntuples/VHbbPostNano/UL/EFT/2018/V1/DYJetsToLL_LHEFilterPtZ-50To100_MatchEWPDG20_TuneCP5_13TeV-amcatnloFXFX-pythia8/ab5b53ba50e3f9219e6a1d6fc880881117f1d3e2c19933b377a9efbe/000000_000000/0000/tree_200.root
/eos/cms/store/group/phys_higgs/ec/hbb/ntuples/VHbbPostNano/UL/EFT/2018/V1/DYJetsToLL_LHEFilterPtZ-50To100_MatchEWPDG20_TuneCP5_13TeV-amcatnloFXFX-pythia8/664a32fe05f6f4240365dae7e0743c1e29b89f348e13c9ffb09d3380/000000_000000/0000/tree_201.root
/eos/cms/store/group/phys_higgs/ec/hbb/ntuples/VHbbPostNano/UL/EFT/2018/V1/DYJetsToLL_LHEFilterPtZ-50To100_MatchEWPDG20_TuneCP5_13TeV-amcatnloFXFX-pythia8/81abea8114667dc851e249ccb14bcaf8ab0be0fc481aa85e57844e2c/000000_000000/0000/tree_202.root
/eos/cms/store/group/phys_higgs/ec/hbb/ntuples/VHbbPostNano/UL/EFT/2018/V1/DYJetsToLL_LHEFilterPtZ-50To100_MatchEWPDG20_TuneCP5_13TeV-amcatnloFXFX-pythia8/e5a334f85616eed21e6ea3880fffb537834c2c0384ec37dfb8123b60/000000_000000/0000/tree_203.root
/eos/cms/store/group/phys_higgs/ec/hbb/ntuples/VHbbPostNano/UL/EFT/2018/V1/DYJetsToLL_LHEFilterPtZ-50To100_MatchEWPDG20_TuneCP5_13TeV-amcatnloFXFX-pythia8/2eb99d0e324c6fb6409fef6ac5148f9b99ac02681d379161526511dd/000000_000000/0000/tree_204.root
/eos/cms/store/group/phys_higgs/ec/hbb/ntuples/VHbbPostNano/UL/EFT/2018/V1/DYJetsToLL_LHEFilterPtZ-50To100_MatchEWPDG20_TuneCP5_13TeV-amcatnloFXFX-pythia8/aaf530ae8745980aa57797993e5caa629921b108d50f5069c608d290/000000_000000/0000/tree_205.root
/eos/cms/store/group/phys_higgs/ec/hbb/ntuples/VHbbPostNano/UL/EFT/2018/V1/DYJetsToLL_LHEFilterPtZ-50To100_MatchEWPDG20_TuneCP5_13TeV-amcatnloFXFX-pythia8/48ca7a5ce0b582e4bafc8a815276ab25b7527fdb92537cbc769952ff/000000_000000/0000/tree_206.root
/eos/cms/store/group/phys_higgs/ec/hbb/ntuples/VHbbPostNano/UL/EFT/2018/V1/DYJetsToLL_LHEFilterPtZ-50To100_MatchEWPDG20_TuneCP5_13TeV-amcatnloFXFX-pythia8/be8e992404848af58597bd3cb82e2baf16fca1f1ad11b0dfa1dfaf92/000000_000000/0000/tree_207.root
/eos/cms/store/group/phys_higgs/ec/hbb/ntuples/VHbbPostNano/UL/EFT/2018/V1/DYJetsToLL_LHEFilterPtZ-50To100_MatchEWPDG20_TuneCP5_13TeV-amcatnloFXFX-pythia8/5b8d36885f91920ee1e7885033470a3fa415fff8e67c207fa507bed1/000000_000000/0000/tree_208.root
/eos/cms/store/group/phys_higgs/ec/hbb/ntuples/VHbbPostNano/UL/EFT/2018/V1/DYJetsToLL_LHEFilterPtZ-50To100_MatchEWPDG20_TuneCP5_13TeV-amcatnloFXFX-pythia8/da577144404d6eee60423d11bbe7c8706048137e71c1208ef5673862/000000_000000/0000/tree_209.root
/eos/cms/store/group/phys_higgs/ec/hbb/ntuples/VHbbPostNano/UL/EFT/2018/V1/DYJetsToLL_LHEFilterPtZ-50To100_MatchEWPDG20_TuneCP5_13TeV-amcatnloFXFX-pythia8/f437ad46763d7de91710d30db819b18a15568e99a79f46d0d76d0634/000000_000000/0000/tree_210.root
/eos/cms/store/group/phys_higgs/ec/hbb/ntuples/VHbbPostNano/UL/EFT/2018/V1/DYJetsToLL_LHEFilterPtZ-50To100_MatchEWPDG20_TuneCP5_13TeV-amcatnloFXFX-pythia8/d28c77cb5cfd59dab0f6f42b1dfbe0c92b986da9c8fd6c5d5d4f869b/000000_000000/0000/tree_211.root
/eos/cms/store/group/phys_higgs/ec/hbb/ntuples/VHbbPostNano/UL/EFT/2018/V1/DYJetsToLL_LHEFilterPtZ-50To100_MatchEWPDG20_TuneCP5_13TeV-amcatnloFXFX-pythia8/71b38ca37bf3b02b447460ac41fc615240c56eb3e16e2b85717930e7/000000_000000/0000/tree_212.root
/eos/cms/store/group/phys_higgs/ec/hbb/ntuples/VHbbPostNano/UL/EFT/2018/V1/DYJetsToLL_LHEFilterPtZ-50To100_MatchEWPDG20_TuneCP5_13TeV-amcatnloFXFX-pythia8/1101fceb188e800bf35de68bb57f9855594989966e071d898884b588/000000_000000/0000/tree_213.root
/eos/cms/store/group/phys_higgs/ec/hbb/ntuples/VHbbPostNano/UL/EFT/2018/V1/DYJetsToLL_LHEFilterPtZ-50To100_MatchEWPDG20_TuneCP5_13TeV-amcatnloFXFX-pythia8/15b0e2bc21e26f54ce4227c19078be7ff203fafba4ee4b69dd9a7a38/000000_000000/0000/tree_214.root
/eos/cms/store/group/phys_higgs/ec/hbb/ntuples/VHbbPostNano/UL/EFT/2018/V1/DYJetsToLL_LHEFilterPtZ-50To100_MatchEWPDG20_TuneCP5_13TeV-amcatnloFXFX-pythia8/737333b6ea51d620f92a9fa9b1e083b1d11b567d5a35ed410d6deca7/000000_000000/0000/tree_215.root
/eos/cms/store/group/phys_higgs/ec/hbb/ntuples/VHbbPostNano/UL/EFT/2018/V1/DYJetsToLL_LHEFilterPtZ-50To100_MatchEWPDG20_TuneCP5_13TeV-amcatnloFXFX-pythia8/30b13ba769b76dc1ee0765c390dcf5e81c304a54be3af5d84c076165/000000_000000/0000/tree_216.root
/eos/cms/store/group/phys_higgs/ec/hbb/ntuples/VHbbPostNano/UL/EFT/2018/V1/DYJetsToLL_LHEFilterPtZ-50To100_MatchEWPDG20_TuneCP5_13TeV-amcatnloFXFX-pythia8/68b0483278a0c4800abc8c1e08ca94397bdb4aa94c4090addfd784fb/000000_000000/0000/tree_217.root
/eos/cms/store/group/phys_higgs/ec/hbb/ntuples/VHbbPostNano/UL/EFT/2018/V1/DYJetsToLL_LHEFilterPtZ-50To100_MatchEWPDG20_TuneCP5_13TeV-amcatnloFXFX-pythia8/4f9414b61f7d8928282288e2371df6a002e6771d8b2b678dad05e167/000000_000000/0000/tree_218.root
/eos/cms/store/group/phys_higgs/ec/hbb/ntuples/VHbbPostNano/UL/EFT/2018/V1/DYJetsToLL_LHEFilterPtZ-50To100_MatchEWPDG20_TuneCP5_13TeV-amcatnloFXFX-pythia8/781c690a2f010e43a78ec9cdf7167edeec30f45320460191754311a8/000000_000000/0000/tree_219.root
/eos/cms/store/group/phys_higgs/ec/hbb/ntuples/VHbbPostNano/UL/EFT/2018/V1/DYJetsToLL_LHEFilterPtZ-50To100_MatchEWPDG20_TuneCP5_13TeV-amcatnloFXFX-pythia8/1caad97faaeb0f56eedb06a7708ea00158e2be0c2ee5a43866e8591a/000000_000000/0000/tree_220.root
/eos/cms/store/group/phys_higgs/ec/hbb/ntuples/VHbbPostNano/UL/EFT/2018/V1/DYJetsToLL_LHEFilterPtZ-50To100_MatchEWPDG20_TuneCP5_13TeV-amcatnloFXFX-pythia8/6d3dac0f15f1483833501542ae1a378fdfa6ee5aa7c6ba05a622341e/000000_000000/0000/tree_221.root
/eos/cms/store/group/phys_higgs/ec/hbb/ntuples/VHbbPostNano/UL/EFT/2018/V1/DYJetsToLL_LHEFilterPtZ-50To100_MatchEWPDG20_TuneCP5_13TeV-amcatnloFXFX-pythia8/5f61190fd0b2456edfdfab1e93568e288c56c93f833690bfdf2bb5d0/000000_000000/0000/tree_222.root
/eos/cms/store/group/phys_higgs/ec/hbb/ntuples/VHbbPostNano/UL/EFT/2018/V1/DYJetsToLL_LHEFilterPtZ-50To100_MatchEWPDG20_TuneCP5_13TeV-amcatnloFXFX-pythia8/f0471f32d1b5c2805832cac93ca58eeaf138d36ced7d1cdd9fbdd251/000000_000000/0000/tree_223.root
/eos/cms/store/group/phys_higgs/ec/hbb/ntuples/VHbbPostNano/UL/EFT/2018/V1/DYJetsToLL_LHEFilterPtZ-50To100_MatchEWPDG20_TuneCP5_13TeV-amcatnloFXFX-pythia8/64edec40120ec71c7070410ea386e9f5b8fde4be0aef6e8880d20591/000000_000000/0000/tree_224.root
/eos/cms/store/group/phys_higgs/ec/hbb/ntuples/VHbbPostNano/UL/EFT/2018/V1/DYJetsToLL_LHEFilterPtZ-50To100_MatchEWPDG20_TuneCP5_13TeV-amcatnloFXFX-pythia8/8413ce9bcb16d516898d02a3efa4d1318946f375341a36ae807c56f2/000000_000000/0000/tree_225.root
/eos/cms/store/group/phys_higgs/ec/hbb/ntuples/VHbbPostNano/UL/EFT/2018/V1/DYJetsToLL_LHEFilterPtZ-50To100_MatchEWPDG20_TuneCP5_13TeV-amcatnloFXFX-pythia8/7520c484ae2b9083a84bea6b636c40be66d84aee60b4182840952fc4/000000_000000/0000/tree_226.root
/eos/cms/store/group/phys_higgs/ec/hbb/ntuples/VHbbPostNano/UL/EFT/2018/V1/DYJetsToLL_LHEFilterPtZ-50To100_MatchEWPDG20_TuneCP5_13TeV-amcatnloFXFX-pythia8/1d5da16bd0cce0d6c584f9795a3df86e9b08ec4b7f53fb54a158f8aa/000000_000000/0000/tree_227.root
/eos/cms/store/group/phys_higgs/ec/hbb/ntuples/VHbbPostNano/UL/EFT/2018/V1/DYJetsToLL_LHEFilterPtZ-50To100_MatchEWPDG20_TuneCP5_13TeV-amcatnloFXFX-pythia8/d60f0b1e8912a52d9d0466568a9c4acb4ad68721f1bdb4edf8ac1e97/000000_000000/0000/tree_228.root
/eos/cms/store/group/phys_higgs/ec/hbb/ntuples/VHbbPostNano/UL/EFT/2018/V1/DYJetsToLL_LHEFilterPtZ-50To100_MatchEWPDG20_TuneCP5_13TeV-amcatnloFXFX-pythia8/fa1911c8735dd2215ac18ba29e5aaef2a1b02649239cdeb4dbde5ca5/000000_000000/0000/tree_229.root
/eos/cms/store/group/phys_higgs/ec/hbb/ntuples/VHbbPostNano/UL/EFT/2018/V1/DYJetsToLL_LHEFilterPtZ-50To100_MatchEWPDG20_TuneCP5_13TeV-amcatnloFXFX-pythia8/12cb51fb9fd402a987d2d3366472416d22ff8edf3c01aaa448c4e8ca/000000_000000/0000/tree_230.root
/eos/cms/store/group/phys_higgs/ec/hbb/ntuples/VHbbPostNano/UL/EFT/2018/V1/DYJetsToLL_LHEFilterPtZ-50To100_MatchEWPDG20_TuneCP5_13TeV-amcatnloFXFX-pythia8/2318710a3a4be2724dec213a9530498083280e07acfcb312e52c3244/000000_000000/0000/tree_231.root
/eos/cms/store/group/phys_higgs/ec/hbb/ntuples/VHbbPostNano/UL/EFT/2018/V1/DYJetsToLL_LHEFilterPtZ-50To100_MatchEWPDG20_TuneCP5_13TeV-amcatnloFXFX-pythia8/bb1b5910154235f9ec77a3a17a4fb70b7239b01dcbfd06ad78dbd217/000000_000000/0000/tree_232.root
/eos/cms/store/group/phys_higgs/ec/hbb/ntuples/VHbbPostNano/UL/EFT/2018/V1/DYJetsToLL_LHEFilterPtZ-50To100_MatchEWPDG20_TuneCP5_13TeV-amcatnloFXFX-pythia8/5971de9b3a613ddb47d3433d9cecb0fc0799240c85795d7b5f5021e3/000000_000000/0000/tree_233.root
/eos/cms/store/group/phys_higgs/ec/hbb/ntuples/VHbbPostNano/UL/EFT/2018/V1/DYJetsToLL_LHEFilterPtZ-50To100_MatchEWPDG20_TuneCP5_13TeV-amcatnloFXFX-pythia8/e731f264a92b4e2481fa0baeb123d2c77c3a83cfe7c22ffeefa17deb/000000_000000/0000/tree_234.root
/eos/cms/store/group/phys_higgs/ec/hbb/ntuples/VHbbPostNano/UL/EFT/2018/V1/DYJetsToLL_LHEFilterPtZ-50To100_MatchEWPDG20_TuneCP5_13TeV-amcatnloFXFX-pythia8/e7acefe0407454537eafd274cac6bbbb837b88f942396830792fb9b4/000000_000000/0000/tree_235.root
/eos/cms/store/group/phys_higgs/ec/hbb/ntuples/VHbbPostNano/UL/EFT/2018/V1/DYJetsToLL_LHEFilterPtZ-50To100_MatchEWPDG20_TuneCP5_13TeV-amcatnloFXFX-pythia8/e6f4bfb32362540a29f9e9763da4270c77c36090464a0385d0f19cde/000000_000000/0000/tree_236.root
/eos/cms/store/group/phys_higgs/ec/hbb/ntuples/VHbbPostNano/UL/EFT/2018/V1/DYJetsToLL_LHEFilterPtZ-50To100_MatchEWPDG20_TuneCP5_13TeV-amcatnloFXFX-pythia8/f6b30202d2cdd25a4a563147dce403fa9b0bbea6a6d060d2739422c1/000000_000000/0000/tree_237.root
/eos/cms/store/group/phys_higgs/ec/hbb/ntuples/VHbbPostNano/UL/EFT/2018/V1/DYJetsToLL_LHEFilterPtZ-50To100_MatchEWPDG20_TuneCP5_13TeV-amcatnloFXFX-pythia8/2d3f80c869d5d307da42d10c8d462eaca8dd749fdfd8107ec93798f3/000000_000000/0000/tree_238.root
/eos/cms/store/group/phys_higgs/ec/hbb/ntuples/VHbbPostNano/UL/EFT/2018/V1/DYJetsToLL_LHEFilterPtZ-50To100_MatchEWPDG20_TuneCP5_13TeV-amcatnloFXFX-pythia8/e06e90fbacdee3585436d8ac9ec2c99cd9b7e0342a3b30b5b69736ac/000000_000000/0000/tree_239.root
/eos/cms/store/group/phys_higgs/ec/hbb/ntuples/VHbbPostNano/UL/EFT/2018/V1/DYJetsToLL_LHEFilterPtZ-50To100_MatchEWPDG20_TuneCP5_13TeV-amcatnloFXFX-pythia8/a4479792a58daefb4dee037bc0246cb1e8c2ec04e63ddf53b48805a6/000000_000000/0000/tree_240.root
/eos/cms/store/group/phys_higgs/ec/hbb/ntuples/VHbbPostNano/UL/EFT/2018/V1/DYJetsToLL_LHEFilterPtZ-50To100_MatchEWPDG20_TuneCP5_13TeV-amcatnloFXFX-pythia8/e5aa4b2c889a769a0f61aacd9d8839ea7dc7088143a221bde47913bf/000000_000000/0000/tree_241.root
/eos/cms/store/group/phys_higgs/ec/hbb/ntuples/VHbbPostNano/UL/EFT/2018/V1/DYJetsToLL_LHEFilterPtZ-50To100_MatchEWPDG20_TuneCP5_13TeV-amcatnloFXFX-pythia8/7a720fc5b7f45cdb6bec39d9a647003394434a40f95d75b98ee56f0b/000000_000000/0000/tree_242.root
/eos/cms/store/group/phys_higgs/ec/hbb/ntuples/VHbbPostNano/UL/EFT/2018/V1/DYJetsToLL_LHEFilterPtZ-50To100_MatchEWPDG20_TuneCP5_13TeV-amcatnloFXFX-pythia8/923240be6731a243b3dce9a3bb472f54e5c74580b51fd2150bd92b52/000000_000000/0000/tree_243.root
/eos/cms/store/group/phys_higgs/ec/hbb/ntuples/VHbbPostNano/UL/EFT/2018/V1/DYJetsToLL_LHEFilterPtZ-50To100_MatchEWPDG20_TuneCP5_13TeV-amcatnloFXFX-pythia8/b70f21aa3f03a56bc3c14af1fed5d3d086b0e080f5dfa6c82b81b970/000000_000000/0000/tree_244.root
/eos/cms/store/group/phys_higgs/ec/hbb/ntuples/VHbbPostNano/UL/EFT/2018/V1/DYJetsToLL_LHEFilterPtZ-50To100_MatchEWPDG20_TuneCP5_13TeV-amcatnloFXFX-pythia8/d965b9f9dd0349c3924eb7e8a1cac721a8f378695dc1a1438c30a204/000000_000000/0000/tree_245.root
/eos/cms/store/group/phys_higgs/ec/hbb/ntuples/VHbbPostNano/UL/EFT/2018/V1/DYJetsToLL_LHEFilterPtZ-50To100_MatchEWPDG20_TuneCP5_13TeV-amcatnloFXFX-pythia8/50209d8520090ec51ebee482b696c42252210aa41908142bf2a3a474/000000_000000/0000/tree_246.root
/eos/cms/store/group/phys_higgs/ec/hbb/ntuples/VHbbPostNano/UL/EFT/2018/V1/DYJetsToLL_LHEFilterPtZ-50To100_MatchEWPDG20_TuneCP5_13TeV-amcatnloFXFX-pythia8/b933ab43507123bcf17347c17580da40c0a25a420464c1dcf7764391/000000_000000/0000/tree_247.root
/eos/cms/store/group/phys_higgs/ec/hbb/ntuples/VHbbPostNano/UL/EFT/2018/V1/DYJetsToLL_LHEFilterPtZ-50To100_MatchEWPDG20_TuneCP5_13TeV-amcatnloFXFX-pythia8/ed7c2ad7e893b137faa42cb97a30a6c9946c08420cde87c400ba592d/000000_000000/0000/tree_248.root
/eos/cms/store/group/phys_higgs/ec/hbb/ntuples/VHbbPostNano/UL/EFT/2018/V1/DYJetsToLL_LHEFilterPtZ-50To100_MatchEWPDG20_TuneCP5_13TeV-amcatnloFXFX-pythia8/6c101838cd22e8e6e4df5b70ede4f65371aa68e49d3f76432af32122/000000_000000/0000/tree_249.root