/eos/cms/store/group/phys_higgs/ec/hbb/ntuples/VHbbPostNano/UL/EFT/2018/e4ba973498fb31b7399d3936c35ce74ae1d7cf4eb343530a9527e280/000000_000000/0000/tree_0.root
/eos/cms/store/group/phys_higgs/ec/hbb/ntuples/VHbbPostNano/UL/EFT/2018/00837cbe7e172c0c81206d33b68f8e386a8c13f9f0ebc955fafa5682/000000_000000/0000/tree_1.root
/eos/cms/store/group/phys_higgs/ec/hbb/ntuples/VHbbPostNano/UL/EFT/2018/7127aea647b092ad6b37c5e2fd2eee1249fe04405eeb45202555f0d4/000000_000000/0000/tree_2.root
/eos/cms/store/group/phys_higgs/ec/hbb/ntuples/VHbbPostNano/UL/EFT/2018/8d6ba2ac00d499cf15d2c14b42a04277cad7e2fcf047549a83962529/000000_000000/0000/tree_3.root
/eos/cms/store/group/phys_higgs/ec/hbb/ntuples/VHbbPostNano/UL/EFT/2018/0e468eddb352227d9b7f64003c6d97a59d94d94f16f8026dc4fb6c65/000000_000000/0000/tree_4.root
/eos/cms/store/group/phys_higgs/ec/hbb/ntuples/VHbbPostNano/UL/EFT/2018/a5e35d8bdb7b3258d3afbf8e29cea3cdf8fe30779eb7214adb7d50d3/000000_000000/0000/tree_5.root
/eos/cms/store/group/phys_higgs/ec/hbb/ntuples/VHbbPostNano/UL/EFT/2018/b14005f5f1f3a72af00247b76c0d28642e6feba52732a5cefe3697bf/000000_000000/0000/tree_6.root