/eos/cms/store/group/phys_higgs/hbb/ntuples/VHbbPostNano/UL/EFT/2017/V1/DYJetsToLL_M-50_TuneCP5_13TeV-amcatnloFXFX-pythia8/d80634d6cac6f15ee80152f105d42ee2829e749cace012f302043dcd/000000_000000/0000/tree_0.root
/eos/cms/store/group/phys_higgs/hbb/ntuples/VHbbPostNano/UL/EFT/2017/V1/DYJetsToLL_M-50_TuneCP5_13TeV-amcatnloFXFX-pythia8/4fec8792c980a22a6d118c536492f9ad7f362f4af04b41e4da5e3aa9/000000_000000/0000/tree_1.root
/eos/cms/store/group/phys_higgs/hbb/ntuples/VHbbPostNano/UL/EFT/2017/V1/DYJetsToLL_M-50_TuneCP5_13TeV-amcatnloFXFX-pythia8/3a862c9f2b6e5410c6db8f8991b6a35895947900d42412934be2a888/000000_000000/0000/tree_2.root
/eos/cms/store/group/phys_higgs/hbb/ntuples/VHbbPostNano/UL/EFT/2017/V1/DYJetsToLL_M-50_TuneCP5_13TeV-amcatnloFXFX-pythia8/9232af8c9b833f3fe2cb87f37fe4e535397c322ebaf70f137a2bbba1/000000_000000/0000/tree_3.root
/eos/cms/store/group/phys_higgs/hbb/ntuples/VHbbPostNano/UL/EFT/2017/V1/DYJetsToLL_M-50_TuneCP5_13TeV-amcatnloFXFX-pythia8/69f8ff07310121181645abe916be1369d3563e21ddf7f600e0522409/000000_000000/0000/tree_4.root
/eos/cms/store/group/phys_higgs/hbb/ntuples/VHbbPostNano/UL/EFT/2017/V1/DYJetsToLL_M-50_TuneCP5_13TeV-amcatnloFXFX-pythia8/a01726b5343ae14dc20db1ef80daf636de55a834ba3433e40e18c7cf/000000_000000/0000/tree_5.root
/eos/cms/store/group/phys_higgs/hbb/ntuples/VHbbPostNano/UL/EFT/2017/V1/DYJetsToLL_M-50_TuneCP5_13TeV-amcatnloFXFX-pythia8/f2c0d3999e5664662b6ccb09f70c115513c5f5afa70b59bb87287ff7/000000_000000/0000/tree_6.root
/eos/cms/store/group/phys_higgs/hbb/ntuples/VHbbPostNano/UL/EFT/2017/V1/DYJetsToLL_M-50_TuneCP5_13TeV-amcatnloFXFX-pythia8/4855b3a2d3a76b9bb8d4347bc5bf247285befdd9bfe59b30a3b8a2f0/000000_000000/0000/tree_7.root
/eos/cms/store/group/phys_higgs/hbb/ntuples/VHbbPostNano/UL/EFT/2017/V1/DYJetsToLL_M-50_TuneCP5_13TeV-amcatnloFXFX-pythia8/14901c4162f86cc0dcb04e0d1bdb09e1a52f4b5249111f2e1c1f0b72/000000_000000/0000/tree_8.root
/eos/cms/store/group/phys_higgs/hbb/ntuples/VHbbPostNano/UL/EFT/2017/V1/DYJetsToLL_M-50_TuneCP5_13TeV-amcatnloFXFX-pythia8/1c0baf56e6638b4e28b196851f86b770a3e5012298beff06ac1e46f5/000000_000000/0000/tree_9.root
/eos/cms/store/group/phys_higgs/hbb/ntuples/VHbbPostNano/UL/EFT/2017/V1/DYJetsToLL_M-50_TuneCP5_13TeV-amcatnloFXFX-pythia8/d6b3ae5c557388517ef5725ec99a5db2cdbd6f915637eb7d773fe1cd/000000_000000/0000/tree_10.root
/eos/cms/store/group/phys_higgs/hbb/ntuples/VHbbPostNano/UL/EFT/2017/V1/DYJetsToLL_M-50_TuneCP5_13TeV-amcatnloFXFX-pythia8/6202ff20a91a39f980c432942fec662789b896ff76d837294d998967/000000_000000/0000/tree_11.root
/eos/cms/store/group/phys_higgs/hbb/ntuples/VHbbPostNano/UL/EFT/2017/V1/DYJetsToLL_M-50_TuneCP5_13TeV-amcatnloFXFX-pythia8/db3e596a7cb6c548cfadfe000c06039096a01a4fb49148be527d1ed5/000000_000000/0000/tree_12.root
/eos/cms/store/group/phys_higgs/hbb/ntuples/VHbbPostNano/UL/EFT/2017/V1/DYJetsToLL_M-50_TuneCP5_13TeV-amcatnloFXFX-pythia8/6fec47723dc65a18d14be8e3305b97f81e4520791efc0d15fe9716ec/000000_000000/0000/tree_13.root
/eos/cms/store/group/phys_higgs/hbb/ntuples/VHbbPostNano/UL/EFT/2017/V1/DYJetsToLL_M-50_TuneCP5_13TeV-amcatnloFXFX-pythia8/9bb5b06237e5bb19863a82b0818ee6b9e15d7da0d42955e664e09130/000000_000000/0000/tree_14.root
/eos/cms/store/group/phys_higgs/hbb/ntuples/VHbbPostNano/UL/EFT/2017/V1/DYJetsToLL_M-50_TuneCP5_13TeV-amcatnloFXFX-pythia8/e652f77c91b3b4b5eca1ea3864367c728adbc70b3bd41b23caa3b579/000000_000000/0000/tree_15.root
/eos/cms/store/group/phys_higgs/hbb/ntuples/VHbbPostNano/UL/EFT/2017/V1/DYJetsToLL_M-50_TuneCP5_13TeV-amcatnloFXFX-pythia8/809d4377520ea42289e9ee4df91611c5437ef7b13612f0f4594141ca/000000_000000/0000/tree_16.root
/eos/cms/store/group/phys_higgs/hbb/ntuples/VHbbPostNano/UL/EFT/2017/V1/DYJetsToLL_M-50_TuneCP5_13TeV-amcatnloFXFX-pythia8/c97e33c154018f9422b043f49ad75c8eb3cfa79c9c12ca0035a3f4e4/000000_000000/0000/tree_17.root
/eos/cms/store/group/phys_higgs/hbb/ntuples/VHbbPostNano/UL/EFT/2017/V1/DYJetsToLL_M-50_TuneCP5_13TeV-amcatnloFXFX-pythia8/c586468fe38dcb7608ffc8446a0955e0aa5f2f68e08cda288e3c3626/000000_000000/0000/tree_18.root
/eos/cms/store/group/phys_higgs/hbb/ntuples/VHbbPostNano/UL/EFT/2017/V1/DYJetsToLL_M-50_TuneCP5_13TeV-amcatnloFXFX-pythia8/74ad6805688f0f936e4f0f0b7a9b37a16007f8dbfa5b6dbf0441cb6b/000000_000000/0000/tree_19.root
/eos/cms/store/group/phys_higgs/hbb/ntuples/VHbbPostNano/UL/EFT/2017/V1/DYJetsToLL_M-50_TuneCP5_13TeV-amcatnloFXFX-pythia8/447abf68bad376eb5503f66ef3c2b50b72b89b9581d5a5212580448f/000000_000000/0000/tree_20.root
/eos/cms/store/group/phys_higgs/hbb/ntuples/VHbbPostNano/UL/EFT/2017/V1/DYJetsToLL_M-50_TuneCP5_13TeV-amcatnloFXFX-pythia8/688a452f2b45df669b0623b421a36ae2c0c57a0df061519ccaeef9ab/000000_000000/0000/tree_21.root
/eos/cms/store/group/phys_higgs/hbb/ntuples/VHbbPostNano/UL/EFT/2017/V1/DYJetsToLL_M-50_TuneCP5_13TeV-amcatnloFXFX-pythia8/57dc9eb0cb498897f711f546e5069b55a2f10cc8270fc56749166a99/000000_000000/0000/tree_22.root
/eos/cms/store/group/phys_higgs/hbb/ntuples/VHbbPostNano/UL/EFT/2017/V1/DYJetsToLL_M-50_TuneCP5_13TeV-amcatnloFXFX-pythia8/e21cd4c33986938d1711ca0cd0c4b175af71be4a1c10dca83fa6d757/000000_000000/0000/tree_23.root
/eos/cms/store/group/phys_higgs/hbb/ntuples/VHbbPostNano/UL/EFT/2017/V1/DYJetsToLL_M-50_TuneCP5_13TeV-amcatnloFXFX-pythia8/cd733ab7d0d69cd365f99d6b2f3430969e1b50e78b8a4ed6f808c2e5/000000_000000/0000/tree_24.root
/eos/cms/store/group/phys_higgs/hbb/ntuples/VHbbPostNano/UL/EFT/2017/V1/DYJetsToLL_M-50_TuneCP5_13TeV-amcatnloFXFX-pythia8/01850bc659191937abae315c75bef3834f03f71079198bd40a8e3e34/000000_000000/0000/tree_25.root
/eos/cms/store/group/phys_higgs/hbb/ntuples/VHbbPostNano/UL/EFT/2017/V1/DYJetsToLL_M-50_TuneCP5_13TeV-amcatnloFXFX-pythia8/33adf007b2a7656aa4eeb4d629a2ed90c66ed0a50dd74a17dd1c9ac6/000000_000000/0000/tree_26.root
/eos/cms/store/group/phys_higgs/hbb/ntuples/VHbbPostNano/UL/EFT/2017/V1/DYJetsToLL_M-50_TuneCP5_13TeV-amcatnloFXFX-pythia8/beb927f5a1c2802ac9c119c64c1d7b1712324c4fa549aa8cdce856df/000000_000000/0000/tree_27.root
/eos/cms/store/group/phys_higgs/hbb/ntuples/VHbbPostNano/UL/EFT/2017/V1/DYJetsToLL_M-50_TuneCP5_13TeV-amcatnloFXFX-pythia8/58eefc47503144af6be18b7372937c83673f8024e23746f0c25f3e87/000000_000000/0000/tree_28.root
/eos/cms/store/group/phys_higgs/hbb/ntuples/VHbbPostNano/UL/EFT/2017/V1/DYJetsToLL_M-50_TuneCP5_13TeV-amcatnloFXFX-pythia8/5d11ad662765edcab9855b20a5e66ca5b5fcec35e4e65dc8aeff54db/000000_000000/0000/tree_29.root
/eos/cms/store/group/phys_higgs/hbb/ntuples/VHbbPostNano/UL/EFT/2017/V1/DYJetsToLL_M-50_TuneCP5_13TeV-amcatnloFXFX-pythia8/2f3b5cd2f3ca195cb8d7dd2afbecd9f010717f1bc04875424a0670ce/000000_000000/0000/tree_30.root
/eos/cms/store/group/phys_higgs/hbb/ntuples/VHbbPostNano/UL/EFT/2017/V1/DYJetsToLL_M-50_TuneCP5_13TeV-amcatnloFXFX-pythia8/570652f9375e8fa288c2d9409acce4a43b648218d5d6c776b9b2ea98/000000_000000/0000/tree_31.root
/eos/cms/store/group/phys_higgs/hbb/ntuples/VHbbPostNano/UL/EFT/2017/V1/DYJetsToLL_M-50_TuneCP5_13TeV-amcatnloFXFX-pythia8/2c7ff72200a9816397df20689f0edeeb0b320fad6651d4d948752eff/000000_000000/0000/tree_32.root
/eos/cms/store/group/phys_higgs/hbb/ntuples/VHbbPostNano/UL/EFT/2017/V1/DYJetsToLL_M-50_TuneCP5_13TeV-amcatnloFXFX-pythia8/b90f8897e64ddc65a3bbe5f1206871ca39da801ebd16481bbe021b45/000000_000000/0000/tree_33.root
/eos/cms/store/group/phys_higgs/hbb/ntuples/VHbbPostNano/UL/EFT/2017/V1/DYJetsToLL_M-50_TuneCP5_13TeV-amcatnloFXFX-pythia8/7aa7514372bd7a169b0f2c98f31f0c53a7c294811a3db51029d67200/000000_000000/0000/tree_34.root
/eos/cms/store/group/phys_higgs/hbb/ntuples/VHbbPostNano/UL/EFT/2017/V1/DYJetsToLL_M-50_TuneCP5_13TeV-amcatnloFXFX-pythia8/e57b246210d3873b7f164daaf654097b68489eb783befbfae871f510/000000_000000/0000/tree_35.root
/eos/cms/store/group/phys_higgs/hbb/ntuples/VHbbPostNano/UL/EFT/2017/V1/DYJetsToLL_M-50_TuneCP5_13TeV-amcatnloFXFX-pythia8/a6db83f8af9c33223cc374de0806002dc89589916acbbca11a32d1b8/000000_000000/0000/tree_36.root
/eos/cms/store/group/phys_higgs/hbb/ntuples/VHbbPostNano/UL/EFT/2017/V1/DYJetsToLL_M-50_TuneCP5_13TeV-amcatnloFXFX-pythia8/cbf2cb0c0ae62f530d5f50de75ba7ee02c36a3c9a1616788052a1763/000000_000000/0000/tree_37.root
/eos/cms/store/group/phys_higgs/hbb/ntuples/VHbbPostNano/UL/EFT/2017/V1/DYJetsToLL_M-50_TuneCP5_13TeV-amcatnloFXFX-pythia8/bd7a137204206d63192b00a2ffc88438b62082242e8e85d9d9252b87/000000_000000/0000/tree_38.root
/eos/cms/store/group/phys_higgs/hbb/ntuples/VHbbPostNano/UL/EFT/2017/V1/DYJetsToLL_M-50_TuneCP5_13TeV-amcatnloFXFX-pythia8/27ebf9b859113a4c4095e2d32eb88757a89a58bb948a0e398ed924e2/000000_000000/0000/tree_39.root
/eos/cms/store/group/phys_higgs/hbb/ntuples/VHbbPostNano/UL/EFT/2017/V1/DYJetsToLL_M-50_TuneCP5_13TeV-amcatnloFXFX-pythia8/bd88b6ef745439ac2a8e4b1164c796db3db76134d960eae1e2f41f52/000000_000000/0000/tree_40.root
/eos/cms/store/group/phys_higgs/hbb/ntuples/VHbbPostNano/UL/EFT/2017/V1/DYJetsToLL_M-50_TuneCP5_13TeV-amcatnloFXFX-pythia8/455746560ba0051fd82d8bbf4c86220242224125061fe11708ff2dc6/000000_000000/0000/tree_41.root
/eos/cms/store/group/phys_higgs/hbb/ntuples/VHbbPostNano/UL/EFT/2017/V1/DYJetsToLL_M-50_TuneCP5_13TeV-amcatnloFXFX-pythia8/be07b2a640d3c2e6603af2e4a6e44dc394f3001ffa900edffba2663a/000000_000000/0000/tree_42.root
/eos/cms/store/group/phys_higgs/hbb/ntuples/VHbbPostNano/UL/EFT/2017/V1/DYJetsToLL_M-50_TuneCP5_13TeV-amcatnloFXFX-pythia8/a01118c045a1b480b13da0598914c61b71ff4fc2802a4d05e729f343/000000_000000/0000/tree_43.root
/eos/cms/store/group/phys_higgs/hbb/ntuples/VHbbPostNano/UL/EFT/2017/V1/DYJetsToLL_M-50_TuneCP5_13TeV-amcatnloFXFX-pythia8/302ea00b215da1533a01c0905289359a4dc4fa1df80b48ce48182042/000000_000000/0000/tree_44.root
/eos/cms/store/group/phys_higgs/hbb/ntuples/VHbbPostNano/UL/EFT/2017/V1/DYJetsToLL_M-50_TuneCP5_13TeV-amcatnloFXFX-pythia8/7623905a2ea9d44d4ad75fb12ef5cc7f8f24f972e9819f80bb40d40e/000000_000000/0000/tree_45.root
/eos/cms/store/group/phys_higgs/hbb/ntuples/VHbbPostNano/UL/EFT/2017/V1/DYJetsToLL_M-50_TuneCP5_13TeV-amcatnloFXFX-pythia8/99028adb41f8691b73f1c009eecf25b743bd086c726c6208ecf88706/000000_000000/0000/tree_46.root
/eos/cms/store/group/phys_higgs/hbb/ntuples/VHbbPostNano/UL/EFT/2017/V1/DYJetsToLL_M-50_TuneCP5_13TeV-amcatnloFXFX-pythia8/2fede475fd18223b96d262b1efdfc5efd3508d5c8120d781fa8562b1/000000_000000/0000/tree_47.root
/eos/cms/store/group/phys_higgs/hbb/ntuples/VHbbPostNano/UL/EFT/2017/V1/DYJetsToLL_M-50_TuneCP5_13TeV-amcatnloFXFX-pythia8/dd182ef5b599b638338e4d41e2541e0ab0b7890f04380545b0ec38f9/000000_000000/0000/tree_48.root
/eos/cms/store/group/phys_higgs/hbb/ntuples/VHbbPostNano/UL/EFT/2017/V1/DYJetsToLL_M-50_TuneCP5_13TeV-amcatnloFXFX-pythia8/a1e6d811825a826f8e71b554152092293f3e7599dc3f28c937dfbefb/000000_000000/0000/tree_49.root
/eos/cms/store/group/phys_higgs/hbb/ntuples/VHbbPostNano/UL/EFT/2017/V1/DYJetsToLL_M-50_TuneCP5_13TeV-amcatnloFXFX-pythia8/cabe597627a529f18d6132b0aa49ce08f95f5e35c0f484e70c20196c/000000_000000/0000/tree_50.root
/eos/cms/store/group/phys_higgs/hbb/ntuples/VHbbPostNano/UL/EFT/2017/V1/DYJetsToLL_M-50_TuneCP5_13TeV-amcatnloFXFX-pythia8/9e77d7d0fa234ac85d77a6a79c2d4e931a197abcefe8e9c8a6250ca0/000000_000000/0000/tree_51.root
/eos/cms/store/group/phys_higgs/hbb/ntuples/VHbbPostNano/UL/EFT/2017/V1/DYJetsToLL_M-50_TuneCP5_13TeV-amcatnloFXFX-pythia8/50b7c43da0f602226eadeef35c680f8318f94ea771bfc24653d0664f/000000_000000/0000/tree_52.root
/eos/cms/store/group/phys_higgs/hbb/ntuples/VHbbPostNano/UL/EFT/2017/V1/DYJetsToLL_M-50_TuneCP5_13TeV-amcatnloFXFX-pythia8/7f0c222342056d54c86673ec62fbd7ec7c9ffd0a0f30591d6c0bbabd/000000_000000/0000/tree_53.root
/eos/cms/store/group/phys_higgs/hbb/ntuples/VHbbPostNano/UL/EFT/2017/V1/DYJetsToLL_M-50_TuneCP5_13TeV-amcatnloFXFX-pythia8/f5130b0d7992cfcc9ae7cc9430bf8575ff3e3fc14f73bddb989a6b5d/000000_000000/0000/tree_54.root
/eos/cms/store/group/phys_higgs/hbb/ntuples/VHbbPostNano/UL/EFT/2017/V1/DYJetsToLL_M-50_TuneCP5_13TeV-amcatnloFXFX-pythia8/bde50290f0b722a52f002c5c2bc37f35cc12b7943bfb27ee5c59e7c8/000000_000000/0000/tree_55.root
/eos/cms/store/group/phys_higgs/hbb/ntuples/VHbbPostNano/UL/EFT/2017/V1/DYJetsToLL_M-50_TuneCP5_13TeV-amcatnloFXFX-pythia8/47c92f73b2c659b661f493890cf84f63bf4c192d73b1e32797c4099e/000000_000000/0000/tree_56.root
/eos/cms/store/group/phys_higgs/hbb/ntuples/VHbbPostNano/UL/EFT/2017/V1/DYJetsToLL_M-50_TuneCP5_13TeV-amcatnloFXFX-pythia8/89f6b115d1ecb2950dcfecb1074d26d658e749fbf3449147c1ff0d70/000000_000000/0000/tree_57.root
/eos/cms/store/group/phys_higgs/hbb/ntuples/VHbbPostNano/UL/EFT/2017/V1/DYJetsToLL_M-50_TuneCP5_13TeV-amcatnloFXFX-pythia8/fe4d5755661bc6cf3a9290b851094fe5a10032f3c2730091a7719c41/000000_000000/0000/tree_58.root
/eos/cms/store/group/phys_higgs/hbb/ntuples/VHbbPostNano/UL/EFT/2017/V1/DYJetsToLL_M-50_TuneCP5_13TeV-amcatnloFXFX-pythia8/350ed2dd72d296ed29c33ca49075abcb61cd6b177a50b9fd810fde9e/000000_000000/0000/tree_59.root
/eos/cms/store/group/phys_higgs/hbb/ntuples/VHbbPostNano/UL/EFT/2017/V1/DYJetsToLL_M-50_TuneCP5_13TeV-amcatnloFXFX-pythia8/e2ea0a83e54667c90e4e27c9bdec7d67962735df4f420d708a560688/000000_000000/0000/tree_60.root
/eos/cms/store/group/phys_higgs/hbb/ntuples/VHbbPostNano/UL/EFT/2017/V1/DYJetsToLL_M-50_TuneCP5_13TeV-amcatnloFXFX-pythia8/444c8c959cb9e23c4b1a289b256f7b6de497f79800d4c7f7ded9a7dd/000000_000000/0000/tree_61.root
/eos/cms/store/group/phys_higgs/hbb/ntuples/VHbbPostNano/UL/EFT/2017/V1/DYJetsToLL_M-50_TuneCP5_13TeV-amcatnloFXFX-pythia8/063a8fa923711ecc7dc8b738f1e35215f57b2dd373cea68d9bc16c39/000000_000000/0000/tree_62.root
/eos/cms/store/group/phys_higgs/hbb/ntuples/VHbbPostNano/UL/EFT/2017/V1/DYJetsToLL_M-50_TuneCP5_13TeV-amcatnloFXFX-pythia8/a349a9342fb7e857466e9ec209f2092a24fbc3d92d160249ac45939f/000000_000000/0000/tree_63.root
/eos/cms/store/group/phys_higgs/hbb/ntuples/VHbbPostNano/UL/EFT/2017/V1/DYJetsToLL_M-50_TuneCP5_13TeV-amcatnloFXFX-pythia8/fedf81da25ed11af3942040af62a7d0fd96115a7ec17edc92abecf8a/000000_000000/0000/tree_64.root
/eos/cms/store/group/phys_higgs/hbb/ntuples/VHbbPostNano/UL/EFT/2017/V1/DYJetsToLL_M-50_TuneCP5_13TeV-amcatnloFXFX-pythia8/7989fd19e2f196dfebf2357e89bf8ddb2aaf10ab1c9ad5c88d50254b/000000_000000/0000/tree_65.root
/eos/cms/store/group/phys_higgs/hbb/ntuples/VHbbPostNano/UL/EFT/2017/V1/DYJetsToLL_M-50_TuneCP5_13TeV-amcatnloFXFX-pythia8/cf6eeec0c367a126212bcf86759fc1dbe5bc623ad1f6f5e71f16ad2f/000000_000000/0000/tree_66.root
/eos/cms/store/group/phys_higgs/hbb/ntuples/VHbbPostNano/UL/EFT/2017/V1/DYJetsToLL_M-50_TuneCP5_13TeV-amcatnloFXFX-pythia8/0c32228e1dc7af3893665f80644fc80ab29dd124c04a62f7d0d07b1a/000000_000000/0000/tree_67.root
/eos/cms/store/group/phys_higgs/hbb/ntuples/VHbbPostNano/UL/EFT/2017/V1/DYJetsToLL_M-50_TuneCP5_13TeV-amcatnloFXFX-pythia8/1031b095cea1e0e4ac1495f7cc86d4523dc1feba2308d502f1f5a139/000000_000000/0000/tree_68.root
/eos/cms/store/group/phys_higgs/hbb/ntuples/VHbbPostNano/UL/EFT/2017/V1/DYJetsToLL_M-50_TuneCP5_13TeV-amcatnloFXFX-pythia8/f4dfd214cb3ca50b8ab9a8abe05ba06584308dabf87b78b3a00eb41e/000000_000000/0000/tree_69.root
/eos/cms/store/group/phys_higgs/hbb/ntuples/VHbbPostNano/UL/EFT/2017/V1/DYJetsToLL_M-50_TuneCP5_13TeV-amcatnloFXFX-pythia8/79b3454e5580d257208567c668cd215c5131ed6e195c5ecab63fb948/000000_000000/0000/tree_70.root
/eos/cms/store/group/phys_higgs/hbb/ntuples/VHbbPostNano/UL/EFT/2017/V1/DYJetsToLL_M-50_TuneCP5_13TeV-amcatnloFXFX-pythia8/bb4de6548ba5b5047ef011c4953a8a53d1753fc5ddacd0427d8dc4d2/000000_000000/0000/tree_71.root
/eos/cms/store/group/phys_higgs/hbb/ntuples/VHbbPostNano/UL/EFT/2017/V1/DYJetsToLL_M-50_TuneCP5_13TeV-amcatnloFXFX-pythia8/1daacde0b841f1dd60e0d456b0778c1f12050975366e0ff35df6e3bf/000000_000000/0000/tree_72.root
/eos/cms/store/group/phys_higgs/hbb/ntuples/VHbbPostNano/UL/EFT/2017/V1/DYJetsToLL_M-50_TuneCP5_13TeV-amcatnloFXFX-pythia8/ab7983dd807dd3217176f69ccb241610dc3308c1d99ecac754ae0083/000000_000000/0000/tree_73.root
/eos/cms/store/group/phys_higgs/hbb/ntuples/VHbbPostNano/UL/EFT/2017/V1/DYJetsToLL_M-50_TuneCP5_13TeV-amcatnloFXFX-pythia8/4c2ad838e295effd84183e8da774ec967d4410347ae60061cd91acec/000000_000000/0000/tree_74.root
/eos/cms/store/group/phys_higgs/hbb/ntuples/VHbbPostNano/UL/EFT/2017/V1/DYJetsToLL_M-50_TuneCP5_13TeV-amcatnloFXFX-pythia8/c869c06a1591b2e2edf9dda51a54855629f1984243463daf12fda22a/000000_000000/0000/tree_75.root
/eos/cms/store/group/phys_higgs/hbb/ntuples/VHbbPostNano/UL/EFT/2017/V1/DYJetsToLL_M-50_TuneCP5_13TeV-amcatnloFXFX-pythia8/0d855e6be702a7f4a140a83bcac7c01b44a7c2811e404531a99d3ea5/000000_000000/0000/tree_76.root
/eos/cms/store/group/phys_higgs/hbb/ntuples/VHbbPostNano/UL/EFT/2017/V1/DYJetsToLL_M-50_TuneCP5_13TeV-amcatnloFXFX-pythia8/ec3e4e392a55302cc2b4dc1457d834d26e75ecb192f0b585b509f662/000000_000000/0000/tree_77.root
/eos/cms/store/group/phys_higgs/hbb/ntuples/VHbbPostNano/UL/EFT/2017/V1/DYJetsToLL_M-50_TuneCP5_13TeV-amcatnloFXFX-pythia8/876f19019fd51b260d291964c10b2666dd1c9663b1908c9a52875fa0/000000_000000/0000/tree_78.root
/eos/cms/store/group/phys_higgs/hbb/ntuples/VHbbPostNano/UL/EFT/2017/V1/DYJetsToLL_M-50_TuneCP5_13TeV-amcatnloFXFX-pythia8/b88f9560ade82548daeff4e38d9b25583de89343569ea06d55c57512/000000_000000/0000/tree_79.root
/eos/cms/store/group/phys_higgs/hbb/ntuples/VHbbPostNano/UL/EFT/2017/V1/DYJetsToLL_M-50_TuneCP5_13TeV-amcatnloFXFX-pythia8/d78280894e61e3150ae5c401da069dbebaf9bf89b1a8807aa232db42/000000_000000/0000/tree_80.root
/eos/cms/store/group/phys_higgs/hbb/ntuples/VHbbPostNano/UL/EFT/2017/V1/DYJetsToLL_M-50_TuneCP5_13TeV-amcatnloFXFX-pythia8/d250d636d5eab6437577dfa72d9277edcb8217b255362e05f39dc85f/000000_000000/0000/tree_81.root
/eos/cms/store/group/phys_higgs/hbb/ntuples/VHbbPostNano/UL/EFT/2017/V1/DYJetsToLL_M-50_TuneCP5_13TeV-amcatnloFXFX-pythia8/78116a5a0ed29b57f65e508f9329b77c562702a60729d89fce395a65/000000_000000/0000/tree_82.root
/eos/cms/store/group/phys_higgs/hbb/ntuples/VHbbPostNano/UL/EFT/2017/V1/DYJetsToLL_M-50_TuneCP5_13TeV-amcatnloFXFX-pythia8/227169da81c989adc10e119f85c9288c371fa19d38f3c6c6e5025e0a/000000_000000/0000/tree_83.root
/eos/cms/store/group/phys_higgs/hbb/ntuples/VHbbPostNano/UL/EFT/2017/V1/DYJetsToLL_M-50_TuneCP5_13TeV-amcatnloFXFX-pythia8/c2286ecc1217dbe9ee9973e8faef5af367aaa113071cd65fe1d7533c/000000_000000/0000/tree_84.root
/eos/cms/store/group/phys_higgs/hbb/ntuples/VHbbPostNano/UL/EFT/2017/V1/DYJetsToLL_M-50_TuneCP5_13TeV-amcatnloFXFX-pythia8/64b0b827f3901ecaec6c804a0297f97189d2e4108ddabe949b462427/000000_000000/0000/tree_85.root
/eos/cms/store/group/phys_higgs/hbb/ntuples/VHbbPostNano/UL/EFT/2017/V1/DYJetsToLL_M-50_TuneCP5_13TeV-amcatnloFXFX-pythia8/3a9498cd3cd764ebbcab5e23dda54c85d312a34f23faa7a074b9adb3/000000_000000/0000/tree_86.root
/eos/cms/store/group/phys_higgs/hbb/ntuples/VHbbPostNano/UL/EFT/2017/V1/DYJetsToLL_M-50_TuneCP5_13TeV-amcatnloFXFX-pythia8/cb7b5984fef21b64c4a8cb3df91fdc007b211666cbabbdc2dfdfe669/000000_000000/0000/tree_87.root
/eos/cms/store/group/phys_higgs/hbb/ntuples/VHbbPostNano/UL/EFT/2017/V1/DYJetsToLL_M-50_TuneCP5_13TeV-amcatnloFXFX-pythia8/8122e82ca7036ca216166eed9321c2920d53554f57537db9338ec463/000000_000000/0000/tree_88.root
/eos/cms/store/group/phys_higgs/hbb/ntuples/VHbbPostNano/UL/EFT/2017/V1/DYJetsToLL_M-50_TuneCP5_13TeV-amcatnloFXFX-pythia8/b7aab441bf4449f94394dac05a5427cc37309826a69746bbd2530df2/000000_000000/0000/tree_89.root
/eos/cms/store/group/phys_higgs/hbb/ntuples/VHbbPostNano/UL/EFT/2017/V1/DYJetsToLL_M-50_TuneCP5_13TeV-amcatnloFXFX-pythia8/82474a00fde1d0532b44323ebe22457632513ff9173bb3f87525e5bb/000000_000000/0000/tree_90.root
/eos/cms/store/group/phys_higgs/hbb/ntuples/VHbbPostNano/UL/EFT/2017/V1/DYJetsToLL_M-50_TuneCP5_13TeV-amcatnloFXFX-pythia8/0da4f056bf20109fe149cdb1be4399c69bbec4c0db76e7e868aa04f5/000000_000000/0000/tree_91.root
/eos/cms/store/group/phys_higgs/hbb/ntuples/VHbbPostNano/UL/EFT/2017/V1/DYJetsToLL_M-50_TuneCP5_13TeV-amcatnloFXFX-pythia8/f40969b5f16f8058245d43b89f55bd5a83bd6ab2546cb1c979418705/000000_000000/0000/tree_92.root
/eos/cms/store/group/phys_higgs/hbb/ntuples/VHbbPostNano/UL/EFT/2017/V1/DYJetsToLL_M-50_TuneCP5_13TeV-amcatnloFXFX-pythia8/4a6a852cc7be16c079b23be021a9c2fbdc81d9028b498a14f4192d8a/000000_000000/0000/tree_93.root
/eos/cms/store/group/phys_higgs/hbb/ntuples/VHbbPostNano/UL/EFT/2017/V1/DYJetsToLL_M-50_TuneCP5_13TeV-amcatnloFXFX-pythia8/6eae18924af7187472d68e9deb3713e462bb500dc3d90afebe99fd98/000000_000000/0000/tree_94.root
/eos/cms/store/group/phys_higgs/hbb/ntuples/VHbbPostNano/UL/EFT/2017/V1/DYJetsToLL_M-50_TuneCP5_13TeV-amcatnloFXFX-pythia8/2414c7b27e841b17d64de885e27a79d206dd202317928c5a8c8f722c/000000_000000/0000/tree_95.root
/eos/cms/store/group/phys_higgs/hbb/ntuples/VHbbPostNano/UL/EFT/2017/V1/DYJetsToLL_M-50_TuneCP5_13TeV-amcatnloFXFX-pythia8/058064a7e3bfa20950f0c628c231b8bd8f0b310063d65827d75954f3/000000_000000/0000/tree_96.root
/eos/cms/store/group/phys_higgs/hbb/ntuples/VHbbPostNano/UL/EFT/2017/V1/DYJetsToLL_M-50_TuneCP5_13TeV-amcatnloFXFX-pythia8/e26fb8228933ae2d72c234b108cc4efb5f50fa136764919ceb25b10a/000000_000000/0000/tree_97.root