/eos/cms/store/group/phys_higgs/hbb/ntuples/VHbbPostNano/UL/EFT/2017/V1/DYJetsToLL_1J_TuneCP5_13TeV-amcatnloFXFX-pythia8/317e77645ad86bac9646832576e56dc632c10b68fef23be1949f1695/000000_000000/0000/tree_0.root
/eos/cms/store/group/phys_higgs/hbb/ntuples/VHbbPostNano/UL/EFT/2017/V1/DYJetsToLL_1J_TuneCP5_13TeV-amcatnloFXFX-pythia8/b7f39dc000cf669787b7cb6e20e2421f0bc79696bc01f930eea046bb/000000_000000/0000/tree_1.root
/eos/cms/store/group/phys_higgs/hbb/ntuples/VHbbPostNano/UL/EFT/2017/V1/DYJetsToLL_1J_TuneCP5_13TeV-amcatnloFXFX-pythia8/9a47ee28c3cf9c86a38f538ce0b9be82cb2a01d5c874677a7f0b6caf/000000_000000/0000/tree_2.root
/eos/cms/store/group/phys_higgs/hbb/ntuples/VHbbPostNano/UL/EFT/2017/V1/DYJetsToLL_1J_TuneCP5_13TeV-amcatnloFXFX-pythia8/bbe6590bc23ac71de92064a5156069366183b38f441dce059c27e6da/000000_000000/0000/tree_3.root
/eos/cms/store/group/phys_higgs/hbb/ntuples/VHbbPostNano/UL/EFT/2017/V1/DYJetsToLL_1J_TuneCP5_13TeV-amcatnloFXFX-pythia8/452c8443239964dd346cd7d33b807d5f499ee52e2af13f33db249ec4/000000_000000/0000/tree_4.root
/eos/cms/store/group/phys_higgs/hbb/ntuples/VHbbPostNano/UL/EFT/2017/V1/DYJetsToLL_1J_TuneCP5_13TeV-amcatnloFXFX-pythia8/d2bec3aa8c2cd6b4013b5a1d9d26ee56d6b8c388fb5eeaa4151bf5d3/000000_000000/0000/tree_5.root
/eos/cms/store/group/phys_higgs/hbb/ntuples/VHbbPostNano/UL/EFT/2017/V1/DYJetsToLL_1J_TuneCP5_13TeV-amcatnloFXFX-pythia8/6b0d635691c8e7b1bda404c7c46935f4799f2b80901be09127e506b7/000000_000000/0000/tree_6.root
/eos/cms/store/group/phys_higgs/hbb/ntuples/VHbbPostNano/UL/EFT/2017/V1/DYJetsToLL_1J_TuneCP5_13TeV-amcatnloFXFX-pythia8/ade020ef4b290c5f51b8a6e431a316e789cc8deb953b70bf167f14e3/000000_000000/0000/tree_7.root
/eos/cms/store/group/phys_higgs/hbb/ntuples/VHbbPostNano/UL/EFT/2017/V1/DYJetsToLL_1J_TuneCP5_13TeV-amcatnloFXFX-pythia8/3f0c7880a19635d0d90cc3e1bba32d91145ac22cb9e9b5cf39dc90ac/000000_000000/0000/tree_8.root
/eos/cms/store/group/phys_higgs/hbb/ntuples/VHbbPostNano/UL/EFT/2017/V1/DYJetsToLL_1J_TuneCP5_13TeV-amcatnloFXFX-pythia8/681eadff1bc9b99346cd4c7dc926d060ccdda3fa0caf2485236c6522/000000_000000/0000/tree_9.root
/eos/cms/store/group/phys_higgs/hbb/ntuples/VHbbPostNano/UL/EFT/2017/V1/DYJetsToLL_1J_TuneCP5_13TeV-amcatnloFXFX-pythia8/972af08d5d5e51f8411d13469ca913393fa74f5f025af35908f98806/000000_000000/0000/tree_10.root
/eos/cms/store/group/phys_higgs/hbb/ntuples/VHbbPostNano/UL/EFT/2017/V1/DYJetsToLL_1J_TuneCP5_13TeV-amcatnloFXFX-pythia8/f8c216d7d5a765f4863f22cfe0b21f39f759d3fa0195dced7eb267e6/000000_000000/0000/tree_11.root
/eos/cms/store/group/phys_higgs/hbb/ntuples/VHbbPostNano/UL/EFT/2017/V1/DYJetsToLL_1J_TuneCP5_13TeV-amcatnloFXFX-pythia8/16d21fcb7151dab14fa975e8b498aa52fc98356384f17235a065f0fd/000000_000000/0000/tree_12.root
/eos/cms/store/group/phys_higgs/hbb/ntuples/VHbbPostNano/UL/EFT/2017/V1/DYJetsToLL_1J_TuneCP5_13TeV-amcatnloFXFX-pythia8/426fba3ad101ed18da1bb3c1ae845130a57efddf6b87dce602127e72/000000_000000/0000/tree_13.root
/eos/cms/store/group/phys_higgs/hbb/ntuples/VHbbPostNano/UL/EFT/2017/V1/DYJetsToLL_1J_TuneCP5_13TeV-amcatnloFXFX-pythia8/b17c977036f35854b131016977441c69be54c025b1444284f8174c76/000000_000000/0000/tree_14.root
/eos/cms/store/group/phys_higgs/hbb/ntuples/VHbbPostNano/UL/EFT/2017/V1/DYJetsToLL_1J_TuneCP5_13TeV-amcatnloFXFX-pythia8/65573a34e207c4e862cdbed83670ddc4fa5bd17ad9e78e183173c405/000000_000000/0000/tree_15.root
/eos/cms/store/group/phys_higgs/hbb/ntuples/VHbbPostNano/UL/EFT/2017/V1/DYJetsToLL_1J_TuneCP5_13TeV-amcatnloFXFX-pythia8/79bc53182303abc4fac311693d8ed39ff5fdc72a10803e69df321378/000000_000000/0000/tree_16.root
/eos/cms/store/group/phys_higgs/hbb/ntuples/VHbbPostNano/UL/EFT/2017/V1/DYJetsToLL_1J_TuneCP5_13TeV-amcatnloFXFX-pythia8/f3b72cdc3994b5f92783b6c7578413ce0aaf67dbee6a17c402d5d6f6/000000_000000/0000/tree_17.root
/eos/cms/store/group/phys_higgs/hbb/ntuples/VHbbPostNano/UL/EFT/2017/V1/DYJetsToLL_1J_TuneCP5_13TeV-amcatnloFXFX-pythia8/f1c0323188e6ce98ca675221cfb24888efd08e69da5a0b6029ac46b5/000000_000000/0000/tree_18.root
/eos/cms/store/group/phys_higgs/hbb/ntuples/VHbbPostNano/UL/EFT/2017/V1/DYJetsToLL_1J_TuneCP5_13TeV-amcatnloFXFX-pythia8/c9992f3675696441e68c39a9228f3bd45953237629cfd5b32e20840f/000000_000000/0000/tree_19.root
/eos/cms/store/group/phys_higgs/hbb/ntuples/VHbbPostNano/UL/EFT/2017/V1/DYJetsToLL_1J_TuneCP5_13TeV-amcatnloFXFX-pythia8/f86f6da40e29768c96be2af27df7b6fa331aa1569b11292f4d87a541/000000_000000/0000/tree_20.root
/eos/cms/store/group/phys_higgs/hbb/ntuples/VHbbPostNano/UL/EFT/2017/V1/DYJetsToLL_1J_TuneCP5_13TeV-amcatnloFXFX-pythia8/6cc7ae663663646b2ab3e59f8605ef20db73a4a225501fe0b45683cc/000000_000000/0000/tree_21.root
/eos/cms/store/group/phys_higgs/hbb/ntuples/VHbbPostNano/UL/EFT/2017/V1/DYJetsToLL_1J_TuneCP5_13TeV-amcatnloFXFX-pythia8/6067e13411cd1d17cd2eece68ca1fcd58997884352e5bb0345c241a9/000000_000000/0000/tree_22.root
/eos/cms/store/group/phys_higgs/hbb/ntuples/VHbbPostNano/UL/EFT/2017/V1/DYJetsToLL_1J_TuneCP5_13TeV-amcatnloFXFX-pythia8/917f1dfac79eafd3e67a29f2d85d8576c90f5cde5fdad878b2a1db5a/000000_000000/0000/tree_23.root
/eos/cms/store/group/phys_higgs/hbb/ntuples/VHbbPostNano/UL/EFT/2017/V1/DYJetsToLL_1J_TuneCP5_13TeV-amcatnloFXFX-pythia8/901058c818d35cce5bfaca745d01801f4b506b10d28d5bd1d1460118/000000_000000/0000/tree_24.root
/eos/cms/store/group/phys_higgs/hbb/ntuples/VHbbPostNano/UL/EFT/2017/V1/DYJetsToLL_1J_TuneCP5_13TeV-amcatnloFXFX-pythia8/c20895dd9b0cd65a3a7338ee7495f2e1c6058ba82b0c9c3d33fe68eb/000000_000000/0000/tree_25.root
/eos/cms/store/group/phys_higgs/hbb/ntuples/VHbbPostNano/UL/EFT/2017/V1/DYJetsToLL_1J_TuneCP5_13TeV-amcatnloFXFX-pythia8/3192b2baabe092331ba658646c5037da925622a3c72c0d76b9810054/000000_000000/0000/tree_26.root
/eos/cms/store/group/phys_higgs/hbb/ntuples/VHbbPostNano/UL/EFT/2017/V1/DYJetsToLL_1J_TuneCP5_13TeV-amcatnloFXFX-pythia8/799456f443d29c5843c3bf6e46e1ca0d3bf6bf1bfb28d850b658379e/000000_000000/0000/tree_27.root
/eos/cms/store/group/phys_higgs/hbb/ntuples/VHbbPostNano/UL/EFT/2017/V1/DYJetsToLL_1J_TuneCP5_13TeV-amcatnloFXFX-pythia8/55976fe993a84aff0f477c966088be2fec56f7169f3700af0d11b83c/000000_000000/0000/tree_28.root
/eos/cms/store/group/phys_higgs/hbb/ntuples/VHbbPostNano/UL/EFT/2017/V1/DYJetsToLL_1J_TuneCP5_13TeV-amcatnloFXFX-pythia8/e6fc358a1f14532cf894edc50a3cc3dba1f557ec973b6b04b5f6a20f/000000_000000/0000/tree_29.root
/eos/cms/store/group/phys_higgs/hbb/ntuples/VHbbPostNano/UL/EFT/2017/V1/DYJetsToLL_1J_TuneCP5_13TeV-amcatnloFXFX-pythia8/afa97b853fe7eaaac5060c7b47ba9115b7cdacde8771e3befb982301/000000_000000/0000/tree_30.root
/eos/cms/store/group/phys_higgs/hbb/ntuples/VHbbPostNano/UL/EFT/2017/V1/DYJetsToLL_1J_TuneCP5_13TeV-amcatnloFXFX-pythia8/501abfb106603f8ed4c8819aade85c258846ba055675cfc53e08e6c7/000000_000000/0000/tree_31.root
/eos/cms/store/group/phys_higgs/hbb/ntuples/VHbbPostNano/UL/EFT/2017/V1/DYJetsToLL_1J_TuneCP5_13TeV-amcatnloFXFX-pythia8/506b356c3b21d2d495aee59c1cc81939a7b63edd56f4e467f2640071/000000_000000/0000/tree_32.root
/eos/cms/store/group/phys_higgs/hbb/ntuples/VHbbPostNano/UL/EFT/2017/V1/DYJetsToLL_1J_TuneCP5_13TeV-amcatnloFXFX-pythia8/d5e65435da848f0553ea74a19e811fe8bdb78cb6fe4f7826307aa8d3/000000_000000/0000/tree_33.root
/eos/cms/store/group/phys_higgs/hbb/ntuples/VHbbPostNano/UL/EFT/2017/V1/DYJetsToLL_1J_TuneCP5_13TeV-amcatnloFXFX-pythia8/57c2d78b78da274698c057fbfcb21485d36187d7be12bd6347aecb8e/000000_000000/0000/tree_34.root
/eos/cms/store/group/phys_higgs/hbb/ntuples/VHbbPostNano/UL/EFT/2017/V1/DYJetsToLL_1J_TuneCP5_13TeV-amcatnloFXFX-pythia8/db004c385ab593b6deee8cd6964cb4845a13e471c607cde577e7e32d/000000_000000/0000/tree_35.root
/eos/cms/store/group/phys_higgs/hbb/ntuples/VHbbPostNano/UL/EFT/2017/V1/DYJetsToLL_1J_TuneCP5_13TeV-amcatnloFXFX-pythia8/e77db88e5092191db58d30a40904f08cbb041d4f109249eff205050f/000000_000000/0000/tree_36.root
/eos/cms/store/group/phys_higgs/hbb/ntuples/VHbbPostNano/UL/EFT/2017/V1/DYJetsToLL_1J_TuneCP5_13TeV-amcatnloFXFX-pythia8/db59733529f7857dc304f580360076b13ac502eb3494da813ca2329e/000000_000000/0000/tree_37.root