/eos/cms/store/group/phys_higgs/hbb/ntuples/VHbbPostNano/UL/EFT/2017/V1/ST_tW_top_5f_inclusiveDecays_TuneCP5_13TeV-powheg-pythia8/ddd84395e19c1dbfa9dc0f04b5099db866a43e738d5da598388edd50/000000_000000/0000/tree_0.root
/eos/cms/store/group/phys_higgs/hbb/ntuples/VHbbPostNano/UL/EFT/2017/V1/ST_tW_top_5f_inclusiveDecays_TuneCP5_13TeV-powheg-pythia8/c0dccd36a6f7455ca0dd0f1a4d5fda890de7b9afcf451f4841e213f2/000000_000000/0000/tree_1.root
/eos/cms/store/group/phys_higgs/hbb/ntuples/VHbbPostNano/UL/EFT/2017/V1/ST_tW_top_5f_inclusiveDecays_TuneCP5_13TeV-powheg-pythia8/505c3e2fff9b31d8c56c559242e99103bf1ea123f6030f7490a7cf9b/000000_000000/0000/tree_2.root
/eos/cms/store/group/phys_higgs/hbb/ntuples/VHbbPostNano/UL/EFT/2017/V1/ST_tW_top_5f_inclusiveDecays_TuneCP5_13TeV-powheg-pythia8/46507655235d0da327389800db91c15bf83a2e0721cbbb6be68d255d/000000_000000/0000/tree_3.root
/eos/cms/store/group/phys_higgs/hbb/ntuples/VHbbPostNano/UL/EFT/2017/V1/ST_tW_top_5f_inclusiveDecays_TuneCP5_13TeV-powheg-pythia8/f475a27f3624f328bf9f5e7b3139cc6e94b1aaa073f6056e0a136777/000000_000000/0000/tree_4.root
/eos/cms/store/group/phys_higgs/hbb/ntuples/VHbbPostNano/UL/EFT/2017/V1/ST_tW_top_5f_inclusiveDecays_TuneCP5_13TeV-powheg-pythia8/e2ad2ead9cf32858e065fb1f6139c1ffda47eb89290cda7308561b40/000000_000000/0000/tree_5.root
/eos/cms/store/group/phys_higgs/hbb/ntuples/VHbbPostNano/UL/EFT/2017/V1/ST_tW_top_5f_inclusiveDecays_TuneCP5_13TeV-powheg-pythia8/cefb8c1efce4b775cf7080dd135e4c1f37b0bb8d26e5515986af68c1/000000_000000/0000/tree_6.root
/eos/cms/store/group/phys_higgs/hbb/ntuples/VHbbPostNano/UL/EFT/2017/V1/ST_tW_top_5f_inclusiveDecays_TuneCP5_13TeV-powheg-pythia8/57b83121c38158c70f6e04989843de5ee3615c183abde2bf9c9cee61/000000_000000/0000/tree_7.root
/eos/cms/store/group/phys_higgs/hbb/ntuples/VHbbPostNano/UL/EFT/2017/V1/ST_tW_top_5f_inclusiveDecays_TuneCP5_13TeV-powheg-pythia8/80e79014308a0bf336d588efbd96b5aa6639ecbc76db4e18f87d1830/000000_000000/0000/tree_8.root
/eos/cms/store/group/phys_higgs/hbb/ntuples/VHbbPostNano/UL/EFT/2017/V1/ST_tW_top_5f_inclusiveDecays_TuneCP5_13TeV-powheg-pythia8/f19cccb3431e33a08fcb4f748283975f5f0f996e18778b36fbc91a01/000000_000000/0000/tree_9.root
/eos/cms/store/group/phys_higgs/hbb/ntuples/VHbbPostNano/UL/EFT/2017/V1/ST_tW_top_5f_inclusiveDecays_TuneCP5_13TeV-powheg-pythia8/183a2fa7f51cf4d07d6412bd3bb0afffcc41aee68d3c998f035f4b46/000000_000000/0000/tree_10.root
/eos/cms/store/group/phys_higgs/hbb/ntuples/VHbbPostNano/UL/EFT/2017/V1/ST_tW_top_5f_inclusiveDecays_TuneCP5_13TeV-powheg-pythia8/94b31b5ba942c6ec64aeed44f0adbcd5570df27b2f24309551cc0f4e/000000_000000/0000/tree_11.root