/eos/cms/store/group/phys_higgs/hbb/ntuples/VHbbPostNano/UL/EFT/2017/V1/TTTo2L2Nu_TuneCP5_13TeV-powheg-pythia8/8c00cc48f7ad03d4c6e4412fc1851d0241535606ad6bc421423cd9e7/000000_000000/0000/tree_0.root
/eos/cms/store/group/phys_higgs/hbb/ntuples/VHbbPostNano/UL/EFT/2017/V1/TTTo2L2Nu_TuneCP5_13TeV-powheg-pythia8/7d8e466eeb185c679d7f22f28a3e40460e9ec161f82d6f205069f5ca/000000_000000/0000/tree_1.root
/eos/cms/store/group/phys_higgs/hbb/ntuples/VHbbPostNano/UL/EFT/2017/V1/TTTo2L2Nu_TuneCP5_13TeV-powheg-pythia8/131fd3fc003045032ab12c873f0fce534d2693ec82bb326b345b92da/000000_000000/0000/tree_2.root
/eos/cms/store/group/phys_higgs/hbb/ntuples/VHbbPostNano/UL/EFT/2017/V1/TTTo2L2Nu_TuneCP5_13TeV-powheg-pythia8/658733f96f587626b19e15e3ef72ee616fd399034513f3407fdbc033/000000_000000/0000/tree_3.root
/eos/cms/store/group/phys_higgs/hbb/ntuples/VHbbPostNano/UL/EFT/2017/V1/TTTo2L2Nu_TuneCP5_13TeV-powheg-pythia8/9a92db5042768726008ca0fcf2af21dc29fa9d53c842f1c2e643bde9/000000_000000/0000/tree_4.root
/eos/cms/store/group/phys_higgs/hbb/ntuples/VHbbPostNano/UL/EFT/2017/V1/TTTo2L2Nu_TuneCP5_13TeV-powheg-pythia8/10b492bad8f97a84271831e072946bb8586afe22c7e8a4f6e7386499/000000_000000/0000/tree_5.root
/eos/cms/store/group/phys_higgs/hbb/ntuples/VHbbPostNano/UL/EFT/2017/V1/TTTo2L2Nu_TuneCP5_13TeV-powheg-pythia8/63027f2da87873e73e1c955a28a78f43329de1dcf4f95986501155c8/000000_000000/0000/tree_6.root
/eos/cms/store/group/phys_higgs/hbb/ntuples/VHbbPostNano/UL/EFT/2017/V1/TTTo2L2Nu_TuneCP5_13TeV-powheg-pythia8/40a89a465b9e4141fbf3c0936cb00d429cb138f4d79d6ccec66b85e6/000000_000000/0000/tree_7.root
/eos/cms/store/group/phys_higgs/hbb/ntuples/VHbbPostNano/UL/EFT/2017/V1/TTTo2L2Nu_TuneCP5_13TeV-powheg-pythia8/983fc08d3b727052c0b786e6ae510593cbed3995ffb9d70e01b6c9fa/000000_000000/0000/tree_8.root
/eos/cms/store/group/phys_higgs/hbb/ntuples/VHbbPostNano/UL/EFT/2017/V1/TTTo2L2Nu_TuneCP5_13TeV-powheg-pythia8/6c366f96801b5151896b36d1cb08971c2234df03333c575df1399482/000000_000000/0000/tree_9.root
/eos/cms/store/group/phys_higgs/hbb/ntuples/VHbbPostNano/UL/EFT/2017/V1/TTTo2L2Nu_TuneCP5_13TeV-powheg-pythia8/00b0e185f0c74fd0a9a7244f690b83420c4fa1ec2837d9a10c81fe8d/000000_000000/0000/tree_10.root
/eos/cms/store/group/phys_higgs/hbb/ntuples/VHbbPostNano/UL/EFT/2017/V1/TTTo2L2Nu_TuneCP5_13TeV-powheg-pythia8/aec6d1fe022c8611d87a1972e4e24ec0131e0566f844fe2102f0d212/000000_000000/0000/tree_11.root
/eos/cms/store/group/phys_higgs/hbb/ntuples/VHbbPostNano/UL/EFT/2017/V1/TTTo2L2Nu_TuneCP5_13TeV-powheg-pythia8/97994faed4bef388d42cb4020f19ac311b8fb0695699a658906f796e/000000_000000/0000/tree_12.root
/eos/cms/store/group/phys_higgs/hbb/ntuples/VHbbPostNano/UL/EFT/2017/V1/TTTo2L2Nu_TuneCP5_13TeV-powheg-pythia8/f8261ffe0ea9f2ba813999d912b1d1896c9f79c917772746dee75a76/000000_000000/0000/tree_13.root
/eos/cms/store/group/phys_higgs/hbb/ntuples/VHbbPostNano/UL/EFT/2017/V1/TTTo2L2Nu_TuneCP5_13TeV-powheg-pythia8/a54f57ca20c8a7fdcd3a56f9f2d16016c87f62295af3fdbf628c1665/000000_000000/0000/tree_14.root
/eos/cms/store/group/phys_higgs/hbb/ntuples/VHbbPostNano/UL/EFT/2017/V1/TTTo2L2Nu_TuneCP5_13TeV-powheg-pythia8/556782fcabd42573b76ba9d4f6c057884889b7bb4488fdf01973caea/000000_000000/0000/tree_15.root
/eos/cms/store/group/phys_higgs/hbb/ntuples/VHbbPostNano/UL/EFT/2017/V1/TTTo2L2Nu_TuneCP5_13TeV-powheg-pythia8/b2c5aa56963893b3270656d28422dae8939a0b3b36870ce5c9c1aac8/000000_000000/0000/tree_16.root
/eos/cms/store/group/phys_higgs/hbb/ntuples/VHbbPostNano/UL/EFT/2017/V1/TTTo2L2Nu_TuneCP5_13TeV-powheg-pythia8/e7edde4cddf1159221158fd5e645bcd11b40a3132ad84a98ea5cd203/000000_000000/0000/tree_17.root
/eos/cms/store/group/phys_higgs/hbb/ntuples/VHbbPostNano/UL/EFT/2017/V1/TTTo2L2Nu_TuneCP5_13TeV-powheg-pythia8/fa53d9bdcac2a282c82519e4864fec64e1f2b94fb1300566ad73a0b8/000000_000000/0000/tree_18.root
/eos/cms/store/group/phys_higgs/hbb/ntuples/VHbbPostNano/UL/EFT/2017/V1/TTTo2L2Nu_TuneCP5_13TeV-powheg-pythia8/c781e963e06b61287dad41ab49f4a76b415083c5865bf94149568b2a/000000_000000/0000/tree_19.root
/eos/cms/store/group/phys_higgs/hbb/ntuples/VHbbPostNano/UL/EFT/2017/V1/TTTo2L2Nu_TuneCP5_13TeV-powheg-pythia8/a84bfaeca7dcc21a5f7bfe2c71d1ceb60f42ac95098207859e5a790d/000000_000000/0000/tree_20.root
/eos/cms/store/group/phys_higgs/hbb/ntuples/VHbbPostNano/UL/EFT/2017/V1/TTTo2L2Nu_TuneCP5_13TeV-powheg-pythia8/71140f27617b44c988797654ec2f8a272e254d7fd9d1bcbca1e7af19/000000_000000/0000/tree_21.root
/eos/cms/store/group/phys_higgs/hbb/ntuples/VHbbPostNano/UL/EFT/2017/V1/TTTo2L2Nu_TuneCP5_13TeV-powheg-pythia8/4de7b7c0062fd2578f6cf975a69c23cc05dae2e6fd5b70578570fe7c/000000_000000/0000/tree_22.root
/eos/cms/store/group/phys_higgs/hbb/ntuples/VHbbPostNano/UL/EFT/2017/V1/TTTo2L2Nu_TuneCP5_13TeV-powheg-pythia8/f727f1dc3bf41ef3edb52a7c8ecb6d1bb25c572afb819e346948ff9c/000000_000000/0000/tree_23.root
/eos/cms/store/group/phys_higgs/hbb/ntuples/VHbbPostNano/UL/EFT/2017/V1/TTTo2L2Nu_TuneCP5_13TeV-powheg-pythia8/efafd8bd8a900fe47b7ff1236d58a630fa2ca4be2276d58d0392ca4f/000000_000000/0000/tree_24.root
/eos/cms/store/group/phys_higgs/hbb/ntuples/VHbbPostNano/UL/EFT/2017/V1/TTTo2L2Nu_TuneCP5_13TeV-powheg-pythia8/3ef15303ce57a843c35259f5493e6e290444620ee3526532875fde42/000000_000000/0000/tree_25.root
/eos/cms/store/group/phys_higgs/hbb/ntuples/VHbbPostNano/UL/EFT/2017/V1/TTTo2L2Nu_TuneCP5_13TeV-powheg-pythia8/7deb827c144041fa114f4bc99b59f74c6cd2bc2d424f7cb0c2760968/000000_000000/0000/tree_26.root
/eos/cms/store/group/phys_higgs/hbb/ntuples/VHbbPostNano/UL/EFT/2017/V1/TTTo2L2Nu_TuneCP5_13TeV-powheg-pythia8/fc9babd7f5a6d4fbe27eb17e3b5b29aa84090dfb73739e20d661752f/000000_000000/0000/tree_27.root
/eos/cms/store/group/phys_higgs/hbb/ntuples/VHbbPostNano/UL/EFT/2017/V1/TTTo2L2Nu_TuneCP5_13TeV-powheg-pythia8/0ca7b29a5c104825e668779feadc9083a4669a31b83c8cd14a0917b6/000000_000000/0000/tree_28.root
/eos/cms/store/group/phys_higgs/hbb/ntuples/VHbbPostNano/UL/EFT/2017/V1/TTTo2L2Nu_TuneCP5_13TeV-powheg-pythia8/743ae26d1dcdc0f7bd5d4cf12c4a79975b2b402493a4c2460115066c/000000_000000/0000/tree_29.root
/eos/cms/store/group/phys_higgs/hbb/ntuples/VHbbPostNano/UL/EFT/2017/V1/TTTo2L2Nu_TuneCP5_13TeV-powheg-pythia8/ec98d8bd228d859d6c6e302978153a178a734607603256bcd197ba4a/000000_000000/0000/tree_30.root
/eos/cms/store/group/phys_higgs/hbb/ntuples/VHbbPostNano/UL/EFT/2017/V1/TTTo2L2Nu_TuneCP5_13TeV-powheg-pythia8/7b4fd00f9100a82ce04bb7f968e7216bcab8bab71a336ca6ab834003/000000_000000/0000/tree_31.root
/eos/cms/store/group/phys_higgs/hbb/ntuples/VHbbPostNano/UL/EFT/2017/V1/TTTo2L2Nu_TuneCP5_13TeV-powheg-pythia8/788d8540b71cbfd665f69f17c950445f785e4d0dcc383d1185137f83/000000_000000/0000/tree_32.root
/eos/cms/store/group/phys_higgs/hbb/ntuples/VHbbPostNano/UL/EFT/2017/V1/TTTo2L2Nu_TuneCP5_13TeV-powheg-pythia8/e8eb06e9b734c38aec730d8fddbfb62015aebdba0335feb667a259e4/000000_000000/0000/tree_33.root
/eos/cms/store/group/phys_higgs/hbb/ntuples/VHbbPostNano/UL/EFT/2017/V1/TTTo2L2Nu_TuneCP5_13TeV-powheg-pythia8/ed1f4516c41eae2421fa6500f6ef70b000953ed56ee8ff3694b34819/000000_000000/0000/tree_34.root
/eos/cms/store/group/phys_higgs/hbb/ntuples/VHbbPostNano/UL/EFT/2017/V1/TTTo2L2Nu_TuneCP5_13TeV-powheg-pythia8/d07b8475f751b0d986c1c7a8ff5cb2f7a8aa6abe4b5ef7eeab6dcb26/000000_000000/0000/tree_35.root
/eos/cms/store/group/phys_higgs/hbb/ntuples/VHbbPostNano/UL/EFT/2017/V1/TTTo2L2Nu_TuneCP5_13TeV-powheg-pythia8/b819833da4f1e3cbe77974453a737a024ed5d61bca935c5ce62d4507/000000_000000/0000/tree_36.root
/eos/cms/store/group/phys_higgs/hbb/ntuples/VHbbPostNano/UL/EFT/2017/V1/TTTo2L2Nu_TuneCP5_13TeV-powheg-pythia8/d2f13564f106da2f5bc36c30d6095aa1c3c9d6147d42c102f58f61aa/000000_000000/0000/tree_37.root
/eos/cms/store/group/phys_higgs/hbb/ntuples/VHbbPostNano/UL/EFT/2017/V1/TTTo2L2Nu_TuneCP5_13TeV-powheg-pythia8/18bb2d9ee858b7633043ec84f153bbbaffc9b4a400d9a0a08f4189c8/000000_000000/0000/tree_38.root
/eos/cms/store/group/phys_higgs/hbb/ntuples/VHbbPostNano/UL/EFT/2017/V1/TTTo2L2Nu_TuneCP5_13TeV-powheg-pythia8/5fbdcbf471142296e22ad2aaef43ab94a2b7d47a5e1ed267fe9a9eab/000000_000000/0000/tree_39.root
/eos/cms/store/group/phys_higgs/hbb/ntuples/VHbbPostNano/UL/EFT/2017/V1/TTTo2L2Nu_TuneCP5_13TeV-powheg-pythia8/ce2698b86d3027af0a80da232ff605a67b2e2bbaf2b90a5e0f2da34a/000000_000000/0000/tree_40.root
/eos/cms/store/group/phys_higgs/hbb/ntuples/VHbbPostNano/UL/EFT/2017/V1/TTTo2L2Nu_TuneCP5_13TeV-powheg-pythia8/a453578f317329ad89856f9d66b1b85b0e459cd042bfb40d8ef938c3/000000_000000/0000/tree_41.root
/eos/cms/store/group/phys_higgs/hbb/ntuples/VHbbPostNano/UL/EFT/2017/V1/TTTo2L2Nu_TuneCP5_13TeV-powheg-pythia8/0ab5f170fba596060d7e939ac517bf7167cf8d0fe5a5e8c4eeb2509e/000000_000000/0000/tree_42.root
/eos/cms/store/group/phys_higgs/hbb/ntuples/VHbbPostNano/UL/EFT/2017/V1/TTTo2L2Nu_TuneCP5_13TeV-powheg-pythia8/38e0545d8266a9c02aec606408c8d4c8cd615b3ee911b853c68112b3/000000_000000/0000/tree_43.root
/eos/cms/store/group/phys_higgs/hbb/ntuples/VHbbPostNano/UL/EFT/2017/V1/TTTo2L2Nu_TuneCP5_13TeV-powheg-pythia8/f1948ec360175d357f1e4691490f86c2a1c23d37657d131a89cb063e/000000_000000/0000/tree_44.root
/eos/cms/store/group/phys_higgs/hbb/ntuples/VHbbPostNano/UL/EFT/2017/V1/TTTo2L2Nu_TuneCP5_13TeV-powheg-pythia8/6069652807968c9d6726f1d3119f4a076ae5a6e2331e5ecbb77b59c4/000000_000000/0000/tree_45.root
/eos/cms/store/group/phys_higgs/hbb/ntuples/VHbbPostNano/UL/EFT/2017/V1/TTTo2L2Nu_TuneCP5_13TeV-powheg-pythia8/4fa7cb206573fb779981af8a45f5ea5c983c7fd4141f5d0c2af46000/000000_000000/0000/tree_46.root
/eos/cms/store/group/phys_higgs/hbb/ntuples/VHbbPostNano/UL/EFT/2017/V1/TTTo2L2Nu_TuneCP5_13TeV-powheg-pythia8/4e2bd46228dae630a16757cab61b60330f4196145d290b0a57f90d05/000000_000000/0000/tree_47.root
/eos/cms/store/group/phys_higgs/hbb/ntuples/VHbbPostNano/UL/EFT/2017/V1/TTTo2L2Nu_TuneCP5_13TeV-powheg-pythia8/358226ca6787d417b75466a8032144b1360b2f2f5d7dac59be5ce7f1/000000_000000/0000/tree_48.root
/eos/cms/store/group/phys_higgs/hbb/ntuples/VHbbPostNano/UL/EFT/2017/V1/TTTo2L2Nu_TuneCP5_13TeV-powheg-pythia8/bf17a89fd59add6559cb23fa440eda9680c393fba7e10b85c29dea4c/000000_000000/0000/tree_49.root
/eos/cms/store/group/phys_higgs/hbb/ntuples/VHbbPostNano/UL/EFT/2017/V1/TTTo2L2Nu_TuneCP5_13TeV-powheg-pythia8/44333fe4158f9ee98330d45aee45ee6d24b4251d6bcba9d77d69aaaa/000000_000000/0000/tree_50.root
/eos/cms/store/group/phys_higgs/hbb/ntuples/VHbbPostNano/UL/EFT/2017/V1/TTTo2L2Nu_TuneCP5_13TeV-powheg-pythia8/83201952730e793d1d2937e498a6cc2d27f3313f9014fcd5e24117f4/000000_000000/0000/tree_51.root
/eos/cms/store/group/phys_higgs/hbb/ntuples/VHbbPostNano/UL/EFT/2017/V1/TTTo2L2Nu_TuneCP5_13TeV-powheg-pythia8/54a5d7f5ddf88859d2767e46e37ac2c8bbd2b10863fcf9ac3abc90bd/000000_000000/0000/tree_52.root
/eos/cms/store/group/phys_higgs/hbb/ntuples/VHbbPostNano/UL/EFT/2017/V1/TTTo2L2Nu_TuneCP5_13TeV-powheg-pythia8/135a5c1a0c0d12580b921dbce70789813c83a8c6e45d453577993997/000000_000000/0000/tree_53.root
/eos/cms/store/group/phys_higgs/hbb/ntuples/VHbbPostNano/UL/EFT/2017/V1/TTTo2L2Nu_TuneCP5_13TeV-powheg-pythia8/d07fd88cb6caef04234f8c758b407f765cbf0f39a899f3266318fcc1/000000_000000/0000/tree_54.root
/eos/cms/store/group/phys_higgs/hbb/ntuples/VHbbPostNano/UL/EFT/2017/V1/TTTo2L2Nu_TuneCP5_13TeV-powheg-pythia8/c946d6ef328378ad5f234c9eff414a04a2acd792f925e83a6619db09/000000_000000/0000/tree_55.root
/eos/cms/store/group/phys_higgs/hbb/ntuples/VHbbPostNano/UL/EFT/2017/V1/TTTo2L2Nu_TuneCP5_13TeV-powheg-pythia8/e79358300e8a7168965151dca0c592450f168d1d11a4d2c523f01302/000000_000000/0000/tree_56.root
/eos/cms/store/group/phys_higgs/hbb/ntuples/VHbbPostNano/UL/EFT/2017/V1/TTTo2L2Nu_TuneCP5_13TeV-powheg-pythia8/20e39c54fe651ee0a968093a37d55a8212f613954464817b1b2076a2/000000_000000/0000/tree_57.root
/eos/cms/store/group/phys_higgs/hbb/ntuples/VHbbPostNano/UL/EFT/2017/V1/TTTo2L2Nu_TuneCP5_13TeV-powheg-pythia8/ed215c7505c6baf37ac723b44b12cc91fc7a803af7d342f2c3a89740/000000_000000/0000/tree_58.root
/eos/cms/store/group/phys_higgs/hbb/ntuples/VHbbPostNano/UL/EFT/2017/V1/TTTo2L2Nu_TuneCP5_13TeV-powheg-pythia8/0ff791ca0e82548db4fd189448e038ea1ae522e4de3cfc1e186520a7/000000_000000/0000/tree_59.root
/eos/cms/store/group/phys_higgs/hbb/ntuples/VHbbPostNano/UL/EFT/2017/V1/TTTo2L2Nu_TuneCP5_13TeV-powheg-pythia8/5d05ec4b2a3150b535b99e5d1beb7b0cc5e6e06821f5bc9d1397c9c6/000000_000000/0000/tree_60.root
/eos/cms/store/group/phys_higgs/hbb/ntuples/VHbbPostNano/UL/EFT/2017/V1/TTTo2L2Nu_TuneCP5_13TeV-powheg-pythia8/4398a8e88224bc93afe34ffa15e03a118526c46a82f36ab236162b8b/000000_000000/0000/tree_61.root
/eos/cms/store/group/phys_higgs/hbb/ntuples/VHbbPostNano/UL/EFT/2017/V1/TTTo2L2Nu_TuneCP5_13TeV-powheg-pythia8/7381c031054484ca25275489a913d83349b48fcae2de0da172b025de/000000_000000/0000/tree_62.root
/eos/cms/store/group/phys_higgs/hbb/ntuples/VHbbPostNano/UL/EFT/2017/V1/TTTo2L2Nu_TuneCP5_13TeV-powheg-pythia8/a368b8d068abfab74de151bc975ea7ad9e70fa5b23be7d1d45521bcb/000000_000000/0000/tree_63.root
/eos/cms/store/group/phys_higgs/hbb/ntuples/VHbbPostNano/UL/EFT/2017/V1/TTTo2L2Nu_TuneCP5_13TeV-powheg-pythia8/f93b1676dba47e89fe62bf083b0a71d910f9869ffd68f5433cbfc1b5/000000_000000/0000/tree_64.root
/eos/cms/store/group/phys_higgs/hbb/ntuples/VHbbPostNano/UL/EFT/2017/V1/TTTo2L2Nu_TuneCP5_13TeV-powheg-pythia8/4f41105f5f90be369ef2d6a28f10991238dc5f8e19f348524abb9848/000000_000000/0000/tree_65.root
/eos/cms/store/group/phys_higgs/hbb/ntuples/VHbbPostNano/UL/EFT/2017/V1/TTTo2L2Nu_TuneCP5_13TeV-powheg-pythia8/86d558907849918d0afe0b22607b1a630b2c391f51980f20defeb87b/000000_000000/0000/tree_66.root
/eos/cms/store/group/phys_higgs/hbb/ntuples/VHbbPostNano/UL/EFT/2017/V1/TTTo2L2Nu_TuneCP5_13TeV-powheg-pythia8/2a9bf9b54ebc528169b0c1ff39bb27725d67294621f9b00753b80edf/000000_000000/0000/tree_67.root
/eos/cms/store/group/phys_higgs/hbb/ntuples/VHbbPostNano/UL/EFT/2017/V1/TTTo2L2Nu_TuneCP5_13TeV-powheg-pythia8/1346bf002d360a2de9681700bc64501343d5cd960791edbd3700141e/000000_000000/0000/tree_68.root
/eos/cms/store/group/phys_higgs/hbb/ntuples/VHbbPostNano/UL/EFT/2017/V1/TTTo2L2Nu_TuneCP5_13TeV-powheg-pythia8/32297031ace8d2550240b18e51a16dcca965ca7ef2872952e07a530b/000000_000000/0000/tree_69.root
/eos/cms/store/group/phys_higgs/hbb/ntuples/VHbbPostNano/UL/EFT/2017/V1/TTTo2L2Nu_TuneCP5_13TeV-powheg-pythia8/d4882b86bc4f820498b3aa39ae90e544edf27e0fc68cc443837dd769/000000_000000/0000/tree_70.root
/eos/cms/store/group/phys_higgs/hbb/ntuples/VHbbPostNano/UL/EFT/2017/V1/TTTo2L2Nu_TuneCP5_13TeV-powheg-pythia8/90274635f0d9d337ac646cda73bdcfc4ba6e3b58f8fa04362a863843/000000_000000/0000/tree_71.root
/eos/cms/store/group/phys_higgs/hbb/ntuples/VHbbPostNano/UL/EFT/2017/V1/TTTo2L2Nu_TuneCP5_13TeV-powheg-pythia8/a4d3a08588f85e1661771571b671665d6e0f4a16e0f00e28347cae3e/000000_000000/0000/tree_72.root
/eos/cms/store/group/phys_higgs/hbb/ntuples/VHbbPostNano/UL/EFT/2017/V1/TTTo2L2Nu_TuneCP5_13TeV-powheg-pythia8/450c05b888cf71e375c6ad6a4f87f0e0b0cf46981cdfd5bd3d6a51c8/000000_000000/0000/tree_73.root
/eos/cms/store/group/phys_higgs/hbb/ntuples/VHbbPostNano/UL/EFT/2017/V1/TTTo2L2Nu_TuneCP5_13TeV-powheg-pythia8/37dbdba870f2a78cba2cd48294b598582c9278948c9b944c89358d30/000000_000000/0000/tree_74.root
/eos/cms/store/group/phys_higgs/hbb/ntuples/VHbbPostNano/UL/EFT/2017/V1/TTTo2L2Nu_TuneCP5_13TeV-powheg-pythia8/feaa6353643be5694d1e76cb61be74623134803d4d4136c7dce46ea5/000000_000000/0000/tree_75.root
/eos/cms/store/group/phys_higgs/hbb/ntuples/VHbbPostNano/UL/EFT/2017/V1/TTTo2L2Nu_TuneCP5_13TeV-powheg-pythia8/2a8e71c4232bcacceb73bfe85918a80657bbf659100710942d44ec0c/000000_000000/0000/tree_76.root
/eos/cms/store/group/phys_higgs/hbb/ntuples/VHbbPostNano/UL/EFT/2017/V1/TTTo2L2Nu_TuneCP5_13TeV-powheg-pythia8/aaf9087e9bed6da61c0e76fc8f39a933b8c0f49ea2e97957cc593ba8/000000_000000/0000/tree_77.root
/eos/cms/store/group/phys_higgs/hbb/ntuples/VHbbPostNano/UL/EFT/2017/V1/TTTo2L2Nu_TuneCP5_13TeV-powheg-pythia8/9f7ae3915f03557f62b68d8c5c62dc327d3652ad3e9b7bbf825a270f/000000_000000/0000/tree_78.root
/eos/cms/store/group/phys_higgs/hbb/ntuples/VHbbPostNano/UL/EFT/2017/V1/TTTo2L2Nu_TuneCP5_13TeV-powheg-pythia8/d604e7e1538df9262ec063a8830ab0d393106d1488379977c12d9d7d/000000_000000/0000/tree_79.root
/eos/cms/store/group/phys_higgs/hbb/ntuples/VHbbPostNano/UL/EFT/2017/V1/TTTo2L2Nu_TuneCP5_13TeV-powheg-pythia8/4c354df00077a0d629d03506fee5b5f9a3b28da5042ffb27725e21d9/000000_000000/0000/tree_80.root
/eos/cms/store/group/phys_higgs/hbb/ntuples/VHbbPostNano/UL/EFT/2017/V1/TTTo2L2Nu_TuneCP5_13TeV-powheg-pythia8/d3699c76857c162a92a1f1b6c07cf69ddaf0d3a8ef20459fc5dc45e9/000000_000000/0000/tree_81.root
/eos/cms/store/group/phys_higgs/hbb/ntuples/VHbbPostNano/UL/EFT/2017/V1/TTTo2L2Nu_TuneCP5_13TeV-powheg-pythia8/4666eaf23204a4cd807ec24b1202821574c613bb7af79a17fb4a0322/000000_000000/0000/tree_82.root
/eos/cms/store/group/phys_higgs/hbb/ntuples/VHbbPostNano/UL/EFT/2017/V1/TTTo2L2Nu_TuneCP5_13TeV-powheg-pythia8/6873b465bb45b099edc17583674ca2e038cc93c89c5de3dc37875e03/000000_000000/0000/tree_83.root
/eos/cms/store/group/phys_higgs/hbb/ntuples/VHbbPostNano/UL/EFT/2017/V1/TTTo2L2Nu_TuneCP5_13TeV-powheg-pythia8/611da4dc28432001de07d4c50ea3fe7966a09b165190597a242c2f20/000000_000000/0000/tree_84.root
/eos/cms/store/group/phys_higgs/hbb/ntuples/VHbbPostNano/UL/EFT/2017/V1/TTTo2L2Nu_TuneCP5_13TeV-powheg-pythia8/798c8d365264c52978c614a2662774de892519c5df2ba5d4c9d7af5d/000000_000000/0000/tree_85.root
/eos/cms/store/group/phys_higgs/hbb/ntuples/VHbbPostNano/UL/EFT/2017/V1/TTTo2L2Nu_TuneCP5_13TeV-powheg-pythia8/02dcbaf34fa51dec8c5a2827f785ed6dcd815058da229ffbacb44cfd/000000_000000/0000/tree_86.root
/eos/cms/store/group/phys_higgs/hbb/ntuples/VHbbPostNano/UL/EFT/2017/V1/TTTo2L2Nu_TuneCP5_13TeV-powheg-pythia8/f853e768445cd5d1110fc2e22b4796c19f00041005608e6e0f41a6de/000000_000000/0000/tree_87.root
/eos/cms/store/group/phys_higgs/hbb/ntuples/VHbbPostNano/UL/EFT/2017/V1/TTTo2L2Nu_TuneCP5_13TeV-powheg-pythia8/743adbcf654c765c70577f637b298b55eeb67ce7151fe4db351fc46f/000000_000000/0000/tree_88.root
/eos/cms/store/group/phys_higgs/hbb/ntuples/VHbbPostNano/UL/EFT/2017/V1/TTTo2L2Nu_TuneCP5_13TeV-powheg-pythia8/3825ffaad00ee37a3892e48a471b34a4afcb70534ef0b7adb0848c65/000000_000000/0000/tree_89.root
/eos/cms/store/group/phys_higgs/hbb/ntuples/VHbbPostNano/UL/EFT/2017/V1/TTTo2L2Nu_TuneCP5_13TeV-powheg-pythia8/d11dfa19d44ed99b37a604753ef93a6004fdf8ebb2e16c743f3d8ff5/000000_000000/0000/tree_90.root
/eos/cms/store/group/phys_higgs/hbb/ntuples/VHbbPostNano/UL/EFT/2017/V1/TTTo2L2Nu_TuneCP5_13TeV-powheg-pythia8/55f1703a5c68524632571591da3b389cc5e60990b04574c6d5859b27/000000_000000/0000/tree_91.root
/eos/cms/store/group/phys_higgs/hbb/ntuples/VHbbPostNano/UL/EFT/2017/V1/TTTo2L2Nu_TuneCP5_13TeV-powheg-pythia8/431a10196cdda64fad928dcd6e304612385922e2cfa9c7596513e0d4/000000_000000/0000/tree_92.root
/eos/cms/store/group/phys_higgs/hbb/ntuples/VHbbPostNano/UL/EFT/2017/V1/TTTo2L2Nu_TuneCP5_13TeV-powheg-pythia8/474f995fd37b4e1c769c1d3ab98d9224b1af9e7e0e2d0ab16219ba5a/000000_000000/0000/tree_93.root
/eos/cms/store/group/phys_higgs/hbb/ntuples/VHbbPostNano/UL/EFT/2017/V1/TTTo2L2Nu_TuneCP5_13TeV-powheg-pythia8/6acd1a812d044cea13a81b36478b03cab94ea9bc7ec07810744de447/000000_000000/0000/tree_94.root
/eos/cms/store/group/phys_higgs/hbb/ntuples/VHbbPostNano/UL/EFT/2017/V1/TTTo2L2Nu_TuneCP5_13TeV-powheg-pythia8/86efa7c46cee1801580cbc08735c750330ca403d8d76031aa0cf45e8/000000_000000/0000/tree_95.root
/eos/cms/store/group/phys_higgs/hbb/ntuples/VHbbPostNano/UL/EFT/2017/V1/TTTo2L2Nu_TuneCP5_13TeV-powheg-pythia8/740f0d9e17aaa04b9f172352710e27eb9bd225d890a9aea4343d4b7f/000000_000000/0000/tree_96.root
/eos/cms/store/group/phys_higgs/hbb/ntuples/VHbbPostNano/UL/EFT/2017/V1/TTTo2L2Nu_TuneCP5_13TeV-powheg-pythia8/fcc29648dc98ef8ca2c4c7da0cd6081df270106cf01b85dd05a9585e/000000_000000/0000/tree_97.root
/eos/cms/store/group/phys_higgs/hbb/ntuples/VHbbPostNano/UL/EFT/2017/V1/TTTo2L2Nu_TuneCP5_13TeV-powheg-pythia8/a596517d8be8520ee504dfb3d2f47ae9cfbceca01ec286426b450c4a/000000_000000/0000/tree_98.root
/eos/cms/store/group/phys_higgs/hbb/ntuples/VHbbPostNano/UL/EFT/2017/V1/TTTo2L2Nu_TuneCP5_13TeV-powheg-pythia8/178d0ba77f46432683664a4e7d245aa4118a7e7b204fa5c56f063840/000000_000000/0000/tree_99.root
/eos/cms/store/group/phys_higgs/hbb/ntuples/VHbbPostNano/UL/EFT/2017/V1/TTTo2L2Nu_TuneCP5_13TeV-powheg-pythia8/f2e775a71b8a53f983fc7cfe2fa27154e6958f14417c12a4d331d698/000000_000000/0000/tree_100.root
/eos/cms/store/group/phys_higgs/hbb/ntuples/VHbbPostNano/UL/EFT/2017/V1/TTTo2L2Nu_TuneCP5_13TeV-powheg-pythia8/224153f970beaa7c5ff1b8f427187a781e6f829c8a36daf8cf6cdb23/000000_000000/0000/tree_101.root
/eos/cms/store/group/phys_higgs/hbb/ntuples/VHbbPostNano/UL/EFT/2017/V1/TTTo2L2Nu_TuneCP5_13TeV-powheg-pythia8/4a1687543401fd77589ee064878c57c41925cc02b7b9bc4a6d3606d4/000000_000000/0000/tree_102.root
/eos/cms/store/group/phys_higgs/hbb/ntuples/VHbbPostNano/UL/EFT/2017/V1/TTTo2L2Nu_TuneCP5_13TeV-powheg-pythia8/16eeeadb06bcd2cb2bc77b4dbeada01cef3a1cd7247a7e6e185eae3c/000000_000000/0000/tree_103.root
/eos/cms/store/group/phys_higgs/hbb/ntuples/VHbbPostNano/UL/EFT/2017/V1/TTTo2L2Nu_TuneCP5_13TeV-powheg-pythia8/cf7c29284378ef713f404cdc759d8925f91c9fc6e8acfcc30db14f50/000000_000000/0000/tree_104.root
/eos/cms/store/group/phys_higgs/hbb/ntuples/VHbbPostNano/UL/EFT/2017/V1/TTTo2L2Nu_TuneCP5_13TeV-powheg-pythia8/9389f32292785994c4f94e717aeaf10362f3d9f440f1e0dd88dfaaae/000000_000000/0000/tree_105.root
/eos/cms/store/group/phys_higgs/hbb/ntuples/VHbbPostNano/UL/EFT/2017/V1/TTTo2L2Nu_TuneCP5_13TeV-powheg-pythia8/fc96ea50e029527354ee6d6c4ee0e3d653acd3394e13b23d1e2451c2/000000_000000/0000/tree_106.root
/eos/cms/store/group/phys_higgs/hbb/ntuples/VHbbPostNano/UL/EFT/2017/V1/TTTo2L2Nu_TuneCP5_13TeV-powheg-pythia8/3a0c671e900d4a59d3632f30ce99a88d5fa1f775bd1412d8436ff536/000000_000000/0000/tree_107.root
/eos/cms/store/group/phys_higgs/hbb/ntuples/VHbbPostNano/UL/EFT/2017/V1/TTTo2L2Nu_TuneCP5_13TeV-powheg-pythia8/ef32e2711b3f885af47df1fe7ca071cf2c57b9e5b317167e8197dfbc/000000_000000/0000/tree_108.root
/eos/cms/store/group/phys_higgs/hbb/ntuples/VHbbPostNano/UL/EFT/2017/V1/TTTo2L2Nu_TuneCP5_13TeV-powheg-pythia8/2e68e50c1c8b025cf8b0cc61a52c2b1a9e42884d6d49e062610f980d/000000_000000/0000/tree_109.root
/eos/cms/store/group/phys_higgs/hbb/ntuples/VHbbPostNano/UL/EFT/2017/V1/TTTo2L2Nu_TuneCP5_13TeV-powheg-pythia8/dc11f985a19825038f26151e7d4618a7410640aff71997a6e75694de/000000_000000/0000/tree_110.root
/eos/cms/store/group/phys_higgs/hbb/ntuples/VHbbPostNano/UL/EFT/2017/V1/TTTo2L2Nu_TuneCP5_13TeV-powheg-pythia8/6eb0dc7d133be30e16d6db8c473944db21ec557df046081bf0e3c105/000000_000000/0000/tree_111.root
/eos/cms/store/group/phys_higgs/hbb/ntuples/VHbbPostNano/UL/EFT/2017/V1/TTTo2L2Nu_TuneCP5_13TeV-powheg-pythia8/da880a90f4d32c4df48785f33ce82316b91fe4962d54b4e76c2651cb/000000_000000/0000/tree_112.root
/eos/cms/store/group/phys_higgs/hbb/ntuples/VHbbPostNano/UL/EFT/2017/V1/TTTo2L2Nu_TuneCP5_13TeV-powheg-pythia8/8afc31772369549078ce5da1087872a3e0d3455c1aefd924e3db0ef5/000000_000000/0000/tree_113.root
/eos/cms/store/group/phys_higgs/hbb/ntuples/VHbbPostNano/UL/EFT/2017/V1/TTTo2L2Nu_TuneCP5_13TeV-powheg-pythia8/7da459d83826b2e81492b902e0ec4d0e8c8f191246bd416ccc984182/000000_000000/0000/tree_114.root
/eos/cms/store/group/phys_higgs/hbb/ntuples/VHbbPostNano/UL/EFT/2017/V1/TTTo2L2Nu_TuneCP5_13TeV-powheg-pythia8/2e4df66b236df4384982f9e33487af56ee9dc92c0de9abf02c3623cc/000000_000000/0000/tree_115.root
/eos/cms/store/group/phys_higgs/hbb/ntuples/VHbbPostNano/UL/EFT/2017/V1/TTTo2L2Nu_TuneCP5_13TeV-powheg-pythia8/4e75276a77999155372816e275cc7eb526a97bb585ab0c50c97fb6b2/000000_000000/0000/tree_116.root
/eos/cms/store/group/phys_higgs/hbb/ntuples/VHbbPostNano/UL/EFT/2017/V1/TTTo2L2Nu_TuneCP5_13TeV-powheg-pythia8/7c97a77328adea9fee1219cbd7dd6ff2e3acd5a4f097611bf84407e7/000000_000000/0000/tree_117.root
/eos/cms/store/group/phys_higgs/hbb/ntuples/VHbbPostNano/UL/EFT/2017/V1/TTTo2L2Nu_TuneCP5_13TeV-powheg-pythia8/3f7a8c5cc07c3c87ae2dfd370adb91f230fe1fffd17a083282f36920/000000_000000/0000/tree_118.root
/eos/cms/store/group/phys_higgs/hbb/ntuples/VHbbPostNano/UL/EFT/2017/V1/TTTo2L2Nu_TuneCP5_13TeV-powheg-pythia8/d04a3bb096a586a0805c08c0cff5fa5b77979bd8837e46b24ce9fb49/000000_000000/0000/tree_119.root
/eos/cms/store/group/phys_higgs/hbb/ntuples/VHbbPostNano/UL/EFT/2017/V1/TTTo2L2Nu_TuneCP5_13TeV-powheg-pythia8/432777b58394dc130b7c2e9ba17e08f5385c82d6fe3a7e24b5f49b8a/000000_000000/0000/tree_120.root
/eos/cms/store/group/phys_higgs/hbb/ntuples/VHbbPostNano/UL/EFT/2017/V1/TTTo2L2Nu_TuneCP5_13TeV-powheg-pythia8/f53587ba8718a6f44e9796a7bcca7ce752943b8420cac230acd57cfb/000000_000000/0000/tree_121.root
/eos/cms/store/group/phys_higgs/hbb/ntuples/VHbbPostNano/UL/EFT/2017/V1/TTTo2L2Nu_TuneCP5_13TeV-powheg-pythia8/09630520e3cf27c82ead1dc2d4b1456558832c48b37e2c6f798fe0b6/000000_000000/0000/tree_122.root
/eos/cms/store/group/phys_higgs/hbb/ntuples/VHbbPostNano/UL/EFT/2017/V1/TTTo2L2Nu_TuneCP5_13TeV-powheg-pythia8/ce75b36f82474903e6d0bccc85cdd3331c4b08ce5e25756f7aece8da/000000_000000/0000/tree_123.root
/eos/cms/store/group/phys_higgs/hbb/ntuples/VHbbPostNano/UL/EFT/2017/V1/TTTo2L2Nu_TuneCP5_13TeV-powheg-pythia8/75861bcfb0366fb75361fcb5dee8dc48e872a248eadf96b91e057ebf/000000_000000/0000/tree_124.root
/eos/cms/store/group/phys_higgs/hbb/ntuples/VHbbPostNano/UL/EFT/2017/V1/TTTo2L2Nu_TuneCP5_13TeV-powheg-pythia8/aef505376674a56082019126a9eb209113e9a085a77032839b554f6a/000000_000000/0000/tree_125.root
/eos/cms/store/group/phys_higgs/hbb/ntuples/VHbbPostNano/UL/EFT/2017/V1/TTTo2L2Nu_TuneCP5_13TeV-powheg-pythia8/e74a19db447d6452fed19e95afcd32a7f1f1eb57c1c3c0df817591a3/000000_000000/0000/tree_126.root
/eos/cms/store/group/phys_higgs/hbb/ntuples/VHbbPostNano/UL/EFT/2017/V1/TTTo2L2Nu_TuneCP5_13TeV-powheg-pythia8/0b4f7d3c4de4659ed883f28732aabc8fc253db06e72456c7494fff1a/000000_000000/0000/tree_127.root
/eos/cms/store/group/phys_higgs/hbb/ntuples/VHbbPostNano/UL/EFT/2017/V1/TTTo2L2Nu_TuneCP5_13TeV-powheg-pythia8/06d400271c95227fce771dc058cff839060266c047e3a422810567a9/000000_000000/0000/tree_128.root
/eos/cms/store/group/phys_higgs/hbb/ntuples/VHbbPostNano/UL/EFT/2017/V1/TTTo2L2Nu_TuneCP5_13TeV-powheg-pythia8/87d8eef5f2db8fd4ac258bfc7a078b5651b951a5ff41a5e1233b9452/000000_000000/0000/tree_129.root
/eos/cms/store/group/phys_higgs/hbb/ntuples/VHbbPostNano/UL/EFT/2017/V1/TTTo2L2Nu_TuneCP5_13TeV-powheg-pythia8/530bc18c85cbad4cd07c754e5b4e2e298d52a6580f04b879b12952de/000000_000000/0000/tree_130.root
/eos/cms/store/group/phys_higgs/hbb/ntuples/VHbbPostNano/UL/EFT/2017/V1/TTTo2L2Nu_TuneCP5_13TeV-powheg-pythia8/88945b51c3b582a8235a8aac61f731aa4fd9605dfd57832bfb0000d7/000000_000000/0000/tree_131.root
/eos/cms/store/group/phys_higgs/hbb/ntuples/VHbbPostNano/UL/EFT/2017/V1/TTTo2L2Nu_TuneCP5_13TeV-powheg-pythia8/0f6f3f0354df0dbd5250f2debed532d4e75d3801c9ffb06aa37a5cd7/000000_000000/0000/tree_132.root
/eos/cms/store/group/phys_higgs/hbb/ntuples/VHbbPostNano/UL/EFT/2017/V1/TTTo2L2Nu_TuneCP5_13TeV-powheg-pythia8/59d8d174bbce9204b3a4bfda60c257a918fbf293342fd310b9bc94d2/000000_000000/0000/tree_133.root
/eos/cms/store/group/phys_higgs/hbb/ntuples/VHbbPostNano/UL/EFT/2017/V1/TTTo2L2Nu_TuneCP5_13TeV-powheg-pythia8/5b9bc856d617bce8ab0bfabe9a62e8ca0a6bf971cc639806a140bafd/000000_000000/0000/tree_134.root
/eos/cms/store/group/phys_higgs/hbb/ntuples/VHbbPostNano/UL/EFT/2017/V1/TTTo2L2Nu_TuneCP5_13TeV-powheg-pythia8/05b8356a017902727f5a0fd9d51261974e4693dd2d10c933a9b7edeb/000000_000000/0000/tree_135.root
/eos/cms/store/group/phys_higgs/hbb/ntuples/VHbbPostNano/UL/EFT/2017/V1/TTTo2L2Nu_TuneCP5_13TeV-powheg-pythia8/c4fb00824d8d398dd41a53ac7eaa1dfe3cfd2da22de3df56079ace57/000000_000000/0000/tree_136.root
/eos/cms/store/group/phys_higgs/hbb/ntuples/VHbbPostNano/UL/EFT/2017/V1/TTTo2L2Nu_TuneCP5_13TeV-powheg-pythia8/7222aa7adfb03c418508b32dea4c2871f2f4ab7f61c0de7b9ff7177d/000000_000000/0000/tree_137.root
/eos/cms/store/group/phys_higgs/hbb/ntuples/VHbbPostNano/UL/EFT/2017/V1/TTTo2L2Nu_TuneCP5_13TeV-powheg-pythia8/10a0138db2153205ed20f976d5faa20e15bad1c802676b93aebe416b/000000_000000/0000/tree_138.root
/eos/cms/store/group/phys_higgs/hbb/ntuples/VHbbPostNano/UL/EFT/2017/V1/TTTo2L2Nu_TuneCP5_13TeV-powheg-pythia8/0dd2f1dc8ebf8c877e66c3637f45a334691b76c19d49139103b06a58/000000_000000/0000/tree_139.root
/eos/cms/store/group/phys_higgs/hbb/ntuples/VHbbPostNano/UL/EFT/2017/V1/TTTo2L2Nu_TuneCP5_13TeV-powheg-pythia8/f83b3013768a7065eb28123b28c58e192650eeb57593bbf25745cc71/000000_000000/0000/tree_140.root
/eos/cms/store/group/phys_higgs/hbb/ntuples/VHbbPostNano/UL/EFT/2017/V1/TTTo2L2Nu_TuneCP5_13TeV-powheg-pythia8/6abf2e11c7e93103b011e36af7aad17e88ae48a2695deae5b5c9ab21/000000_000000/0000/tree_141.root
/eos/cms/store/group/phys_higgs/hbb/ntuples/VHbbPostNano/UL/EFT/2017/V1/TTTo2L2Nu_TuneCP5_13TeV-powheg-pythia8/e0afed387fe539901f6f7547b1a0011da9af3d7876c591ab2d8b89ca/000000_000000/0000/tree_142.root
/eos/cms/store/group/phys_higgs/hbb/ntuples/VHbbPostNano/UL/EFT/2017/V1/TTTo2L2Nu_TuneCP5_13TeV-powheg-pythia8/ee17501c17661c6f1df14165ec4f92795814e21e998fa9b54dc3d16d/000000_000000/0000/tree_143.root
/eos/cms/store/group/phys_higgs/hbb/ntuples/VHbbPostNano/UL/EFT/2017/V1/TTTo2L2Nu_TuneCP5_13TeV-powheg-pythia8/e96f85e96b3c5f73b0a67ac7e7d3879c2568bfda117685967a89a0b8/000000_000000/0000/tree_144.root
/eos/cms/store/group/phys_higgs/hbb/ntuples/VHbbPostNano/UL/EFT/2017/V1/TTTo2L2Nu_TuneCP5_13TeV-powheg-pythia8/57b0097a4f7f28ca97a1bf7708a00f0f83170312da83ab2d165c3108/000000_000000/0000/tree_145.root
/eos/cms/store/group/phys_higgs/hbb/ntuples/VHbbPostNano/UL/EFT/2017/V1/TTTo2L2Nu_TuneCP5_13TeV-powheg-pythia8/60ab61f92d3f5a966223172c0f1fd21bc41c729bf9eacf3de2e7f0e8/000000_000000/0000/tree_146.root
/eos/cms/store/group/phys_higgs/hbb/ntuples/VHbbPostNano/UL/EFT/2017/V1/TTTo2L2Nu_TuneCP5_13TeV-powheg-pythia8/199993747f45e8d620e82c0b030e953d57543e3f0693b07e86013e58/000000_000000/0000/tree_147.root
/eos/cms/store/group/phys_higgs/hbb/ntuples/VHbbPostNano/UL/EFT/2017/V1/TTTo2L2Nu_TuneCP5_13TeV-powheg-pythia8/544b3210a03bbd0200d37852116fe78450ba830af1d8448bc8410382/000000_000000/0000/tree_148.root
/eos/cms/store/group/phys_higgs/hbb/ntuples/VHbbPostNano/UL/EFT/2017/V1/TTTo2L2Nu_TuneCP5_13TeV-powheg-pythia8/eeddf07a510581dbfb7a78b89e47107c1b9c176651e6e91227d0b382/000000_000000/0000/tree_149.root
/eos/cms/store/group/phys_higgs/hbb/ntuples/VHbbPostNano/UL/EFT/2017/V1/TTTo2L2Nu_TuneCP5_13TeV-powheg-pythia8/2057a2832b88ade45777d5d37dc21040fba0128e18aa30bface99763/000000_000000/0000/tree_150.root
/eos/cms/store/group/phys_higgs/hbb/ntuples/VHbbPostNano/UL/EFT/2017/V1/TTTo2L2Nu_TuneCP5_13TeV-powheg-pythia8/56a37c82784e8bb1ce5d58478393718662a08a1bd733978b71c3d603/000000_000000/0000/tree_151.root
/eos/cms/store/group/phys_higgs/hbb/ntuples/VHbbPostNano/UL/EFT/2017/V1/TTTo2L2Nu_TuneCP5_13TeV-powheg-pythia8/9a3c16eb9a42746f0a02189b26b537be2e3e9f3ca38c80d72c8b2550/000000_000000/0000/tree_152.root
/eos/cms/store/group/phys_higgs/hbb/ntuples/VHbbPostNano/UL/EFT/2017/V1/TTTo2L2Nu_TuneCP5_13TeV-powheg-pythia8/5d939d716f75278cd5f8dacfe22a7f7aa731d961c5457e404cbb4aa6/000000_000000/0000/tree_153.root
/eos/cms/store/group/phys_higgs/hbb/ntuples/VHbbPostNano/UL/EFT/2017/V1/TTTo2L2Nu_TuneCP5_13TeV-powheg-pythia8/02693b259af1b6680d584e69a216f21f87e0f99591c04c7320998969/000000_000000/0000/tree_154.root
/eos/cms/store/group/phys_higgs/hbb/ntuples/VHbbPostNano/UL/EFT/2017/V1/TTTo2L2Nu_TuneCP5_13TeV-powheg-pythia8/8fed46c2205b195cb74b456bda1a084f6512e42602e444fc56bf5333/000000_000000/0000/tree_155.root
/eos/cms/store/group/phys_higgs/hbb/ntuples/VHbbPostNano/UL/EFT/2017/V1/TTTo2L2Nu_TuneCP5_13TeV-powheg-pythia8/2aff3cf9923f6726887c4fe5baf7996a72bcd1d0d16fcca508f71182/000000_000000/0000/tree_156.root
/eos/cms/store/group/phys_higgs/hbb/ntuples/VHbbPostNano/UL/EFT/2017/V1/TTTo2L2Nu_TuneCP5_13TeV-powheg-pythia8/9c9f69bba1c2ff89b08fed9d64183f81fac0fa01abf32d2629ef90f2/000000_000000/0000/tree_157.root
/eos/cms/store/group/phys_higgs/hbb/ntuples/VHbbPostNano/UL/EFT/2017/V1/TTTo2L2Nu_TuneCP5_13TeV-powheg-pythia8/fed317cd3e04c6775efc589527d0ae6a59cd496f1160b2f57310c9ed/000000_000000/0000/tree_158.root
/eos/cms/store/group/phys_higgs/hbb/ntuples/VHbbPostNano/UL/EFT/2017/V1/TTTo2L2Nu_TuneCP5_13TeV-powheg-pythia8/db92bdc2e326701f80aa28b30c272961dd3f556f75def9b007817a6d/000000_000000/0000/tree_159.root
/eos/cms/store/group/phys_higgs/hbb/ntuples/VHbbPostNano/UL/EFT/2017/V1/TTTo2L2Nu_TuneCP5_13TeV-powheg-pythia8/66aba9a708e79bb971fcfc0eafc896b7d4a91a553721ad047dad5187/000000_000000/0000/tree_160.root
/eos/cms/store/group/phys_higgs/hbb/ntuples/VHbbPostNano/UL/EFT/2017/V1/TTTo2L2Nu_TuneCP5_13TeV-powheg-pythia8/85350b334d710017f4b9e67f18336015f1fda605b2d9019af5de7fa4/000000_000000/0000/tree_161.root
/eos/cms/store/group/phys_higgs/hbb/ntuples/VHbbPostNano/UL/EFT/2017/V1/TTTo2L2Nu_TuneCP5_13TeV-powheg-pythia8/e71c86fe89e9aa57df7d787175fc674584fa1408fa00dccfb4415ff9/000000_000000/0000/tree_162.root
/eos/cms/store/group/phys_higgs/hbb/ntuples/VHbbPostNano/UL/EFT/2017/V1/TTTo2L2Nu_TuneCP5_13TeV-powheg-pythia8/dbb5117aa1f13872b2a2904b2e91317814d169d1ec599aee8608f913/000000_000000/0000/tree_163.root
/eos/cms/store/group/phys_higgs/hbb/ntuples/VHbbPostNano/UL/EFT/2017/V1/TTTo2L2Nu_TuneCP5_13TeV-powheg-pythia8/76f33cc156b3da9bf243152500a1aab8f35db7b3c3e1776835023d82/000000_000000/0000/tree_164.root
/eos/cms/store/group/phys_higgs/hbb/ntuples/VHbbPostNano/UL/EFT/2017/V1/TTTo2L2Nu_TuneCP5_13TeV-powheg-pythia8/849471a2668e7100c91ccf8899ca53e3840a4f4bd9e95b567ff5d783/000000_000000/0000/tree_165.root
/eos/cms/store/group/phys_higgs/hbb/ntuples/VHbbPostNano/UL/EFT/2017/V1/TTTo2L2Nu_TuneCP5_13TeV-powheg-pythia8/6810447f2d39ec02c49b42fb61b374520c28180dd7f4e82e7d43ff66/000000_000000/0000/tree_166.root
/eos/cms/store/group/phys_higgs/hbb/ntuples/VHbbPostNano/UL/EFT/2017/V1/TTTo2L2Nu_TuneCP5_13TeV-powheg-pythia8/ec4ffed7f4d2df79121ff49a313ec435a67c50c29ef3d0f4641b25ab/000000_000000/0000/tree_167.root
/eos/cms/store/group/phys_higgs/hbb/ntuples/VHbbPostNano/UL/EFT/2017/V1/TTTo2L2Nu_TuneCP5_13TeV-powheg-pythia8/181503fe011d6ac5c7637ed740f25785d6cad1ced270d893a077701d/000000_000000/0000/tree_168.root
/eos/cms/store/group/phys_higgs/hbb/ntuples/VHbbPostNano/UL/EFT/2017/V1/TTTo2L2Nu_TuneCP5_13TeV-powheg-pythia8/6a3726c92736c26fb6f3557a4532cc5671f133d38d4df484c9c53f41/000000_000000/0000/tree_169.root
/eos/cms/store/group/phys_higgs/hbb/ntuples/VHbbPostNano/UL/EFT/2017/V1/TTTo2L2Nu_TuneCP5_13TeV-powheg-pythia8/98867b1b4b592370c004ed4961da4f788c8a23a6073c1b3da4d58c49/000000_000000/0000/tree_170.root
/eos/cms/store/group/phys_higgs/hbb/ntuples/VHbbPostNano/UL/EFT/2017/V1/TTTo2L2Nu_TuneCP5_13TeV-powheg-pythia8/3a987a8b94c78b70556ffe0eab4074da50d9d880d2fa23f95e0c1c2e/000000_000000/0000/tree_171.root
/eos/cms/store/group/phys_higgs/hbb/ntuples/VHbbPostNano/UL/EFT/2017/V1/TTTo2L2Nu_TuneCP5_13TeV-powheg-pythia8/56e6bf12ba8fce210ed9b98f0ae755b67f070f1e26f60d69f94fd033/000000_000000/0000/tree_172.root
/eos/cms/store/group/phys_higgs/hbb/ntuples/VHbbPostNano/UL/EFT/2017/V1/TTTo2L2Nu_TuneCP5_13TeV-powheg-pythia8/58f7b4d423380b228dc3f709e960c5abd2135b819345a14a966e8c75/000000_000000/0000/tree_173.root
/eos/cms/store/group/phys_higgs/hbb/ntuples/VHbbPostNano/UL/EFT/2017/V1/TTTo2L2Nu_TuneCP5_13TeV-powheg-pythia8/f7d70808c21f8365ae955a5737abc3d243dcd4e75c820ce599051414/000000_000000/0000/tree_174.root
/eos/cms/store/group/phys_higgs/hbb/ntuples/VHbbPostNano/UL/EFT/2017/V1/TTTo2L2Nu_TuneCP5_13TeV-powheg-pythia8/8c036398843979e21cd5a067bed70ec4cdc251754d7551def404f609/000000_000000/0000/tree_175.root
/eos/cms/store/group/phys_higgs/hbb/ntuples/VHbbPostNano/UL/EFT/2017/V1/TTTo2L2Nu_TuneCP5_13TeV-powheg-pythia8/e634b554a8ed4c9a6a0a7baa313f25dd42d597d493ac4e2db04485b6/000000_000000/0000/tree_176.root
/eos/cms/store/group/phys_higgs/hbb/ntuples/VHbbPostNano/UL/EFT/2017/V1/TTTo2L2Nu_TuneCP5_13TeV-powheg-pythia8/694f45ca98cdb6bd50107d72c1efb3dd93474cb42b0946d467726637/000000_000000/0000/tree_177.root
/eos/cms/store/group/phys_higgs/hbb/ntuples/VHbbPostNano/UL/EFT/2017/V1/TTTo2L2Nu_TuneCP5_13TeV-powheg-pythia8/96b4fd69a481d0c065a4bbd953c9f4c2dee75618637b830848554697/000000_000000/0000/tree_178.root
/eos/cms/store/group/phys_higgs/hbb/ntuples/VHbbPostNano/UL/EFT/2017/V1/TTTo2L2Nu_TuneCP5_13TeV-powheg-pythia8/d1fdf3ce1b4ca7fd3c812c1f409e9371f3ad1cc7486c311a749e9080/000000_000000/0000/tree_179.root
/eos/cms/store/group/phys_higgs/hbb/ntuples/VHbbPostNano/UL/EFT/2017/V1/TTTo2L2Nu_TuneCP5_13TeV-powheg-pythia8/2f461e5b637e6342a5883ceadd1806675953d0ddd93aa049a421138a/000000_000000/0000/tree_180.root
/eos/cms/store/group/phys_higgs/hbb/ntuples/VHbbPostNano/UL/EFT/2017/V1/TTTo2L2Nu_TuneCP5_13TeV-powheg-pythia8/0988718a5bacc5528406e8609fd2feefb54aa16f73d5c1385c396fe6/000000_000000/0000/tree_181.root
/eos/cms/store/group/phys_higgs/hbb/ntuples/VHbbPostNano/UL/EFT/2017/V1/TTTo2L2Nu_TuneCP5_13TeV-powheg-pythia8/b17aa2a93a41cbd524cebc6b99f1ac8322bcb54ec05835c238919f23/000000_000000/0000/tree_182.root
/eos/cms/store/group/phys_higgs/hbb/ntuples/VHbbPostNano/UL/EFT/2017/V1/TTTo2L2Nu_TuneCP5_13TeV-powheg-pythia8/e03c89b623929039261ea41f9f511f803faa94919906f1b223db56ba/000000_000000/0000/tree_183.root
/eos/cms/store/group/phys_higgs/hbb/ntuples/VHbbPostNano/UL/EFT/2017/V1/TTTo2L2Nu_TuneCP5_13TeV-powheg-pythia8/b3782d9033c6ddebccdcbc813c5a06287a95a5a2a95e8520ed6d8aac/000000_000000/0000/tree_184.root
/eos/cms/store/group/phys_higgs/hbb/ntuples/VHbbPostNano/UL/EFT/2017/V1/TTTo2L2Nu_TuneCP5_13TeV-powheg-pythia8/2c1a5e412148b0a130e83c9f03bfa014633d9b7c685c097da5b25638/000000_000000/0000/tree_185.root
/eos/cms/store/group/phys_higgs/hbb/ntuples/VHbbPostNano/UL/EFT/2017/V1/TTTo2L2Nu_TuneCP5_13TeV-powheg-pythia8/58dca66a0df7a6b7a65692f36629e349ab2057afedc6a686a83a6812/000000_000000/0000/tree_186.root
/eos/cms/store/group/phys_higgs/hbb/ntuples/VHbbPostNano/UL/EFT/2017/V1/TTTo2L2Nu_TuneCP5_13TeV-powheg-pythia8/51853ff87f4734f95ac76091e2223e22fc02690ad92a56662af4f05c/000000_000000/0000/tree_187.root
/eos/cms/store/group/phys_higgs/hbb/ntuples/VHbbPostNano/UL/EFT/2017/V1/TTTo2L2Nu_TuneCP5_13TeV-powheg-pythia8/451575cefbd0db1d5a10cb838502a8cee2b0461c0f2644d0369a005e/000000_000000/0000/tree_188.root
/eos/cms/store/group/phys_higgs/hbb/ntuples/VHbbPostNano/UL/EFT/2017/V1/TTTo2L2Nu_TuneCP5_13TeV-powheg-pythia8/d41092329ff615c616ab1120f1339a3f96b5c9a157f8134e57da0b2c/000000_000000/0000/tree_189.root
/eos/cms/store/group/phys_higgs/hbb/ntuples/VHbbPostNano/UL/EFT/2017/V1/TTTo2L2Nu_TuneCP5_13TeV-powheg-pythia8/fa0a2553055349c9e5b45cecea9c4363d02369990990b309de209d6c/000000_000000/0000/tree_190.root
/eos/cms/store/group/phys_higgs/hbb/ntuples/VHbbPostNano/UL/EFT/2017/V1/TTTo2L2Nu_TuneCP5_13TeV-powheg-pythia8/f2c967ccb19a15280b9c6dc1f428a7613d558e6f26fc0c45690ef86c/000000_000000/0000/tree_191.root
/eos/cms/store/group/phys_higgs/hbb/ntuples/VHbbPostNano/UL/EFT/2017/V1/TTTo2L2Nu_TuneCP5_13TeV-powheg-pythia8/b2e207d32ea6d7db79071064a1acc6624ba283d10358f69d2f028f27/000000_000000/0000/tree_192.root
/eos/cms/store/group/phys_higgs/hbb/ntuples/VHbbPostNano/UL/EFT/2017/V1/TTTo2L2Nu_TuneCP5_13TeV-powheg-pythia8/d2b7971513ab3904a250956d3202d70dda35ca2bc4e2a674021bfaf2/000000_000000/0000/tree_193.root
/eos/cms/store/group/phys_higgs/hbb/ntuples/VHbbPostNano/UL/EFT/2017/V1/TTTo2L2Nu_TuneCP5_13TeV-powheg-pythia8/24b8f81f731e02e7bb6d5582e69545f56caed8d4047fd7f23a849f74/000000_000000/0000/tree_194.root
/eos/cms/store/group/phys_higgs/hbb/ntuples/VHbbPostNano/UL/EFT/2017/V1/TTTo2L2Nu_TuneCP5_13TeV-powheg-pythia8/9517f593db8afca9384a1ee56500f686695acae8f1d0a4ac2e2e643b/000000_000000/0000/tree_195.root
/eos/cms/store/group/phys_higgs/hbb/ntuples/VHbbPostNano/UL/EFT/2017/V1/TTTo2L2Nu_TuneCP5_13TeV-powheg-pythia8/00ef6395aef7e1a511be894209888618529fc55e1f1a5f329fdb46c4/000000_000000/0000/tree_196.root
/eos/cms/store/group/phys_higgs/hbb/ntuples/VHbbPostNano/UL/EFT/2017/V1/TTTo2L2Nu_TuneCP5_13TeV-powheg-pythia8/f32c87a2dd4f0046ef5f8049eb91eab9959006bff49c2091d01f0f97/000000_000000/0000/tree_197.root
/eos/cms/store/group/phys_higgs/hbb/ntuples/VHbbPostNano/UL/EFT/2017/V1/TTTo2L2Nu_TuneCP5_13TeV-powheg-pythia8/e67cb0983192c5e17d2e0c6ce2c6c46dd3ed964f410e20c928963f21/000000_000000/0000/tree_198.root
/eos/cms/store/group/phys_higgs/hbb/ntuples/VHbbPostNano/UL/EFT/2017/V1/TTTo2L2Nu_TuneCP5_13TeV-powheg-pythia8/b70cd3afe64333f44cd65dcb27fdb3e3633c9b5585e4f964599931ed/000000_000000/0000/tree_199.root
/eos/cms/store/group/phys_higgs/hbb/ntuples/VHbbPostNano/UL/EFT/2017/V1/TTTo2L2Nu_TuneCP5_13TeV-powheg-pythia8/7863d520030de2ae871e0b1518cf4e6ef3683c87a6b5db0b982435d3/000000_000000/0000/tree_200.root
/eos/cms/store/group/phys_higgs/hbb/ntuples/VHbbPostNano/UL/EFT/2017/V1/TTTo2L2Nu_TuneCP5_13TeV-powheg-pythia8/a5ab7e7b4633f62aad8e81de4865dc3d1360274f5e33714847a92c03/000000_000000/0000/tree_201.root
/eos/cms/store/group/phys_higgs/hbb/ntuples/VHbbPostNano/UL/EFT/2017/V1/TTTo2L2Nu_TuneCP5_13TeV-powheg-pythia8/194972af66f0adb3d6ab334fa7eaa33cdc0df1b1f5924c3d8f01b29f/000000_000000/0000/tree_202.root
/eos/cms/store/group/phys_higgs/hbb/ntuples/VHbbPostNano/UL/EFT/2017/V1/TTTo2L2Nu_TuneCP5_13TeV-powheg-pythia8/33b94b389393b8541e486f6a38d29c7d8339f480be03748d5c8c37e3/000000_000000/0000/tree_203.root
/eos/cms/store/group/phys_higgs/hbb/ntuples/VHbbPostNano/UL/EFT/2017/V1/TTTo2L2Nu_TuneCP5_13TeV-powheg-pythia8/39aa8b84cc64c13aafa06d6ff4c9aa65f60752eb2bc3d7607d1cafbc/000000_000000/0000/tree_204.root
/eos/cms/store/group/phys_higgs/hbb/ntuples/VHbbPostNano/UL/EFT/2017/V1/TTTo2L2Nu_TuneCP5_13TeV-powheg-pythia8/99f0f6de2415724a5a5854c57101f10147de0c05fd7614993f29d739/000000_000000/0000/tree_205.root
/eos/cms/store/group/phys_higgs/hbb/ntuples/VHbbPostNano/UL/EFT/2017/V1/TTTo2L2Nu_TuneCP5_13TeV-powheg-pythia8/6667ef41c2ec4f79a43b95a0690b2e93a3859a9857add3333f0244cb/000000_000000/0000/tree_206.root
/eos/cms/store/group/phys_higgs/hbb/ntuples/VHbbPostNano/UL/EFT/2017/V1/TTTo2L2Nu_TuneCP5_13TeV-powheg-pythia8/4fa6d041d2ccabd49b4a5c3c8657a1ec77fff13daf78c39c320f009a/000000_000000/0000/tree_207.root
/eos/cms/store/group/phys_higgs/hbb/ntuples/VHbbPostNano/UL/EFT/2017/V1/TTTo2L2Nu_TuneCP5_13TeV-powheg-pythia8/b0b73b41a6c40c126eb5633faf4d534707082a5138b3d79c7698d3c7/000000_000000/0000/tree_208.root
/eos/cms/store/group/phys_higgs/hbb/ntuples/VHbbPostNano/UL/EFT/2017/V1/TTTo2L2Nu_TuneCP5_13TeV-powheg-pythia8/d2d7e4357535f88653ffe309229c9d1542927341afe14747a9ce8966/000000_000000/0000/tree_209.root
/eos/cms/store/group/phys_higgs/hbb/ntuples/VHbbPostNano/UL/EFT/2017/V1/TTTo2L2Nu_TuneCP5_13TeV-powheg-pythia8/2a0c0a1551ce14690b7e1e04b43e1baceeb591e5b1e19ba684f69841/000000_000000/0000/tree_210.root
/eos/cms/store/group/phys_higgs/hbb/ntuples/VHbbPostNano/UL/EFT/2017/V1/TTTo2L2Nu_TuneCP5_13TeV-powheg-pythia8/6ee64c1fe426a7c86d179eb37cf5a2e4fe824ba7ec43b7ea4ee2e9ec/000000_000000/0000/tree_211.root
/eos/cms/store/group/phys_higgs/hbb/ntuples/VHbbPostNano/UL/EFT/2017/V1/TTTo2L2Nu_TuneCP5_13TeV-powheg-pythia8/da4e8948bd04bb75a4365cf49121f068660a43fdf14fa55a8700e7d6/000000_000000/0000/tree_212.root
/eos/cms/store/group/phys_higgs/hbb/ntuples/VHbbPostNano/UL/EFT/2017/V1/TTTo2L2Nu_TuneCP5_13TeV-powheg-pythia8/8b6e4d8e26fbc06a3209d5eb8eb6a82bb84f0237ad2adb014f3460cd/000000_000000/0000/tree_213.root
/eos/cms/store/group/phys_higgs/hbb/ntuples/VHbbPostNano/UL/EFT/2017/V1/TTTo2L2Nu_TuneCP5_13TeV-powheg-pythia8/0b1953d5844934c229c720938e843c510f65de88f2f34d558e42c650/000000_000000/0000/tree_214.root
/eos/cms/store/group/phys_higgs/hbb/ntuples/VHbbPostNano/UL/EFT/2017/V1/TTTo2L2Nu_TuneCP5_13TeV-powheg-pythia8/3dc3f575ad9ebb8c8933f55973c164ea674939622e2278002a55b9d2/000000_000000/0000/tree_215.root
/eos/cms/store/group/phys_higgs/hbb/ntuples/VHbbPostNano/UL/EFT/2017/V1/TTTo2L2Nu_TuneCP5_13TeV-powheg-pythia8/d959ec071eab0aae9288132b469673f8296d5a2fdb2713a8d5e5f29a/000000_000000/0000/tree_216.root
/eos/cms/store/group/phys_higgs/hbb/ntuples/VHbbPostNano/UL/EFT/2017/V1/TTTo2L2Nu_TuneCP5_13TeV-powheg-pythia8/5e66c2e3b03af0df34177cbb093de99ce24a95cab70c1d1aecb5df4f/000000_000000/0000/tree_217.root
/eos/cms/store/group/phys_higgs/hbb/ntuples/VHbbPostNano/UL/EFT/2017/V1/TTTo2L2Nu_TuneCP5_13TeV-powheg-pythia8/918122b4b693b4affb652ab93411e35ca60c5eb6e21ea2a5dcae8fde/000000_000000/0000/tree_218.root
/eos/cms/store/group/phys_higgs/hbb/ntuples/VHbbPostNano/UL/EFT/2017/V1/TTTo2L2Nu_TuneCP5_13TeV-powheg-pythia8/ae7d4e050db77adfec69da4a3b4f6652a01080306cd02a0952ff7824/000000_000000/0000/tree_219.root
/eos/cms/store/group/phys_higgs/hbb/ntuples/VHbbPostNano/UL/EFT/2017/V1/TTTo2L2Nu_TuneCP5_13TeV-powheg-pythia8/f4c12e812eec95f554de2367d0be80d11edb05d979e93708e2d5be78/000000_000000/0000/tree_220.root
/eos/cms/store/group/phys_higgs/hbb/ntuples/VHbbPostNano/UL/EFT/2017/V1/TTTo2L2Nu_TuneCP5_13TeV-powheg-pythia8/bfa0097b62ef839339b859f7709753111f78756ca80448732970fa3c/000000_000000/0000/tree_221.root
/eos/cms/store/group/phys_higgs/hbb/ntuples/VHbbPostNano/UL/EFT/2017/V1/TTTo2L2Nu_TuneCP5_13TeV-powheg-pythia8/d969c14a686b64c8dac98e2a5d63f8b2c8b985733a2d6a5a542d9543/000000_000000/0000/tree_222.root
/eos/cms/store/group/phys_higgs/hbb/ntuples/VHbbPostNano/UL/EFT/2017/V1/TTTo2L2Nu_TuneCP5_13TeV-powheg-pythia8/848a9c2d99f0f6e7ef0cc5f3317309d79129b3f18bc2432b1939230b/000000_000000/0000/tree_223.root
/eos/cms/store/group/phys_higgs/hbb/ntuples/VHbbPostNano/UL/EFT/2017/V1/TTTo2L2Nu_TuneCP5_13TeV-powheg-pythia8/89234e1db02b2995210a85cb14f41555660cbf38475d3531194e60cd/000000_000000/0000/tree_224.root
/eos/cms/store/group/phys_higgs/hbb/ntuples/VHbbPostNano/UL/EFT/2017/V1/TTTo2L2Nu_TuneCP5_13TeV-powheg-pythia8/cd68e52198fdcece44514c6f66e6bf8c34d9941775cb36b86f9bed09/000000_000000/0000/tree_225.root
/eos/cms/store/group/phys_higgs/hbb/ntuples/VHbbPostNano/UL/EFT/2017/V1/TTTo2L2Nu_TuneCP5_13TeV-powheg-pythia8/a1b721ff6bd58cd3ba13b3673beff7959cdcfd0dfb06500e0e6b5ef3/000000_000000/0000/tree_226.root
/eos/cms/store/group/phys_higgs/hbb/ntuples/VHbbPostNano/UL/EFT/2017/V1/TTTo2L2Nu_TuneCP5_13TeV-powheg-pythia8/12c6c52f4e5cc82f4c6aea7a2285d8cbaa262cb037ee8a5158d0c055/000000_000000/0000/tree_227.root
/eos/cms/store/group/phys_higgs/hbb/ntuples/VHbbPostNano/UL/EFT/2017/V1/TTTo2L2Nu_TuneCP5_13TeV-powheg-pythia8/49948229e21e5072c36fd388d274180e4a4aaf4f5dd81b20d2007eba/000000_000000/0000/tree_228.root
/eos/cms/store/group/phys_higgs/hbb/ntuples/VHbbPostNano/UL/EFT/2017/V1/TTTo2L2Nu_TuneCP5_13TeV-powheg-pythia8/c18769464217dd0121c8dcfcec8e4549be0f591bf5a8e07fcb100de2/000000_000000/0000/tree_229.root
/eos/cms/store/group/phys_higgs/hbb/ntuples/VHbbPostNano/UL/EFT/2017/V1/TTTo2L2Nu_TuneCP5_13TeV-powheg-pythia8/df26d1e1f6a9f823b59e8f0f6066e8de2a03e0874887cc863b606513/000000_000000/0000/tree_230.root
/eos/cms/store/group/phys_higgs/hbb/ntuples/VHbbPostNano/UL/EFT/2017/V1/TTTo2L2Nu_TuneCP5_13TeV-powheg-pythia8/95d8d23133ea108d7983b31e72465ccac99f908368c6815f8a8f4b2c/000000_000000/0000/tree_231.root
/eos/cms/store/group/phys_higgs/hbb/ntuples/VHbbPostNano/UL/EFT/2017/V1/TTTo2L2Nu_TuneCP5_13TeV-powheg-pythia8/d5b3c71430f431ebe58920db0e03e54b9c52e704c00165b21b5ce1ca/000000_000000/0000/tree_232.root
/eos/cms/store/group/phys_higgs/hbb/ntuples/VHbbPostNano/UL/EFT/2017/V1/TTTo2L2Nu_TuneCP5_13TeV-powheg-pythia8/ceb6a33e013c745f904ac014c86ac105c340f6a71ba13ad871d2e314/000000_000000/0000/tree_233.root
/eos/cms/store/group/phys_higgs/hbb/ntuples/VHbbPostNano/UL/EFT/2017/V1/TTTo2L2Nu_TuneCP5_13TeV-powheg-pythia8/f46d5a59828394cbfa2431ef7b0406f7d33bec298372df9f9aa7fdf7/000000_000000/0000/tree_234.root
/eos/cms/store/group/phys_higgs/hbb/ntuples/VHbbPostNano/UL/EFT/2017/V1/TTTo2L2Nu_TuneCP5_13TeV-powheg-pythia8/7354573c3870c5098b5d0fdc5a59454dcb053450a67ddef617eac875/000000_000000/0000/tree_235.root
/eos/cms/store/group/phys_higgs/hbb/ntuples/VHbbPostNano/UL/EFT/2017/V1/TTTo2L2Nu_TuneCP5_13TeV-powheg-pythia8/04c21cad6a78b23704c8ad0ab782db68f912d11e1e219d7163440d47/000000_000000/0000/tree_236.root
/eos/cms/store/group/phys_higgs/hbb/ntuples/VHbbPostNano/UL/EFT/2017/V1/TTTo2L2Nu_TuneCP5_13TeV-powheg-pythia8/12b45f59924c3cdab9fcfd9797d08913eb0d9c52df922653649584e2/000000_000000/0000/tree_237.root
/eos/cms/store/group/phys_higgs/hbb/ntuples/VHbbPostNano/UL/EFT/2017/V1/TTTo2L2Nu_TuneCP5_13TeV-powheg-pythia8/8cea68c3c51724cf6371200f2bb1a76e7c0a388f7f9e74cca7a5f776/000000_000000/0000/tree_238.root
/eos/cms/store/group/phys_higgs/hbb/ntuples/VHbbPostNano/UL/EFT/2017/V1/TTTo2L2Nu_TuneCP5_13TeV-powheg-pythia8/6f09031da025af26f989eb44d817f6d88c1d1dbe83059c54d637d3cc/000000_000000/0000/tree_239.root
/eos/cms/store/group/phys_higgs/hbb/ntuples/VHbbPostNano/UL/EFT/2017/V1/TTTo2L2Nu_TuneCP5_13TeV-powheg-pythia8/490eb780fe5cf115baf8068c2ac5dab03c8c3135ca445e1f0ca18371/000000_000000/0000/tree_240.root
/eos/cms/store/group/phys_higgs/hbb/ntuples/VHbbPostNano/UL/EFT/2017/V1/TTTo2L2Nu_TuneCP5_13TeV-powheg-pythia8/5ca14655d018105c7a5f1fb59ffba7a10f53050a4c4354c1f65e2982/000000_000000/0000/tree_241.root
/eos/cms/store/group/phys_higgs/hbb/ntuples/VHbbPostNano/UL/EFT/2017/V1/TTTo2L2Nu_TuneCP5_13TeV-powheg-pythia8/e54248d976104ac29340abc939b39f6f260ce40cc6dfc1312990917a/000000_000000/0000/tree_242.root
/eos/cms/store/group/phys_higgs/hbb/ntuples/VHbbPostNano/UL/EFT/2017/V1/TTTo2L2Nu_TuneCP5_13TeV-powheg-pythia8/418a59a0faab14e1e1b0f355f15c41e0fa324839172f5052da7e7af5/000000_000000/0000/tree_243.root
/eos/cms/store/group/phys_higgs/hbb/ntuples/VHbbPostNano/UL/EFT/2017/V1/TTTo2L2Nu_TuneCP5_13TeV-powheg-pythia8/ad245193cdcb88eaa754508604222f0904f6989c4301df7b72f9ced5/000000_000000/0000/tree_244.root
/eos/cms/store/group/phys_higgs/hbb/ntuples/VHbbPostNano/UL/EFT/2017/V1/TTTo2L2Nu_TuneCP5_13TeV-powheg-pythia8/1c4b2f27d61f588f47119ef692455e1cf6328ead54e1b6b019cd6625/000000_000000/0000/tree_245.root
/eos/cms/store/group/phys_higgs/hbb/ntuples/VHbbPostNano/UL/EFT/2017/V1/TTTo2L2Nu_TuneCP5_13TeV-powheg-pythia8/a013323d202456e885725905353d76f55c9cadcdbc884708d9fbf50a/000000_000000/0000/tree_246.root
/eos/cms/store/group/phys_higgs/hbb/ntuples/VHbbPostNano/UL/EFT/2017/V1/TTTo2L2Nu_TuneCP5_13TeV-powheg-pythia8/ae1a35bc84dc88f40868ac1a7202e47fb1dc98bff31826483b7a9541/000000_000000/0000/tree_247.root
/eos/cms/store/group/phys_higgs/hbb/ntuples/VHbbPostNano/UL/EFT/2017/V1/TTTo2L2Nu_TuneCP5_13TeV-powheg-pythia8/f666ac6f46116a7b9090ba00c058b01c0f9c7b265fce206ae3dc2487/000000_000000/0000/tree_248.root
/eos/cms/store/group/phys_higgs/hbb/ntuples/VHbbPostNano/UL/EFT/2017/V1/TTTo2L2Nu_TuneCP5_13TeV-powheg-pythia8/f8b1cbefd34c3d8ffb2c00273d4621c93102ed1b4efe6765caf1a594/000000_000000/0000/tree_249.root
/eos/cms/store/group/phys_higgs/hbb/ntuples/VHbbPostNano/UL/EFT/2017/V1/TTTo2L2Nu_TuneCP5_13TeV-powheg-pythia8/d490a0d0571f7864337c7b27c7795b98d4b2f078db329c9d6566a8c4/000000_000000/0000/tree_250.root
/eos/cms/store/group/phys_higgs/hbb/ntuples/VHbbPostNano/UL/EFT/2017/V1/TTTo2L2Nu_TuneCP5_13TeV-powheg-pythia8/05bb5b49c968d37b617e74b84827987b0a90e3ba77b5ce50091c293d/000000_000000/0000/tree_251.root
/eos/cms/store/group/phys_higgs/hbb/ntuples/VHbbPostNano/UL/EFT/2017/V1/TTTo2L2Nu_TuneCP5_13TeV-powheg-pythia8/0e8a093c9a43f8a4a57d1759a98d623d486fd77d10f4b1187986afb2/000000_000000/0000/tree_252.root
/eos/cms/store/group/phys_higgs/hbb/ntuples/VHbbPostNano/UL/EFT/2017/V1/TTTo2L2Nu_TuneCP5_13TeV-powheg-pythia8/2703d1db437af7e461cb5f17abdda183a55cc918e076516106be5565/000000_000000/0000/tree_253.root
/eos/cms/store/group/phys_higgs/hbb/ntuples/VHbbPostNano/UL/EFT/2017/V1/TTTo2L2Nu_TuneCP5_13TeV-powheg-pythia8/92e5ff9551bf438e43bfd3d9ccf525d3165a669e00d64f78d1dee57e/000000_000000/0000/tree_254.root
/eos/cms/store/group/phys_higgs/hbb/ntuples/VHbbPostNano/UL/EFT/2017/V1/TTTo2L2Nu_TuneCP5_13TeV-powheg-pythia8/a96de87553fc57d9a6d287a0631c7f1b8bd1a9d0e1ed7f4d60c64207/000000_000000/0000/tree_255.root
/eos/cms/store/group/phys_higgs/hbb/ntuples/VHbbPostNano/UL/EFT/2017/V1/TTTo2L2Nu_TuneCP5_13TeV-powheg-pythia8/5a5cda627e944213ffff3364ff916e5dfd959518084220887ab8bce4/000000_000000/0000/tree_256.root
/eos/cms/store/group/phys_higgs/hbb/ntuples/VHbbPostNano/UL/EFT/2017/V1/TTTo2L2Nu_TuneCP5_13TeV-powheg-pythia8/ebe2c60681d808aa2251e84ed3a2907cf1bba3260a0baec4b7351415/000000_000000/0000/tree_257.root
/eos/cms/store/group/phys_higgs/hbb/ntuples/VHbbPostNano/UL/EFT/2017/V1/TTTo2L2Nu_TuneCP5_13TeV-powheg-pythia8/6b28bbc12bf98cab8a92716657f4665a160443246acf102c2c60f233/000000_000000/0000/tree_258.root
/eos/cms/store/group/phys_higgs/hbb/ntuples/VHbbPostNano/UL/EFT/2017/V1/TTTo2L2Nu_TuneCP5_13TeV-powheg-pythia8/68865202197af7e15c63dc2ac86a9576d4890fa6c66fe0df4f179833/000000_000000/0000/tree_259.root
/eos/cms/store/group/phys_higgs/hbb/ntuples/VHbbPostNano/UL/EFT/2017/V1/TTTo2L2Nu_TuneCP5_13TeV-powheg-pythia8/420d1d3aabc13e4085c720aa37742a8b43daa5bd227d82e94b4428fb/000000_000000/0000/tree_260.root
/eos/cms/store/group/phys_higgs/hbb/ntuples/VHbbPostNano/UL/EFT/2017/V1/TTTo2L2Nu_TuneCP5_13TeV-powheg-pythia8/110cb425f74896b4e08515ebeba7d57c9ade5e46f08638af23d64b5f/000000_000000/0000/tree_261.root
/eos/cms/store/group/phys_higgs/hbb/ntuples/VHbbPostNano/UL/EFT/2017/V1/TTTo2L2Nu_TuneCP5_13TeV-powheg-pythia8/179ef478edc908556532df6be25be674b5f19e727c3ea54f960f9a80/000000_000000/0000/tree_262.root
/eos/cms/store/group/phys_higgs/hbb/ntuples/VHbbPostNano/UL/EFT/2017/V1/TTTo2L2Nu_TuneCP5_13TeV-powheg-pythia8/cfc087bf0440ec706582c2fc215e50c31511319dbd2b58147ac8dc79/000000_000000/0000/tree_263.root
/eos/cms/store/group/phys_higgs/hbb/ntuples/VHbbPostNano/UL/EFT/2017/V1/TTTo2L2Nu_TuneCP5_13TeV-powheg-pythia8/3251cce8f80a34424950acf895f8afa9c53ac2aade918f571fffe4ab/000000_000000/0000/tree_264.root
/eos/cms/store/group/phys_higgs/hbb/ntuples/VHbbPostNano/UL/EFT/2017/V1/TTTo2L2Nu_TuneCP5_13TeV-powheg-pythia8/1132d79dfc2497ea7f4c8523f17a3a508c421fbf6f89dafc23ea2d10/000000_000000/0000/tree_265.root
/eos/cms/store/group/phys_higgs/hbb/ntuples/VHbbPostNano/UL/EFT/2017/V1/TTTo2L2Nu_TuneCP5_13TeV-powheg-pythia8/dbac37f0ebb4e25c65fd98f21d8e65d1571b67d872cc2e6663102d89/000000_000000/0000/tree_266.root
/eos/cms/store/group/phys_higgs/hbb/ntuples/VHbbPostNano/UL/EFT/2017/V1/TTTo2L2Nu_TuneCP5_13TeV-powheg-pythia8/8607c3e92445da081100899c282043eeee4afc87ce6bf382aa212de7/000000_000000/0000/tree_267.root
/eos/cms/store/group/phys_higgs/hbb/ntuples/VHbbPostNano/UL/EFT/2017/V1/TTTo2L2Nu_TuneCP5_13TeV-powheg-pythia8/d51177dc6e85d08eee9a736e06dd828f812cd71e23e4b8ba24e1e3f1/000000_000000/0000/tree_268.root
/eos/cms/store/group/phys_higgs/hbb/ntuples/VHbbPostNano/UL/EFT/2017/V1/TTTo2L2Nu_TuneCP5_13TeV-powheg-pythia8/abc0af79cc39fd77a3ddd0762e0289e1073470e1dd49fcccb5004c99/000000_000000/0000/tree_269.root
/eos/cms/store/group/phys_higgs/hbb/ntuples/VHbbPostNano/UL/EFT/2017/V1/TTTo2L2Nu_TuneCP5_13TeV-powheg-pythia8/ab34f26a3ff89da99e7bf40bb7a7912884f2be2e8cb684a03eac5f7c/000000_000000/0000/tree_270.root
/eos/cms/store/group/phys_higgs/hbb/ntuples/VHbbPostNano/UL/EFT/2017/V1/TTTo2L2Nu_TuneCP5_13TeV-powheg-pythia8/6d9eeda2ccb26e622497376a97e78fba447a4103b387853b1209df7e/000000_000000/0000/tree_271.root
/eos/cms/store/group/phys_higgs/hbb/ntuples/VHbbPostNano/UL/EFT/2017/V1/TTTo2L2Nu_TuneCP5_13TeV-powheg-pythia8/4ce9969ecf3c4a170a327709d83123b95272dc38a944506878694b51/000000_000000/0000/tree_272.root
/eos/cms/store/group/phys_higgs/hbb/ntuples/VHbbPostNano/UL/EFT/2017/V1/TTTo2L2Nu_TuneCP5_13TeV-powheg-pythia8/90c8af6bb748e6fed735f42eb142635ebad3e59d03c0896ac5726d93/000000_000000/0000/tree_273.root
/eos/cms/store/group/phys_higgs/hbb/ntuples/VHbbPostNano/UL/EFT/2017/V1/TTTo2L2Nu_TuneCP5_13TeV-powheg-pythia8/7a866248e58fb60cef1b2447b0c35631d909548c40c308c2f19cc893/000000_000000/0000/tree_274.root
/eos/cms/store/group/phys_higgs/hbb/ntuples/VHbbPostNano/UL/EFT/2017/V1/TTTo2L2Nu_TuneCP5_13TeV-powheg-pythia8/8d108c0658f355491d2ca3d676bd1a2040838d35d2be1bbe48d2e732/000000_000000/0000/tree_275.root
/eos/cms/store/group/phys_higgs/hbb/ntuples/VHbbPostNano/UL/EFT/2017/V1/TTTo2L2Nu_TuneCP5_13TeV-powheg-pythia8/8a02afe4be81c7c9f7561196736bd34f924b41e4241ef003a748ea83/000000_000000/0000/tree_276.root
/eos/cms/store/group/phys_higgs/hbb/ntuples/VHbbPostNano/UL/EFT/2017/V1/TTTo2L2Nu_TuneCP5_13TeV-powheg-pythia8/0f7b547d94bb8cd115c4dbdca5025221a56929ea0a87c812e877a280/000000_000000/0000/tree_277.root
/eos/cms/store/group/phys_higgs/hbb/ntuples/VHbbPostNano/UL/EFT/2017/V1/TTTo2L2Nu_TuneCP5_13TeV-powheg-pythia8/740b31bcad5a238cc717952a166383a726e290ce212f6a5777e37b30/000000_000000/0000/tree_278.root
/eos/cms/store/group/phys_higgs/hbb/ntuples/VHbbPostNano/UL/EFT/2017/V1/TTTo2L2Nu_TuneCP5_13TeV-powheg-pythia8/34d52469cec467753c8d3f78d921513ac37787364a534dd20c62abf3/000000_000000/0000/tree_279.root
/eos/cms/store/group/phys_higgs/hbb/ntuples/VHbbPostNano/UL/EFT/2017/V1/TTTo2L2Nu_TuneCP5_13TeV-powheg-pythia8/8ddcbbedfff1ac39f90b032309f6a722e8cfa235e448a62e1844f2dd/000000_000000/0000/tree_280.root
/eos/cms/store/group/phys_higgs/hbb/ntuples/VHbbPostNano/UL/EFT/2017/V1/TTTo2L2Nu_TuneCP5_13TeV-powheg-pythia8/4765a285ad97f9c3e0702288d5daafbc6717aa4d3e262a2388ebecdc/000000_000000/0000/tree_281.root
/eos/cms/store/group/phys_higgs/hbb/ntuples/VHbbPostNano/UL/EFT/2017/V1/TTTo2L2Nu_TuneCP5_13TeV-powheg-pythia8/0ddd7b66f37a3dd723f3653acd08bc2b8988a970a4758ca01f39cbf8/000000_000000/0000/tree_282.root
/eos/cms/store/group/phys_higgs/hbb/ntuples/VHbbPostNano/UL/EFT/2017/V1/TTTo2L2Nu_TuneCP5_13TeV-powheg-pythia8/d28c4e8cb38232ed2f765ae7b1d5227366d5cfbe3ed741379b7d9935/000000_000000/0000/tree_283.root
/eos/cms/store/group/phys_higgs/hbb/ntuples/VHbbPostNano/UL/EFT/2017/V1/TTTo2L2Nu_TuneCP5_13TeV-powheg-pythia8/0c5ed5f3faa9906d5258163e92f88cc92a3903a2388286d0bd1097cf/000000_000000/0000/tree_284.root
/eos/cms/store/group/phys_higgs/hbb/ntuples/VHbbPostNano/UL/EFT/2017/V1/TTTo2L2Nu_TuneCP5_13TeV-powheg-pythia8/366f61e4323a8f197f0b3bcd6534e6a2daf32d9f6fc90830de9aa1ee/000000_000000/0000/tree_285.root
/eos/cms/store/group/phys_higgs/hbb/ntuples/VHbbPostNano/UL/EFT/2017/V1/TTTo2L2Nu_TuneCP5_13TeV-powheg-pythia8/4399fc4a7630b2b2e5ca5390b6d4ff6cfab9ee004d7a713f184c9020/000000_000000/0000/tree_286.root
/eos/cms/store/group/phys_higgs/hbb/ntuples/VHbbPostNano/UL/EFT/2017/V1/TTTo2L2Nu_TuneCP5_13TeV-powheg-pythia8/1d661184f55740550d6b25f9afddc0bf01eb9de46ba5b135c9b902f5/000000_000000/0000/tree_287.root
/eos/cms/store/group/phys_higgs/hbb/ntuples/VHbbPostNano/UL/EFT/2017/V1/TTTo2L2Nu_TuneCP5_13TeV-powheg-pythia8/4e732483d314cf4c2db4706b5b7aa3d182dd37b89c1af06a39c1836e/000000_000000/0000/tree_288.root
/eos/cms/store/group/phys_higgs/hbb/ntuples/VHbbPostNano/UL/EFT/2017/V1/TTTo2L2Nu_TuneCP5_13TeV-powheg-pythia8/2daeec49c6091e5af0eca44316e376e480b5ff1384b65fde54c2ac3d/000000_000000/0000/tree_289.root
/eos/cms/store/group/phys_higgs/hbb/ntuples/VHbbPostNano/UL/EFT/2017/V1/TTTo2L2Nu_TuneCP5_13TeV-powheg-pythia8/a7331890bb633ed4d034146c1fdec059f794432f5359c8c13d40e762/000000_000000/0000/tree_290.root
/eos/cms/store/group/phys_higgs/hbb/ntuples/VHbbPostNano/UL/EFT/2017/V1/TTTo2L2Nu_TuneCP5_13TeV-powheg-pythia8/21433145295568f6458bafc98ee1097443f9dd1cab344426aa64be3a/000000_000000/0000/tree_291.root
/eos/cms/store/group/phys_higgs/hbb/ntuples/VHbbPostNano/UL/EFT/2017/V1/TTTo2L2Nu_TuneCP5_13TeV-powheg-pythia8/798f909d697aa96363ef69dd3bde4fe2d6c87dabd31f143801b509d0/000000_000000/0000/tree_292.root
/eos/cms/store/group/phys_higgs/hbb/ntuples/VHbbPostNano/UL/EFT/2017/V1/TTTo2L2Nu_TuneCP5_13TeV-powheg-pythia8/4d3afc754ec2504439c8d2e1ccac659d723e91dfbc48cef4e8ecc1d5/000000_000000/0000/tree_293.root
/eos/cms/store/group/phys_higgs/hbb/ntuples/VHbbPostNano/UL/EFT/2017/V1/TTTo2L2Nu_TuneCP5_13TeV-powheg-pythia8/ce8d16d30c0af25df3fbfde2184ffd40b0e1e5a5b301f1518d76e621/000000_000000/0000/tree_294.root
/eos/cms/store/group/phys_higgs/hbb/ntuples/VHbbPostNano/UL/EFT/2017/V1/TTTo2L2Nu_TuneCP5_13TeV-powheg-pythia8/dc540edd892719401617e9c62ed296a2e722e4cc4817e15f339800d3/000000_000000/0000/tree_295.root
/eos/cms/store/group/phys_higgs/hbb/ntuples/VHbbPostNano/UL/EFT/2017/V1/TTTo2L2Nu_TuneCP5_13TeV-powheg-pythia8/da4b6757c78add99fab34806d0ede3ff71461872bf91832ebe6329f9/000000_000000/0000/tree_296.root
/eos/cms/store/group/phys_higgs/hbb/ntuples/VHbbPostNano/UL/EFT/2017/V1/TTTo2L2Nu_TuneCP5_13TeV-powheg-pythia8/ef713d89bd2f12ba98e0e4a53a551f6053ff3cb3be9839aba51a65f8/000000_000000/0000/tree_297.root
/eos/cms/store/group/phys_higgs/hbb/ntuples/VHbbPostNano/UL/EFT/2017/V1/TTTo2L2Nu_TuneCP5_13TeV-powheg-pythia8/3ae0845397736feaf97c327bdf2aff6e78931c287e0bfa173aaa7410/000000_000000/0000/tree_298.root
/eos/cms/store/group/phys_higgs/hbb/ntuples/VHbbPostNano/UL/EFT/2017/V1/TTTo2L2Nu_TuneCP5_13TeV-powheg-pythia8/949ab4edb6e21914f148766d1a09f26d3ba54a1fb396bef874f7ed19/000000_000000/0000/tree_299.root
/eos/cms/store/group/phys_higgs/hbb/ntuples/VHbbPostNano/UL/EFT/2017/V1/TTTo2L2Nu_TuneCP5_13TeV-powheg-pythia8/e11fcb9250784073ba6f1d73e9168caaef17967da5df6b18073b8f55/000000_000000/0000/tree_300.root
/eos/cms/store/group/phys_higgs/hbb/ntuples/VHbbPostNano/UL/EFT/2017/V1/TTTo2L2Nu_TuneCP5_13TeV-powheg-pythia8/4a84e051187207af6b86683cbc9e91cc4ebd1145c2281e4d6f105e7c/000000_000000/0000/tree_301.root
/eos/cms/store/group/phys_higgs/hbb/ntuples/VHbbPostNano/UL/EFT/2017/V1/TTTo2L2Nu_TuneCP5_13TeV-powheg-pythia8/5fb4e6b149c2cd1ae507a7a20ea73b08a31b456d7dd89e9ac59e8823/000000_000000/0000/tree_302.root
/eos/cms/store/group/phys_higgs/hbb/ntuples/VHbbPostNano/UL/EFT/2017/V1/TTTo2L2Nu_TuneCP5_13TeV-powheg-pythia8/b2a1aa7ee57f5f5fb1c2186d9ce65ee8b42c9439269be798e73bbd26/000000_000000/0000/tree_303.root
/eos/cms/store/group/phys_higgs/hbb/ntuples/VHbbPostNano/UL/EFT/2017/V1/TTTo2L2Nu_TuneCP5_13TeV-powheg-pythia8/8151879a809cac5cc33dd35a79b33ceaea417bec3ac75b3e6ff96d97/000000_000000/0000/tree_304.root
/eos/cms/store/group/phys_higgs/hbb/ntuples/VHbbPostNano/UL/EFT/2017/V1/TTTo2L2Nu_TuneCP5_13TeV-powheg-pythia8/b12f7ee79f78f1a56f63e1cbd6cb790f4a28f9338d95fa161d6ecf08/000000_000000/0000/tree_305.root
/eos/cms/store/group/phys_higgs/hbb/ntuples/VHbbPostNano/UL/EFT/2017/V1/TTTo2L2Nu_TuneCP5_13TeV-powheg-pythia8/65c05c1b8edd9e4a05bbab5b9fe99a312039d17bae6f52ac6f52e90f/000000_000000/0000/tree_306.root
/eos/cms/store/group/phys_higgs/hbb/ntuples/VHbbPostNano/UL/EFT/2017/V1/TTTo2L2Nu_TuneCP5_13TeV-powheg-pythia8/9b478c7c865b9a4cb8bef3d2f8339c51e073138fe24e69f879c6f857/000000_000000/0000/tree_307.root
/eos/cms/store/group/phys_higgs/hbb/ntuples/VHbbPostNano/UL/EFT/2017/V1/TTTo2L2Nu_TuneCP5_13TeV-powheg-pythia8/61a0a680dd9b2a4d0c01bc642798e00a738fc7650b731c5e01cd20b6/000000_000000/0000/tree_308.root
/eos/cms/store/group/phys_higgs/hbb/ntuples/VHbbPostNano/UL/EFT/2017/V1/TTTo2L2Nu_TuneCP5_13TeV-powheg-pythia8/ddba3acb9742d9ab5ec4a13f5a5d79fa4545e56a58751e9e3ec4881a/000000_000000/0000/tree_309.root
/eos/cms/store/group/phys_higgs/hbb/ntuples/VHbbPostNano/UL/EFT/2017/V1/TTTo2L2Nu_TuneCP5_13TeV-powheg-pythia8/7ed9ff73b862efe66cedd2291ad841947e00b883a91a0b1c11a7d7cc/000000_000000/0000/tree_310.root
/eos/cms/store/group/phys_higgs/hbb/ntuples/VHbbPostNano/UL/EFT/2017/V1/TTTo2L2Nu_TuneCP5_13TeV-powheg-pythia8/e60555164007f256e4596f0016225e54c93aec98ad3516f9bb987373/000000_000000/0000/tree_311.root
/eos/cms/store/group/phys_higgs/hbb/ntuples/VHbbPostNano/UL/EFT/2017/V1/TTTo2L2Nu_TuneCP5_13TeV-powheg-pythia8/87216f192955b44859d1687702de056e1abae2f6ad31ae4dc6f2cb8b/000000_000000/0000/tree_312.root
/eos/cms/store/group/phys_higgs/hbb/ntuples/VHbbPostNano/UL/EFT/2017/V1/TTTo2L2Nu_TuneCP5_13TeV-powheg-pythia8/7780308e1909a923cb41e990430bd19a0c085328ce51cedbd699fcf5/000000_000000/0000/tree_313.root