/store/group/phys_higgs/hbb/ntuples/VHbbPostNano/2018/V11_bis/DYBJetsToLL_M-50_Zpt-100to200_TuneCP5_13TeV-madgraphMLM-pythia8/d435c4882d5003d389a2d81d615600eca8f88159a3969255685b6905/000000_000000/0000/tree_0.root
/store/group/phys_higgs/hbb/ntuples/VHbbPostNano/2018/V11_bis/DYBJetsToLL_M-50_Zpt-100to200_TuneCP5_13TeV-madgraphMLM-pythia8/97ba1c39a2c57cffe21faca5b12dd108a4588ee4351ff7be1c1ffbde/000000_000000/0000/tree_1.root
/store/group/phys_higgs/hbb/ntuples/VHbbPostNano/2018/V11_bis/DYBJetsToLL_M-50_Zpt-100to200_TuneCP5_13TeV-madgraphMLM-pythia8/d479a47286482b50466dc09e024b257f3775bf5a3a919c9fe88431ec/000000_000000/0000/tree_2.root
/store/group/phys_higgs/hbb/ntuples/VHbbPostNano/2018/V11_bis/DYBJetsToLL_M-50_Zpt-100to200_TuneCP5_13TeV-madgraphMLM-pythia8/bcb8202397265c0eba44a7612a3c2dbb65f9e17941110e7e5acb6067/000000_000000/0000/tree_3.root
/store/group/phys_higgs/hbb/ntuples/VHbbPostNano/2018/V11_bis/DYBJetsToLL_M-50_Zpt-100to200_TuneCP5_13TeV-madgraphMLM-pythia8/701629a2ef7e8a409e137b37ff11fb5ce8913f39108be31d47c06a47/000000_000000/0000/tree_4.root
/store/group/phys_higgs/hbb/ntuples/VHbbPostNano/2018/V11_bis/DYBJetsToLL_M-50_Zpt-100to200_TuneCP5_13TeV-madgraphMLM-pythia8/6318434e3747f7f735b009bfc2c829e515a1c26341aee5a6a0bcf98b/000000_000000/0000/tree_5.root
/store/group/phys_higgs/hbb/ntuples/VHbbPostNano/2018/V11_bis/DYBJetsToLL_M-50_Zpt-100to200_TuneCP5_13TeV-madgraphMLM-pythia8/edb775d5b2fd26eb65f2a4465df7bc1e134287b3f2f8c71655c8bd25/000000_000000/0000/tree_6.root
/store/group/phys_higgs/hbb/ntuples/VHbbPostNano/2018/V11_bis/DYBJetsToLL_M-50_Zpt-100to200_TuneCP5_13TeV-madgraphMLM-pythia8/de43608e852ee0e13406b8bf9bfcbe2f77495128724f06e13b9123fd/000000_000000/0000/tree_7.root
/store/group/phys_higgs/hbb/ntuples/VHbbPostNano/2018/V11_bis/DYBJetsToLL_M-50_Zpt-100to200_TuneCP5_13TeV-madgraphMLM-pythia8/1daba0beffed3692b3710a31e765b509c6dce151be19efbc929705e0/000000_000000/0000/tree_8.root
/store/group/phys_higgs/hbb/ntuples/VHbbPostNano/2018/V11_bis/DYBJetsToLL_M-50_Zpt-100to200_TuneCP5_13TeV-madgraphMLM-pythia8/715fbca68b50d6da5f72f4da957a70f7f34dffd4e6776871c65e5198/000000_000000/0000/tree_9.root
/store/group/phys_higgs/hbb/ntuples/VHbbPostNano/2018/V11_bis/DYBJetsToLL_M-50_Zpt-100to200_TuneCP5_13TeV-madgraphMLM-pythia8/bef91f471e22ae2eb841b6f6b7acafa0595183e31dee7754c62a26d5/000000_000000/0000/tree_10.root
/store/group/phys_higgs/hbb/ntuples/VHbbPostNano/2018/V11_bis/DYBJetsToLL_M-50_Zpt-100to200_TuneCP5_13TeV-madgraphMLM-pythia8/1c5b449464e82f0a51133ee93039e52ac976b79623991e00223d7c1c/000000_000000/0000/tree_11.root
/store/group/phys_higgs/hbb/ntuples/VHbbPostNano/2018/V11_bis/DYBJetsToLL_M-50_Zpt-100to200_TuneCP5_13TeV-madgraphMLM-pythia8/49ee0c83aab1891a6492e35694fa196d3eddc21d2c3b1f295aa433a4/000000_000000/0000/tree_12.root
/store/group/phys_higgs/hbb/ntuples/VHbbPostNano/2018/V11_bis/DYBJetsToLL_M-50_Zpt-100to200_TuneCP5_13TeV-madgraphMLM-pythia8/e77823d05f869689cfa40fd27450511680ceea4f6e8698c30539af22/000000_000000/0000/tree_13.root
/store/group/phys_higgs/hbb/ntuples/VHbbPostNano/2018/V11_bis/DYBJetsToLL_M-50_Zpt-100to200_TuneCP5_13TeV-madgraphMLM-pythia8/8e1cc1b6cfbb350f46743893fb574dcfebd153159493bdd6e7c4ba4a/000000_000000/0000/tree_14.root
/store/group/phys_higgs/hbb/ntuples/VHbbPostNano/2018/V11_bis/DYBJetsToLL_M-50_Zpt-100to200_TuneCP5_13TeV-madgraphMLM-pythia8/37be0fc3ee2931ce41bcc6de63cb9074fa1d704a8427462257cbaa0f/000000_000000/0000/tree_15.root
/store/group/phys_higgs/hbb/ntuples/VHbbPostNano/2018/V11_bis/DYBJetsToLL_M-50_Zpt-100to200_TuneCP5_13TeV-madgraphMLM-pythia8/37d2b43ba8f38810d6bc5a86112343f0ed0c432ed9bd0005e879bdfe/000000_000000/0000/tree_16.root
/store/group/phys_higgs/hbb/ntuples/VHbbPostNano/2018/V11_bis/DYBJetsToLL_M-50_Zpt-100to200_TuneCP5_13TeV-madgraphMLM-pythia8/d5d08de9fa2d905862e0622f62fb51eb6cd5b4e3dd8f4a5b193ed14b/000000_000000/0000/tree_17.root
/store/group/phys_higgs/hbb/ntuples/VHbbPostNano/2018/V11_bis/DYBJetsToLL_M-50_Zpt-100to200_TuneCP5_13TeV-madgraphMLM-pythia8/992bed1efca3e57df31d59b3cb064407ed517b62fd730a75b8d1a7b0/000000_000000/0000/tree_18.root
/store/group/phys_higgs/hbb/ntuples/VHbbPostNano/2018/V11_bis/DYBJetsToLL_M-50_Zpt-100to200_TuneCP5_13TeV-madgraphMLM-pythia8/452dc1cc736b4510ff9642ebac7735846b98431d81f82d1c7d8c24ea/000000_000000/0000/tree_19.root
/store/group/phys_higgs/hbb/ntuples/VHbbPostNano/2018/V11_bis/DYBJetsToLL_M-50_Zpt-100to200_TuneCP5_13TeV-madgraphMLM-pythia8/4c0ccbf67795d26f470f9478bdb6f8c8027ee5cf914e781f07d49d4b/000000_000000/0000/tree_20.root
/store/group/phys_higgs/hbb/ntuples/VHbbPostNano/2018/V11_bis/DYBJetsToLL_M-50_Zpt-100to200_TuneCP5_13TeV-madgraphMLM-pythia8/d6bc2053cbba843132ae9fe7ff161b726f2e94158d0eab03bc73713a/000000_000000/0000/tree_21.root
/store/group/phys_higgs/hbb/ntuples/VHbbPostNano/2018/V11_bis/DYBJetsToLL_M-50_Zpt-100to200_TuneCP5_13TeV-madgraphMLM-pythia8/e760c734378e52f14c3eb7bb2ca99ca061ea174830e66a60852ffca6/000000_000000/0000/tree_22.root
/store/group/phys_higgs/hbb/ntuples/VHbbPostNano/2018/V11_bis/DYBJetsToLL_M-50_Zpt-100to200_TuneCP5_13TeV-madgraphMLM-pythia8/b546cdc7eff8b891a61e69113a4ebbba4cd334130fa4613f3d07eece/000000_000000/0000/tree_23.root
/store/group/phys_higgs/hbb/ntuples/VHbbPostNano/2018/V11_bis/DYBJetsToLL_M-50_Zpt-100to200_TuneCP5_13TeV-madgraphMLM-pythia8/095fb11f2e30f3dc7d50e3b60f5817421782566000d888cbd08b7275/000000_000000/0000/tree_24.root
/store/group/phys_higgs/hbb/ntuples/VHbbPostNano/2018/V11_bis/DYBJetsToLL_M-50_Zpt-100to200_TuneCP5_13TeV-madgraphMLM-pythia8/69e9b0288e684c9c00553f2b20ec83d38dce8dda8f0e210dfa70a865/000000_000000/0000/tree_25.root
/store/group/phys_higgs/hbb/ntuples/VHbbPostNano/2018/V11_bis/DYBJetsToLL_M-50_Zpt-100to200_TuneCP5_13TeV-madgraphMLM-pythia8/e77e1ffb2dd04219a6f2117a12a6ba32c0ddead180255d692db03533/000000_000000/0000/tree_26.root
/store/group/phys_higgs/hbb/ntuples/VHbbPostNano/2018/V11_bis/DYBJetsToLL_M-50_Zpt-100to200_TuneCP5_13TeV-madgraphMLM-pythia8/0238973c4afb3d6e62e6123cc08acc167a43c13340376510a8e7271e/000000_000000/0000/tree_27.root
/store/group/phys_higgs/hbb/ntuples/VHbbPostNano/2018/V11_bis/DYBJetsToLL_M-50_Zpt-100to200_TuneCP5_13TeV-madgraphMLM-pythia8/15b6378cc9966534881f325762776664062dfe36ebcfa721acd716e1/000000_000000/0000/tree_28.root
/store/group/phys_higgs/hbb/ntuples/VHbbPostNano/2018/V11_bis/DYBJetsToLL_M-50_Zpt-100to200_TuneCP5_13TeV-madgraphMLM-pythia8/1d48d1793e8266eb97bae9e9da212ce045149402836a1d4a05e52314/000000_000000/0000/tree_29.root
/store/group/phys_higgs/hbb/ntuples/VHbbPostNano/2018/V11_bis/DYBJetsToLL_M-50_Zpt-100to200_TuneCP5_13TeV-madgraphMLM-pythia8/975a9720adf313e5b3788d7c3ac13ebac3aa971466be4a2f2bb60a2c/000000_000000/0000/tree_30.root
/store/group/phys_higgs/hbb/ntuples/VHbbPostNano/2018/V11_bis/DYBJetsToLL_M-50_Zpt-100to200_TuneCP5_13TeV-madgraphMLM-pythia8/52845972113efba658d5ecb3d90c0c2fc617e8525faae7147ed6856b/000000_000000/0000/tree_31.root
/store/group/phys_higgs/hbb/ntuples/VHbbPostNano/2018/V11_bis/DYBJetsToLL_M-50_Zpt-100to200_TuneCP5_13TeV-madgraphMLM-pythia8/5189efc02dd3bf41b1765f2bb5d39e826a83b595f62cb313afefff5b/000000_000000/0000/tree_32.root
/store/group/phys_higgs/hbb/ntuples/VHbbPostNano/2018/V11_bis/DYBJetsToLL_M-50_Zpt-100to200_TuneCP5_13TeV-madgraphMLM-pythia8/9868b790882e561dab7e08427e40fb186e76775a852b5b578c7eadd0/000000_000000/0000/tree_33.root
/store/group/phys_higgs/hbb/ntuples/VHbbPostNano/2018/V11_bis/DYBJetsToLL_M-50_Zpt-100to200_TuneCP5_13TeV-madgraphMLM-pythia8/713d2c56d1af490a69dc98ef44338aa9f53f96e0950a14a7814bb038/000000_000000/0000/tree_34.root
/store/group/phys_higgs/hbb/ntuples/VHbbPostNano/2018/V11_bis/DYBJetsToLL_M-50_Zpt-100to200_TuneCP5_13TeV-madgraphMLM-pythia8/61d5f0f22563a53789c61a9787aa05ea300e519120e823e77bc9a916/000000_000000/0000/tree_35.root
/store/group/phys_higgs/hbb/ntuples/VHbbPostNano/2018/V11_bis/DYBJetsToLL_M-50_Zpt-100to200_TuneCP5_13TeV-madgraphMLM-pythia8/2b212c02b5b74c7ec3b77e9646c1168a7e8949bf35fcdd7a087fe777/000000_000000/0000/tree_36.root
/store/group/phys_higgs/hbb/ntuples/VHbbPostNano/2018/V11_bis/DYBJetsToLL_M-50_Zpt-100to200_TuneCP5_13TeV-madgraphMLM-pythia8/67d2cb95b8191223a083a6c9f8e60f1558c929d3c52b3a4dc761ccd5/000000_000000/0000/tree_37.root
/store/group/phys_higgs/hbb/ntuples/VHbbPostNano/2018/V11_bis/DYBJetsToLL_M-50_Zpt-100to200_TuneCP5_13TeV-madgraphMLM-pythia8/f6cd457df6446cb7d2e5f65dda2ee54cfac33b731bf18430c07fd41d/000000_000000/0000/tree_38.root
/store/group/phys_higgs/hbb/ntuples/VHbbPostNano/2018/V11_bis/DYBJetsToLL_M-50_Zpt-100to200_TuneCP5_13TeV-madgraphMLM-pythia8/201fc6b78a1a4621760c868660393688472c123be5eb341a390ed786/000000_000000/0000/tree_39.root
/store/group/phys_higgs/hbb/ntuples/VHbbPostNano/2018/V11_bis/DYBJetsToLL_M-50_Zpt-100to200_TuneCP5_13TeV-madgraphMLM-pythia8/f56bcd07d899340afb65077b995dff7fbbb0963f58988d6714fb5874/000000_000000/0000/tree_40.root
/store/group/phys_higgs/hbb/ntuples/VHbbPostNano/2018/V11_bis/DYBJetsToLL_M-50_Zpt-100to200_TuneCP5_13TeV-madgraphMLM-pythia8/be2e247eef8424217e9f636ee9ab35e979c731899affee2639fbc7f1/000000_000000/0000/tree_41.root
/store/group/phys_higgs/hbb/ntuples/VHbbPostNano/2018/V11_bis/DYBJetsToLL_M-50_Zpt-100to200_TuneCP5_13TeV-madgraphMLM-pythia8/3b0369c37e09443205aab6cb696b6b703d3b3c4a3252a272d10b9794/000000_000000/0000/tree_42.root
/store/group/phys_higgs/hbb/ntuples/VHbbPostNano/2018/V11_bis/DYBJetsToLL_M-50_Zpt-100to200_TuneCP5_13TeV-madgraphMLM-pythia8/dbed333898b96b109ae0e94481ee942baa66a7624cc9c74e8182f81a/000000_000000/0000/tree_43.root
/store/group/phys_higgs/hbb/ntuples/VHbbPostNano/2018/V11_bis/DYBJetsToLL_M-50_Zpt-100to200_TuneCP5_13TeV-madgraphMLM-pythia8/60b6904e3e257518412a3ff17605fc45a13c1541b912153c598df4de/000000_000000/0000/tree_44.root
/store/group/phys_higgs/hbb/ntuples/VHbbPostNano/2018/V11_bis/DYBJetsToLL_M-50_Zpt-100to200_TuneCP5_13TeV-madgraphMLM-pythia8/4914a171c00b9485412821e928c7e04bc4c01820ff24f1714d47c692/000000_000000/0000/tree_45.root
/store/group/phys_higgs/hbb/ntuples/VHbbPostNano/2018/V11_bis/DYBJetsToLL_M-50_Zpt-100to200_TuneCP5_13TeV-madgraphMLM-pythia8/861cfb73089e939316ba5cada034f9efb2599834d759bef5ad4a513b/000000_000000/0000/tree_46.root
/store/group/phys_higgs/hbb/ntuples/VHbbPostNano/2018/V11_bis/DYBJetsToLL_M-50_Zpt-100to200_TuneCP5_13TeV-madgraphMLM-pythia8/703737e7978d38c45320d24fe1e3fd5beacee6e50ff6c3c8de8c547a/000000_000000/0000/tree_47.root
/store/group/phys_higgs/hbb/ntuples/VHbbPostNano/2018/V11_bis/DYBJetsToLL_M-50_Zpt-100to200_TuneCP5_13TeV-madgraphMLM-pythia8/b3a6f39cb3c0803346d08073002e907f901fcf58af0c133c6c9ebabb/000000_000000/0000/tree_48.root
/store/group/phys_higgs/hbb/ntuples/VHbbPostNano/2018/V11_bis/DYBJetsToLL_M-50_Zpt-100to200_TuneCP5_13TeV-madgraphMLM-pythia8/26c56a7772a6415f82066b363eacf445db232f4cc11fdad45f459d72/000000_000000/0000/tree_49.root