/store/group/phys_higgs/hbb/ntuples/VHbbPostNano/2018/V11-STXS/ggZH_HToBB_ZToLL_M125_13TeV_powheg_pythia8/5a5b9ba380e3615c6b7a2fba41c1f861ec7032e93a1ebf2a337f9e6b/000000_000000/0000/tree_0.root
/store/group/phys_higgs/hbb/ntuples/VHbbPostNano/2018/V11-STXS/ggZH_HToBB_ZToLL_M125_13TeV_powheg_pythia8/340a51a9e4b8764a68b29e68814af1c2570a233bf093d6691325dc31/000000_000000/0000/tree_1.root
/store/group/phys_higgs/hbb/ntuples/VHbbPostNano/2018/V11-STXS/ggZH_HToBB_ZToLL_M125_13TeV_powheg_pythia8/71b9b74631d85913a553be0d3a7a5f787f0aab0e68ef217c9093bf05/000000_000000/0000/tree_2.root
/store/group/phys_higgs/hbb/ntuples/VHbbPostNano/2018/V11-STXS/ggZH_HToBB_ZToLL_M125_13TeV_powheg_pythia8/091a49eb4a83e0f390814e3020394e5ee4a373e6946e2742421841f2/000000_000000/0000/tree_3.root
/store/group/phys_higgs/hbb/ntuples/VHbbPostNano/2018/V11-STXS/ggZH_HToBB_ZToLL_M125_13TeV_powheg_pythia8/8379bc505bd97c54516290b18e5cd7d5924cf916a9abc75648307ad8/000000_000000/0000/tree_4.root
/store/group/phys_higgs/hbb/ntuples/VHbbPostNano/2018/V11-STXS/ggZH_HToBB_ZToLL_M125_13TeV_powheg_pythia8/6095648dc981fee2d9f3ae5923ec1cdf2b5304be05592e8ab1b14b71/000000_000000/0000/tree_5.root
/store/group/phys_higgs/hbb/ntuples/VHbbPostNano/2018/V11-STXS/ggZH_HToBB_ZToLL_M125_13TeV_powheg_pythia8/7f03fc92f62d79682d7f30bb0a912909d3773982f4829d7f5a62d43f/000000_000000/0000/tree_6.root
/store/group/phys_higgs/hbb/ntuples/VHbbPostNano/2018/V11-STXS/ggZH_HToBB_ZToLL_M125_13TeV_powheg_pythia8/dad2960b5fbe13295adc5a8ea0707be38dc92b35d71a33a09901415d/000000_000000/0000/tree_7.root
/store/group/phys_higgs/hbb/ntuples/VHbbPostNano/2018/V11-STXS/ggZH_HToBB_ZToLL_M125_13TeV_powheg_pythia8/cdf626f49362f21443d24438455d069685e2e9498073c20b85c060cf/000000_000000/0000/tree_8.root
/store/group/phys_higgs/hbb/ntuples/VHbbPostNano/2018/V11-STXS/ggZH_HToBB_ZToLL_M125_13TeV_powheg_pythia8/785bad10f4ec3f54d76e2c193778b632679cdbc392a468537824edff/000000_000000/0000/tree_9.root
/store/group/phys_higgs/hbb/ntuples/VHbbPostNano/2018/V11-STXS/ggZH_HToBB_ZToLL_M125_13TeV_powheg_pythia8/76aa90dbf62cd0e3c6a01a6492d1f701adaecac386aa570855aaff9d/000000_000000/0000/tree_10.root
/store/group/phys_higgs/hbb/ntuples/VHbbPostNano/2018/V11-STXS/ggZH_HToBB_ZToLL_M125_13TeV_powheg_pythia8/beaacea5a0cd7fd423feb4bcc566c258e87b26e63636e2f82b664a00/000000_000000/0000/tree_11.root
/store/group/phys_higgs/hbb/ntuples/VHbbPostNano/2018/V11-STXS/ggZH_HToBB_ZToLL_M125_13TeV_powheg_pythia8/42fb632c87fd7e987d20c87052679b887923c09c7635851bf5b60045/000000_000000/0000/tree_12.root
/store/group/phys_higgs/hbb/ntuples/VHbbPostNano/2018/V11-STXS/ggZH_HToBB_ZToLL_M125_13TeV_powheg_pythia8/dda0f223e4e082dd4b58d8f660b3f0417e44e5e1068bbb32d699164d/000000_000000/0000/tree_13.root
/store/group/phys_higgs/hbb/ntuples/VHbbPostNano/2018/V11-STXS/ggZH_HToBB_ZToLL_M125_13TeV_powheg_pythia8/42124f90bcdb8a22c827f8150569371760374148be4e65933046e24f/000000_000000/0000/tree_14.root
/store/group/phys_higgs/hbb/ntuples/VHbbPostNano/2018/V11-STXS/ggZH_HToBB_ZToLL_M125_13TeV_powheg_pythia8/fcbb4ba7efcd643b4e42a71186d0f464f4d916de1301fd2fc35e4fff/000000_000000/0000/tree_15.root
/store/group/phys_higgs/hbb/ntuples/VHbbPostNano/2018/V11-STXS/ggZH_HToBB_ZToLL_M125_13TeV_powheg_pythia8/d22a4f041d89a7153f0a4940bbb18409206ecb2b06e75cae2c5a6571/000000_000000/0000/tree_16.root
/store/group/phys_higgs/hbb/ntuples/VHbbPostNano/2018/V11-STXS/ggZH_HToBB_ZToLL_M125_13TeV_powheg_pythia8/138636ab2428dea659082ffb03bbd14c2f38dffca58399be2a26b89e/000000_000000/0000/tree_17.root