/store/group/phys_higgs/hbb/ntuples/VHbbPostNano/2018/V12/EGamma/c652fb89064f083ac9d15ac102ecd27342f2b35f99aab32179c71828/000000_000000/0000/tree_0.root
/store/group/phys_higgs/hbb/ntuples/VHbbPostNano/2018/V12/EGamma/0bfbd22353c9d4ff0c804317ba1f608fd797eb995bd05b4c218d8642/000000_000000/0000/tree_1.root
/store/group/phys_higgs/hbb/ntuples/VHbbPostNano/2018/V12/EGamma/85016691366e71891ddff2a89b8023f1814a98197a21e81acc52c597/000000_000000/0000/tree_2.root
/store/group/phys_higgs/hbb/ntuples/VHbbPostNano/2018/V12/EGamma/47409e6495c4c90f7f96a45fd19bdf46c395fa1085ade41ff6198d6f/000000_000000/0000/tree_3.root
/store/group/phys_higgs/hbb/ntuples/VHbbPostNano/2018/V12/EGamma/a7728ecd9edc2bb560c2aa13ce803fdf6c919c811f9798fa2ed4ffff/000000_000000/0000/tree_4.root
/store/group/phys_higgs/hbb/ntuples/VHbbPostNano/2018/V12/EGamma/d692b458ae7feaf029a3b26fab4338759ec8fc1b67f3ab08636ed4c1/000000_000000/0000/tree_5.root
/store/group/phys_higgs/hbb/ntuples/VHbbPostNano/2018/V12/EGamma/997d881615f3e6accaf2ba61ec4340521ae8b3ceb8c5439b8db1c379/000000_000000/0000/tree_6.root
/store/group/phys_higgs/hbb/ntuples/VHbbPostNano/2018/V12/EGamma/cdec5549549480589e3bb4ad1c264c4a0db2d9f9f0d2c991072ad2ea/000000_000000/0000/tree_7.root
/store/group/phys_higgs/hbb/ntuples/VHbbPostNano/2018/V12/EGamma/fdd03fcc3b44501e411044aad1ad81aea546ba760aa1ea3171de02ae/000000_000000/0000/tree_8.root
/store/group/phys_higgs/hbb/ntuples/VHbbPostNano/2018/V12/EGamma/730b3d0291bcd8f0db63e92f898243c004b4b127bfe8b089ed36ddd3/000000_000000/0000/tree_9.root
/store/group/phys_higgs/hbb/ntuples/VHbbPostNano/2018/V12/EGamma/035f62e9c3df16b8734615939a249d0035af9c06794a86cec05efac4/000000_000000/0000/tree_10.root
/store/group/phys_higgs/hbb/ntuples/VHbbPostNano/2018/V12/EGamma/d380eba6d75afc8812139cdbcd7719a2d899c7339c257ce8e71b18bd/000000_000000/0000/tree_11.root
/store/group/phys_higgs/hbb/ntuples/VHbbPostNano/2018/V12/EGamma/9ba14a9716c1ff560500e91c4c876f9c5fa9c90f7679580a1587b29a/000000_000000/0000/tree_12.root
/store/group/phys_higgs/hbb/ntuples/VHbbPostNano/2018/V12/EGamma/b7c57381d88b5e362e87ba4d1d20edce11eae43165d05bf83b8bbd47/000000_000000/0000/tree_13.root
/store/group/phys_higgs/hbb/ntuples/VHbbPostNano/2018/V12/EGamma/0170a3bd1d0ac0cffca2bd37384721a3764f88a1daedf14cb1425cee/000000_000000/0000/tree_14.root
/store/group/phys_higgs/hbb/ntuples/VHbbPostNano/2018/V12/EGamma/86be5b2347e170285923754f1adefce896b22a04cd35946478be5968/000000_000000/0000/tree_15.root
/store/group/phys_higgs/hbb/ntuples/VHbbPostNano/2018/V12/EGamma/95b0b389c0fffee703ad30f6206cfa033b918e779b168b3f09405aad/000000_000000/0000/tree_16.root
/store/group/phys_higgs/hbb/ntuples/VHbbPostNano/2018/V12/EGamma/34a4e07964d254b7a540065baf62b3c3540f1a7af586d40110243f9c/000000_000000/0000/tree_17.root
/store/group/phys_higgs/hbb/ntuples/VHbbPostNano/2018/V12/EGamma/62884af6e170b145b7e595aa6095fc10cd35558b19ff33ab5d856e53/000000_000000/0000/tree_18.root
/store/group/phys_higgs/hbb/ntuples/VHbbPostNano/2018/V12/EGamma/36a7c29406c391ebe18c093b780251e4a1a33b5843293f01ad3f0b10/000000_000000/0000/tree_19.root
/store/group/phys_higgs/hbb/ntuples/VHbbPostNano/2018/V12/EGamma/480e22ff0f40bf0448a8d8882e468ed490998c89af50d088d6a22a2c/000000_000000/0000/tree_20.root
/store/group/phys_higgs/hbb/ntuples/VHbbPostNano/2018/V12/EGamma/f823a9b73b49cbc13bb06d070c61bad27bc9b6344b63e16cdb8c0e42/000000_000000/0000/tree_21.root
/store/group/phys_higgs/hbb/ntuples/VHbbPostNano/2018/V12/EGamma/e5abeb8a241ff6aa8e78cc5ab05b1c24f15f132dd1ea44aff15333cf/000000_000000/0000/tree_22.root
/store/group/phys_higgs/hbb/ntuples/VHbbPostNano/2018/V12/EGamma/9e510ca39562463ad4a6fa71326f9d290ff8ef0ef58599701ba41408/000000_000000/0000/tree_23.root
/store/group/phys_higgs/hbb/ntuples/VHbbPostNano/2018/V12/EGamma/2785a43005320be5337d9f58a95ba6dac71e3b819584567835e0bed1/000000_000000/0000/tree_24.root
/store/group/phys_higgs/hbb/ntuples/VHbbPostNano/2018/V12/EGamma/55a9920019583197842499402a976dd3305a2ae73f8965cbc5a02a17/000000_000000/0000/tree_25.root
/store/group/phys_higgs/hbb/ntuples/VHbbPostNano/2018/V12/EGamma/e6d7361db48ff453910b7168ceb116d5ee8b32f35ca7905a20029cf2/000000_000000/0000/tree_26.root
/store/group/phys_higgs/hbb/ntuples/VHbbPostNano/2018/V12/EGamma/b77fee92ae61a809429908f57c4bd5a34a00d4f90f1180f935c55580/000000_000000/0000/tree_27.root
/store/group/phys_higgs/hbb/ntuples/VHbbPostNano/2018/V12/EGamma/4cec38abe40fa2444804e319dd10234a5ed2216f60681ef39126e3b2/000000_000000/0000/tree_28.root
/store/group/phys_higgs/hbb/ntuples/VHbbPostNano/2018/V12/EGamma/36e389525a86f2ef8ae44dac55e985a671124b108c518616f76c1544/000000_000000/0000/tree_29.root
/store/group/phys_higgs/hbb/ntuples/VHbbPostNano/2018/V12/EGamma/4a693a782e55da1808c6d1b47cb208100503ff65e73cae701c9adc82/000000_000000/0000/tree_30.root
/store/group/phys_higgs/hbb/ntuples/VHbbPostNano/2018/V12/EGamma/f5260c40018cf4c95e9249da55d5eb84b4e4bb5f057b0502d9d68d6e/000000_000000/0000/tree_31.root
/store/group/phys_higgs/hbb/ntuples/VHbbPostNano/2018/V12/EGamma/b7c7d49953c9ae910360ba236ffd8fb6c0727cf24fd23aa591d36019/000000_000000/0000/tree_32.root
/store/group/phys_higgs/hbb/ntuples/VHbbPostNano/2018/V12/EGamma/5dcc9434539996c0b4551ffcdc7f6b71c9858594809ec7aac06cb45b/000000_000000/0000/tree_33.root
/store/group/phys_higgs/hbb/ntuples/VHbbPostNano/2018/V12/EGamma/5479580d10230ced88a994186977f1013ec6317e151d9626d7ae1dda/000000_000000/0000/tree_34.root
/store/group/phys_higgs/hbb/ntuples/VHbbPostNano/2018/V12/EGamma/d44041b5708b91103b7425c102de8e0acf97ca9e42a0b9c37ae14fb0/000000_000000/0000/tree_35.root
/store/group/phys_higgs/hbb/ntuples/VHbbPostNano/2018/V12/EGamma/34e807609e385e47a5ec8f5512b08e9ff7b7a8f754826ce9dbe7832d/000000_000000/0000/tree_36.root
/store/group/phys_higgs/hbb/ntuples/VHbbPostNano/2018/V12/EGamma/f4bf16e382181e3eaa19a184eaae94266a1f4ace0f93e88094e35864/000000_000000/0000/tree_37.root
/store/group/phys_higgs/hbb/ntuples/VHbbPostNano/2018/V12/EGamma/698680cfccf18d56a69b45c46962c5625f01859d6abee8e9210d649a/000000_000000/0000/tree_38.root
/store/group/phys_higgs/hbb/ntuples/VHbbPostNano/2018/V12/EGamma/8643398ff622e83605074e4eafcd22fa15985be8e985986eb796d837/000000_000000/0000/tree_39.root
/store/group/phys_higgs/hbb/ntuples/VHbbPostNano/2018/V12/EGamma/ea61db686a352d2a41468553217aa573403737dbe88bf7fde92ef867/000000_000000/0000/tree_40.root
/store/group/phys_higgs/hbb/ntuples/VHbbPostNano/2018/V12/EGamma/75df952c7505a5e1a7339337f566223b61b9bf63c7e8901d9b20f78c/000000_000000/0000/tree_41.root
/store/group/phys_higgs/hbb/ntuples/VHbbPostNano/2018/V12/EGamma/cc03a669e5df847c3560602f44c65b0dc059405602425dca6b6a163e/000000_000000/0000/tree_42.root
/store/group/phys_higgs/hbb/ntuples/VHbbPostNano/2018/V12/EGamma/82b75eb2b1f96ab14a14bacfe08960e0aec2053da9679b41e447310e/000000_000000/0000/tree_43.root
/store/group/phys_higgs/hbb/ntuples/VHbbPostNano/2018/V12/EGamma/239bbab7bb3d89079258045c780fa2ec2b0b39379273c35c8e1d3ea1/000000_000000/0000/tree_44.root
/store/group/phys_higgs/hbb/ntuples/VHbbPostNano/2018/V12/EGamma/65e05b4d1f971a3c3d3612e9a5ec239f3e25ba5c370f72de1846f521/000000_000000/0000/tree_45.root
/store/group/phys_higgs/hbb/ntuples/VHbbPostNano/2018/V12/EGamma/3bf7e1cba0084798290d94d91bb2e82b042a3d59f986098b65205ea3/000000_000000/0000/tree_46.root
/store/group/phys_higgs/hbb/ntuples/VHbbPostNano/2018/V12/EGamma/2d4387fade4a8cef4eb78192ab4fca1ed3a4ce119d875c21550cef82/000000_000000/0000/tree_47.root
/store/group/phys_higgs/hbb/ntuples/VHbbPostNano/2018/V12/EGamma/b7c9604ee4095dc2c4170899d5c8cb23426cf67da7171705b69ab9cd/000000_000000/0000/tree_48.root
/store/group/phys_higgs/hbb/ntuples/VHbbPostNano/2018/V12/EGamma/64ea45bf8a13b6eaf8c94ed87e6f7ae499c2d5d76e6f7a62701e7fd4/000000_000000/0000/tree_49.root
/store/group/phys_higgs/hbb/ntuples/VHbbPostNano/2018/V12/EGamma/8e53e386726ba15c1ac71df540f9279e1c3166b39f6ebed20416d103/000000_000000/0000/tree_50.root
/store/group/phys_higgs/hbb/ntuples/VHbbPostNano/2018/V12/EGamma/02e02463263fb3840099a96247df8122219637c4a97fc1deb1837b5f/000000_000000/0000/tree_51.root
/store/group/phys_higgs/hbb/ntuples/VHbbPostNano/2018/V12/EGamma/fb12139d7fc44a513bc951477958dab0da50d68adeabae431346e1d5/000000_000000/0000/tree_52.root
/store/group/phys_higgs/hbb/ntuples/VHbbPostNano/2018/V12/EGamma/e34dd28840146104ba2ce75f06bc0288a4a8d70fb0ece555d04bc3cb/000000_000000/0000/tree_53.root
/store/group/phys_higgs/hbb/ntuples/VHbbPostNano/2018/V12/EGamma/7d1de479cc6d674560fc378f596b0963bf689ec315666ce02a0ddefd/000000_000000/0000/tree_54.root
/store/group/phys_higgs/hbb/ntuples/VHbbPostNano/2018/V12/EGamma/6c4fa41d7f9f8c5624343c625e50c388c3ca5a315c1063a4c955faa3/000000_000000/0000/tree_55.root
/store/group/phys_higgs/hbb/ntuples/VHbbPostNano/2018/V12/EGamma/60c605c448fad85b0b8ae1e253a25ccd951be94934c225b621fed1f4/000000_000000/0000/tree_56.root
/store/group/phys_higgs/hbb/ntuples/VHbbPostNano/2018/V12/EGamma/fb84a08347a6d71eabf7078ca1fd53132e8084ea11cb4bdf88bb392c/000000_000000/0000/tree_57.root
/store/group/phys_higgs/hbb/ntuples/VHbbPostNano/2018/V12/EGamma/e43bbb3747e3ea1c5b5fdb69e9f57234ef60dee58a13b63f20282f19/000000_000000/0000/tree_58.root
/store/group/phys_higgs/hbb/ntuples/VHbbPostNano/2018/V12/EGamma/84bbf027975d753a0d20fbb807387f035610477082055e02838c7317/000000_000000/0000/tree_59.root
/store/group/phys_higgs/hbb/ntuples/VHbbPostNano/2018/V12/EGamma/f6895d6a0f3c67cfa728b617b6628cafc2289cee8c4997ed4a534ddb/000000_000000/0000/tree_60.root
/store/group/phys_higgs/hbb/ntuples/VHbbPostNano/2018/V12/EGamma/edb2c6e7af5e6450a4895d5546a8cdb658f934c243d6db5a428afcae/000000_000000/0000/tree_61.root
/store/group/phys_higgs/hbb/ntuples/VHbbPostNano/2018/V12/EGamma/bf242e412656fa79c3257cbc38bd29dc4f9489b914e896bc377a77a8/000000_000000/0000/tree_62.root
/store/group/phys_higgs/hbb/ntuples/VHbbPostNano/2018/V12/EGamma/72ed09c7bb5fbe4d10d33a42e4ea171bbe51b9fa87d0b8cec526666d/000000_000000/0000/tree_63.root
/store/group/phys_higgs/hbb/ntuples/VHbbPostNano/2018/V12/EGamma/3f5eda2d924da1b26937f3d8e7e4825ebcacfc638b2864c8ec127eaf/000000_000000/0000/tree_64.root
/store/group/phys_higgs/hbb/ntuples/VHbbPostNano/2018/V12/EGamma/bc721ced6f8966c4cde5b4ff2f7dba215990299e7992adef02d97233/000000_000000/0000/tree_65.root
/store/group/phys_higgs/hbb/ntuples/VHbbPostNano/2018/V12/EGamma/f279372f53c3b916834e210b4905d2f0f0245b7974d28855abd4097b/000000_000000/0000/tree_66.root
/store/group/phys_higgs/hbb/ntuples/VHbbPostNano/2018/V12/EGamma/29eec46caf48a005d48f07085bac4a3c4f641a06a1d38ae6ac7b0a42/000000_000000/0000/tree_67.root
/store/group/phys_higgs/hbb/ntuples/VHbbPostNano/2018/V12/EGamma/dab308272b45374d23aaf4a8f9b11e6492bf75598361c8af6504f2ba/000000_000000/0000/tree_68.root
/store/group/phys_higgs/hbb/ntuples/VHbbPostNano/2018/V12/EGamma/e0574448b305a1a81ed033edac148a0d0b85a66cf1aeb2fe5cee0eae/000000_000000/0000/tree_69.root
/store/group/phys_higgs/hbb/ntuples/VHbbPostNano/2018/V12/EGamma/3ed44c3ceeb2a6b8a2d5c0878fe684a02812d4e9c1140366de66bbb5/000000_000000/0000/tree_70.root
/store/group/phys_higgs/hbb/ntuples/VHbbPostNano/2018/V12/EGamma/55c79e8b0c071227a508f60b4ad5ca22fda00c523e6816ab161db2d2/000000_000000/0000/tree_71.root
/store/group/phys_higgs/hbb/ntuples/VHbbPostNano/2018/V12/EGamma/3de2812a5fdad12578876380494dd6bec7e736de3ab6e63aab28c24c/000000_000000/0000/tree_72.root
/store/group/phys_higgs/hbb/ntuples/VHbbPostNano/2018/V12/EGamma/57e9a81e5c0b75027b95835f12472a69acc162f675249799b9f03132/000000_000000/0000/tree_73.root
/store/group/phys_higgs/hbb/ntuples/VHbbPostNano/2018/V12/EGamma/57c4facad1ef7bdedcd54bd74be8b0d3fc7bf794550198c9960ed511/000000_000000/0000/tree_74.root
/store/group/phys_higgs/hbb/ntuples/VHbbPostNano/2018/V12/EGamma/83dd6f4848d877669d4c5d68452770a345dfff3bf5992a9fda7fc271/000000_000000/0000/tree_75.root
/store/group/phys_higgs/hbb/ntuples/VHbbPostNano/2018/V12/EGamma/8d5bc954ba0a5c470ca257d6bbbf1b3cfcd826c7b173f133e1aec6a9/000000_000000/0000/tree_76.root
/store/group/phys_higgs/hbb/ntuples/VHbbPostNano/2018/V12/EGamma/4e11f85976fc036b2d9069243e1d7a27a692e61078f7d12f58b67b22/000000_000000/0000/tree_77.root
/store/group/phys_higgs/hbb/ntuples/VHbbPostNano/2018/V12/EGamma/1381f86454b3e2b06db9477f1eff065e4aa9738dbba0cc69ecb67ac8/000000_000000/0000/tree_78.root
/store/group/phys_higgs/hbb/ntuples/VHbbPostNano/2018/V12/EGamma/16ccd8d0f7c8aebc4b403e46bf2b11787dd6067e109d095a06f20f82/000000_000000/0000/tree_79.root
/store/group/phys_higgs/hbb/ntuples/VHbbPostNano/2018/V12/EGamma/2e4d17ac0a43210f5afd4115c4923ac7548363e1bf9e6aaa4dce3deb/000000_000000/0000/tree_80.root
/store/group/phys_higgs/hbb/ntuples/VHbbPostNano/2018/V12/EGamma/8027e724ae23fcb0cc4fa4b3c5bd59006113dc87a86069e75e7199ab/000000_000000/0000/tree_81.root
/store/group/phys_higgs/hbb/ntuples/VHbbPostNano/2018/V12/EGamma/baa27214a31e27cad60997547ec4ec2ce12b1542b456bfe756e85e9d/000000_000000/0000/tree_82.root
/store/group/phys_higgs/hbb/ntuples/VHbbPostNano/2018/V12/EGamma/99c7c7360a0b1c5fd0beb450067d078a93215e7547333d8c2885bef0/000000_000000/0000/tree_83.root
/store/group/phys_higgs/hbb/ntuples/VHbbPostNano/2018/V12/EGamma/b146d5335f483fea3f2a65f9861c6012ca5388e34a16abf2ded0e527/000000_000000/0000/tree_84.root
/store/group/phys_higgs/hbb/ntuples/VHbbPostNano/2018/V12/EGamma/d6c9981ca12a0a972d8a2c31acc90cc07ceed533442d3e77efe27cf6/000000_000000/0000/tree_85.root
/store/group/phys_higgs/hbb/ntuples/VHbbPostNano/2018/V12/EGamma/f5eb015086ab616e3fe128508b1e80e5efd51095eccff425b42708cc/000000_000000/0000/tree_86.root
/store/group/phys_higgs/hbb/ntuples/VHbbPostNano/2018/V12/EGamma/965c06303b2bff9384345ebbfd9918916222cba7d05f0d9c2219258b/000000_000000/0000/tree_87.root
/store/group/phys_higgs/hbb/ntuples/VHbbPostNano/2018/V12/EGamma/cc527d45fc324db5ba801a91300233a1d1042aefc33d9f2d0f34e7f9/000000_000000/0000/tree_88.root
/store/group/phys_higgs/hbb/ntuples/VHbbPostNano/2018/V12/EGamma/fffbe50f910cde989ca5774c3d8fe933e9bc8875cc555d1a408b926e/000000_000000/0000/tree_89.root