/store/group/phys_higgs/hbb/ntuples/VHbbPostNano/2018/V12/SingleMuon/d2ee396302b63bad0aa905c43d5fdcbbd53c74d7af49da71fb723a70/000000_000000/0000/tree_0.root
/store/group/phys_higgs/hbb/ntuples/VHbbPostNano/2018/V12/SingleMuon/b6c4ae8fee16977735b55e652fd1ed800635d91feb22b77e22f7c58a/000000_000000/0000/tree_1.root
/store/group/phys_higgs/hbb/ntuples/VHbbPostNano/2018/V12/SingleMuon/d0cb22dca47fc68307602fe153bd32643441af6a7746b093981c6f6d/000000_000000/0000/tree_2.root
/store/group/phys_higgs/hbb/ntuples/VHbbPostNano/2018/V12/SingleMuon/e642a4901ee117cb19fb6ae0c53738e0534926172f87a113464ad266/000000_000000/0000/tree_3.root
/store/group/phys_higgs/hbb/ntuples/VHbbPostNano/2018/V12/SingleMuon/ecfdd0b2deece72625d2764da1bbdacc0d53bf0d59feecbf074bb49e/000000_000000/0000/tree_4.root
/store/group/phys_higgs/hbb/ntuples/VHbbPostNano/2018/V12/SingleMuon/6a9216f4f597f986e5e52a03788cf507bca0066c4b591b0c0da05ece/000000_000000/0000/tree_5.root
/store/group/phys_higgs/hbb/ntuples/VHbbPostNano/2018/V12/SingleMuon/308d7abcaa0f27516968d518d2157a9a831ab37f48a116b592384981/000000_000000/0000/tree_6.root
/store/group/phys_higgs/hbb/ntuples/VHbbPostNano/2018/V12/SingleMuon/6640bada15693e54317c61388d884c4d46b9d0fa4c6e61094a3357af/000000_000000/0000/tree_7.root
/store/group/phys_higgs/hbb/ntuples/VHbbPostNano/2018/V12/SingleMuon/bdb0866917e23cb95d790c3e55cee6309998c23ad231b852b450b496/000000_000000/0000/tree_8.root
/store/group/phys_higgs/hbb/ntuples/VHbbPostNano/2018/V12/SingleMuon/da237a3d7939efe94baca3926666aa6603ad0c3d99d30a496970f174/000000_000000/0000/tree_9.root
/store/group/phys_higgs/hbb/ntuples/VHbbPostNano/2018/V12/SingleMuon/b67ae8c19d25199368c82b9a364ee9903db9c70e354ff0f4bf228a69/000000_000000/0000/tree_10.root
/store/group/phys_higgs/hbb/ntuples/VHbbPostNano/2018/V12/SingleMuon/06a2e48379441cd27d18b4cccc1341e4a5c8b9387adcc833ea737fbc/000000_000000/0000/tree_11.root
/store/group/phys_higgs/hbb/ntuples/VHbbPostNano/2018/V12/SingleMuon/55db21f8737786dd90fde53ea674c6200049ca0478eaf1997e9fc8e3/000000_000000/0000/tree_12.root
/store/group/phys_higgs/hbb/ntuples/VHbbPostNano/2018/V12/SingleMuon/548f6c6e4638d1c390166748a62c268abbe85330b4c821be5dc04633/000000_000000/0000/tree_13.root
/store/group/phys_higgs/hbb/ntuples/VHbbPostNano/2018/V12/SingleMuon/538177eb863dfa859b8e177b8ecbc18102f00fa28329ea5fc26d353b/000000_000000/0000/tree_14.root
/store/group/phys_higgs/hbb/ntuples/VHbbPostNano/2018/V12/SingleMuon/613c1783ae6c7cbd02728bb3e58e4ff26caf9295bad92494b2ccdbc9/000000_000000/0000/tree_15.root
/store/group/phys_higgs/hbb/ntuples/VHbbPostNano/2018/V12/SingleMuon/9679717d0b8ab8f7c5408ef3ff00a67a89fa6a57018a51dbb39b0cd4/000000_000000/0000/tree_16.root
/store/group/phys_higgs/hbb/ntuples/VHbbPostNano/2018/V12/SingleMuon/9cc01b5f8782adbfe0d5f7e4c3210af704c0a8a8b4989d1b740f62be/000000_000000/0000/tree_17.root
/store/group/phys_higgs/hbb/ntuples/VHbbPostNano/2018/V12/SingleMuon/cd525fc848ef78f3a8a6ddfc5a268545ea12a36fb295b1a578e6cd7d/000000_000000/0000/tree_18.root
/store/group/phys_higgs/hbb/ntuples/VHbbPostNano/2018/V12/SingleMuon/2e4ab9d6d6cc24106372ee33ca2cc885be05384ceb29c6187bd76a1f/000000_000000/0000/tree_19.root
/store/group/phys_higgs/hbb/ntuples/VHbbPostNano/2018/V12/SingleMuon/777bd5a35838042528cc8cb4b1292815ca8aedae6aafd012516967e9/000000_000000/0000/tree_20.root
/store/group/phys_higgs/hbb/ntuples/VHbbPostNano/2018/V12/SingleMuon/8c202f0afc87e3f374b581cff40134723e62f971282be5fddc3feb5e/000000_000000/0000/tree_21.root
/store/group/phys_higgs/hbb/ntuples/VHbbPostNano/2018/V12/SingleMuon/c1e9aff3ed62e20ba742be11bd3ab5b3368f36243737162e2eba204c/000000_000000/0000/tree_22.root
/store/group/phys_higgs/hbb/ntuples/VHbbPostNano/2018/V12/SingleMuon/d842940c72968cf586321baf25b81f7fbf0caa1467f81c92e95602a2/000000_000000/0000/tree_23.root
/store/group/phys_higgs/hbb/ntuples/VHbbPostNano/2018/V12/SingleMuon/e5810bd89f4427e72fb02ef63fe79d18c1e7bcc461174f4e52f50d13/000000_000000/0000/tree_24.root
/store/group/phys_higgs/hbb/ntuples/VHbbPostNano/2018/V12/SingleMuon/dbb6c3b5f89bf313cdec8016044de064611c4fcddda08f58e5df24c4/000000_000000/0000/tree_25.root
/store/group/phys_higgs/hbb/ntuples/VHbbPostNano/2018/V12/SingleMuon/e62c105638a300c8058026a2db2598f48e42d21dee154c7c948eef98/000000_000000/0000/tree_26.root
/store/group/phys_higgs/hbb/ntuples/VHbbPostNano/2018/V12/SingleMuon/a4848bfd02c1934f9d91b20d0bb454c8540c9aaa0faa2a12458f80e7/000000_000000/0000/tree_27.root
/store/group/phys_higgs/hbb/ntuples/VHbbPostNano/2018/V12/SingleMuon/d0ffec50cc3b0aaf69f877db6962b540be856cac4fab33c29d7e2297/000000_000000/0000/tree_28.root
/store/group/phys_higgs/hbb/ntuples/VHbbPostNano/2018/V12/SingleMuon/8c94ab5c0a33a4108a6e9ef0c9c482269096382cee187009a36bdb45/000000_000000/0000/tree_29.root
/store/group/phys_higgs/hbb/ntuples/VHbbPostNano/2018/V12/SingleMuon/96b2fc43efa97f74e1600074cd359a1064c0dfa228195a07dcf8b468/000000_000000/0000/tree_30.root
/store/group/phys_higgs/hbb/ntuples/VHbbPostNano/2018/V12/SingleMuon/3428c3835fa093d4151aeed22e9e1fb752d9f49a94ad18c79dd5ff1b/000000_000000/0000/tree_31.root
/store/group/phys_higgs/hbb/ntuples/VHbbPostNano/2018/V12/SingleMuon/aa8a6f6b79c506798697f955720b9583340c0f7796bb53aa1b102dea/000000_000000/0000/tree_32.root
/store/group/phys_higgs/hbb/ntuples/VHbbPostNano/2018/V12/SingleMuon/4b3969b23154b9958fa98fc77acef82ba6e3e3f77495afa9694b3417/000000_000000/0000/tree_33.root
/store/group/phys_higgs/hbb/ntuples/VHbbPostNano/2018/V12/SingleMuon/6553f5491ac7d28e3db504f10333b009ebe1c550c4cd1ab578543264/000000_000000/0000/tree_34.root
/store/group/phys_higgs/hbb/ntuples/VHbbPostNano/2018/V12/SingleMuon/ffd0978f74f8d76f0a2aeac022bae7b66d4b0b7c0910e8856c9921d7/000000_000000/0000/tree_35.root
/store/group/phys_higgs/hbb/ntuples/VHbbPostNano/2018/V12/SingleMuon/8ef956ed90b343a24bb51bca77891dfa9804ed3a03a765f873bf3f8c/000000_000000/0000/tree_36.root
/store/group/phys_higgs/hbb/ntuples/VHbbPostNano/2018/V12/SingleMuon/7a33de7f8454a3827f158b7e489f784542cd17bcba83dca32f89695e/000000_000000/0000/tree_37.root
/store/group/phys_higgs/hbb/ntuples/VHbbPostNano/2018/V12/SingleMuon/4865a87128f5093e4a29b77e33acdeb998374c9675318407664d3ae4/000000_000000/0000/tree_38.root
/store/group/phys_higgs/hbb/ntuples/VHbbPostNano/2018/V12/SingleMuon/076190ffc17ce9e2ae120efdf55c0d2d96f071c218cdf1c8ebef492d/000000_000000/0000/tree_39.root
/store/group/phys_higgs/hbb/ntuples/VHbbPostNano/2018/V12/SingleMuon/02ed51842096ef00982dd3b51d1511dce6a0977304ed92c21e141c23/000000_000000/0000/tree_40.root
/store/group/phys_higgs/hbb/ntuples/VHbbPostNano/2018/V12/SingleMuon/793b27f7d7d5729b5224e8428832bcea1d0c7229b1e0f9bc1ac91acf/000000_000000/0000/tree_41.root
/store/group/phys_higgs/hbb/ntuples/VHbbPostNano/2018/V12/SingleMuon/be26b5ec67c92a9ab0ea1a889de5160c048057ef660ddb97b997834d/000000_000000/0000/tree_42.root
/store/group/phys_higgs/hbb/ntuples/VHbbPostNano/2018/V12/SingleMuon/a133f6fb7d72a542fa965ba4bd214bd575bee4c4273e2f96727663dc/000000_000000/0000/tree_43.root
/store/group/phys_higgs/hbb/ntuples/VHbbPostNano/2018/V12/SingleMuon/2ce91fc0312df92843fc76dc4b6c0b100e6f0a656166582ab479ee0e/000000_000000/0000/tree_44.root
/store/group/phys_higgs/hbb/ntuples/VHbbPostNano/2018/V12/SingleMuon/2df0e292bbc1d71113231dab85eb06df202fae55542605c4ba7afda9/000000_000000/0000/tree_45.root
/store/group/phys_higgs/hbb/ntuples/VHbbPostNano/2018/V12/SingleMuon/8b076918e3fc6c04d7d3ca76c5b9f65806318467528f28461122b4bc/000000_000000/0000/tree_46.root
/store/group/phys_higgs/hbb/ntuples/VHbbPostNano/2018/V12/SingleMuon/64a894128bed97fceaac3799b556171f13789a3611f3de069b622b36/000000_000000/0000/tree_47.root
/store/group/phys_higgs/hbb/ntuples/VHbbPostNano/2018/V12/SingleMuon/07f04077b7899d3d81d1a2612a65ede3896168957aaf16b2d13eee90/000000_000000/0000/tree_48.root
/store/group/phys_higgs/hbb/ntuples/VHbbPostNano/2018/V12/SingleMuon/75916251b8c4065647ea6fb329128270905f8d2f139ed838ea30f8ab/000000_000000/0000/tree_49.root
/store/group/phys_higgs/hbb/ntuples/VHbbPostNano/2018/V12/SingleMuon/520cd5c07a991eb030535e45a539709c1dc010d0eb543f7bdbfea4b7/000000_000000/0000/tree_50.root
/store/group/phys_higgs/hbb/ntuples/VHbbPostNano/2018/V12/SingleMuon/ae2fc6fbd9db026936deaf6f86ae2ccb80fb9f5de3cdc6b4e8234709/000000_000000/0000/tree_51.root
/store/group/phys_higgs/hbb/ntuples/VHbbPostNano/2018/V12/SingleMuon/bc802ae4f834922dccb471ab83fc7b43276477b8909a3043951a6299/000000_000000/0000/tree_52.root
/store/group/phys_higgs/hbb/ntuples/VHbbPostNano/2018/V12/SingleMuon/82756329b28e308784ea25ccd0879f0ebeeffb26a152454bb4c4da8b/000000_000000/0000/tree_53.root
/store/group/phys_higgs/hbb/ntuples/VHbbPostNano/2018/V12/SingleMuon/7d2ba3e8591604c99643c9408b93e5fc15399893832b28f7e6b17e56/000000_000000/0000/tree_54.root
/store/group/phys_higgs/hbb/ntuples/VHbbPostNano/2018/V12/SingleMuon/d78fab9bad50577a494108e699bc2447d9ceed445614a424d17147b0/000000_000000/0000/tree_55.root
/store/group/phys_higgs/hbb/ntuples/VHbbPostNano/2018/V12/SingleMuon/d5422d76d20a0d371ac598f26584be815942fcf78db4fb3d0e03daf4/000000_000000/0000/tree_56.root
/store/group/phys_higgs/hbb/ntuples/VHbbPostNano/2018/V12/SingleMuon/082531e51aaadfb59f74bb948baf4ea32869a3859ffb61be7a6406c6/000000_000000/0000/tree_57.root
/store/group/phys_higgs/hbb/ntuples/VHbbPostNano/2018/V12/SingleMuon/c0f0396f391e7b0ec9b04e5923e7f23968c25d62836196faf662631e/000000_000000/0000/tree_58.root
/store/group/phys_higgs/hbb/ntuples/VHbbPostNano/2018/V12/SingleMuon/c304100437c61367932081eb03aa54a44604024909d5ac2b0f433bb6/000000_000000/0000/tree_59.root
/store/group/phys_higgs/hbb/ntuples/VHbbPostNano/2018/V12/SingleMuon/461a5958c62be656b506f3b9dd7af31c0ee496e00b1a495bf0c8a02b/000000_000000/0000/tree_60.root
/store/group/phys_higgs/hbb/ntuples/VHbbPostNano/2018/V12/SingleMuon/5f7c8815e0605847dd16201648368de99c00f31f9bd1fcc3be89f261/000000_000000/0000/tree_61.root
/store/group/phys_higgs/hbb/ntuples/VHbbPostNano/2018/V12/SingleMuon/a6d6c36185f82aaf8a7123950f47943fc9721d8bd34204902edc5049/000000_000000/0000/tree_62.root
/store/group/phys_higgs/hbb/ntuples/VHbbPostNano/2018/V12/SingleMuon/057912af5af4406744894b75b046efef71ec3adac24d8f89cd08f2c4/000000_000000/0000/tree_63.root
/store/group/phys_higgs/hbb/ntuples/VHbbPostNano/2018/V12/SingleMuon/37758820246a680ebaf18823f800ceb0d7fef4b8b970126eedbd8e41/000000_000000/0000/tree_64.root
/store/group/phys_higgs/hbb/ntuples/VHbbPostNano/2018/V12/SingleMuon/c67acd2241084e76d85accd883ffe436313143f18fa5782a21dfaf7e/000000_000000/0000/tree_65.root
/store/group/phys_higgs/hbb/ntuples/VHbbPostNano/2018/V12/SingleMuon/2c15c2fd16f3d03c8c86e5031cce0bba14360afa8f0339aaf42db5d1/000000_000000/0000/tree_66.root
/store/group/phys_higgs/hbb/ntuples/VHbbPostNano/2018/V12/SingleMuon/a3940c39ae020091bc82f2faac79f06a8a319627dd7f26e1834ba186/000000_000000/0000/tree_67.root
/store/group/phys_higgs/hbb/ntuples/VHbbPostNano/2018/V12/SingleMuon/7c1be0056b2388811cfe679487f3da30f6ffe38b3c9000e544a56c1a/000000_000000/0000/tree_68.root
/store/group/phys_higgs/hbb/ntuples/VHbbPostNano/2018/V12/SingleMuon/80a7ac18d1cb4bbdd5b6a4c0ce13c74dfe389c4019ee66c1c4fd41ed/000000_000000/0000/tree_69.root
/store/group/phys_higgs/hbb/ntuples/VHbbPostNano/2018/V12/SingleMuon/ad103492e2bab3f8beb394edb675d97ed1905e7ec13a6b9ce97e4a67/000000_000000/0000/tree_70.root
/store/group/phys_higgs/hbb/ntuples/VHbbPostNano/2018/V12/SingleMuon/340fede1ce0a58db5a6f2f054ce95431ef5d5bd8640a7306afe381b7/000000_000000/0000/tree_71.root
/store/group/phys_higgs/hbb/ntuples/VHbbPostNano/2018/V12/SingleMuon/5713d3b75a515794dae562e8ac4af344396f062cb2cdafdf4c4324e1/000000_000000/0000/tree_72.root
/store/group/phys_higgs/hbb/ntuples/VHbbPostNano/2018/V12/SingleMuon/151950c1d062adb893df212245ee9816f954a5e9d358a794249ca9f2/000000_000000/0000/tree_73.root
/store/group/phys_higgs/hbb/ntuples/VHbbPostNano/2018/V12/SingleMuon/7767a652db109873272ec0173d52b397dd9c938c845544cc614ce7cd/000000_000000/0000/tree_74.root
/store/group/phys_higgs/hbb/ntuples/VHbbPostNano/2018/V12/SingleMuon/d63a08a228c22b2666feffd52b233f913f54ccd785fec211687fb015/000000_000000/0000/tree_75.root
/store/group/phys_higgs/hbb/ntuples/VHbbPostNano/2018/V12/SingleMuon/2a59dda06c56dec2953e2c8b2dd22d3750017b2f8fbee8657ccde7f6/000000_000000/0000/tree_76.root
/store/group/phys_higgs/hbb/ntuples/VHbbPostNano/2018/V12/SingleMuon/049be7dc315d1e3855dacd966b3b8771fb09b1807f436341b454637f/000000_000000/0000/tree_77.root
/store/group/phys_higgs/hbb/ntuples/VHbbPostNano/2018/V12/SingleMuon/481aa93c9836f50bd897bfbd977c2c2ffc8a112beafdfcc9f18452e2/000000_000000/0000/tree_78.root
/store/group/phys_higgs/hbb/ntuples/VHbbPostNano/2018/V12/SingleMuon/6276dc0a86f3394f72303205f01264c8fd6965641294a39c0019d090/000000_000000/0000/tree_79.root
/store/group/phys_higgs/hbb/ntuples/VHbbPostNano/2018/V12/SingleMuon/c10f849fb1d638b2e44d70dad9ab4b42e25eab29dd5efb2ab7a8c5e8/000000_000000/0000/tree_80.root
/store/group/phys_higgs/hbb/ntuples/VHbbPostNano/2018/V12/SingleMuon/48317bd0586076522b816dbf4e7b66832f312158b463a361ce5e4f41/000000_000000/0000/tree_81.root
/store/group/phys_higgs/hbb/ntuples/VHbbPostNano/2018/V12/SingleMuon/4c0964e37c9110fee2cff779e06f406e41afda4ea80b33a5ff323264/000000_000000/0000/tree_82.root
/store/group/phys_higgs/hbb/ntuples/VHbbPostNano/2018/V12/SingleMuon/4832125676c8e35ab9eb0d957eb298d4d42841ce972321447d57b896/000000_000000/0000/tree_83.root
/store/group/phys_higgs/hbb/ntuples/VHbbPostNano/2018/V12/SingleMuon/c4c8a363a0738976bf36f1174f71c66772576a1cacc6184a4d9137f9/000000_000000/0000/tree_84.root
/store/group/phys_higgs/hbb/ntuples/VHbbPostNano/2018/V12/SingleMuon/ce6492727402feaefaea56e53d5c9a032610d61366a63280676be289/000000_000000/0000/tree_85.root
/store/group/phys_higgs/hbb/ntuples/VHbbPostNano/2018/V12/SingleMuon/0eba14bbe1c1c55939d78330260fa4a02cb5c92c1a3058aba879ac71/000000_000000/0000/tree_86.root
/store/group/phys_higgs/hbb/ntuples/VHbbPostNano/2018/V12/SingleMuon/ef04c4c91f878f98466dc46952f3b2df1f14761012028cf35872f55e/000000_000000/0000/tree_87.root
/store/group/phys_higgs/hbb/ntuples/VHbbPostNano/2018/V12/SingleMuon/a186b7b0139c9a9252d829fa26d0ae651245b8c8c0b932f15ce6b8a0/000000_000000/0000/tree_88.root
/store/group/phys_higgs/hbb/ntuples/VHbbPostNano/2018/V12/SingleMuon/2f4cbe7003d31fac97726bced84bbf4959ff2bf4289d8d62f1824279/000000_000000/0000/tree_89.root
/store/group/phys_higgs/hbb/ntuples/VHbbPostNano/2018/V12/SingleMuon/bdea081225b20379d469c6e2f4f870cbcabeacc7fd051542224ded87/000000_000000/0000/tree_90.root
/store/group/phys_higgs/hbb/ntuples/VHbbPostNano/2018/V12/SingleMuon/9619d8d6ff4542444cb3c7c9655b16529923031600aa9a9c51515da6/000000_000000/0000/tree_91.root
/store/group/phys_higgs/hbb/ntuples/VHbbPostNano/2018/V12/SingleMuon/c212cef25400bc63837bd62eae9442fb5b05990a0100197e65e63b05/000000_000000/0000/tree_92.root
/store/group/phys_higgs/hbb/ntuples/VHbbPostNano/2018/V12/SingleMuon/e7cb6175821ef39461adb892d5d717d4cb78f6e98b07e1802f60866f/000000_000000/0000/tree_93.root
/store/group/phys_higgs/hbb/ntuples/VHbbPostNano/2018/V12/SingleMuon/0e5ba6422c5642519f8060e7851d4dbddf7e8da063e19278bf892764/000000_000000/0000/tree_94.root
/store/group/phys_higgs/hbb/ntuples/VHbbPostNano/2018/V12/SingleMuon/28ab3075cd14495736019b81923d731ecfa017ecbbbf6e25724b8ea8/000000_000000/0000/tree_95.root
/store/group/phys_higgs/hbb/ntuples/VHbbPostNano/2018/V12/SingleMuon/7a7a910a3ce2dd9ca52ac1bf350bc542f2f4846062eeff93acf62717/000000_000000/0000/tree_96.root
/store/group/phys_higgs/hbb/ntuples/VHbbPostNano/2018/V12/SingleMuon/374c2f5da64b47ecce5a0045cbcb13d265c44af87a33709d522d1025/000000_000000/0000/tree_97.root
/store/group/phys_higgs/hbb/ntuples/VHbbPostNano/2018/V12/SingleMuon/bad68e1f844be289a29c91626e29fded6e21ae0e8be03484629bea5c/000000_000000/0000/tree_98.root
/store/group/phys_higgs/hbb/ntuples/VHbbPostNano/2018/V12/SingleMuon/f654246f7fdfd5efccfd5fd830dac3cdea0d26af76271026e3c25a41/000000_000000/0000/tree_99.root
/store/group/phys_higgs/hbb/ntuples/VHbbPostNano/2018/V12/SingleMuon/7401107c935674cc6a6d0c3ec35157d55bcd1d473f41db3e27ab5a7c/000000_000000/0000/tree_100.root
/store/group/phys_higgs/hbb/ntuples/VHbbPostNano/2018/V12/SingleMuon/3a08bef843d6628298d572a2a88b9ad54c9ab4cac8017fc34f84c064/000000_000000/0000/tree_101.root
/store/group/phys_higgs/hbb/ntuples/VHbbPostNano/2018/V12/SingleMuon/2029dd7d416d16f2afeb5e51c3da5acbcbcde2950e4e440348c50c5a/000000_000000/0000/tree_102.root
/store/group/phys_higgs/hbb/ntuples/VHbbPostNano/2018/V12/SingleMuon/32883a910cb28cbf9847362e88fa66e283dbd58edc26ec4eab1d3aec/000000_000000/0000/tree_103.root
/store/group/phys_higgs/hbb/ntuples/VHbbPostNano/2018/V12/SingleMuon/98a0a2b8f0f6a6e89791046e49094735bcbaab8e9cb04fc8075955fd/000000_000000/0000/tree_104.root
/store/group/phys_higgs/hbb/ntuples/VHbbPostNano/2018/V12/SingleMuon/da86fb369d6d7b78b4f8af23bc9a3ff53173764329a33e4fd0515e7a/000000_000000/0000/tree_105.root
/store/group/phys_higgs/hbb/ntuples/VHbbPostNano/2018/V12/SingleMuon/a2ca553ff7fa4652b5199035b389ef1de6fa64a0afe5cdd4326b8a54/000000_000000/0000/tree_106.root
/store/group/phys_higgs/hbb/ntuples/VHbbPostNano/2018/V12/SingleMuon/f66cc1aedb914c9e071ce67ea9edc3236b44adb566ae1360ec836789/000000_000000/0000/tree_107.root
/store/group/phys_higgs/hbb/ntuples/VHbbPostNano/2018/V12/SingleMuon/8bf9157a2c159b28495f6f240c71faa3c9afb2509a02f89932ec4596/000000_000000/0000/tree_108.root
/store/group/phys_higgs/hbb/ntuples/VHbbPostNano/2018/V12/SingleMuon/6fead34313072b54e4614ab93b7ce914a5c161407ee830a5f9354918/000000_000000/0000/tree_109.root