/store/group/phys_higgs/hbb/ntuples/VHbbPostNano/2018/V12/ST_t-channel_antitop_4f_InclusiveDecays_TuneCP5_13TeV-powheg-madspin-pythia8/f5f8ffc8e1c76a554892e8b97637e353100c8f316304caa692b93e80/000000_000000/0000/tree_0.root
/store/group/phys_higgs/hbb/ntuples/VHbbPostNano/2018/V12/ST_t-channel_antitop_4f_InclusiveDecays_TuneCP5_13TeV-powheg-madspin-pythia8/46b749019d0971f6990b502ec8d42b748801ac43698b19ffa8886cec/000000_000000/0000/tree_1.root
/store/group/phys_higgs/hbb/ntuples/VHbbPostNano/2018/V12/ST_t-channel_antitop_4f_InclusiveDecays_TuneCP5_13TeV-powheg-madspin-pythia8/b9771273ab583208648dc5f9b7300935a01f6d07456ccdd943152cf1/000000_000000/0000/tree_2.root
/store/group/phys_higgs/hbb/ntuples/VHbbPostNano/2018/V12/ST_t-channel_antitop_4f_InclusiveDecays_TuneCP5_13TeV-powheg-madspin-pythia8/711ecfb43a5148230e219385a52908b6213a27c4789760e24e838bf6/000000_000000/0000/tree_3.root
/store/group/phys_higgs/hbb/ntuples/VHbbPostNano/2018/V12/ST_t-channel_antitop_4f_InclusiveDecays_TuneCP5_13TeV-powheg-madspin-pythia8/3d2ce779e6a363e8c4bcce75dbced3f61655689e5622d23a81e8a41d/000000_000000/0000/tree_4.root
/store/group/phys_higgs/hbb/ntuples/VHbbPostNano/2018/V12/ST_t-channel_antitop_4f_InclusiveDecays_TuneCP5_13TeV-powheg-madspin-pythia8/432f5f7f4b7cf441f9616c05c22832b6df5382d5ed7b35a3d55d093b/000000_000000/0000/tree_5.root
/store/group/phys_higgs/hbb/ntuples/VHbbPostNano/2018/V12/ST_t-channel_antitop_4f_InclusiveDecays_TuneCP5_13TeV-powheg-madspin-pythia8/f24f7285afe2ee5b77ed5248b2990a0aff96d34698363c555267f7ac/000000_000000/0000/tree_6.root
/store/group/phys_higgs/hbb/ntuples/VHbbPostNano/2018/V12/ST_t-channel_antitop_4f_InclusiveDecays_TuneCP5_13TeV-powheg-madspin-pythia8/1de0b3d9b2af5ef8a412b8d860bc1824914dec3fcf0959e060ab177c/000000_000000/0000/tree_7.root
/store/group/phys_higgs/hbb/ntuples/VHbbPostNano/2018/V12/ST_t-channel_antitop_4f_InclusiveDecays_TuneCP5_13TeV-powheg-madspin-pythia8/cbaeab1558fe188fc4bb3a311dbe6dd40bc4de2713983a291e967992/000000_000000/0000/tree_8.root
/store/group/phys_higgs/hbb/ntuples/VHbbPostNano/2018/V12/ST_t-channel_antitop_4f_InclusiveDecays_TuneCP5_13TeV-powheg-madspin-pythia8/fb6abb2cb2e6ac06d07e49298b78fb90c647188c600e02d0faaafadc/000000_000000/0000/tree_9.root
/store/group/phys_higgs/hbb/ntuples/VHbbPostNano/2018/V12/ST_t-channel_antitop_4f_InclusiveDecays_TuneCP5_13TeV-powheg-madspin-pythia8/bdebe4b0bed3909b9801cc7ed859e7a09bde2168c2bc6f14eedd5256/000000_000000/0000/tree_10.root
/store/group/phys_higgs/hbb/ntuples/VHbbPostNano/2018/V12/ST_t-channel_antitop_4f_InclusiveDecays_TuneCP5_13TeV-powheg-madspin-pythia8/6322da1f279f14636abf1ca5ce10f7e1c5c0304a089e32523cbb9f83/000000_000000/0000/tree_11.root
/store/group/phys_higgs/hbb/ntuples/VHbbPostNano/2018/V12/ST_t-channel_antitop_4f_InclusiveDecays_TuneCP5_13TeV-powheg-madspin-pythia8/118572164f083425565a6fae8cd3976f92c39c872ac520cc1aeb58cd/000000_000000/0000/tree_12.root
/store/group/phys_higgs/hbb/ntuples/VHbbPostNano/2018/V12/ST_t-channel_antitop_4f_InclusiveDecays_TuneCP5_13TeV-powheg-madspin-pythia8/01b2e9dc4d25cc3486983a2390c3b5ba83dd2d7192344d42423dfb19/000000_000000/0000/tree_13.root
/store/group/phys_higgs/hbb/ntuples/VHbbPostNano/2018/V12/ST_t-channel_antitop_4f_InclusiveDecays_TuneCP5_13TeV-powheg-madspin-pythia8/e76fd8bd9ea48a05c0d4a27fff1e6fa7219b72cdcce0c5651f49d2d0/000000_000000/0000/tree_14.root
/store/group/phys_higgs/hbb/ntuples/VHbbPostNano/2018/V12/ST_t-channel_antitop_4f_InclusiveDecays_TuneCP5_13TeV-powheg-madspin-pythia8/519c449bfbb28654a4aacc13efbf415f82824857780d9a5a209b8066/000000_000000/0000/tree_15.root
/store/group/phys_higgs/hbb/ntuples/VHbbPostNano/2018/V12/ST_t-channel_antitop_4f_InclusiveDecays_TuneCP5_13TeV-powheg-madspin-pythia8/54854aa79a5e86f3f48dee84eac7483a0710aec825f181816180f8fd/000000_000000/0000/tree_16.root