/store/group/phys_higgs/hbb/ntuples/VHbbPostNano/2018/V12/WJetsToLNu_HT-200To400_TuneCP5_13TeV-madgraphMLM-pythia8/7ef620853187e43461a122d39411b86aa519e7d33bfa118d65f7a4ae/000000_000000/0000/tree_0.root
/store/group/phys_higgs/hbb/ntuples/VHbbPostNano/2018/V12/WJetsToLNu_HT-200To400_TuneCP5_13TeV-madgraphMLM-pythia8/dbab484173f08a5595303bb6c84c5931c14698e5d5444abbf33a57f3/000000_000000/0000/tree_1.root
/store/group/phys_higgs/hbb/ntuples/VHbbPostNano/2018/V12/WJetsToLNu_HT-200To400_TuneCP5_13TeV-madgraphMLM-pythia8/0a66d6354be0b7b40b47ab98568f9e909d7709bfd1cb9723915f35ae/000000_000000/0000/tree_2.root
/store/group/phys_higgs/hbb/ntuples/VHbbPostNano/2018/V12/WJetsToLNu_HT-200To400_TuneCP5_13TeV-madgraphMLM-pythia8/2e8bf4181f392d59fb59678288c542e121660e617fe36e61c2eafe68/000000_000000/0000/tree_3.root
/store/group/phys_higgs/hbb/ntuples/VHbbPostNano/2018/V12/WJetsToLNu_HT-200To400_TuneCP5_13TeV-madgraphMLM-pythia8/0f14fbaee88391e8a99fd0705c5ff1b2b1909a9ba175dec075366c05/000000_000000/0000/tree_4.root
/store/group/phys_higgs/hbb/ntuples/VHbbPostNano/2018/V12/WJetsToLNu_HT-200To400_TuneCP5_13TeV-madgraphMLM-pythia8/d3cee5e220a51469c9b6bdf27847354d2caea348434dcc4a4cc5015c/000000_000000/0000/tree_5.root
/store/group/phys_higgs/hbb/ntuples/VHbbPostNano/2018/V12/WJetsToLNu_HT-200To400_TuneCP5_13TeV-madgraphMLM-pythia8/31200ef086f9f3d1ab2d0edcc396c40daed10c80bbe77230ec06fcca/000000_000000/0000/tree_6.root
/store/group/phys_higgs/hbb/ntuples/VHbbPostNano/2018/V12/WJetsToLNu_HT-200To400_TuneCP5_13TeV-madgraphMLM-pythia8/1900a2f3a074ff99a8c59ea8024190cdbf5669a15e9e63c8b3336345/000000_000000/0000/tree_7.root
/store/group/phys_higgs/hbb/ntuples/VHbbPostNano/2018/V12/WJetsToLNu_HT-200To400_TuneCP5_13TeV-madgraphMLM-pythia8/3172bfff49773d662dc8296ed2716455b204198ea9aaa3226cf040dc/000000_000000/0000/tree_8.root
/store/group/phys_higgs/hbb/ntuples/VHbbPostNano/2018/V12/WJetsToLNu_HT-200To400_TuneCP5_13TeV-madgraphMLM-pythia8/a1c24ea63d2417035f9924a569a19e2b3ba512f81b611e612178e955/000000_000000/0000/tree_9.root
/store/group/phys_higgs/hbb/ntuples/VHbbPostNano/2018/V12/WJetsToLNu_HT-200To400_TuneCP5_13TeV-madgraphMLM-pythia8/f43f09ed41e9ee2b8c32d2add7c6317f0b0e477c09ca60792f930d07/000000_000000/0000/tree_10.root
/store/group/phys_higgs/hbb/ntuples/VHbbPostNano/2018/V12/WJetsToLNu_HT-200To400_TuneCP5_13TeV-madgraphMLM-pythia8/336914031918c6a72055afac926fee29ba5e1a6938cc62269b3db253/000000_000000/0000/tree_11.root
/store/group/phys_higgs/hbb/ntuples/VHbbPostNano/2018/V12/WJetsToLNu_HT-200To400_TuneCP5_13TeV-madgraphMLM-pythia8/bc688ae92c005694c8db0b9cba1db9683ba86faf3f533951c896945f/000000_000000/0000/tree_12.root
/store/group/phys_higgs/hbb/ntuples/VHbbPostNano/2018/V12/WJetsToLNu_HT-200To400_TuneCP5_13TeV-madgraphMLM-pythia8/6b0dfcb96a65ed3345ee3ecc203839546f22c6bf66bb12baaa8e8fb5/000000_000000/0000/tree_13.root
/store/group/phys_higgs/hbb/ntuples/VHbbPostNano/2018/V12/WJetsToLNu_HT-200To400_TuneCP5_13TeV-madgraphMLM-pythia8/441ad0501372a447071d95394f2179443c884fc809a551cb6f860907/000000_000000/0000/tree_14.root
/store/group/phys_higgs/hbb/ntuples/VHbbPostNano/2018/V12/WJetsToLNu_HT-200To400_TuneCP5_13TeV-madgraphMLM-pythia8/446bb41fab25e328838e0ca6293e49037c9bbb7e00afef4e2b3ff0ea/000000_000000/0000/tree_15.root
/store/group/phys_higgs/hbb/ntuples/VHbbPostNano/2018/V12/WJetsToLNu_HT-200To400_TuneCP5_13TeV-madgraphMLM-pythia8/a1100f63ad671a78a90cd18ee91a27616680b7f93d6f49037f1f81b9/000000_000000/0000/tree_16.root
/store/group/phys_higgs/hbb/ntuples/VHbbPostNano/2018/V12/WJetsToLNu_HT-200To400_TuneCP5_13TeV-madgraphMLM-pythia8/dd05b80bb10650bde7180db8ae9538ee071c3178c5feeb4449400b2b/000000_000000/0000/tree_17.root
/store/group/phys_higgs/hbb/ntuples/VHbbPostNano/2018/V12/WJetsToLNu_HT-200To400_TuneCP5_13TeV-madgraphMLM-pythia8/97246431b760240c9d548c0087c06fd96870f6970d0e1dcaea7e0f97/000000_000000/0000/tree_18.root
/store/group/phys_higgs/hbb/ntuples/VHbbPostNano/2018/V12/WJetsToLNu_HT-200To400_TuneCP5_13TeV-madgraphMLM-pythia8/69f58a22962fdacd5848c33d4efe7cb1d8078c641f6cc6a47a6ac908/000000_000000/0000/tree_19.root
/store/group/phys_higgs/hbb/ntuples/VHbbPostNano/2018/V12/WJetsToLNu_HT-200To400_TuneCP5_13TeV-madgraphMLM-pythia8/057f59fa0e6e69268eb1de4b7675d84fe2dcb7a79e279556394fc135/000000_000000/0000/tree_20.root
/store/group/phys_higgs/hbb/ntuples/VHbbPostNano/2018/V12/WJetsToLNu_HT-200To400_TuneCP5_13TeV-madgraphMLM-pythia8/91feab0d73297d88eaf85715c50cbe407156ddf9341545cf081bcf4f/000000_000000/0000/tree_21.root
/store/group/phys_higgs/hbb/ntuples/VHbbPostNano/2018/V12/WJetsToLNu_HT-200To400_TuneCP5_13TeV-madgraphMLM-pythia8/03a1e044e3dee00b57991688a8af40fd06da25a0ef7d6b88a145323d/000000_000000/0000/tree_22.root
/store/group/phys_higgs/hbb/ntuples/VHbbPostNano/2018/V12/WJetsToLNu_HT-200To400_TuneCP5_13TeV-madgraphMLM-pythia8/a1c31530a5d09c55491744be4ac9b3510fbe58d489337dea0061bec4/000000_000000/0000/tree_23.root
/store/group/phys_higgs/hbb/ntuples/VHbbPostNano/2018/V12/WJetsToLNu_HT-200To400_TuneCP5_13TeV-madgraphMLM-pythia8/29790a1851e2a889a4a4db4af37e25ce367fb7f04ae4e61bc75d68f4/000000_000000/0000/tree_24.root
/store/group/phys_higgs/hbb/ntuples/VHbbPostNano/2018/V12/WJetsToLNu_HT-200To400_TuneCP5_13TeV-madgraphMLM-pythia8/19828f6ec1eccc6801a551df7bcc17bbe3136feee99f23996f92d069/000000_000000/0000/tree_25.root
/store/group/phys_higgs/hbb/ntuples/VHbbPostNano/2018/V12/WJetsToLNu_HT-200To400_TuneCP5_13TeV-madgraphMLM-pythia8/746edb8d5bdd7ab89082fffb6065bd55e0bf7ef7bc25eaf2c171ba11/000000_000000/0000/tree_26.root
/store/group/phys_higgs/hbb/ntuples/VHbbPostNano/2018/V12/WJetsToLNu_HT-200To400_TuneCP5_13TeV-madgraphMLM-pythia8/26741b2973364a32f5a66a7906001f529af7e08468bc2ad7b49c0695/000000_000000/0000/tree_27.root
/store/group/phys_higgs/hbb/ntuples/VHbbPostNano/2018/V12/WJetsToLNu_HT-200To400_TuneCP5_13TeV-madgraphMLM-pythia8/073b31fadf9d7f35c6663ae9ae5d7071c261ea087cda2634c07efd85/000000_000000/0000/tree_28.root
/store/group/phys_higgs/hbb/ntuples/VHbbPostNano/2018/V12/WJetsToLNu_HT-200To400_TuneCP5_13TeV-madgraphMLM-pythia8/50592e968451fa85d51c2b9a51c84997d1b673b85e6d8867646667c1/000000_000000/0000/tree_29.root
/store/group/phys_higgs/hbb/ntuples/VHbbPostNano/2018/V12/WJetsToLNu_HT-200To400_TuneCP5_13TeV-madgraphMLM-pythia8/eead7787a2fa0ed4eb2cb44d65396d0d384cf9c98151c4889591fd37/000000_000000/0000/tree_30.root
/store/group/phys_higgs/hbb/ntuples/VHbbPostNano/2018/V12/WJetsToLNu_HT-200To400_TuneCP5_13TeV-madgraphMLM-pythia8/3de12f44d52e411804605528c0630279ca5ff7fdda37389ba360a96f/000000_000000/0000/tree_31.root
/store/group/phys_higgs/hbb/ntuples/VHbbPostNano/2018/V12/WJetsToLNu_HT-200To400_TuneCP5_13TeV-madgraphMLM-pythia8/ee46d55055e88eddc2635f8868b5c83f9dbc5f50743ccb561d7f1cf7/000000_000000/0000/tree_32.root
/store/group/phys_higgs/hbb/ntuples/VHbbPostNano/2018/V12/WJetsToLNu_HT-200To400_TuneCP5_13TeV-madgraphMLM-pythia8/e871fa9dfb5b898530075ffc3aa1a1e571a948a8e3d52f77e4f726ac/000000_000000/0000/tree_33.root