/store/group/phys_higgs/hbb/ntuples/VHbbPostNano/2018/V12/WminusH_HToBB_WToLNu_M125_13TeV_powheg_pythia8/4d003c81ea34e49a2ee572efcd8b56a75a9c1405ba28f4566ad1a664/000000_000000/0000/tree_0.root
/store/group/phys_higgs/hbb/ntuples/VHbbPostNano/2018/V12/WminusH_HToBB_WToLNu_M125_13TeV_powheg_pythia8/09c7ebc90ac4fad918646205405eb1ebb9100f70475450d9b56c9f87/000000_000000/0000/tree_1.root
/store/group/phys_higgs/hbb/ntuples/VHbbPostNano/2018/V12/WminusH_HToBB_WToLNu_M125_13TeV_powheg_pythia8/0ab414327e615e55e002466853e797f5135f19bc79ccecd2081db055/000000_000000/0000/tree_2.root
/store/group/phys_higgs/hbb/ntuples/VHbbPostNano/2018/V12/WminusH_HToBB_WToLNu_M125_13TeV_powheg_pythia8/a24f066f4c44a0e97e00c3dd5b78f2e61bb3605ad26ef184e7bc1970/000000_000000/0000/tree_3.root
/store/group/phys_higgs/hbb/ntuples/VHbbPostNano/2018/V12/WminusH_HToBB_WToLNu_M125_13TeV_powheg_pythia8/2d614b5eb9c3d6c6815ccc467ad2c1a6616040aaf009186fe69715d6/000000_000000/0000/tree_4.root
/store/group/phys_higgs/hbb/ntuples/VHbbPostNano/2018/V12/WminusH_HToBB_WToLNu_M125_13TeV_powheg_pythia8/99799811f3cd47e2c8d71d18e66a142b8764c818a39c9ceb6ad7a693/000000_000000/0000/tree_5.root