/store/group/phys_higgs/hbb/ntuples/VHbbPostNano/2018/V12/WZTo1L1Nu2Q_13TeV_amcatnloFXFX_madspin_pythia8/950590b3f7b289fa10e36b27209a78a896bf20e4c08a16266e0c4ce8/000000_000000/0000/tree_0.root
/store/group/phys_higgs/hbb/ntuples/VHbbPostNano/2018/V12/WZTo1L1Nu2Q_13TeV_amcatnloFXFX_madspin_pythia8/826bd3b66ca92b7c066632118189ea9d93ce8018435f5293ee778539/000000_000000/0000/tree_1.root
/store/group/phys_higgs/hbb/ntuples/VHbbPostNano/2018/V12/WZTo1L1Nu2Q_13TeV_amcatnloFXFX_madspin_pythia8/5de43d02d14943d676472bf4207fb687ceb8feb6097da4cf51b4b91c/000000_000000/0000/tree_2.root
/store/group/phys_higgs/hbb/ntuples/VHbbPostNano/2018/V12/WZTo1L1Nu2Q_13TeV_amcatnloFXFX_madspin_pythia8/1118b2cc94dfed59fa4f7750b3d8cfc55d2eaca698d44f49235e1479/000000_000000/0000/tree_3.root
/store/group/phys_higgs/hbb/ntuples/VHbbPostNano/2018/V12/WZTo1L1Nu2Q_13TeV_amcatnloFXFX_madspin_pythia8/c03a348c2546ebf3a1630e78470049a8224d7d226eabfae371c87b31/000000_000000/0000/tree_4.root
/store/group/phys_higgs/hbb/ntuples/VHbbPostNano/2018/V12/WZTo1L1Nu2Q_13TeV_amcatnloFXFX_madspin_pythia8/51a2c9a6cd51c49b77838d323d95f38e61f830e0ddbe1c5ae9368214/000000_000000/0000/tree_5.root
/store/group/phys_higgs/hbb/ntuples/VHbbPostNano/2018/V12/WZTo1L1Nu2Q_13TeV_amcatnloFXFX_madspin_pythia8/012a664647847ea58aa75f150e0475f9652dd35a96c3adabee30f151/000000_000000/0000/tree_6.root
/store/group/phys_higgs/hbb/ntuples/VHbbPostNano/2018/V12/WZTo1L1Nu2Q_13TeV_amcatnloFXFX_madspin_pythia8/0548459a72cbea8702c7bfaf6bebceea7582f0534638e6e48c317855/000000_000000/0000/tree_7.root
/store/group/phys_higgs/hbb/ntuples/VHbbPostNano/2018/V12/WZTo1L1Nu2Q_13TeV_amcatnloFXFX_madspin_pythia8/09ce4034e39618781b0aa5d77c6c2d1c8d1c6219b89b086c84396c81/000000_000000/0000/tree_8.root
/store/group/phys_higgs/hbb/ntuples/VHbbPostNano/2018/V12/WZTo1L1Nu2Q_13TeV_amcatnloFXFX_madspin_pythia8/e74265ab989fa190a76a3728781de9d14743c7202ed7f4a29a9c550f/000000_000000/0000/tree_9.root
/store/group/phys_higgs/hbb/ntuples/VHbbPostNano/2018/V12/WZTo1L1Nu2Q_13TeV_amcatnloFXFX_madspin_pythia8/e851cadf7483b831867aa103b3efe177e957202dbbbf68f92d6e6c57/000000_000000/0000/tree_10.root
/store/group/phys_higgs/hbb/ntuples/VHbbPostNano/2018/V12/WZTo1L1Nu2Q_13TeV_amcatnloFXFX_madspin_pythia8/1059f311909552f319bd7ca3bd5af1c4585dbdf9ca4401392d82cdac/000000_000000/0000/tree_11.root
/store/group/phys_higgs/hbb/ntuples/VHbbPostNano/2018/V12/WZTo1L1Nu2Q_13TeV_amcatnloFXFX_madspin_pythia8/30fd47df57a9a790365deab3ddf705fb86432e5b977ff53e4df07609/000000_000000/0000/tree_12.root
/store/group/phys_higgs/hbb/ntuples/VHbbPostNano/2018/V12/WZTo1L1Nu2Q_13TeV_amcatnloFXFX_madspin_pythia8/c1a6fa3f686067f9024096e0ccc1432f37f4db5982c3add146c5f882/000000_000000/0000/tree_13.root
/store/group/phys_higgs/hbb/ntuples/VHbbPostNano/2018/V12/WZTo1L1Nu2Q_13TeV_amcatnloFXFX_madspin_pythia8/e520255f62a49665626c7047a5cbcbc2bcb87b609cf7c6a5be69173c/000000_000000/0000/tree_14.root
/store/group/phys_higgs/hbb/ntuples/VHbbPostNano/2018/V12/WZTo1L1Nu2Q_13TeV_amcatnloFXFX_madspin_pythia8/4724eeca32d3d51ec86525190c5e54e1a54c2c5e250634cf63be4443/000000_000000/0000/tree_15.root
/store/group/phys_higgs/hbb/ntuples/VHbbPostNano/2018/V12/WZTo1L1Nu2Q_13TeV_amcatnloFXFX_madspin_pythia8/f7c4ad7835b33dd84bdddbe5a37b8b96fda6b4442fbdbc04b7a15a47/000000_000000/0000/tree_16.root
/store/group/phys_higgs/hbb/ntuples/VHbbPostNano/2018/V12/WZTo1L1Nu2Q_13TeV_amcatnloFXFX_madspin_pythia8/38106624ea1fc7f1d48ffce023ff304a2eecb92e5f5b6a139b131d88/000000_000000/0000/tree_17.root
/store/group/phys_higgs/hbb/ntuples/VHbbPostNano/2018/V12/WZTo1L1Nu2Q_13TeV_amcatnloFXFX_madspin_pythia8/9923f744e59bde04aea9be472dc5c1bd509d2947320801c8d15852fd/000000_000000/0000/tree_18.root
/store/group/phys_higgs/hbb/ntuples/VHbbPostNano/2018/V12/WZTo1L1Nu2Q_13TeV_amcatnloFXFX_madspin_pythia8/717fe614999d64580aeb6e6ee2ddbdd14aed00a9737cf80d66ca9adf/000000_000000/0000/tree_19.root
/store/group/phys_higgs/hbb/ntuples/VHbbPostNano/2018/V12/WZTo1L1Nu2Q_13TeV_amcatnloFXFX_madspin_pythia8/1057b6d257427a5773584b00d5290bdfbc5ba89a651b14158add0ede/000000_000000/0000/tree_20.root