/store/group/phys_higgs/hbb/ntuples/VHbbPostNano/2018/V13/EGamma/e08c49606460ecd6b6adb040277ed42ef9d7ae4683408872e63a1c03/000000_000000/0000/tree_0.root
/store/group/phys_higgs/hbb/ntuples/VHbbPostNano/2018/V13/EGamma/93192cbc911154bec1f29dd8ccd4bfa516e17b274349bf0ea434d251/000000_000000/0000/tree_1.root
/store/group/phys_higgs/hbb/ntuples/VHbbPostNano/2018/V13/EGamma/07f9e6944d14ac8d07ecd683e3ea037ba5bb6ac4afa5f062130b0fb0/000000_000000/0000/tree_2.root
/store/group/phys_higgs/hbb/ntuples/VHbbPostNano/2018/V13/EGamma/4b2868f092f09e9a96dad717002ac0a9312f83c1fcf254c60ecc7d96/000000_000000/0000/tree_3.root
/store/group/phys_higgs/hbb/ntuples/VHbbPostNano/2018/V13/EGamma/7f80f261464c67a22dca7ddea679afd69c8204515653e5945ef55434/000000_000000/0000/tree_4.root
/store/group/phys_higgs/hbb/ntuples/VHbbPostNano/2018/V13/EGamma/53eaae177bcdb7f8742ab8c024e900eadfaba02da0f86c28ec8049d8/000000_000000/0000/tree_5.root
/store/group/phys_higgs/hbb/ntuples/VHbbPostNano/2018/V13/EGamma/d0b2a245c373d20349b50715ce080b94951847a92f27e8e6331a9078/000000_000000/0000/tree_6.root
/store/group/phys_higgs/hbb/ntuples/VHbbPostNano/2018/V13/EGamma/8857f94d307971023a1a5fc19e06fea95700f083576e429c3584e7c9/000000_000000/0000/tree_7.root
/store/group/phys_higgs/hbb/ntuples/VHbbPostNano/2018/V13/EGamma/19ed15960b966d87e995ef317390506a1c7f00eb07c0b961624ac361/000000_000000/0000/tree_8.root
/store/group/phys_higgs/hbb/ntuples/VHbbPostNano/2018/V13/EGamma/900bb3270f33a6000ab13d69808b7d9524c2583e70a65b0214e63a4e/000000_000000/0000/tree_9.root
/store/group/phys_higgs/hbb/ntuples/VHbbPostNano/2018/V13/EGamma/9ecb0c90b02150a0faf2be60626372e79c5b98f1df85b77675abb40f/000000_000000/0000/tree_10.root
/store/group/phys_higgs/hbb/ntuples/VHbbPostNano/2018/V13/EGamma/e0f627a32c50ef19e5b05ee73b9261fa8e50ea581fadf66631ab0500/000000_000000/0000/tree_11.root
/store/group/phys_higgs/hbb/ntuples/VHbbPostNano/2018/V13/EGamma/692e790bd0a2bb520e108f40d7968e74065e06b5a904106ea5fa2acc/000000_000000/0000/tree_12.root
/store/group/phys_higgs/hbb/ntuples/VHbbPostNano/2018/V13/EGamma/4c90b70f7b67d02dbd7f38a4fe296fdfbcfae306d285ddf2d0d90513/000000_000000/0000/tree_13.root
/store/group/phys_higgs/hbb/ntuples/VHbbPostNano/2018/V13/EGamma/bae5f2c6915be9713848ac794c738456ec29a1c7111559b6e07b4c9d/000000_000000/0000/tree_14.root
/store/group/phys_higgs/hbb/ntuples/VHbbPostNano/2018/V13/EGamma/d3c69b29c56a88933d75b215cdfe3b23542728e511e513e09c6db402/000000_000000/0000/tree_15.root
/store/group/phys_higgs/hbb/ntuples/VHbbPostNano/2018/V13/EGamma/9d8170ce15cd4c557f664b385786c0226981193d13d929c894037a23/000000_000000/0000/tree_16.root
/store/group/phys_higgs/hbb/ntuples/VHbbPostNano/2018/V13/EGamma/a130da074529ea7c76f0fb417ab06ef1d63cd15ed4ffd8ad3a74eb1c/000000_000000/0000/tree_17.root
/store/group/phys_higgs/hbb/ntuples/VHbbPostNano/2018/V13/EGamma/3756d538b1e894fad7669ce1f51935efd0108bea02e65eefd689f1fb/000000_000000/0000/tree_18.root
/store/group/phys_higgs/hbb/ntuples/VHbbPostNano/2018/V13/EGamma/cdfa0cf084681e8519429cb7aea299569a3f807a775a17fe5d071737/000000_000000/0000/tree_19.root
/store/group/phys_higgs/hbb/ntuples/VHbbPostNano/2018/V13/EGamma/5025773335488d1d70df8ed6336d7974a7ebfa5dd9e1d4bd9e7b1545/000000_000000/0000/tree_20.root
/store/group/phys_higgs/hbb/ntuples/VHbbPostNano/2018/V13/EGamma/874e083a1fd6cd05329287b1b986afb76409b475656e4ff4590eadfe/000000_000000/0000/tree_21.root
/store/group/phys_higgs/hbb/ntuples/VHbbPostNano/2018/V13/EGamma/8457c56cc10c18412e878eb0734a5867874728e3dc72087dd158adfc/000000_000000/0000/tree_22.root
/store/group/phys_higgs/hbb/ntuples/VHbbPostNano/2018/V13/EGamma/fc93aa5ca22173f7ef753a6f95f29f50dcf057b0a4326ba1b31faaea/000000_000000/0000/tree_23.root
/store/group/phys_higgs/hbb/ntuples/VHbbPostNano/2018/V13/EGamma/68b3add6cca08956c7e35fc8941ebcf10bd08e080f793dd41fc8cec1/000000_000000/0000/tree_24.root
/store/group/phys_higgs/hbb/ntuples/VHbbPostNano/2018/V13/EGamma/6b1c412d7990c062588b604c858822ee136ac4a7b2450dd87ac27487/000000_000000/0000/tree_25.root
/store/group/phys_higgs/hbb/ntuples/VHbbPostNano/2018/V13/EGamma/4e1a33b554cb45dd8b1e6177e635db64420bca8ea511dd9966f420d1/000000_000000/0000/tree_26.root
/store/group/phys_higgs/hbb/ntuples/VHbbPostNano/2018/V13/EGamma/dc373cfc46355fe301cae5e070406ee4a00407b101fa5f298159bb11/000000_000000/0000/tree_27.root
/store/group/phys_higgs/hbb/ntuples/VHbbPostNano/2018/V13/EGamma/405fcff95ba52cc53439e36040970ebd3af8aa9f92dc8dd9c149852e/000000_000000/0000/tree_28.root
/store/group/phys_higgs/hbb/ntuples/VHbbPostNano/2018/V13/EGamma/65962385b1b31feca45f7340d056877a228c598a85c39cfd307d4c1d/000000_000000/0000/tree_29.root
/store/group/phys_higgs/hbb/ntuples/VHbbPostNano/2018/V13/EGamma/1fc4c46bd233d068b1154d20da6d1b3bb6b87a25d80b6307f88d9a00/000000_000000/0000/tree_30.root
/store/group/phys_higgs/hbb/ntuples/VHbbPostNano/2018/V13/EGamma/887b48d5af785137f5e7ee90f497377c6b2c74694f58c95ab184f81b/000000_000000/0000/tree_31.root
/store/group/phys_higgs/hbb/ntuples/VHbbPostNano/2018/V13/EGamma/a9b62ae931039c29945af5084015ef75c93226b60faad29828701f26/000000_000000/0000/tree_32.root
/store/group/phys_higgs/hbb/ntuples/VHbbPostNano/2018/V13/EGamma/6d07f623820aed0eb875e07e0caf315da554d2c187e036c7e91d3c08/000000_000000/0000/tree_33.root
/store/group/phys_higgs/hbb/ntuples/VHbbPostNano/2018/V13/EGamma/60f2627b551cf2f7baa26b1d6dfcbe248b202ad49b8d40cec51729ff/000000_000000/0000/tree_34.root
/store/group/phys_higgs/hbb/ntuples/VHbbPostNano/2018/V13/EGamma/c0bac434c8c3234c6eda2ad88ec934511dbd4c0085c07e4f2d5ff405/000000_000000/0000/tree_35.root
/store/group/phys_higgs/hbb/ntuples/VHbbPostNano/2018/V13/EGamma/fc9f7f5c3f52197003709525e17dc5c68b69624a2cd19df71cc35d83/000000_000000/0000/tree_36.root
/store/group/phys_higgs/hbb/ntuples/VHbbPostNano/2018/V13/EGamma/0c64015251046a5de6de22f151139ee6dfde7cf0249bd8c94e624560/000000_000000/0000/tree_37.root
/store/group/phys_higgs/hbb/ntuples/VHbbPostNano/2018/V13/EGamma/bc7517e0cb07672d78421bda7295e1c9fb57c4a0d5a258e67e9e34cc/000000_000000/0000/tree_38.root
/store/group/phys_higgs/hbb/ntuples/VHbbPostNano/2018/V13/EGamma/715fa63cef5036db8eaad8f18ac0233108dd0d6dd44ba916d441eae3/000000_000000/0000/tree_39.root
/store/group/phys_higgs/hbb/ntuples/VHbbPostNano/2018/V13/EGamma/844c3c163d18f8688a65312d35b13fef989366e923901663b090381c/000000_000000/0000/tree_40.root
/store/group/phys_higgs/hbb/ntuples/VHbbPostNano/2018/V13/EGamma/72d31d2d731e17577c67d18fedb6909f6da7ae82ae179f84f9e7949a/000000_000000/0000/tree_41.root
/store/group/phys_higgs/hbb/ntuples/VHbbPostNano/2018/V13/EGamma/bb949067bd2ff7ea73880ead1ef1e10f4a65398a232d38e6d8a9b09b/000000_000000/0000/tree_42.root
/store/group/phys_higgs/hbb/ntuples/VHbbPostNano/2018/V13/EGamma/1c3b176d7fd3c2e2e46680b71519448009f2d0cc2cb279454ef972ba/000000_000000/0000/tree_43.root
/store/group/phys_higgs/hbb/ntuples/VHbbPostNano/2018/V13/EGamma/178f1d059acacfa12a9ed33b1a56626d8bcda286b281ef5ca8316993/000000_000000/0000/tree_44.root
/store/group/phys_higgs/hbb/ntuples/VHbbPostNano/2018/V13/EGamma/92c93152af33e4f20eb76f57ed65048b499a2dd13dc9d1f46e4d193e/000000_000000/0000/tree_45.root
/store/group/phys_higgs/hbb/ntuples/VHbbPostNano/2018/V13/EGamma/c0ee254f3293e349e16c2f31f20f10b9fd4f32fc2008b2620c45c313/000000_000000/0000/tree_46.root
/store/group/phys_higgs/hbb/ntuples/VHbbPostNano/2018/V13/EGamma/032b2626313929269588f8a45e8f6fdb867060ffd59289e332da4b16/000000_000000/0000/tree_47.root
/store/group/phys_higgs/hbb/ntuples/VHbbPostNano/2018/V13/EGamma/fa5108f22eeb780ef693c24e38317fc2d3d7e5947de54fa210021995/000000_000000/0000/tree_48.root
/store/group/phys_higgs/hbb/ntuples/VHbbPostNano/2018/V13/EGamma/3d318d794068b3da9c0b6af8dc0941a69aa20233bb00215cad09ae21/000000_000000/0000/tree_49.root
/store/group/phys_higgs/hbb/ntuples/VHbbPostNano/2018/V13/EGamma/5c1d5543753ad3ee5247197932ac6b0ab255a68153dd3afa9d9f7419/000000_000000/0000/tree_50.root
/store/group/phys_higgs/hbb/ntuples/VHbbPostNano/2018/V13/EGamma/a849114bd67535cd4aaa67a3bc0edcd8ceeb55448680b4f947f43506/000000_000000/0000/tree_51.root
/store/group/phys_higgs/hbb/ntuples/VHbbPostNano/2018/V13/EGamma/7a3f9dd9e46656c9a6f8637da173ac495f4c2a744039e5b11498bac5/000000_000000/0000/tree_52.root
/store/group/phys_higgs/hbb/ntuples/VHbbPostNano/2018/V13/EGamma/fdcb275816fa6b3a4b78a0fac7eb62117f3413395c483ec219cc2bff/000000_000000/0000/tree_53.root
/store/group/phys_higgs/hbb/ntuples/VHbbPostNano/2018/V13/EGamma/cd4133023796357a862e77c23b23364846e4c1e7a0f3d61da2de4f23/000000_000000/0000/tree_54.root
/store/group/phys_higgs/hbb/ntuples/VHbbPostNano/2018/V13/EGamma/f62d465988d197e6e8b09e2e72cfae25d86c0d11d4c9d7e05bd5fc1f/000000_000000/0000/tree_55.root
/store/group/phys_higgs/hbb/ntuples/VHbbPostNano/2018/V13/EGamma/10bed634830f2062072e6d41e18ebd4648b3a500b876127a69024f85/000000_000000/0000/tree_56.root
/store/group/phys_higgs/hbb/ntuples/VHbbPostNano/2018/V13/EGamma/004202433ff3846884bc5f91e8b5acd79fe1b89e848586ab387eafcd/000000_000000/0000/tree_57.root
/store/group/phys_higgs/hbb/ntuples/VHbbPostNano/2018/V13/EGamma/64b31cf82c4d4f23af0fdb66a9a3852e28d59957937600af05805939/000000_000000/0000/tree_58.root
/store/group/phys_higgs/hbb/ntuples/VHbbPostNano/2018/V13/EGamma/4c70e0a9de08c417e84ae41b0d2ffbe4821be151444fa11f807dd24d/000000_000000/0000/tree_59.root
/store/group/phys_higgs/hbb/ntuples/VHbbPostNano/2018/V13/EGamma/d691b2e9d4e968a7ce6500289cbf39dbc9103011974bbf3d953b7cc9/000000_000000/0000/tree_60.root
/store/group/phys_higgs/hbb/ntuples/VHbbPostNano/2018/V13/EGamma/967be1a7d971f3f5ca782482232caed15a803083e51ef1b8af508060/000000_000000/0000/tree_61.root
/store/group/phys_higgs/hbb/ntuples/VHbbPostNano/2018/V13/EGamma/6195600303616e99599dda4d7d92541a98ea6da0be331751a2bc6fbd/000000_000000/0000/tree_62.root
/store/group/phys_higgs/hbb/ntuples/VHbbPostNano/2018/V13/EGamma/f47553c82cdd92d5d3d72e4b87ab83e25a9e82d2072e0dda7c7d08da/000000_000000/0000/tree_63.root
/store/group/phys_higgs/hbb/ntuples/VHbbPostNano/2018/V13/EGamma/836b6eaae2e1163b95a2a08cbbeedd9e884686615160520796412257/000000_000000/0000/tree_64.root
/store/group/phys_higgs/hbb/ntuples/VHbbPostNano/2018/V13/EGamma/83d30c31dc8f70a245651e55555cd07d348a9c1c75b7215abec2ea7e/000000_000000/0000/tree_65.root
/store/group/phys_higgs/hbb/ntuples/VHbbPostNano/2018/V13/EGamma/f89757e004647766e3d8f62b6fc498538af40443b6041e6543e3e3d6/000000_000000/0000/tree_66.root
/store/group/phys_higgs/hbb/ntuples/VHbbPostNano/2018/V13/EGamma/b210074eae7b0b8e653816ed23c2b7bcd0549333f6eb300d5b309daa/000000_000000/0000/tree_67.root
/store/group/phys_higgs/hbb/ntuples/VHbbPostNano/2018/V13/EGamma/93a7c5a7b25fcd13bfb6233e6f0e32a82075e6c8fc50b6b140f35813/000000_000000/0000/tree_68.root
/store/group/phys_higgs/hbb/ntuples/VHbbPostNano/2018/V13/EGamma/371ce1be095df15276360c652876ecaad8f2f6ec64ce6db2419a220e/000000_000000/0000/tree_69.root
/store/group/phys_higgs/hbb/ntuples/VHbbPostNano/2018/V13/EGamma/7de7628a31ecec504609b89e11518251eb2af890598dcdc47742ead7/000000_000000/0000/tree_70.root
/store/group/phys_higgs/hbb/ntuples/VHbbPostNano/2018/V13/EGamma/a7b88559404314e0e1c81777cce61c565785b6f7d26e9597aa55b058/000000_000000/0000/tree_71.root
/store/group/phys_higgs/hbb/ntuples/VHbbPostNano/2018/V13/EGamma/d550b133528094417b800bc9ac59769f9dec13eb2d7d6e085ca7eb3e/000000_000000/0000/tree_72.root
/store/group/phys_higgs/hbb/ntuples/VHbbPostNano/2018/V13/EGamma/db0fcfe8dce695fd3b178e4b38ba79eb00f47a535ce47b4be74b8e97/000000_000000/0000/tree_73.root
/store/group/phys_higgs/hbb/ntuples/VHbbPostNano/2018/V13/EGamma/5bfe2aa7744c12858d007aed83251ed1b8ab0b048d18dde428cdee68/000000_000000/0000/tree_74.root
/store/group/phys_higgs/hbb/ntuples/VHbbPostNano/2018/V13/EGamma/d7bc5e4e109f3f7b563737deb117d50787ed455553fc1353ee11b8ce/000000_000000/0000/tree_75.root
/store/group/phys_higgs/hbb/ntuples/VHbbPostNano/2018/V13/EGamma/3618197c244b2718dfba4e7328567ab136cbc880bbcca27defd59f5a/000000_000000/0000/tree_76.root
/store/group/phys_higgs/hbb/ntuples/VHbbPostNano/2018/V13/EGamma/c92f7370d3a0e47d2b4a8888365e2f578c91c05ba5b5d82bea2d335b/000000_000000/0000/tree_77.root
/store/group/phys_higgs/hbb/ntuples/VHbbPostNano/2018/V13/EGamma/a4c6c2795d5c76b245b1d8e9200874a731ef8b5bb6fc3220134718b6/000000_000000/0000/tree_78.root