/store/group/phys_higgs/hbb/ntuples/VHbbPostNano/2018/V13/TTTo2L2Nu_TuneCP5_13TeV-powheg-pythia8/RunIIAutumn18NanoAODv7-Nano02A80/200708_080543/e9cec4122bcfefdd92518527f6a68939ec1919e95214c871de5ee9aa/000000_000000/0000/tree_0.root
/store/group/phys_higgs/hbb/ntuples/VHbbPostNano/2018/V13/TTTo2L2Nu_TuneCP5_13TeV-powheg-pythia8/RunIIAutumn18NanoAODv7-Nano02A80/200708_080543/bac753fc0e038fc0f52afeb60d5fe15c9fa92ce32d22eeb0875339de/000000_000000/0000/tree_1.root
/store/group/phys_higgs/hbb/ntuples/VHbbPostNano/2018/V13/TTTo2L2Nu_TuneCP5_13TeV-powheg-pythia8/RunIIAutumn18NanoAODv7-Nano02A80/200708_080543/ebaf948aee26539cdf75677ecf3e7014516b741f8559a0e3f8af71af/000000_000000/0000/tree_2.root
/store/group/phys_higgs/hbb/ntuples/VHbbPostNano/2018/V13/TTTo2L2Nu_TuneCP5_13TeV-powheg-pythia8/RunIIAutumn18NanoAODv7-Nano02A80/200708_080543/bcc2dfcb41460e4f85781a3322f78fcdb1194cdbdbc21a1abb754aa7/000000_000000/0000/tree_3.root
/store/group/phys_higgs/hbb/ntuples/VHbbPostNano/2018/V13/TTTo2L2Nu_TuneCP5_13TeV-powheg-pythia8/RunIIAutumn18NanoAODv7-Nano02A80/200708_080543/82b2a7645f7bf5a66860c7dda1bbe6cf28ed3b1675c184bfa6989410/000000_000000/0000/tree_4.root
/store/group/phys_higgs/hbb/ntuples/VHbbPostNano/2018/V13/TTTo2L2Nu_TuneCP5_13TeV-powheg-pythia8/RunIIAutumn18NanoAODv7-Nano02A80/200708_080543/82eacab5c0586c184b5789539763a18068222a7920113ee9ae29e7e3/000000_000000/0000/tree_5.root
/store/group/phys_higgs/hbb/ntuples/VHbbPostNano/2018/V13/TTTo2L2Nu_TuneCP5_13TeV-powheg-pythia8/RunIIAutumn18NanoAODv7-Nano02A80/200708_080543/c856fa8df35a763d56d518cd412ff63754d0d84f33565e1e70e7aa87/000000_000000/0000/tree_6.root
/store/group/phys_higgs/hbb/ntuples/VHbbPostNano/2018/V13/TTTo2L2Nu_TuneCP5_13TeV-powheg-pythia8/RunIIAutumn18NanoAODv7-Nano02A80/200708_080543/187156984b01b82c3a91473916b005a7b7d29d61463cc196be1034a7/000000_000000/0000/tree_7.root
/store/group/phys_higgs/hbb/ntuples/VHbbPostNano/2018/V13/TTTo2L2Nu_TuneCP5_13TeV-powheg-pythia8/RunIIAutumn18NanoAODv7-Nano02A80/200708_080543/f7fcf4c0c7c1b42ea4a4f5c80a579db64f48fef432a37d7f23fffafa/000000_000000/0000/tree_8.root
/store/group/phys_higgs/hbb/ntuples/VHbbPostNano/2018/V13/TTTo2L2Nu_TuneCP5_13TeV-powheg-pythia8/RunIIAutumn18NanoAODv7-Nano02A80/200708_080543/07439ab12c42ff5d15db38b6d79bd5aac901479514eb607fef18da10/000000_000000/0000/tree_9.root
/store/group/phys_higgs/hbb/ntuples/VHbbPostNano/2018/V13/TTTo2L2Nu_TuneCP5_13TeV-powheg-pythia8/RunIIAutumn18NanoAODv7-Nano02A80/200708_080543/92615b420c087815b72af178101fd00a186eb1bce79c768c8c93b9c7/000000_000000/0000/tree_10.root
/store/group/phys_higgs/hbb/ntuples/VHbbPostNano/2018/V13/TTTo2L2Nu_TuneCP5_13TeV-powheg-pythia8/RunIIAutumn18NanoAODv7-Nano02A80/200708_080543/948a0983f9871a0c87d818c325e480df01e6d64cad414f33c71dd949/000000_000000/0000/tree_11.root
/store/group/phys_higgs/hbb/ntuples/VHbbPostNano/2018/V13/TTTo2L2Nu_TuneCP5_13TeV-powheg-pythia8/RunIIAutumn18NanoAODv7-Nano02A80/200708_080543/bee5da54e519a1360fad5cb6527e6302e780c8a00b26ff48a5cc6be3/000000_000000/0000/tree_12.root
/store/group/phys_higgs/hbb/ntuples/VHbbPostNano/2018/V13/TTTo2L2Nu_TuneCP5_13TeV-powheg-pythia8/RunIIAutumn18NanoAODv7-Nano02A80/200708_080543/fc2f0b2c48b5c0224218926f6f3177e6c83f26c797d106379a987201/000000_000000/0000/tree_13.root
/store/group/phys_higgs/hbb/ntuples/VHbbPostNano/2018/V13/TTTo2L2Nu_TuneCP5_13TeV-powheg-pythia8/RunIIAutumn18NanoAODv7-Nano02A80/200708_080543/05496024e9748e67c0cc7ac49a15bc62d12d7deb69bb779770fe8fef/000000_000000/0000/tree_14.root
/store/group/phys_higgs/hbb/ntuples/VHbbPostNano/2018/V13/TTTo2L2Nu_TuneCP5_13TeV-powheg-pythia8/RunIIAutumn18NanoAODv7-Nano02A80/200708_080543/05fb4cff782de14e6b44d470fda0007e55fd2150e74ed27208783b09/000000_000000/0000/tree_15.root
/store/group/phys_higgs/hbb/ntuples/VHbbPostNano/2018/V13/TTTo2L2Nu_TuneCP5_13TeV-powheg-pythia8/RunIIAutumn18NanoAODv7-Nano02A80/200708_080543/13ed0f5fa13a4fd09d7f15d3a7dcf1421156a94ae200aca897c33ab4/000000_000000/0000/tree_16.root
/store/group/phys_higgs/hbb/ntuples/VHbbPostNano/2018/V13/TTTo2L2Nu_TuneCP5_13TeV-powheg-pythia8/RunIIAutumn18NanoAODv7-Nano02A80/200708_080543/9eaa6d2c912c57eb061b6056279890bedc07fac9373300f158211ce4/000000_000000/0000/tree_17.root
/store/group/phys_higgs/hbb/ntuples/VHbbPostNano/2018/V13/TTTo2L2Nu_TuneCP5_13TeV-powheg-pythia8/RunIIAutumn18NanoAODv7-Nano02A80/200708_080543/ecbb551ad888a1ad6b8a0199199e345eec5aa425d66a179933ed6b30/000000_000000/0000/tree_18.root
/store/group/phys_higgs/hbb/ntuples/VHbbPostNano/2018/V13/TTTo2L2Nu_TuneCP5_13TeV-powheg-pythia8/RunIIAutumn18NanoAODv7-Nano02A80/200708_080543/1917cc45341671e3432d09c9b40d589f81683e1773ea4f29cb678c94/000000_000000/0000/tree_19.root
/store/group/phys_higgs/hbb/ntuples/VHbbPostNano/2018/V13/TTTo2L2Nu_TuneCP5_13TeV-powheg-pythia8/RunIIAutumn18NanoAODv7-Nano02A80/200708_080543/3d84298eff6ddff0225ff453edf639f1340863a12fdc344ce470856c/000000_000000/0000/tree_20.root
/store/group/phys_higgs/hbb/ntuples/VHbbPostNano/2018/V13/TTTo2L2Nu_TuneCP5_13TeV-powheg-pythia8/RunIIAutumn18NanoAODv7-Nano02A80/200708_080543/9ad7dc0586faa468ebc7b26c362c2b1a3fa5c498ebf9abbd88c3a7eb/000000_000000/0000/tree_21.root
/store/group/phys_higgs/hbb/ntuples/VHbbPostNano/2018/V13/TTTo2L2Nu_TuneCP5_13TeV-powheg-pythia8/RunIIAutumn18NanoAODv7-Nano02A80/200708_080543/734dfe667758d7878f608d096bddd0a69b1de3dfe30d546ca4aa68c8/000000_000000/0000/tree_22.root
/store/group/phys_higgs/hbb/ntuples/VHbbPostNano/2018/V13/TTTo2L2Nu_TuneCP5_13TeV-powheg-pythia8/RunIIAutumn18NanoAODv7-Nano02A80/200708_080543/013f357b1289799de21a7da8ccbc8e566c6a17d2d98f7f4c8b86b340/000000_000000/0000/tree_23.root
/store/group/phys_higgs/hbb/ntuples/VHbbPostNano/2018/V13/TTTo2L2Nu_TuneCP5_13TeV-powheg-pythia8/RunIIAutumn18NanoAODv7-Nano02A80/200708_080543/59e17425f373b63bf74ccf5342d7223a29827900a7a80b846fb00e70/000000_000000/0000/tree_24.root
/store/group/phys_higgs/hbb/ntuples/VHbbPostNano/2018/V13/TTTo2L2Nu_TuneCP5_13TeV-powheg-pythia8/RunIIAutumn18NanoAODv7-Nano02A80/200708_080543/a364c108e58b8bf272ea17fcece2c10055319e067dc7d5aff6c2193c/000000_000000/0000/tree_25.root
/store/group/phys_higgs/hbb/ntuples/VHbbPostNano/2018/V13/TTTo2L2Nu_TuneCP5_13TeV-powheg-pythia8/RunIIAutumn18NanoAODv7-Nano02A80/200708_080543/3b343f05e4d7f9d30fdfeb6bd2e88d914eafef72fc278ee9e3369ec0/000000_000000/0000/tree_26.root
/store/group/phys_higgs/hbb/ntuples/VHbbPostNano/2018/V13/TTTo2L2Nu_TuneCP5_13TeV-powheg-pythia8/RunIIAutumn18NanoAODv7-Nano02A80/200708_080543/09b4887838282871222f59a1d67a6007c2203d8411c2e78f941ca397/000000_000000/0000/tree_27.root
/store/group/phys_higgs/hbb/ntuples/VHbbPostNano/2018/V13/TTTo2L2Nu_TuneCP5_13TeV-powheg-pythia8/RunIIAutumn18NanoAODv7-Nano02A80/200708_080543/8d171c4431c460b4d916a9924816325dcd24a645292f998a0b80ba1a/000000_000000/0000/tree_28.root
/store/group/phys_higgs/hbb/ntuples/VHbbPostNano/2018/V13/TTTo2L2Nu_TuneCP5_13TeV-powheg-pythia8/RunIIAutumn18NanoAODv7-Nano02A80/200708_080543/c58fc75a7755e87b5d7284cb664bbec591b7df5562f88375d88ae0b7/000000_000000/0000/tree_29.root
/store/group/phys_higgs/hbb/ntuples/VHbbPostNano/2018/V13/TTTo2L2Nu_TuneCP5_13TeV-powheg-pythia8/RunIIAutumn18NanoAODv7-Nano02A80/200708_080543/38c868a13d05611a9d1e90f934a5a9d9777eee8eacd7703dd0b766ac/000000_000000/0000/tree_30.root
/store/group/phys_higgs/hbb/ntuples/VHbbPostNano/2018/V13/TTTo2L2Nu_TuneCP5_13TeV-powheg-pythia8/RunIIAutumn18NanoAODv7-Nano02A80/200708_080543/faa1255a86a899bd4860ccfbe2b449c70ac642156e7a8e59f172b3ec/000000_000000/0000/tree_31.root
/store/group/phys_higgs/hbb/ntuples/VHbbPostNano/2018/V13/TTTo2L2Nu_TuneCP5_13TeV-powheg-pythia8/RunIIAutumn18NanoAODv7-Nano02A80/200708_080543/6efdde329c29717926ab01c89e672d67c30cd4797a203256a99c706c/000000_000000/0000/tree_32.root
/store/group/phys_higgs/hbb/ntuples/VHbbPostNano/2018/V13/TTTo2L2Nu_TuneCP5_13TeV-powheg-pythia8/RunIIAutumn18NanoAODv7-Nano02A80/200708_080543/4ee2286ef2efaf5aaacd24430d2dcb46d212e2b830d6bc4c60efbd8f/000000_000000/0000/tree_33.root
/store/group/phys_higgs/hbb/ntuples/VHbbPostNano/2018/V13/TTTo2L2Nu_TuneCP5_13TeV-powheg-pythia8/RunIIAutumn18NanoAODv7-Nano02A80/200708_080543/c2c68824f9658106ab58dfeb5a1607f2480dd953ae16f6868d278064/000000_000000/0000/tree_34.root
/store/group/phys_higgs/hbb/ntuples/VHbbPostNano/2018/V13/TTTo2L2Nu_TuneCP5_13TeV-powheg-pythia8/RunIIAutumn18NanoAODv7-Nano02A80/200708_080543/f61c4a2943ccc316cc0f658c7c44fb7d5fd7d70320a8aa2274afa18c/000000_000000/0000/tree_35.root
/store/group/phys_higgs/hbb/ntuples/VHbbPostNano/2018/V13/TTTo2L2Nu_TuneCP5_13TeV-powheg-pythia8/RunIIAutumn18NanoAODv7-Nano02A80/200708_080543/c7414f86031b844983c3b61370eb52ecc9a70fe87b36caafbfeb261c/000000_000000/0000/tree_36.root
/store/group/phys_higgs/hbb/ntuples/VHbbPostNano/2018/V13/TTTo2L2Nu_TuneCP5_13TeV-powheg-pythia8/RunIIAutumn18NanoAODv7-Nano02A80/200708_080543/7a26e70f5b1467b2cf021dde965afe265a19f78d8f821c247ab6d2b8/000000_000000/0000/tree_37.root
/store/group/phys_higgs/hbb/ntuples/VHbbPostNano/2018/V13/TTTo2L2Nu_TuneCP5_13TeV-powheg-pythia8/RunIIAutumn18NanoAODv7-Nano02A80/200708_080543/406c6da7757a5df6ce395765bb263f031818fd397d555191c7e275a8/000000_000000/0000/tree_38.root
/store/group/phys_higgs/hbb/ntuples/VHbbPostNano/2018/V13/TTTo2L2Nu_TuneCP5_13TeV-powheg-pythia8/RunIIAutumn18NanoAODv7-Nano02A80/200708_080543/90b2bd0f3b4455a890133ab7a9624415ade3550de563d33faeb7eeff/000000_000000/0000/tree_39.root
/store/group/phys_higgs/hbb/ntuples/VHbbPostNano/2018/V13/TTTo2L2Nu_TuneCP5_13TeV-powheg-pythia8/RunIIAutumn18NanoAODv7-Nano02A80/200708_080543/32330922dcfe40188bd394eb980df3b98bf5a53f211783608a6d3eaf/000000_000000/0000/tree_40.root
/store/group/phys_higgs/hbb/ntuples/VHbbPostNano/2018/V13/TTTo2L2Nu_TuneCP5_13TeV-powheg-pythia8/RunIIAutumn18NanoAODv7-Nano02A80/200708_080543/97e7ce3e89d6e7575d10717a8788df92496402f635c26bc4e6db7c68/000000_000000/0000/tree_41.root
/store/group/phys_higgs/hbb/ntuples/VHbbPostNano/2018/V13/TTTo2L2Nu_TuneCP5_13TeV-powheg-pythia8/RunIIAutumn18NanoAODv7-Nano02A80/200708_080543/363b9394dc7981acd88038d74d3f7652f9fbfa1a599f0951440565c3/000000_000000/0000/tree_42.root
/store/group/phys_higgs/hbb/ntuples/VHbbPostNano/2018/V13/TTTo2L2Nu_TuneCP5_13TeV-powheg-pythia8/RunIIAutumn18NanoAODv7-Nano02A80/200708_080543/30088bdce6f7ed2ff2464ef7a161db9d1eb3dfc2649dc05a62946c31/000000_000000/0000/tree_43.root
/store/group/phys_higgs/hbb/ntuples/VHbbPostNano/2018/V13/TTTo2L2Nu_TuneCP5_13TeV-powheg-pythia8/RunIIAutumn18NanoAODv7-Nano02A80/200708_080543/ba96ddb45051461da0d770f625b9ef6f03d559a8120baaceb86e311a/000000_000000/0000/tree_44.root
/store/group/phys_higgs/hbb/ntuples/VHbbPostNano/2018/V13/TTTo2L2Nu_TuneCP5_13TeV-powheg-pythia8/RunIIAutumn18NanoAODv7-Nano02A80/200708_080543/7984bd3b6d0b5f35b686550c54f848024e8c313aa2d33311e1a5a5af/000000_000000/0000/tree_45.root
/store/group/phys_higgs/hbb/ntuples/VHbbPostNano/2018/V13/TTTo2L2Nu_TuneCP5_13TeV-powheg-pythia8/RunIIAutumn18NanoAODv7-Nano02A80/200708_080543/a636a7869a25c40cb58bca8e64c6aad84969dcb47164dbedd3eec501/000000_000000/0000/tree_46.root
/store/group/phys_higgs/hbb/ntuples/VHbbPostNano/2018/V13/TTTo2L2Nu_TuneCP5_13TeV-powheg-pythia8/RunIIAutumn18NanoAODv7-Nano02A80/200708_080543/529c2b1a55536d54f0f5550f6af0182d095be816bec83512e2c1faff/000000_000000/0000/tree_47.root
/store/group/phys_higgs/hbb/ntuples/VHbbPostNano/2018/V13/TTTo2L2Nu_TuneCP5_13TeV-powheg-pythia8/RunIIAutumn18NanoAODv7-Nano02A80/200708_080543/329d81d3cce90e82ab76d176fe004b9272862bab7668eb939ed3a5ff/000000_000000/0000/tree_48.root
/store/group/phys_higgs/hbb/ntuples/VHbbPostNano/2018/V13/TTTo2L2Nu_TuneCP5_13TeV-powheg-pythia8/RunIIAutumn18NanoAODv7-Nano02A80/200708_080543/d5084084b07cecb638da8be185e507a11c26bab503cc6cebc40ff65f/000000_000000/0000/tree_49.root
/store/group/phys_higgs/hbb/ntuples/VHbbPostNano/2018/V13/TTTo2L2Nu_TuneCP5_13TeV-powheg-pythia8/RunIIAutumn18NanoAODv7-Nano02A80/200708_080543/d50e23dc936bd0071e9777659246fdd3fd784118f98adac75c4d8e06/000000_000000/0000/tree_50.root
/store/group/phys_higgs/hbb/ntuples/VHbbPostNano/2018/V13/TTTo2L2Nu_TuneCP5_13TeV-powheg-pythia8/RunIIAutumn18NanoAODv7-Nano02A80/200708_080543/e9af7dd23ea3e6758ceeedc272c8ca5978da81745e952ecdde0926c6/000000_000000/0000/tree_51.root
/store/group/phys_higgs/hbb/ntuples/VHbbPostNano/2018/V13/TTTo2L2Nu_TuneCP5_13TeV-powheg-pythia8/RunIIAutumn18NanoAODv7-Nano02A80/200708_080543/60c83a23c7e47b8192d93b8834787961274e843ad74b9bf8dc302eda/000000_000000/0000/tree_52.root
/store/group/phys_higgs/hbb/ntuples/VHbbPostNano/2018/V13/TTTo2L2Nu_TuneCP5_13TeV-powheg-pythia8/RunIIAutumn18NanoAODv7-Nano02A80/200708_080543/8297069757c0757a17a7c9970cf0889ade9a238f4f19cce3e5953c9f/000000_000000/0000/tree_53.root
/store/group/phys_higgs/hbb/ntuples/VHbbPostNano/2018/V13/TTTo2L2Nu_TuneCP5_13TeV-powheg-pythia8/RunIIAutumn18NanoAODv7-Nano02A80/200708_080543/fa4bbd61de02beaafa262732825da83ceaef580e7bfca2f324359741/000000_000000/0000/tree_54.root
/store/group/phys_higgs/hbb/ntuples/VHbbPostNano/2018/V13/TTTo2L2Nu_TuneCP5_13TeV-powheg-pythia8/RunIIAutumn18NanoAODv7-Nano02A80/200708_080543/423369ca2961e497ed26afea561fae618d6a0b26e435a23ff07f1496/000000_000000/0000/tree_55.root
/store/group/phys_higgs/hbb/ntuples/VHbbPostNano/2018/V13/TTTo2L2Nu_TuneCP5_13TeV-powheg-pythia8/RunIIAutumn18NanoAODv7-Nano02A80/200708_080543/d30c35c1592878aa6d293205376c1305eea1213e9209e12187c14303/000000_000000/0000/tree_56.root
/store/group/phys_higgs/hbb/ntuples/VHbbPostNano/2018/V13/TTTo2L2Nu_TuneCP5_13TeV-powheg-pythia8/RunIIAutumn18NanoAODv7-Nano02A80/200708_080543/51952da832ccca1147a3bcd3ab70091c61d99c93d8b8d50da9f35e1b/000000_000000/0000/tree_57.root
/store/group/phys_higgs/hbb/ntuples/VHbbPostNano/2018/V13/TTTo2L2Nu_TuneCP5_13TeV-powheg-pythia8/RunIIAutumn18NanoAODv7-Nano02A80/200708_080543/31be9e2712ea369d53e56811e64a19cbf84e9c5965340f1141324386/000000_000000/0000/tree_58.root
/store/group/phys_higgs/hbb/ntuples/VHbbPostNano/2018/V13/TTTo2L2Nu_TuneCP5_13TeV-powheg-pythia8/RunIIAutumn18NanoAODv7-Nano02A80/200708_080543/5826db11ddf1ab4d8f8826e04158f5ed4863a64e4a8ffeab928c417e/000000_000000/0000/tree_59.root
/store/group/phys_higgs/hbb/ntuples/VHbbPostNano/2018/V13/TTTo2L2Nu_TuneCP5_13TeV-powheg-pythia8/RunIIAutumn18NanoAODv7-Nano02A80/200708_080543/009409513567c594310081a673ea3cf01d7d372607dc109bb789011f/000000_000000/0000/tree_60.root
/store/group/phys_higgs/hbb/ntuples/VHbbPostNano/2018/V13/TTTo2L2Nu_TuneCP5_13TeV-powheg-pythia8/RunIIAutumn18NanoAODv7-Nano02A80/200708_080543/a87d5f67a273844c80e566a4974299b83f488fb41f6f2b4aa7b88bb8/000000_000000/0000/tree_61.root
/store/group/phys_higgs/hbb/ntuples/VHbbPostNano/2018/V13/TTTo2L2Nu_TuneCP5_13TeV-powheg-pythia8/RunIIAutumn18NanoAODv7-Nano02A80/200708_080543/ad175fd0060adcf013842e00efefa157773ee18db1bb573ef0041907/000000_000000/0000/tree_62.root
/store/group/phys_higgs/hbb/ntuples/VHbbPostNano/2018/V13/TTTo2L2Nu_TuneCP5_13TeV-powheg-pythia8/RunIIAutumn18NanoAODv7-Nano02A80/200708_080543/b1babf92a3decfd5c50af0f39e0ac9fcddb3b216b111645bc546cbba/000000_000000/0000/tree_63.root
/store/group/phys_higgs/hbb/ntuples/VHbbPostNano/2018/V13/TTTo2L2Nu_TuneCP5_13TeV-powheg-pythia8/RunIIAutumn18NanoAODv7-Nano02A80/200708_080543/9f30d57fca410a61b8fe00190190a63f0c703e46d992fdeaafd1a2fd/000000_000000/0000/tree_64.root
/store/group/phys_higgs/hbb/ntuples/VHbbPostNano/2018/V13/TTTo2L2Nu_TuneCP5_13TeV-powheg-pythia8/RunIIAutumn18NanoAODv7-Nano02A80/200708_080543/44981d00623c6cd3aebfff41c762416507560065f3f51d57a7296d1f/000000_000000/0000/tree_65.root
/store/group/phys_higgs/hbb/ntuples/VHbbPostNano/2018/V13/TTTo2L2Nu_TuneCP5_13TeV-powheg-pythia8/RunIIAutumn18NanoAODv7-Nano02A80/200708_080543/773be6ab33b436c145c18edcc1048850105b9ac64206634f01fd02f9/000000_000000/0000/tree_66.root
/store/group/phys_higgs/hbb/ntuples/VHbbPostNano/2018/V13/TTTo2L2Nu_TuneCP5_13TeV-powheg-pythia8/RunIIAutumn18NanoAODv7-Nano02A80/200708_080543/d28cc49c681abc882bdff98dbe7285a704784d6360995c9483d28757/000000_000000/0000/tree_67.root
/store/group/phys_higgs/hbb/ntuples/VHbbPostNano/2018/V13/TTTo2L2Nu_TuneCP5_13TeV-powheg-pythia8/RunIIAutumn18NanoAODv7-Nano02A80/200708_080543/69d08b4992c7c86e415fb9e01372b506cb29412d5684806313214c3b/000000_000000/0000/tree_68.root
/store/group/phys_higgs/hbb/ntuples/VHbbPostNano/2018/V13/TTTo2L2Nu_TuneCP5_13TeV-powheg-pythia8/RunIIAutumn18NanoAODv7-Nano02A80/200708_080543/797f30132fee476381cfec4bb358178c7e3bbee01ad7bba4b17107c0/000000_000000/0000/tree_69.root
/store/group/phys_higgs/hbb/ntuples/VHbbPostNano/2018/V13/TTTo2L2Nu_TuneCP5_13TeV-powheg-pythia8/RunIIAutumn18NanoAODv7-Nano02A80/200708_080543/bdeb1b122809b24343e2d83876d33f4fae3baa28ae7776619ca8d3a0/000000_000000/0000/tree_70.root
/store/group/phys_higgs/hbb/ntuples/VHbbPostNano/2018/V13/TTTo2L2Nu_TuneCP5_13TeV-powheg-pythia8/RunIIAutumn18NanoAODv7-Nano02A80/200708_080543/b9b003fdf0f0e75e898da77d8cb612292ac3283ddafaa278c631390f/000000_000000/0000/tree_71.root
/store/group/phys_higgs/hbb/ntuples/VHbbPostNano/2018/V13/TTTo2L2Nu_TuneCP5_13TeV-powheg-pythia8/RunIIAutumn18NanoAODv7-Nano02A80/200708_080543/5fee98f815048ca9036f6a508953825cd1990b5494f464b0e23dc3a5/000000_000000/0000/tree_72.root
/store/group/phys_higgs/hbb/ntuples/VHbbPostNano/2018/V13/TTTo2L2Nu_TuneCP5_13TeV-powheg-pythia8/RunIIAutumn18NanoAODv7-Nano02A80/200708_080543/e7f70dcf02665021f8f4bfac30261a2cf118032572a92c33284a57dc/000000_000000/0000/tree_73.root
/store/group/phys_higgs/hbb/ntuples/VHbbPostNano/2018/V13/TTTo2L2Nu_TuneCP5_13TeV-powheg-pythia8/RunIIAutumn18NanoAODv7-Nano02A80/200708_080543/e9e0e7174dcbe9eb576e135a811301c1c4ef6449de6d69443d9a734b/000000_000000/0000/tree_74.root
/store/group/phys_higgs/hbb/ntuples/VHbbPostNano/2018/V13/TTTo2L2Nu_TuneCP5_13TeV-powheg-pythia8/RunIIAutumn18NanoAODv7-Nano02A80/200708_080543/bcb1c689ad1418f9926740e5d82d6b2bbcdc7d8f9fe1719e8f59b29c/000000_000000/0000/tree_75.root
/store/group/phys_higgs/hbb/ntuples/VHbbPostNano/2018/V13/TTTo2L2Nu_TuneCP5_13TeV-powheg-pythia8/RunIIAutumn18NanoAODv7-Nano02A80/200708_080543/d0a8c326208dda728a9292345b64914b0ea03b7bd0b7089096648c83/000000_000000/0000/tree_76.root
/store/group/phys_higgs/hbb/ntuples/VHbbPostNano/2018/V13/TTTo2L2Nu_TuneCP5_13TeV-powheg-pythia8/RunIIAutumn18NanoAODv7-Nano02A80/200708_080543/6b68d23b69c78aa1b608f6267a471ef1cb04738c966baa71f27b9764/000000_000000/0000/tree_77.root
/store/group/phys_higgs/hbb/ntuples/VHbbPostNano/2018/V13/TTTo2L2Nu_TuneCP5_13TeV-powheg-pythia8/RunIIAutumn18NanoAODv7-Nano02A80/200708_080543/9afb70209972af608040431a554989ede0722047b50172e3c17e2543/000000_000000/0000/tree_78.root
/store/group/phys_higgs/hbb/ntuples/VHbbPostNano/2018/V13/TTTo2L2Nu_TuneCP5_13TeV-powheg-pythia8/RunIIAutumn18NanoAODv7-Nano02A80/200708_080543/e331ce47caad289c3f033ad0a1701a9429b1e970b40dd5ddbb28b866/000000_000000/0000/tree_79.root
/store/group/phys_higgs/hbb/ntuples/VHbbPostNano/2018/V13/TTTo2L2Nu_TuneCP5_13TeV-powheg-pythia8/RunIIAutumn18NanoAODv7-Nano02A80/200708_080543/504707ee2650af2418b39b57543a89fa1cc8fba24b60cab081394d5d/000000_000000/0000/tree_80.root
/store/group/phys_higgs/hbb/ntuples/VHbbPostNano/2018/V13/TTTo2L2Nu_TuneCP5_13TeV-powheg-pythia8/RunIIAutumn18NanoAODv7-Nano02A80/200708_080543/03004590d1e142833454f2681e04b1a6b9449aba59c00cf60350ac7f/000000_000000/0000/tree_81.root
/store/group/phys_higgs/hbb/ntuples/VHbbPostNano/2018/V13/TTTo2L2Nu_TuneCP5_13TeV-powheg-pythia8/RunIIAutumn18NanoAODv7-Nano02A80/200708_080543/4a11c9fe6adfc7c03fc132c4cd17b763178963ebc631b26c8fa3addc/000000_000000/0000/tree_82.root
/store/group/phys_higgs/hbb/ntuples/VHbbPostNano/2018/V13/TTTo2L2Nu_TuneCP5_13TeV-powheg-pythia8/RunIIAutumn18NanoAODv7-Nano02A80/200708_080543/af87f2a64b725e0ef1dc3a922094748a04b79f5f37c48c6b575eb8e1/000000_000000/0000/tree_83.root
/store/group/phys_higgs/hbb/ntuples/VHbbPostNano/2018/V13/TTTo2L2Nu_TuneCP5_13TeV-powheg-pythia8/RunIIAutumn18NanoAODv7-Nano02A80/200708_080543/da109f66b0c2ee13f247b72aeb6fadea8415c3c9d45d8b1adab7ed9b/000000_000000/0000/tree_84.root
/store/group/phys_higgs/hbb/ntuples/VHbbPostNano/2018/V13/TTTo2L2Nu_TuneCP5_13TeV-powheg-pythia8/RunIIAutumn18NanoAODv7-Nano02A80/200708_080543/d9b6f69de76cbf1c4e61cd1692c5ebcda1625b2de345eb8e7b80d442/000000_000000/0000/tree_85.root
/store/group/phys_higgs/hbb/ntuples/VHbbPostNano/2018/V13/TTTo2L2Nu_TuneCP5_13TeV-powheg-pythia8/RunIIAutumn18NanoAODv7-Nano02A80/200708_080543/0625c6b90d99f285c71d6967d7f158ac0288ba18a01927ef9195e5ac/000000_000000/0000/tree_86.root
/store/group/phys_higgs/hbb/ntuples/VHbbPostNano/2018/V13/TTTo2L2Nu_TuneCP5_13TeV-powheg-pythia8/RunIIAutumn18NanoAODv7-Nano02A80/200708_080543/f7299a676d3f837bc4b8154c09cc03d8137ef50e35c609d82243dc1a/000000_000000/0000/tree_87.root
/store/group/phys_higgs/hbb/ntuples/VHbbPostNano/2018/V13/TTTo2L2Nu_TuneCP5_13TeV-powheg-pythia8/RunIIAutumn18NanoAODv7-Nano02A80/200708_080543/9876af13ee3d116cb3865d069a81ad94134fcade51649c0af19e96ce/000000_000000/0000/tree_88.root
/store/group/phys_higgs/hbb/ntuples/VHbbPostNano/2018/V13/TTTo2L2Nu_TuneCP5_13TeV-powheg-pythia8/RunIIAutumn18NanoAODv7-Nano02A80/200708_080543/58fa4292dfd145034fa302f12ea1d5b061d6dc8a225f9082fdd6609d/000000_000000/0000/tree_89.root
/store/group/phys_higgs/hbb/ntuples/VHbbPostNano/2018/V13/TTTo2L2Nu_TuneCP5_13TeV-powheg-pythia8/RunIIAutumn18NanoAODv7-Nano02A80/200708_080543/b02b6aee46807e48efa7c14a86580cf9c74fc7d37c13a42ab6ba5964/000000_000000/0000/tree_90.root
/store/group/phys_higgs/hbb/ntuples/VHbbPostNano/2018/V13/TTTo2L2Nu_TuneCP5_13TeV-powheg-pythia8/RunIIAutumn18NanoAODv7-Nano02A80/200708_080543/6dd6817405f9f55ce5d4d51e88e978d51b90734ada293220fd64d243/000000_000000/0000/tree_91.root
/store/group/phys_higgs/hbb/ntuples/VHbbPostNano/2018/V13/TTTo2L2Nu_TuneCP5_13TeV-powheg-pythia8/RunIIAutumn18NanoAODv7-Nano02A80/200708_080543/1b31d51b767b8887f80994b6ed6f08a08d498ec06ab7243e493826b6/000000_000000/0000/tree_92.root
/store/group/phys_higgs/hbb/ntuples/VHbbPostNano/2018/V13/TTTo2L2Nu_TuneCP5_13TeV-powheg-pythia8/RunIIAutumn18NanoAODv7-Nano02A80/200708_080543/54b6423859211e0ea7d2c87a7d11e2976933cee12494713dc0830124/000000_000000/0000/tree_93.root
/store/group/phys_higgs/hbb/ntuples/VHbbPostNano/2018/V13/TTTo2L2Nu_TuneCP5_13TeV-powheg-pythia8/RunIIAutumn18NanoAODv7-Nano02A80/200708_080543/ea579b111af86874699453d213af6e206891ffa05d319904c085a5a8/000000_000000/0000/tree_94.root
/store/group/phys_higgs/hbb/ntuples/VHbbPostNano/2018/V13/TTTo2L2Nu_TuneCP5_13TeV-powheg-pythia8/RunIIAutumn18NanoAODv7-Nano02A80/200708_080543/ac18bc7c667705f8d82cdb8fe661901b6301e6e71789211312c06763/000000_000000/0000/tree_95.root
/store/group/phys_higgs/hbb/ntuples/VHbbPostNano/2018/V13/TTTo2L2Nu_TuneCP5_13TeV-powheg-pythia8/RunIIAutumn18NanoAODv7-Nano02A80/200708_080543/d89716dbbb32c459d66ca2a6fc0d603f845ede0b9f52d7ac3aa54617/000000_000000/0000/tree_96.root
/store/group/phys_higgs/hbb/ntuples/VHbbPostNano/2018/V13/TTTo2L2Nu_TuneCP5_13TeV-powheg-pythia8/RunIIAutumn18NanoAODv7-Nano02A80/200708_080543/74b763f60b9735a57705dc6ad4e500ec7b84f3bca92626c13372b9fd/000000_000000/0000/tree_97.root
/store/group/phys_higgs/hbb/ntuples/VHbbPostNano/2018/V13/TTTo2L2Nu_TuneCP5_13TeV-powheg-pythia8/RunIIAutumn18NanoAODv7-Nano02A80/200708_080543/c98909d4bdc0b8a6af401a4473f087d27863116d5c26bc6fb96edd48/000000_000000/0000/tree_98.root
/store/group/phys_higgs/hbb/ntuples/VHbbPostNano/2018/V13/TTTo2L2Nu_TuneCP5_13TeV-powheg-pythia8/RunIIAutumn18NanoAODv7-Nano02A80/200708_080543/a70094dcaed7bdc5dc5d92fe1d4d262b8302f126ddecc52b1f1f2e30/000000_000000/0000/tree_99.root
/store/group/phys_higgs/hbb/ntuples/VHbbPostNano/2018/V13/TTTo2L2Nu_TuneCP5_13TeV-powheg-pythia8/RunIIAutumn18NanoAODv7-Nano02A80/200708_080543/326a563a192d600dfe61b5378f7c30e0845073c17c9640b880d1b1c3/000000_000000/0000/tree_100.root
/store/group/phys_higgs/hbb/ntuples/VHbbPostNano/2018/V13/TTTo2L2Nu_TuneCP5_13TeV-powheg-pythia8/RunIIAutumn18NanoAODv7-Nano02A80/200708_080543/83d0d411f1327afa795ee1697a4fe439fd1379884565404372a49ec2/000000_000000/0000/tree_101.root
/store/group/phys_higgs/hbb/ntuples/VHbbPostNano/2018/V13/TTTo2L2Nu_TuneCP5_13TeV-powheg-pythia8/RunIIAutumn18NanoAODv7-Nano02A80/200708_080543/96f49d0aa4c5bf7db2b57ddaf9e90259c3ac728c2f802dafcde853dc/000000_000000/0000/tree_102.root
/store/group/phys_higgs/hbb/ntuples/VHbbPostNano/2018/V13/TTTo2L2Nu_TuneCP5_13TeV-powheg-pythia8/RunIIAutumn18NanoAODv7-Nano02A80/200708_080543/b4ef1d8725e2b0accabf40be5373af9e813a6e7117acdbd25682d55c/000000_000000/0000/tree_103.root
/store/group/phys_higgs/hbb/ntuples/VHbbPostNano/2018/V13/TTTo2L2Nu_TuneCP5_13TeV-powheg-pythia8/RunIIAutumn18NanoAODv7-Nano02A80/200708_080543/f754eceb0b825fced616c0c561128485ac7853795621176a7aeb99b7/000000_000000/0000/tree_104.root
/store/group/phys_higgs/hbb/ntuples/VHbbPostNano/2018/V13/TTTo2L2Nu_TuneCP5_13TeV-powheg-pythia8/RunIIAutumn18NanoAODv7-Nano02A80/200708_080543/a0aa75aa2ae46ffbedd5da21bcbc4108a4521be68f1304b47b59e8fd/000000_000000/0000/tree_105.root
/store/group/phys_higgs/hbb/ntuples/VHbbPostNano/2018/V13/TTTo2L2Nu_TuneCP5_13TeV-powheg-pythia8/RunIIAutumn18NanoAODv7-Nano02A80/200708_080543/6f7c1126d1f6e513097fddf82fce7b3a56e5179bd883ad9a83d38704/000000_000000/0000/tree_106.root
/store/group/phys_higgs/hbb/ntuples/VHbbPostNano/2018/V13/TTTo2L2Nu_TuneCP5_13TeV-powheg-pythia8/RunIIAutumn18NanoAODv7-Nano02A80/200708_080543/849d8258390503349b287a0a59654625fb0bf21c9ece7535ab35fec6/000000_000000/0000/tree_107.root
/store/group/phys_higgs/hbb/ntuples/VHbbPostNano/2018/V13/TTTo2L2Nu_TuneCP5_13TeV-powheg-pythia8/RunIIAutumn18NanoAODv7-Nano02A80/200708_080543/4d7f4fa763a9fca1fa5541bc6885dfac18b64c640d47e7a98d356e88/000000_000000/0000/tree_108.root
/store/group/phys_higgs/hbb/ntuples/VHbbPostNano/2018/V13/TTTo2L2Nu_TuneCP5_13TeV-powheg-pythia8/RunIIAutumn18NanoAODv7-Nano02A80/200708_080543/e31134573358579d86ee7cede573ef5a80c02c3fe06d3923c95a2800/000000_000000/0000/tree_109.root
/store/group/phys_higgs/hbb/ntuples/VHbbPostNano/2018/V13/TTTo2L2Nu_TuneCP5_13TeV-powheg-pythia8/RunIIAutumn18NanoAODv7-Nano02A80/200708_080543/c157ec84bfdb3f8d9f8ea6f33b215bb10920641f227b0a0efb724b3a/000000_000000/0000/tree_110.root
/store/group/phys_higgs/hbb/ntuples/VHbbPostNano/2018/V13/TTTo2L2Nu_TuneCP5_13TeV-powheg-pythia8/RunIIAutumn18NanoAODv7-Nano02A80/200708_080543/b76b067c3da3eda3769ecb8ec7b01b436422039543100fcda7c1b601/000000_000000/0000/tree_111.root
/store/group/phys_higgs/hbb/ntuples/VHbbPostNano/2018/V13/TTTo2L2Nu_TuneCP5_13TeV-powheg-pythia8/RunIIAutumn18NanoAODv7-Nano02A80/200708_080543/18d55df42ce96ae2acd4add49a777441c00d1379d1a0746358970242/000000_000000/0000/tree_112.root
/store/group/phys_higgs/hbb/ntuples/VHbbPostNano/2018/V13/TTTo2L2Nu_TuneCP5_13TeV-powheg-pythia8/RunIIAutumn18NanoAODv7-Nano02A80/200708_080543/adb3720a5dcca9150932ff8f9557839e01fcb66b64708c022058caf1/000000_000000/0000/tree_113.root
/store/group/phys_higgs/hbb/ntuples/VHbbPostNano/2018/V13/TTTo2L2Nu_TuneCP5_13TeV-powheg-pythia8/RunIIAutumn18NanoAODv7-Nano02A80/200708_080543/3acaf7bb5f441ff6dbca6d5d4a43568f2a90f3143601a6f60fd8dc89/000000_000000/0000/tree_114.root
/store/group/phys_higgs/hbb/ntuples/VHbbPostNano/2018/V13/TTTo2L2Nu_TuneCP5_13TeV-powheg-pythia8/RunIIAutumn18NanoAODv7-Nano02A80/200708_080543/3a5547306cd57178fbef6723038657cf1a9edd473d396704a4f7beaf/000000_000000/0000/tree_115.root
/store/group/phys_higgs/hbb/ntuples/VHbbPostNano/2018/V13/TTTo2L2Nu_TuneCP5_13TeV-powheg-pythia8/RunIIAutumn18NanoAODv7-Nano02A80/200708_080543/9cea48953e888215299fe3080c3cf862aa175f4c412dd5e3c5841c4b/000000_000000/0000/tree_116.root
/store/group/phys_higgs/hbb/ntuples/VHbbPostNano/2018/V13/TTTo2L2Nu_TuneCP5_13TeV-powheg-pythia8/RunIIAutumn18NanoAODv7-Nano02A80/200708_080543/e1ba06b7e384611cf51cbc31725960f0b152f7a0f03934c075e515ee/000000_000000/0000/tree_117.root
/store/group/phys_higgs/hbb/ntuples/VHbbPostNano/2018/V13/TTTo2L2Nu_TuneCP5_13TeV-powheg-pythia8/RunIIAutumn18NanoAODv7-Nano02A80/200708_080543/378b8c61e7f0f0234d8a2f745d048f64ef5c5b9169ecc734593cb7fe/000000_000000/0000/tree_118.root
/store/group/phys_higgs/hbb/ntuples/VHbbPostNano/2018/V13/TTTo2L2Nu_TuneCP5_13TeV-powheg-pythia8/RunIIAutumn18NanoAODv7-Nano02A80/200708_080543/625f540b8d0ff147182e6cba292a355d60424057cbecbd4c8b7cf193/000000_000000/0000/tree_119.root
/store/group/phys_higgs/hbb/ntuples/VHbbPostNano/2018/V13/TTTo2L2Nu_TuneCP5_13TeV-powheg-pythia8/RunIIAutumn18NanoAODv7-Nano02A80/200708_080543/ff3bd7e7098d652a0b92e73b10e9f077daab478dca77820340fdf1b6/000000_000000/0000/tree_120.root
/store/group/phys_higgs/hbb/ntuples/VHbbPostNano/2018/V13/TTTo2L2Nu_TuneCP5_13TeV-powheg-pythia8/RunIIAutumn18NanoAODv7-Nano02A80/200708_080543/1aabbc2ad4875127b93b94f82ef1bf7344a870487ba8c4619b136d8d/000000_000000/0000/tree_121.root
/store/group/phys_higgs/hbb/ntuples/VHbbPostNano/2018/V13/TTTo2L2Nu_TuneCP5_13TeV-powheg-pythia8/RunIIAutumn18NanoAODv7-Nano02A80/200708_080543/eda3f25977dc531ed1cd49b2248f026b7150dfba5290718d926367d4/000000_000000/0000/tree_122.root
/store/group/phys_higgs/hbb/ntuples/VHbbPostNano/2018/V13/TTTo2L2Nu_TuneCP5_13TeV-powheg-pythia8/RunIIAutumn18NanoAODv7-Nano02A80/200708_080543/108edbc5f22a4d85d0f7f75da45888912a073ae1b288aa496770dde3/000000_000000/0000/tree_123.root
/store/group/phys_higgs/hbb/ntuples/VHbbPostNano/2018/V13/TTTo2L2Nu_TuneCP5_13TeV-powheg-pythia8/RunIIAutumn18NanoAODv7-Nano02A80/200708_080543/f9d2fe4155ab3b2dd63ff41b3bf9f8d5dd1ac57b7631a259634fd23e/000000_000000/0000/tree_124.root
/store/group/phys_higgs/hbb/ntuples/VHbbPostNano/2018/V13/TTTo2L2Nu_TuneCP5_13TeV-powheg-pythia8/RunIIAutumn18NanoAODv7-Nano02A80/200708_080543/77df1efba92eee330f6266af12da237f723085d18cf60d68740590fb/000000_000000/0000/tree_125.root
/store/group/phys_higgs/hbb/ntuples/VHbbPostNano/2018/V13/TTTo2L2Nu_TuneCP5_13TeV-powheg-pythia8/RunIIAutumn18NanoAODv7-Nano02A80/200708_080543/3778deec427a5329bca2beea47f328ebe9b1011866ce2a248e223e52/000000_000000/0000/tree_126.root
/store/group/phys_higgs/hbb/ntuples/VHbbPostNano/2018/V13/TTTo2L2Nu_TuneCP5_13TeV-powheg-pythia8/RunIIAutumn18NanoAODv7-Nano02A80/200708_080543/8adf0603267aebee6505e1e0e4af82372e6e64de7601a9038090ea0c/000000_000000/0000/tree_127.root
/store/group/phys_higgs/hbb/ntuples/VHbbPostNano/2018/V13/TTTo2L2Nu_TuneCP5_13TeV-powheg-pythia8/RunIIAutumn18NanoAODv7-Nano02A80/200708_080543/04d0040040c09512141685d2bde77694c36d49a3b8c9a00824d8ba2e/000000_000000/0000/tree_128.root
/store/group/phys_higgs/hbb/ntuples/VHbbPostNano/2018/V13/TTTo2L2Nu_TuneCP5_13TeV-powheg-pythia8/RunIIAutumn18NanoAODv7-Nano02A80/200708_080543/ba4261dd0f66f0f167a1c82e3c9f090bdb16aeb05093a84c7525166e/000000_000000/0000/tree_129.root
/store/group/phys_higgs/hbb/ntuples/VHbbPostNano/2018/V13/TTTo2L2Nu_TuneCP5_13TeV-powheg-pythia8/RunIIAutumn18NanoAODv7-Nano02A80/200708_080543/f92e0b55b9e17e3c1a8766c11ba120ab2e78cc1a5ae18bf533ab531d/000000_000000/0000/tree_130.root