/eos/cms/store/group/phys_higgs/hbb/ntuples/VHbbPostNano/UL/EFT/2017/V1/DYJetsToLL_LHEFilterPtZ-250To400_MatchEWPDG20_TuneCP5_13TeV-amcatnloFXFX-pythia8/c759434f4f6aaa3d66b75b276dc485c4aeafe297ef01c181d6c4048e/000000_000000/0000/tree_0.root
/eos/cms/store/group/phys_higgs/hbb/ntuples/VHbbPostNano/UL/EFT/2017/V1/DYJetsToLL_LHEFilterPtZ-250To400_MatchEWPDG20_TuneCP5_13TeV-amcatnloFXFX-pythia8/42035dc7c9ea229c6a496f184c625e98eef7627199d0f36144a54f3c/000000_000000/0000/tree_1.root
/eos/cms/store/group/phys_higgs/hbb/ntuples/VHbbPostNano/UL/EFT/2017/V1/DYJetsToLL_LHEFilterPtZ-250To400_MatchEWPDG20_TuneCP5_13TeV-amcatnloFXFX-pythia8/2707b14974b2adc35a71fb127d864e7be9f1671d46e4dbd40e5df89c/000000_000000/0000/tree_2.root
/eos/cms/store/group/phys_higgs/hbb/ntuples/VHbbPostNano/UL/EFT/2017/V1/DYJetsToLL_LHEFilterPtZ-250To400_MatchEWPDG20_TuneCP5_13TeV-amcatnloFXFX-pythia8/1f310ae31ef0f02d83eae01631f4b84091c4b83450a57ae4d485900b/000000_000000/0000/tree_3.root
/eos/cms/store/group/phys_higgs/hbb/ntuples/VHbbPostNano/UL/EFT/2017/V1/DYJetsToLL_LHEFilterPtZ-250To400_MatchEWPDG20_TuneCP5_13TeV-amcatnloFXFX-pythia8/dcf697551844ee70ceef77cc1ce919d6c74f2a1f281780343cceba66/000000_000000/0000/tree_4.root
/eos/cms/store/group/phys_higgs/hbb/ntuples/VHbbPostNano/UL/EFT/2017/V1/DYJetsToLL_LHEFilterPtZ-250To400_MatchEWPDG20_TuneCP5_13TeV-amcatnloFXFX-pythia8/31ab371ed8e919b9180d552b3e32d3c0df2611192fef0430c47d3f40/000000_000000/0000/tree_5.root
/eos/cms/store/group/phys_higgs/hbb/ntuples/VHbbPostNano/UL/EFT/2017/V1/DYJetsToLL_LHEFilterPtZ-250To400_MatchEWPDG20_TuneCP5_13TeV-amcatnloFXFX-pythia8/798c4f7d554102180b297146f6625f01136642b9a95f79d3078c0de0/000000_000000/0000/tree_6.root
/eos/cms/store/group/phys_higgs/hbb/ntuples/VHbbPostNano/UL/EFT/2017/V1/DYJetsToLL_LHEFilterPtZ-250To400_MatchEWPDG20_TuneCP5_13TeV-amcatnloFXFX-pythia8/7ad0d51998fa4d99a98eb5746c02798dd6099fbe80ef3cafc457c630/000000_000000/0000/tree_7.root
/eos/cms/store/group/phys_higgs/hbb/ntuples/VHbbPostNano/UL/EFT/2017/V1/DYJetsToLL_LHEFilterPtZ-250To400_MatchEWPDG20_TuneCP5_13TeV-amcatnloFXFX-pythia8/044afdcbad667979e8a455167167a1fe9b6b007c24fd42f1d94699f7/000000_000000/0000/tree_8.root
/eos/cms/store/group/phys_higgs/hbb/ntuples/VHbbPostNano/UL/EFT/2017/V1/DYJetsToLL_LHEFilterPtZ-250To400_MatchEWPDG20_TuneCP5_13TeV-amcatnloFXFX-pythia8/1408004b26ccbebadb43e2df2337b937b3f2e6ea28ac9bccca61b94d/000000_000000/0000/tree_9.root
/eos/cms/store/group/phys_higgs/hbb/ntuples/VHbbPostNano/UL/EFT/2017/V1/DYJetsToLL_LHEFilterPtZ-250To400_MatchEWPDG20_TuneCP5_13TeV-amcatnloFXFX-pythia8/cc554fc65f023e5f0c85da601a6698b18d3de2b96741ebd7df60285a/000000_000000/0000/tree_10.root
/eos/cms/store/group/phys_higgs/hbb/ntuples/VHbbPostNano/UL/EFT/2017/V1/DYJetsToLL_LHEFilterPtZ-250To400_MatchEWPDG20_TuneCP5_13TeV-amcatnloFXFX-pythia8/fbb007d4705b89bff845d8d89a48faaebdc80fa59a954d8b44be671f/000000_000000/0000/tree_11.root
/eos/cms/store/group/phys_higgs/hbb/ntuples/VHbbPostNano/UL/EFT/2017/V1/DYJetsToLL_LHEFilterPtZ-250To400_MatchEWPDG20_TuneCP5_13TeV-amcatnloFXFX-pythia8/bebb78df9d3bd5d57edc753362e959b5d251accbd7ee9ca87f2d10a0/000000_000000/0000/tree_12.root
/eos/cms/store/group/phys_higgs/hbb/ntuples/VHbbPostNano/UL/EFT/2017/V1/DYJetsToLL_LHEFilterPtZ-250To400_MatchEWPDG20_TuneCP5_13TeV-amcatnloFXFX-pythia8/7baa87b9f2be3f6d575da33b2ce25b96e76de1dfc78d33d5fbb23ad5/000000_000000/0000/tree_13.root
/eos/cms/store/group/phys_higgs/hbb/ntuples/VHbbPostNano/UL/EFT/2017/V1/DYJetsToLL_LHEFilterPtZ-250To400_MatchEWPDG20_TuneCP5_13TeV-amcatnloFXFX-pythia8/55a412b87ff02c7abfec1563e08588ca243050f79782bc1f41598fd3/000000_000000/0000/tree_14.root
/eos/cms/store/group/phys_higgs/hbb/ntuples/VHbbPostNano/UL/EFT/2017/V1/DYJetsToLL_LHEFilterPtZ-250To400_MatchEWPDG20_TuneCP5_13TeV-amcatnloFXFX-pythia8/eda98b6207d35c516d8a5fa2ad5488963142167c7499f42e6eb9c01a/000000_000000/0000/tree_15.root
/eos/cms/store/group/phys_higgs/hbb/ntuples/VHbbPostNano/UL/EFT/2017/V1/DYJetsToLL_LHEFilterPtZ-250To400_MatchEWPDG20_TuneCP5_13TeV-amcatnloFXFX-pythia8/1e61b9e211c7efa96213a02d1be6ab34a2d8a577e80b6c3c43747c67/000000_000000/0000/tree_16.root
/eos/cms/store/group/phys_higgs/hbb/ntuples/VHbbPostNano/UL/EFT/2017/V1/DYJetsToLL_LHEFilterPtZ-250To400_MatchEWPDG20_TuneCP5_13TeV-amcatnloFXFX-pythia8/82b90637846af31e279c2698081ce8cd9f3916d38b04b151e9ee2d04/000000_000000/0000/tree_17.root
/eos/cms/store/group/phys_higgs/hbb/ntuples/VHbbPostNano/UL/EFT/2017/V1/DYJetsToLL_LHEFilterPtZ-250To400_MatchEWPDG20_TuneCP5_13TeV-amcatnloFXFX-pythia8/a2605ff25be9a4bce4bc52243d2245d0f2497148a5dd7ae77c85695d/000000_000000/0000/tree_18.root
/eos/cms/store/group/phys_higgs/hbb/ntuples/VHbbPostNano/UL/EFT/2017/V1/DYJetsToLL_LHEFilterPtZ-250To400_MatchEWPDG20_TuneCP5_13TeV-amcatnloFXFX-pythia8/6da17671af777a47c7f614ef79583526c75b7c6fc2603ff3f24f2494/000000_000000/0000/tree_19.root
/eos/cms/store/group/phys_higgs/hbb/ntuples/VHbbPostNano/UL/EFT/2017/V1/DYJetsToLL_LHEFilterPtZ-250To400_MatchEWPDG20_TuneCP5_13TeV-amcatnloFXFX-pythia8/27fdca38806e0196358f7b926d64e3ed6d8fb54ffc337cd2bcdbbf74/000000_000000/0000/tree_20.root
/eos/cms/store/group/phys_higgs/hbb/ntuples/VHbbPostNano/UL/EFT/2017/V1/DYJetsToLL_LHEFilterPtZ-250To400_MatchEWPDG20_TuneCP5_13TeV-amcatnloFXFX-pythia8/5dcf642724607f204e150a72debb3569368d245c7e42e1a55a1e7b3e/000000_000000/0000/tree_21.root
/eos/cms/store/group/phys_higgs/hbb/ntuples/VHbbPostNano/UL/EFT/2017/V1/DYJetsToLL_LHEFilterPtZ-250To400_MatchEWPDG20_TuneCP5_13TeV-amcatnloFXFX-pythia8/b414f5f1866c0c05bb554051ef33f151ecd4acf2349a781f91c9f3ca/000000_000000/0000/tree_22.root
/eos/cms/store/group/phys_higgs/hbb/ntuples/VHbbPostNano/UL/EFT/2017/V1/DYJetsToLL_LHEFilterPtZ-250To400_MatchEWPDG20_TuneCP5_13TeV-amcatnloFXFX-pythia8/3112bc476973972ea7fb1327c2a524034526d78166a640de5bd78fd2/000000_000000/0000/tree_23.root
/eos/cms/store/group/phys_higgs/hbb/ntuples/VHbbPostNano/UL/EFT/2017/V1/DYJetsToLL_LHEFilterPtZ-250To400_MatchEWPDG20_TuneCP5_13TeV-amcatnloFXFX-pythia8/1b8ca38f851195cdb5dc538f8f324098d4040d3b8e8d3f044beb2e00/000000_000000/0000/tree_24.root
/eos/cms/store/group/phys_higgs/hbb/ntuples/VHbbPostNano/UL/EFT/2017/V1/DYJetsToLL_LHEFilterPtZ-250To400_MatchEWPDG20_TuneCP5_13TeV-amcatnloFXFX-pythia8/6888126940d1c963849b73370923d79de91906d4015c0133dee34d8d/000000_000000/0000/tree_25.root
/eos/cms/store/group/phys_higgs/hbb/ntuples/VHbbPostNano/UL/EFT/2017/V1/DYJetsToLL_LHEFilterPtZ-250To400_MatchEWPDG20_TuneCP5_13TeV-amcatnloFXFX-pythia8/8aeb0ec4e7b0d1ed8ba729cf0a640f626416746e9f4970601a9b803f/000000_000000/0000/tree_26.root
/eos/cms/store/group/phys_higgs/hbb/ntuples/VHbbPostNano/UL/EFT/2017/V1/DYJetsToLL_LHEFilterPtZ-250To400_MatchEWPDG20_TuneCP5_13TeV-amcatnloFXFX-pythia8/2cd91b137c1915908f4eb9e83240701a2f64a159ad8b9495d9065628/000000_000000/0000/tree_27.root
/eos/cms/store/group/phys_higgs/hbb/ntuples/VHbbPostNano/UL/EFT/2017/V1/DYJetsToLL_LHEFilterPtZ-250To400_MatchEWPDG20_TuneCP5_13TeV-amcatnloFXFX-pythia8/e9d19f74a32e0ba09ff51156377bf107c3fe5038c4deb41afd0092f6/000000_000000/0000/tree_28.root
/eos/cms/store/group/phys_higgs/hbb/ntuples/VHbbPostNano/UL/EFT/2017/V1/DYJetsToLL_LHEFilterPtZ-250To400_MatchEWPDG20_TuneCP5_13TeV-amcatnloFXFX-pythia8/1764ad0ee55d64b20317f2de9d50e84869360d475ae9e85ea79e5794/000000_000000/0000/tree_29.root
/eos/cms/store/group/phys_higgs/hbb/ntuples/VHbbPostNano/UL/EFT/2017/V1/DYJetsToLL_LHEFilterPtZ-250To400_MatchEWPDG20_TuneCP5_13TeV-amcatnloFXFX-pythia8/7f7c7d2ad0da36a5e864e4ad5371908365c2a1877dbb40aa079d3053/000000_000000/0000/tree_30.root
/eos/cms/store/group/phys_higgs/hbb/ntuples/VHbbPostNano/UL/EFT/2017/V1/DYJetsToLL_LHEFilterPtZ-250To400_MatchEWPDG20_TuneCP5_13TeV-amcatnloFXFX-pythia8/9a90bed5d303af40c5dee4ed92714ebd753d33527e6a1ecbec47d494/000000_000000/0000/tree_31.root
/eos/cms/store/group/phys_higgs/hbb/ntuples/VHbbPostNano/UL/EFT/2017/V1/DYJetsToLL_LHEFilterPtZ-250To400_MatchEWPDG20_TuneCP5_13TeV-amcatnloFXFX-pythia8/8f616651d6ec58e6560cda8f82572c5a27d9441819384959d50b542e/000000_000000/0000/tree_32.root
/eos/cms/store/group/phys_higgs/hbb/ntuples/VHbbPostNano/UL/EFT/2017/V1/DYJetsToLL_LHEFilterPtZ-250To400_MatchEWPDG20_TuneCP5_13TeV-amcatnloFXFX-pythia8/e2af4b9c83d3cc3dfad1daa508c790d0720417814dfc043fed7f66a8/000000_000000/0000/tree_33.root
/eos/cms/store/group/phys_higgs/hbb/ntuples/VHbbPostNano/UL/EFT/2017/V1/DYJetsToLL_LHEFilterPtZ-250To400_MatchEWPDG20_TuneCP5_13TeV-amcatnloFXFX-pythia8/fe723068ee0f098686bca80f51eef4c5aa2ff06cd7835585d7b73774/000000_000000/0000/tree_34.root
/eos/cms/store/group/phys_higgs/hbb/ntuples/VHbbPostNano/UL/EFT/2017/V1/DYJetsToLL_LHEFilterPtZ-250To400_MatchEWPDG20_TuneCP5_13TeV-amcatnloFXFX-pythia8/cf0ea601ce4a5d600a938c3dee4d19d63e6b9965ade0f9b0fbf08da8/000000_000000/0000/tree_35.root
/eos/cms/store/group/phys_higgs/hbb/ntuples/VHbbPostNano/UL/EFT/2017/V1/DYJetsToLL_LHEFilterPtZ-250To400_MatchEWPDG20_TuneCP5_13TeV-amcatnloFXFX-pythia8/51ba025f168d54d0862c10de28329167e56859817c3400874f1cf397/000000_000000/0000/tree_36.root
/eos/cms/store/group/phys_higgs/hbb/ntuples/VHbbPostNano/UL/EFT/2017/V1/DYJetsToLL_LHEFilterPtZ-250To400_MatchEWPDG20_TuneCP5_13TeV-amcatnloFXFX-pythia8/e59185cf0d00dd001fe59f3761eb9da943c5ba74d2d637e78cec5e2b/000000_000000/0000/tree_37.root
/eos/cms/store/group/phys_higgs/hbb/ntuples/VHbbPostNano/UL/EFT/2017/V1/DYJetsToLL_LHEFilterPtZ-250To400_MatchEWPDG20_TuneCP5_13TeV-amcatnloFXFX-pythia8/6fd63d1d15b39510c527576d86742a68c526ca4a3b0698b2a6600d97/000000_000000/0000/tree_38.root
/eos/cms/store/group/phys_higgs/hbb/ntuples/VHbbPostNano/UL/EFT/2017/V1/DYJetsToLL_LHEFilterPtZ-250To400_MatchEWPDG20_TuneCP5_13TeV-amcatnloFXFX-pythia8/82bbd8cc51c5d29184441c7a0c0f290ab76b6ca01a16f136521f6760/000000_000000/0000/tree_39.root
/eos/cms/store/group/phys_higgs/hbb/ntuples/VHbbPostNano/UL/EFT/2017/V1/DYJetsToLL_LHEFilterPtZ-250To400_MatchEWPDG20_TuneCP5_13TeV-amcatnloFXFX-pythia8/5f9843e5f93a36a86801925549d87851db1cab6a597f7c336857ef51/000000_000000/0000/tree_40.root
/eos/cms/store/group/phys_higgs/hbb/ntuples/VHbbPostNano/UL/EFT/2017/V1/DYJetsToLL_LHEFilterPtZ-250To400_MatchEWPDG20_TuneCP5_13TeV-amcatnloFXFX-pythia8/da262d8941376162c7d6f4c4f2ad48d849bc8a29cf0c24e9d8cb5f2c/000000_000000/0000/tree_41.root
/eos/cms/store/group/phys_higgs/hbb/ntuples/VHbbPostNano/UL/EFT/2017/V1/DYJetsToLL_LHEFilterPtZ-250To400_MatchEWPDG20_TuneCP5_13TeV-amcatnloFXFX-pythia8/f8f959e9c575a5c7d734afeb59ec2c68c1b02c3233c2a17aeb53a463/000000_000000/0000/tree_42.root
/eos/cms/store/group/phys_higgs/hbb/ntuples/VHbbPostNano/UL/EFT/2017/V1/DYJetsToLL_LHEFilterPtZ-250To400_MatchEWPDG20_TuneCP5_13TeV-amcatnloFXFX-pythia8/211a4377b3f0bebe2e30fa265620be3c501852e650bc876484bf8152/000000_000000/0000/tree_43.root
/eos/cms/store/group/phys_higgs/hbb/ntuples/VHbbPostNano/UL/EFT/2017/V1/DYJetsToLL_LHEFilterPtZ-250To400_MatchEWPDG20_TuneCP5_13TeV-amcatnloFXFX-pythia8/f80c10acd7c0b86dd040a57df0f7fa0d7edc58436c506eb99a44d459/000000_000000/0000/tree_44.root