/eos/cms/store/group/phys_higgs/hbb/ntuples/VHbbPostNano/UL/EFT/2017/V1/QCD_HT1500to2000_TuneCP5_PSWeights_13TeV-madgraph-pythia8/a27380cf85186eb88bf1798e2f40f8faa117be0b3a8a68d82569a5d3/000000_000000/0000/tree_0.root
/eos/cms/store/group/phys_higgs/hbb/ntuples/VHbbPostNano/UL/EFT/2017/V1/QCD_HT1500to2000_TuneCP5_PSWeights_13TeV-madgraph-pythia8/f6eb9036e7a2427984aa712d947128729b75b213ed695ad6d60432b1/000000_000000/0000/tree_1.root
/eos/cms/store/group/phys_higgs/hbb/ntuples/VHbbPostNano/UL/EFT/2017/V1/QCD_HT1500to2000_TuneCP5_PSWeights_13TeV-madgraph-pythia8/94c819fca9b2e54401473729593de393ae53cc1c4759c6193a23f0aa/000000_000000/0000/tree_2.root
/eos/cms/store/group/phys_higgs/hbb/ntuples/VHbbPostNano/UL/EFT/2017/V1/QCD_HT1500to2000_TuneCP5_PSWeights_13TeV-madgraph-pythia8/777f0ed1737f7262de0536c7b8b5b9bf19cf8b436273c1be559c7da0/000000_000000/0000/tree_3.root
/eos/cms/store/group/phys_higgs/hbb/ntuples/VHbbPostNano/UL/EFT/2017/V1/QCD_HT1500to2000_TuneCP5_PSWeights_13TeV-madgraph-pythia8/807ac3e1d7588bf95b309f7de4b99dd036990a46f392aece9f708a5c/000000_000000/0000/tree_4.root
/eos/cms/store/group/phys_higgs/hbb/ntuples/VHbbPostNano/UL/EFT/2017/V1/QCD_HT1500to2000_TuneCP5_PSWeights_13TeV-madgraph-pythia8/770f207eed047af72f1fff7042abf2ce34efb055bad22fe06a5f616d/000000_000000/0000/tree_5.root
/eos/cms/store/group/phys_higgs/hbb/ntuples/VHbbPostNano/UL/EFT/2017/V1/QCD_HT1500to2000_TuneCP5_PSWeights_13TeV-madgraph-pythia8/79eba1fe12330809194d85350b891b53990d9ce6b78806a84731c14c/000000_000000/0000/tree_6.root