/eos/cms/store/group/phys_higgs/hbb/ntuples/VHbbPostNano/UL/EFT/2017/V1/ST_tW_antitop_5f_NoFullyHadronicDecays_TuneCP5_13TeV-powheg-pythia8/e6b3110d74966989df1686f8cba6a9e60f431f82034f45837029f806/000000_000000/0000/tree_0.root
/eos/cms/store/group/phys_higgs/hbb/ntuples/VHbbPostNano/UL/EFT/2017/V1/ST_tW_antitop_5f_NoFullyHadronicDecays_TuneCP5_13TeV-powheg-pythia8/c04beef47418ddbb864a541cead52b38374f6d17c4386689612d3ea0/000000_000000/0000/tree_1.root
/eos/cms/store/group/phys_higgs/hbb/ntuples/VHbbPostNano/UL/EFT/2017/V1/ST_tW_antitop_5f_NoFullyHadronicDecays_TuneCP5_13TeV-powheg-pythia8/1f5958134dc4bf3c4a1516cd138252279d1519bb48cc9aebaac6fa41/000000_000000/0000/tree_2.root
/eos/cms/store/group/phys_higgs/hbb/ntuples/VHbbPostNano/UL/EFT/2017/V1/ST_tW_antitop_5f_NoFullyHadronicDecays_TuneCP5_13TeV-powheg-pythia8/4268edd016df253ebc64f0c8bc3ffaf3090224ef12978bfcba5c88b2/000000_000000/0000/tree_3.root
/eos/cms/store/group/phys_higgs/hbb/ntuples/VHbbPostNano/UL/EFT/2017/V1/ST_tW_antitop_5f_NoFullyHadronicDecays_TuneCP5_13TeV-powheg-pythia8/a0ad45fc313e4518ce09045fdc19ebe87258dad3fac4c269ee76608c/000000_000000/0000/tree_4.root
/eos/cms/store/group/phys_higgs/hbb/ntuples/VHbbPostNano/UL/EFT/2017/V1/ST_tW_antitop_5f_NoFullyHadronicDecays_TuneCP5_13TeV-powheg-pythia8/12b09c63d4cfa73925f89bb49300e2334419f47c027140c14967a7ac/000000_000000/0000/tree_5.root
/eos/cms/store/group/phys_higgs/hbb/ntuples/VHbbPostNano/UL/EFT/2017/V1/ST_tW_antitop_5f_NoFullyHadronicDecays_TuneCP5_13TeV-powheg-pythia8/6814576d7f9ebbc192f9c6225801386eb54d490fa6bdefb0097c8972/000000_000000/0000/tree_6.root
/eos/cms/store/group/phys_higgs/hbb/ntuples/VHbbPostNano/UL/EFT/2017/V1/ST_tW_antitop_5f_NoFullyHadronicDecays_TuneCP5_13TeV-powheg-pythia8/1762f9c932d4be779ca06b91da41fe9261049d9fb2de714059f79429/000000_000000/0000/tree_7.root