/eos/cms/store/group/phys_higgs/hbb/ntuples/VHbbPostNano/UL/EFT/2017/V1/WJetsToLNu_Pt-400To600_MatchEWPDG20_TuneCP5_13TeV-amcatnloFXFX-pythia8/2769dcba385895e10978e344a4882cde365b36cb8f0a210f528fe496/000000_000000/0000/tree_0.root
/eos/cms/store/group/phys_higgs/hbb/ntuples/VHbbPostNano/UL/EFT/2017/V1/WJetsToLNu_Pt-400To600_MatchEWPDG20_TuneCP5_13TeV-amcatnloFXFX-pythia8/706834931177b1164cfdb1ec47b6639bba08f8d8220856da4b6ed07f/000000_000000/0000/tree_1.root
/eos/cms/store/group/phys_higgs/hbb/ntuples/VHbbPostNano/UL/EFT/2017/V1/WJetsToLNu_Pt-400To600_MatchEWPDG20_TuneCP5_13TeV-amcatnloFXFX-pythia8/8a07ae89a5ffdb2ed5b97f97191135dada3dd5e04544808149ddafde/000000_000000/0000/tree_2.root
/eos/cms/store/group/phys_higgs/hbb/ntuples/VHbbPostNano/UL/EFT/2017/V1/WJetsToLNu_Pt-400To600_MatchEWPDG20_TuneCP5_13TeV-amcatnloFXFX-pythia8/332740729bcc3094ce511bd0457c6dc1b42fc190792266b2db21fce9/000000_000000/0000/tree_3.root
/eos/cms/store/group/phys_higgs/hbb/ntuples/VHbbPostNano/UL/EFT/2017/V1/WJetsToLNu_Pt-400To600_MatchEWPDG20_TuneCP5_13TeV-amcatnloFXFX-pythia8/108936a1a8147fdbf39f452a21ef0319296786704038c3b5246a1d5a/000000_000000/0000/tree_4.root
/eos/cms/store/group/phys_higgs/hbb/ntuples/VHbbPostNano/UL/EFT/2017/V1/WJetsToLNu_Pt-400To600_MatchEWPDG20_TuneCP5_13TeV-amcatnloFXFX-pythia8/af36b5a4c1a714fb6f918bb2169b88ec5bb2b9b26a7299337c59a538/000000_000000/0000/tree_5.root
/eos/cms/store/group/phys_higgs/hbb/ntuples/VHbbPostNano/UL/EFT/2017/V1/WJetsToLNu_Pt-400To600_MatchEWPDG20_TuneCP5_13TeV-amcatnloFXFX-pythia8/e3adf47be83b59a5560ee0beddec5fa59618f496dc910129e6e5bff6/000000_000000/0000/tree_6.root
/eos/cms/store/group/phys_higgs/hbb/ntuples/VHbbPostNano/UL/EFT/2017/V1/WJetsToLNu_Pt-400To600_MatchEWPDG20_TuneCP5_13TeV-amcatnloFXFX-pythia8/029f321773d85100f3a337a4d2540613a60941def675906283c3d6ff/000000_000000/0000/tree_7.root
/eos/cms/store/group/phys_higgs/hbb/ntuples/VHbbPostNano/UL/EFT/2017/V1/WJetsToLNu_Pt-400To600_MatchEWPDG20_TuneCP5_13TeV-amcatnloFXFX-pythia8/4793e356c77ecfa5d92f5f479aa581c198f86c67a4b4a670b9b334cd/000000_000000/0000/tree_8.root
/eos/cms/store/group/phys_higgs/hbb/ntuples/VHbbPostNano/UL/EFT/2017/V1/WJetsToLNu_Pt-400To600_MatchEWPDG20_TuneCP5_13TeV-amcatnloFXFX-pythia8/82deda02951771d8d5c328aa2c3854c636b2501ef214297cc36c78ed/000000_000000/0000/tree_9.root
/eos/cms/store/group/phys_higgs/hbb/ntuples/VHbbPostNano/UL/EFT/2017/V1/WJetsToLNu_Pt-400To600_MatchEWPDG20_TuneCP5_13TeV-amcatnloFXFX-pythia8/08ecc0a0741f3106fc440f37b79e5b43b3613399ed6703cc97e3af82/000000_000000/0000/tree_10.root
/eos/cms/store/group/phys_higgs/hbb/ntuples/VHbbPostNano/UL/EFT/2017/V1/WJetsToLNu_Pt-400To600_MatchEWPDG20_TuneCP5_13TeV-amcatnloFXFX-pythia8/87daef17a6a6964d0edf80eb874f085342dcd2dcf0356894f776f67c/000000_000000/0000/tree_11.root
/eos/cms/store/group/phys_higgs/hbb/ntuples/VHbbPostNano/UL/EFT/2017/V1/WJetsToLNu_Pt-400To600_MatchEWPDG20_TuneCP5_13TeV-amcatnloFXFX-pythia8/9487db3ccd538db1664074ff9b69559c277a8e4396dbbf56dac72afc/000000_000000/0000/tree_12.root
/eos/cms/store/group/phys_higgs/hbb/ntuples/VHbbPostNano/UL/EFT/2017/V1/WJetsToLNu_Pt-400To600_MatchEWPDG20_TuneCP5_13TeV-amcatnloFXFX-pythia8/17be2b87ac24bf425d0cd9cc43038f51449370eac2d57c02120dccd5/000000_000000/0000/tree_13.root
/eos/cms/store/group/phys_higgs/hbb/ntuples/VHbbPostNano/UL/EFT/2017/V1/WJetsToLNu_Pt-400To600_MatchEWPDG20_TuneCP5_13TeV-amcatnloFXFX-pythia8/17ae15f8fafa4d390f19d665d560413e251e046f9b461b12fc330146/000000_000000/0000/tree_14.root
/eos/cms/store/group/phys_higgs/hbb/ntuples/VHbbPostNano/UL/EFT/2017/V1/WJetsToLNu_Pt-400To600_MatchEWPDG20_TuneCP5_13TeV-amcatnloFXFX-pythia8/3df3682a4dcaa594393febf261760365349ba95305c8dcc1303ac00d/000000_000000/0000/tree_15.root
/eos/cms/store/group/phys_higgs/hbb/ntuples/VHbbPostNano/UL/EFT/2017/V1/WJetsToLNu_Pt-400To600_MatchEWPDG20_TuneCP5_13TeV-amcatnloFXFX-pythia8/9e9792bef50bdb2fa0ed7630121e77fec2825d3ede399b587092c0a1/000000_000000/0000/tree_16.root
/eos/cms/store/group/phys_higgs/hbb/ntuples/VHbbPostNano/UL/EFT/2017/V1/WJetsToLNu_Pt-400To600_MatchEWPDG20_TuneCP5_13TeV-amcatnloFXFX-pythia8/3c5074bd451004e733346547e60fc08a36d6e3257389f8924921e729/000000_000000/0000/tree_17.root
/eos/cms/store/group/phys_higgs/hbb/ntuples/VHbbPostNano/UL/EFT/2017/V1/WJetsToLNu_Pt-400To600_MatchEWPDG20_TuneCP5_13TeV-amcatnloFXFX-pythia8/913568d4e430d08bcf324b02120f8248aa9f91b8cccd676fd6efb6a1/000000_000000/0000/tree_18.root
/eos/cms/store/group/phys_higgs/hbb/ntuples/VHbbPostNano/UL/EFT/2017/V1/WJetsToLNu_Pt-400To600_MatchEWPDG20_TuneCP5_13TeV-amcatnloFXFX-pythia8/7c7fc53be419ca09f44f8a6cff2c2a17c66a1594d79946b5c82e9a89/000000_000000/0000/tree_19.root
/eos/cms/store/group/phys_higgs/hbb/ntuples/VHbbPostNano/UL/EFT/2017/V1/WJetsToLNu_Pt-400To600_MatchEWPDG20_TuneCP5_13TeV-amcatnloFXFX-pythia8/033a43f86ec4aacc156d0b92e0a8bf80c5fc99bddea59344b6a17743/000000_000000/0000/tree_20.root
/eos/cms/store/group/phys_higgs/hbb/ntuples/VHbbPostNano/UL/EFT/2017/V1/WJetsToLNu_Pt-400To600_MatchEWPDG20_TuneCP5_13TeV-amcatnloFXFX-pythia8/64500e1c66b0cbd6c6af8e6b857b1fa1f7cd49c03946c77f026a28b7/000000_000000/0000/tree_21.root
/eos/cms/store/group/phys_higgs/hbb/ntuples/VHbbPostNano/UL/EFT/2017/V1/WJetsToLNu_Pt-400To600_MatchEWPDG20_TuneCP5_13TeV-amcatnloFXFX-pythia8/17e25a13c504f7234b226161fd1b8797c337044547f60cee27914f47/000000_000000/0000/tree_22.root
/eos/cms/store/group/phys_higgs/hbb/ntuples/VHbbPostNano/UL/EFT/2017/V1/WJetsToLNu_Pt-400To600_MatchEWPDG20_TuneCP5_13TeV-amcatnloFXFX-pythia8/c945e65b0ea355036581a41037ad76ef32b5bda4d854b7d99a71921b/000000_000000/0000/tree_23.root
/eos/cms/store/group/phys_higgs/hbb/ntuples/VHbbPostNano/UL/EFT/2017/V1/WJetsToLNu_Pt-400To600_MatchEWPDG20_TuneCP5_13TeV-amcatnloFXFX-pythia8/e6c020aed62cbb09e7e8f35439cb0879eefaca80e128d3b01b4f45e4/000000_000000/0000/tree_24.root
/eos/cms/store/group/phys_higgs/hbb/ntuples/VHbbPostNano/UL/EFT/2017/V1/WJetsToLNu_Pt-400To600_MatchEWPDG20_TuneCP5_13TeV-amcatnloFXFX-pythia8/f7a5bedd28a757db15f62a613a31955d5efc4a1812075242286322b8/000000_000000/0000/tree_25.root
/eos/cms/store/group/phys_higgs/hbb/ntuples/VHbbPostNano/UL/EFT/2017/V1/WJetsToLNu_Pt-400To600_MatchEWPDG20_TuneCP5_13TeV-amcatnloFXFX-pythia8/a01395bfb694c01cefae81f0b023cf57b368241ec3d22d31473a2dc3/000000_000000/0000/tree_26.root
/eos/cms/store/group/phys_higgs/hbb/ntuples/VHbbPostNano/UL/EFT/2017/V1/WJetsToLNu_Pt-400To600_MatchEWPDG20_TuneCP5_13TeV-amcatnloFXFX-pythia8/8d7ab1fdf1a3d03b002c67a5fc4a098265da8ec8ff4904a3398871ee/000000_000000/0000/tree_27.root
/eos/cms/store/group/phys_higgs/hbb/ntuples/VHbbPostNano/UL/EFT/2017/V1/WJetsToLNu_Pt-400To600_MatchEWPDG20_TuneCP5_13TeV-amcatnloFXFX-pythia8/fa77f7cb1cb3f3995b07d435c0911e440c5e440646e42c1c1d6af0d4/000000_000000/0000/tree_28.root
/eos/cms/store/group/phys_higgs/hbb/ntuples/VHbbPostNano/UL/EFT/2017/V1/WJetsToLNu_Pt-400To600_MatchEWPDG20_TuneCP5_13TeV-amcatnloFXFX-pythia8/da08a51a6bd06a454d93d96909d746d7764f1d083634b2cf12a0e441/000000_000000/0000/tree_29.root
/eos/cms/store/group/phys_higgs/hbb/ntuples/VHbbPostNano/UL/EFT/2017/V1/WJetsToLNu_Pt-400To600_MatchEWPDG20_TuneCP5_13TeV-amcatnloFXFX-pythia8/1fedd6547d63454f3fd416554569490a64c4f7dbddc87204138d2302/000000_000000/0000/tree_30.root
/eos/cms/store/group/phys_higgs/hbb/ntuples/VHbbPostNano/UL/EFT/2017/V1/WJetsToLNu_Pt-400To600_MatchEWPDG20_TuneCP5_13TeV-amcatnloFXFX-pythia8/4737235a2c15c1d867942159830cbee9257c6fa7b805fb02d711b6e2/000000_000000/0000/tree_31.root
/eos/cms/store/group/phys_higgs/hbb/ntuples/VHbbPostNano/UL/EFT/2017/V1/WJetsToLNu_Pt-400To600_MatchEWPDG20_TuneCP5_13TeV-amcatnloFXFX-pythia8/745385be82e7180d2d31112d684ff90b057bcbdf20ea8f9ea4e5b9e5/000000_000000/0000/tree_32.root
/eos/cms/store/group/phys_higgs/hbb/ntuples/VHbbPostNano/UL/EFT/2017/V1/WJetsToLNu_Pt-400To600_MatchEWPDG20_TuneCP5_13TeV-amcatnloFXFX-pythia8/239f110d19bab68588841c89ac86589e4fd793bfe2e3362e2a5c2915/000000_000000/0000/tree_33.root
/eos/cms/store/group/phys_higgs/hbb/ntuples/VHbbPostNano/UL/EFT/2017/V1/WJetsToLNu_Pt-400To600_MatchEWPDG20_TuneCP5_13TeV-amcatnloFXFX-pythia8/397c2973e2f29e4209aef4ca4e14181e29edc10b1127a2cb5bb686a4/000000_000000/0000/tree_34.root
/eos/cms/store/group/phys_higgs/hbb/ntuples/VHbbPostNano/UL/EFT/2017/V1/WJetsToLNu_Pt-400To600_MatchEWPDG20_TuneCP5_13TeV-amcatnloFXFX-pythia8/b5b2622f195b3304eeb4445c888d1869b74cea676400dccd0e8fa737/000000_000000/0000/tree_35.root
/eos/cms/store/group/phys_higgs/hbb/ntuples/VHbbPostNano/UL/EFT/2017/V1/WJetsToLNu_Pt-400To600_MatchEWPDG20_TuneCP5_13TeV-amcatnloFXFX-pythia8/a305f7214cf3bbbce39de1d0f64575bab679c1560f873cc5091f8fd5/000000_000000/0000/tree_36.root
/eos/cms/store/group/phys_higgs/hbb/ntuples/VHbbPostNano/UL/EFT/2017/V1/WJetsToLNu_Pt-400To600_MatchEWPDG20_TuneCP5_13TeV-amcatnloFXFX-pythia8/0d5e88883b103f5fc0891b8582f2e6d6bb2448eb3b768f474f2e690a/000000_000000/0000/tree_37.root
/eos/cms/store/group/phys_higgs/hbb/ntuples/VHbbPostNano/UL/EFT/2017/V1/WJetsToLNu_Pt-400To600_MatchEWPDG20_TuneCP5_13TeV-amcatnloFXFX-pythia8/39ba4b7c50ff363ab8c12374044b15702d207f82d980bc630b90ae89/000000_000000/0000/tree_38.root
/eos/cms/store/group/phys_higgs/hbb/ntuples/VHbbPostNano/UL/EFT/2017/V1/WJetsToLNu_Pt-400To600_MatchEWPDG20_TuneCP5_13TeV-amcatnloFXFX-pythia8/b549f8f4bd26cc77a50d94070310276dbe34f4b3ea2bb1223d8cabfd/000000_000000/0000/tree_39.root
/eos/cms/store/group/phys_higgs/hbb/ntuples/VHbbPostNano/UL/EFT/2017/V1/WJetsToLNu_Pt-400To600_MatchEWPDG20_TuneCP5_13TeV-amcatnloFXFX-pythia8/f8b8397479a89cdf0cfdc50649e99bb4ce59f9aea8095f7b1f5245af/000000_000000/0000/tree_40.root
/eos/cms/store/group/phys_higgs/hbb/ntuples/VHbbPostNano/UL/EFT/2017/V1/WJetsToLNu_Pt-400To600_MatchEWPDG20_TuneCP5_13TeV-amcatnloFXFX-pythia8/aed922f5363c1b4458c10178e518bafaba7f8bacb20858f41ae0192b/000000_000000/0000/tree_41.root
/eos/cms/store/group/phys_higgs/hbb/ntuples/VHbbPostNano/UL/EFT/2017/V1/WJetsToLNu_Pt-400To600_MatchEWPDG20_TuneCP5_13TeV-amcatnloFXFX-pythia8/0f5954dd25413dc29de6f5d546a28ab8474342698839935027d55143/000000_000000/0000/tree_42.root
/eos/cms/store/group/phys_higgs/hbb/ntuples/VHbbPostNano/UL/EFT/2017/V1/WJetsToLNu_Pt-400To600_MatchEWPDG20_TuneCP5_13TeV-amcatnloFXFX-pythia8/a86366447b13edfac26cb5ab93245ea7d46fd05392d94e3e50be0e21/000000_000000/0000/tree_43.root
/eos/cms/store/group/phys_higgs/hbb/ntuples/VHbbPostNano/UL/EFT/2017/V1/WJetsToLNu_Pt-400To600_MatchEWPDG20_TuneCP5_13TeV-amcatnloFXFX-pythia8/01f97122d4ce3eae69f7ca08af3855bf43e3be579f37503d6119cda7/000000_000000/0000/tree_44.root
/eos/cms/store/group/phys_higgs/hbb/ntuples/VHbbPostNano/UL/EFT/2017/V1/WJetsToLNu_Pt-400To600_MatchEWPDG20_TuneCP5_13TeV-amcatnloFXFX-pythia8/5b1c47d94fe2b9e711ffe778b85e5f4037adb41a7812f3998b29ae76/000000_000000/0000/tree_45.root
/eos/cms/store/group/phys_higgs/hbb/ntuples/VHbbPostNano/UL/EFT/2017/V1/WJetsToLNu_Pt-400To600_MatchEWPDG20_TuneCP5_13TeV-amcatnloFXFX-pythia8/0d2da4d9a116cce6e6d81428f6c6eaaeb5b3b7297ece16963a4723f9/000000_000000/0000/tree_46.root
/eos/cms/store/group/phys_higgs/hbb/ntuples/VHbbPostNano/UL/EFT/2017/V1/WJetsToLNu_Pt-400To600_MatchEWPDG20_TuneCP5_13TeV-amcatnloFXFX-pythia8/a91e5faf502d582685071aa8e860475796bd0b712558104b11d3598d/000000_000000/0000/tree_47.root
/eos/cms/store/group/phys_higgs/hbb/ntuples/VHbbPostNano/UL/EFT/2017/V1/WJetsToLNu_Pt-400To600_MatchEWPDG20_TuneCP5_13TeV-amcatnloFXFX-pythia8/2ee61b81227733075a9bd152580d2c7c64ead7937cb0a7e0ec16c5a4/000000_000000/0000/tree_48.root
/eos/cms/store/group/phys_higgs/hbb/ntuples/VHbbPostNano/UL/EFT/2017/V1/WJetsToLNu_Pt-400To600_MatchEWPDG20_TuneCP5_13TeV-amcatnloFXFX-pythia8/d08cd007c7d2a24f2570f39d0df5dd07765e80909d495482ce384174/000000_000000/0000/tree_49.root
/eos/cms/store/group/phys_higgs/hbb/ntuples/VHbbPostNano/UL/EFT/2017/V1/WJetsToLNu_Pt-400To600_MatchEWPDG20_TuneCP5_13TeV-amcatnloFXFX-pythia8/9eb70a502f3b4502ecf990155d5c5f42727ef411d216a1e70d76b426/000000_000000/0000/tree_50.root
/eos/cms/store/group/phys_higgs/hbb/ntuples/VHbbPostNano/UL/EFT/2017/V1/WJetsToLNu_Pt-400To600_MatchEWPDG20_TuneCP5_13TeV-amcatnloFXFX-pythia8/ab706e893bf058360e69a6e8aa4318595911f72ca660981c9c83b368/000000_000000/0000/tree_51.root
/eos/cms/store/group/phys_higgs/hbb/ntuples/VHbbPostNano/UL/EFT/2017/V1/WJetsToLNu_Pt-400To600_MatchEWPDG20_TuneCP5_13TeV-amcatnloFXFX-pythia8/8492a33485d410bbce0d128d04ea5bb69dc163389124c0eccf50b401/000000_000000/0000/tree_52.root
/eos/cms/store/group/phys_higgs/hbb/ntuples/VHbbPostNano/UL/EFT/2017/V1/WJetsToLNu_Pt-400To600_MatchEWPDG20_TuneCP5_13TeV-amcatnloFXFX-pythia8/ca962bc801131e1cf8d2a63b7be18591626bf56d948d11239f15d76c/000000_000000/0000/tree_53.root
/eos/cms/store/group/phys_higgs/hbb/ntuples/VHbbPostNano/UL/EFT/2017/V1/WJetsToLNu_Pt-400To600_MatchEWPDG20_TuneCP5_13TeV-amcatnloFXFX-pythia8/e80f00eba9ce49faf774244f68b3185880411e650f04f84d9d6afd19/000000_000000/0000/tree_54.root
/eos/cms/store/group/phys_higgs/hbb/ntuples/VHbbPostNano/UL/EFT/2017/V1/WJetsToLNu_Pt-400To600_MatchEWPDG20_TuneCP5_13TeV-amcatnloFXFX-pythia8/5ff22917ed78a5f269d60924d83c0db40d2b9a79b8eea6eeac0f362a/000000_000000/0000/tree_55.root
/eos/cms/store/group/phys_higgs/hbb/ntuples/VHbbPostNano/UL/EFT/2017/V1/WJetsToLNu_Pt-400To600_MatchEWPDG20_TuneCP5_13TeV-amcatnloFXFX-pythia8/e26daadf658f7cfd81ab47f5ebc13d920895c37c58c622b01832a153/000000_000000/0000/tree_56.root
/eos/cms/store/group/phys_higgs/hbb/ntuples/VHbbPostNano/UL/EFT/2017/V1/WJetsToLNu_Pt-400To600_MatchEWPDG20_TuneCP5_13TeV-amcatnloFXFX-pythia8/0d5555c9b1ab6c7b106b8cb066b8c98fe436037e758c8421b20370e1/000000_000000/0000/tree_57.root
/eos/cms/store/group/phys_higgs/hbb/ntuples/VHbbPostNano/UL/EFT/2017/V1/WJetsToLNu_Pt-400To600_MatchEWPDG20_TuneCP5_13TeV-amcatnloFXFX-pythia8/e9222dc1e99bcf736f66ee9762e2fba7b4c8ea610b8c884ecfb32bbd/000000_000000/0000/tree_58.root
/eos/cms/store/group/phys_higgs/hbb/ntuples/VHbbPostNano/UL/EFT/2017/V1/WJetsToLNu_Pt-400To600_MatchEWPDG20_TuneCP5_13TeV-amcatnloFXFX-pythia8/2fdf5b4e52f7acb557029d01dd9b660b01f3293cb49249e18b3b46b5/000000_000000/0000/tree_59.root
/eos/cms/store/group/phys_higgs/hbb/ntuples/VHbbPostNano/UL/EFT/2017/V1/WJetsToLNu_Pt-400To600_MatchEWPDG20_TuneCP5_13TeV-amcatnloFXFX-pythia8/3cf593c3b9a01b49887d263d713d7cc97d57911b3a5834f8045f5803/000000_000000/0000/tree_60.root
/eos/cms/store/group/phys_higgs/hbb/ntuples/VHbbPostNano/UL/EFT/2017/V1/WJetsToLNu_Pt-400To600_MatchEWPDG20_TuneCP5_13TeV-amcatnloFXFX-pythia8/93db2b97a5f69c7e4ffcf76dac49dbc514b81f22420c36036db1ccfa/000000_000000/0000/tree_61.root
/eos/cms/store/group/phys_higgs/hbb/ntuples/VHbbPostNano/UL/EFT/2017/V1/WJetsToLNu_Pt-400To600_MatchEWPDG20_TuneCP5_13TeV-amcatnloFXFX-pythia8/d28a50b65fb6563e727aac146cd59a5edd0694afa9130599d643e744/000000_000000/0000/tree_62.root
/eos/cms/store/group/phys_higgs/hbb/ntuples/VHbbPostNano/UL/EFT/2017/V1/WJetsToLNu_Pt-400To600_MatchEWPDG20_TuneCP5_13TeV-amcatnloFXFX-pythia8/40e15ef07a37a386137a8098772a8b437449fa9dc13affa57932cfe5/000000_000000/0000/tree_63.root
/eos/cms/store/group/phys_higgs/hbb/ntuples/VHbbPostNano/UL/EFT/2017/V1/WJetsToLNu_Pt-400To600_MatchEWPDG20_TuneCP5_13TeV-amcatnloFXFX-pythia8/5f7b2c213b7449024a09d8d47d44e6c7eb5248f626958e3bda9fbfe7/000000_000000/0000/tree_64.root
/eos/cms/store/group/phys_higgs/hbb/ntuples/VHbbPostNano/UL/EFT/2017/V1/WJetsToLNu_Pt-400To600_MatchEWPDG20_TuneCP5_13TeV-amcatnloFXFX-pythia8/9017673c92d297d3bb9ca96440bc494bce5ae69259ca1a6c3becbd12/000000_000000/0000/tree_65.root
/eos/cms/store/group/phys_higgs/hbb/ntuples/VHbbPostNano/UL/EFT/2017/V1/WJetsToLNu_Pt-400To600_MatchEWPDG20_TuneCP5_13TeV-amcatnloFXFX-pythia8/2106d3420ea14df6da80545d1da6105f72574417d891f934e15c1c62/000000_000000/0000/tree_66.root
/eos/cms/store/group/phys_higgs/hbb/ntuples/VHbbPostNano/UL/EFT/2017/V1/WJetsToLNu_Pt-400To600_MatchEWPDG20_TuneCP5_13TeV-amcatnloFXFX-pythia8/841cb3d9eabbc4f5100991aa20ae97e9c8f3edc00dc3e71adb16f003/000000_000000/0000/tree_67.root
/eos/cms/store/group/phys_higgs/hbb/ntuples/VHbbPostNano/UL/EFT/2017/V1/WJetsToLNu_Pt-400To600_MatchEWPDG20_TuneCP5_13TeV-amcatnloFXFX-pythia8/f7fc12f48829f2b016d408947e50c9ab60b78106c6a9580e369c4705/000000_000000/0000/tree_68.root
/eos/cms/store/group/phys_higgs/hbb/ntuples/VHbbPostNano/UL/EFT/2017/V1/WJetsToLNu_Pt-400To600_MatchEWPDG20_TuneCP5_13TeV-amcatnloFXFX-pythia8/c552fdb681065ef3e513b5cfdb403f0976912f80a06de05b58644f6c/000000_000000/0000/tree_69.root
/eos/cms/store/group/phys_higgs/hbb/ntuples/VHbbPostNano/UL/EFT/2017/V1/WJetsToLNu_Pt-400To600_MatchEWPDG20_TuneCP5_13TeV-amcatnloFXFX-pythia8/ca79ca56f15b90053681f0c00b3ff84dfc7d31e8eef0d475ccf8164c/000000_000000/0000/tree_70.root
/eos/cms/store/group/phys_higgs/hbb/ntuples/VHbbPostNano/UL/EFT/2017/V1/WJetsToLNu_Pt-400To600_MatchEWPDG20_TuneCP5_13TeV-amcatnloFXFX-pythia8/e0cc080dfe86a033e93b158a59b7ae803ca6b95298279882671e77b3/000000_000000/0000/tree_71.root
/eos/cms/store/group/phys_higgs/hbb/ntuples/VHbbPostNano/UL/EFT/2017/V1/WJetsToLNu_Pt-400To600_MatchEWPDG20_TuneCP5_13TeV-amcatnloFXFX-pythia8/ccd7ebb63edca93e6a442e875349801094a5acbf03e1edbd4d83af3b/000000_000000/0000/tree_72.root
/eos/cms/store/group/phys_higgs/hbb/ntuples/VHbbPostNano/UL/EFT/2017/V1/WJetsToLNu_Pt-400To600_MatchEWPDG20_TuneCP5_13TeV-amcatnloFXFX-pythia8/c1b5662497f020120cae9ddf557501d841cf754df587254b9df64ada/000000_000000/0000/tree_73.root
/eos/cms/store/group/phys_higgs/hbb/ntuples/VHbbPostNano/UL/EFT/2017/V1/WJetsToLNu_Pt-400To600_MatchEWPDG20_TuneCP5_13TeV-amcatnloFXFX-pythia8/c816bc1995f0fcf5e2b7f9d136c57454c0b95f5719a0008c6488a625/000000_000000/0000/tree_74.root
/eos/cms/store/group/phys_higgs/hbb/ntuples/VHbbPostNano/UL/EFT/2017/V1/WJetsToLNu_Pt-400To600_MatchEWPDG20_TuneCP5_13TeV-amcatnloFXFX-pythia8/88bf1c30394a3cd3df420031acd1e8ac99fcf5b8b7aa9ae32f64a9e1/000000_000000/0000/tree_75.root
/eos/cms/store/group/phys_higgs/hbb/ntuples/VHbbPostNano/UL/EFT/2017/V1/WJetsToLNu_Pt-400To600_MatchEWPDG20_TuneCP5_13TeV-amcatnloFXFX-pythia8/47b049fd7198e2978ae193947a5e8492520d404694b164051f3eb491/000000_000000/0000/tree_76.root
/eos/cms/store/group/phys_higgs/hbb/ntuples/VHbbPostNano/UL/EFT/2017/V1/WJetsToLNu_Pt-400To600_MatchEWPDG20_TuneCP5_13TeV-amcatnloFXFX-pythia8/b884536ac34a7bf9a6630ddd8951b5d2bf10e15664974081a0a0aacb/000000_000000/0000/tree_77.root
/eos/cms/store/group/phys_higgs/hbb/ntuples/VHbbPostNano/UL/EFT/2017/V1/WJetsToLNu_Pt-400To600_MatchEWPDG20_TuneCP5_13TeV-amcatnloFXFX-pythia8/c6b39c59ec8a976fcd400cfd35b58ad97e098557b787f1e79ea73fa8/000000_000000/0000/tree_78.root
/eos/cms/store/group/phys_higgs/hbb/ntuples/VHbbPostNano/UL/EFT/2017/V1/WJetsToLNu_Pt-400To600_MatchEWPDG20_TuneCP5_13TeV-amcatnloFXFX-pythia8/b7a855d17456cb7481d66242ddeefafc50254364c1ae5768d3670287/000000_000000/0000/tree_79.root
/eos/cms/store/group/phys_higgs/hbb/ntuples/VHbbPostNano/UL/EFT/2017/V1/WJetsToLNu_Pt-400To600_MatchEWPDG20_TuneCP5_13TeV-amcatnloFXFX-pythia8/8b03d25812bb35c81edbd38cc30f327977665f1672fac6e68dc24fc6/000000_000000/0000/tree_80.root
/eos/cms/store/group/phys_higgs/hbb/ntuples/VHbbPostNano/UL/EFT/2017/V1/WJetsToLNu_Pt-400To600_MatchEWPDG20_TuneCP5_13TeV-amcatnloFXFX-pythia8/65190e90e155d88c75122a0173fe17b3857efe5f4e8753eef7b0eb8a/000000_000000/0000/tree_81.root
/eos/cms/store/group/phys_higgs/hbb/ntuples/VHbbPostNano/UL/EFT/2017/V1/WJetsToLNu_Pt-400To600_MatchEWPDG20_TuneCP5_13TeV-amcatnloFXFX-pythia8/a44294bd0349f44e97e0ccd57180fe2a699695d09453f7d7eb89bf74/000000_000000/0000/tree_82.root
/eos/cms/store/group/phys_higgs/hbb/ntuples/VHbbPostNano/UL/EFT/2017/V1/WJetsToLNu_Pt-400To600_MatchEWPDG20_TuneCP5_13TeV-amcatnloFXFX-pythia8/2cc555c690d47bd517e24a9c6c203bf13df88a0603243488c998b97d/000000_000000/0000/tree_83.root
/eos/cms/store/group/phys_higgs/hbb/ntuples/VHbbPostNano/UL/EFT/2017/V1/WJetsToLNu_Pt-400To600_MatchEWPDG20_TuneCP5_13TeV-amcatnloFXFX-pythia8/da691e3e3181bdde92b7b40d504461515c93e4caf52b6cfe554b952a/000000_000000/0000/tree_84.root
/eos/cms/store/group/phys_higgs/hbb/ntuples/VHbbPostNano/UL/EFT/2017/V1/WJetsToLNu_Pt-400To600_MatchEWPDG20_TuneCP5_13TeV-amcatnloFXFX-pythia8/63a3f32380057d537af48373960034cfdfdac23729c77489e6ad4cec/000000_000000/0000/tree_85.root
/eos/cms/store/group/phys_higgs/hbb/ntuples/VHbbPostNano/UL/EFT/2017/V1/WJetsToLNu_Pt-400To600_MatchEWPDG20_TuneCP5_13TeV-amcatnloFXFX-pythia8/e2add24831449467f349f0d196a075822307c991b8a461da225ed2f3/000000_000000/0000/tree_86.root
/eos/cms/store/group/phys_higgs/hbb/ntuples/VHbbPostNano/UL/EFT/2017/V1/WJetsToLNu_Pt-400To600_MatchEWPDG20_TuneCP5_13TeV-amcatnloFXFX-pythia8/229e64f0c1e580d0c0f5eb63a144232232ad17872a3b91e402d10f90/000000_000000/0000/tree_87.root
/eos/cms/store/group/phys_higgs/hbb/ntuples/VHbbPostNano/UL/EFT/2017/V1/WJetsToLNu_Pt-400To600_MatchEWPDG20_TuneCP5_13TeV-amcatnloFXFX-pythia8/565e6741e13a01eee1173078c4df05d798ebf3542ca5fdda14305906/000000_000000/0000/tree_88.root
/eos/cms/store/group/phys_higgs/hbb/ntuples/VHbbPostNano/UL/EFT/2017/V1/WJetsToLNu_Pt-400To600_MatchEWPDG20_TuneCP5_13TeV-amcatnloFXFX-pythia8/81faa9e6e0cf954926fb541ee8ce86d4cc1d240ce6603fd1614e04ca/000000_000000/0000/tree_89.root
/eos/cms/store/group/phys_higgs/hbb/ntuples/VHbbPostNano/UL/EFT/2017/V1/WJetsToLNu_Pt-400To600_MatchEWPDG20_TuneCP5_13TeV-amcatnloFXFX-pythia8/21692854e1527b2e03ac4bad4ec40fd3861cf373722e25cfb061b05d/000000_000000/0000/tree_90.root
/eos/cms/store/group/phys_higgs/hbb/ntuples/VHbbPostNano/UL/EFT/2017/V1/WJetsToLNu_Pt-400To600_MatchEWPDG20_TuneCP5_13TeV-amcatnloFXFX-pythia8/0bf097fd59e31cf9f595850fbd95aec01b0ad8bd4c7e6c26669d834a/000000_000000/0000/tree_91.root
/eos/cms/store/group/phys_higgs/hbb/ntuples/VHbbPostNano/UL/EFT/2017/V1/WJetsToLNu_Pt-400To600_MatchEWPDG20_TuneCP5_13TeV-amcatnloFXFX-pythia8/0faf9beda762d46396b2ee6d960538a0f61f2155f08c136aaf70750f/000000_000000/0000/tree_92.root
/eos/cms/store/group/phys_higgs/hbb/ntuples/VHbbPostNano/UL/EFT/2017/V1/WJetsToLNu_Pt-400To600_MatchEWPDG20_TuneCP5_13TeV-amcatnloFXFX-pythia8/d0c062cc2f574536ac9f0bee6634526a3708ecba62d8d1498cb3b7fb/000000_000000/0000/tree_93.root
/eos/cms/store/group/phys_higgs/hbb/ntuples/VHbbPostNano/UL/EFT/2017/V1/WJetsToLNu_Pt-400To600_MatchEWPDG20_TuneCP5_13TeV-amcatnloFXFX-pythia8/82ed60b6b677d1a928e17646e62a7ed6d70fea880cbe1e30b8b2e2dd/000000_000000/0000/tree_94.root
/eos/cms/store/group/phys_higgs/hbb/ntuples/VHbbPostNano/UL/EFT/2017/V1/WJetsToLNu_Pt-400To600_MatchEWPDG20_TuneCP5_13TeV-amcatnloFXFX-pythia8/c240c48f1bc1d118948ca187680681f60392231f683f967abbf91bd8/000000_000000/0000/tree_95.root
/eos/cms/store/group/phys_higgs/hbb/ntuples/VHbbPostNano/UL/EFT/2017/V1/WJetsToLNu_Pt-400To600_MatchEWPDG20_TuneCP5_13TeV-amcatnloFXFX-pythia8/99054d85251f8e72c6d9ee778ac7af4c66efd1d8ec7950c0c4ff5614/000000_000000/0000/tree_96.root
/eos/cms/store/group/phys_higgs/hbb/ntuples/VHbbPostNano/UL/EFT/2017/V1/WJetsToLNu_Pt-400To600_MatchEWPDG20_TuneCP5_13TeV-amcatnloFXFX-pythia8/ea662ed29381b2b2313105f944120c4cde5da2fc170ae347808bbd20/000000_000000/0000/tree_97.root
/eos/cms/store/group/phys_higgs/hbb/ntuples/VHbbPostNano/UL/EFT/2017/V1/WJetsToLNu_Pt-400To600_MatchEWPDG20_TuneCP5_13TeV-amcatnloFXFX-pythia8/0ea3f9f9e06e209903756a7059ce99525453d899d61e24d01f60a830/000000_000000/0000/tree_98.root
/eos/cms/store/group/phys_higgs/hbb/ntuples/VHbbPostNano/UL/EFT/2017/V1/WJetsToLNu_Pt-400To600_MatchEWPDG20_TuneCP5_13TeV-amcatnloFXFX-pythia8/3df1f7ce4fe98ffda49ad1849c01d47816089ecb1a064f4c1f75deb7/000000_000000/0000/tree_99.root
/eos/cms/store/group/phys_higgs/hbb/ntuples/VHbbPostNano/UL/EFT/2017/V1/WJetsToLNu_Pt-400To600_MatchEWPDG20_TuneCP5_13TeV-amcatnloFXFX-pythia8/2c74ad5cd55dadc5f33faee71e3ff467205647d4db0d2450907652dd/000000_000000/0000/tree_100.root
/eos/cms/store/group/phys_higgs/hbb/ntuples/VHbbPostNano/UL/EFT/2017/V1/WJetsToLNu_Pt-400To600_MatchEWPDG20_TuneCP5_13TeV-amcatnloFXFX-pythia8/e3875d48840c51093ae25703f8cab7e2b15994f9e2baaa30e94760da/000000_000000/0000/tree_101.root
/eos/cms/store/group/phys_higgs/hbb/ntuples/VHbbPostNano/UL/EFT/2017/V1/WJetsToLNu_Pt-400To600_MatchEWPDG20_TuneCP5_13TeV-amcatnloFXFX-pythia8/1174138467054f954018fc77e3c7da451095ebe915230c1873dcbdb2/000000_000000/0000/tree_102.root
/eos/cms/store/group/phys_higgs/hbb/ntuples/VHbbPostNano/UL/EFT/2017/V1/WJetsToLNu_Pt-400To600_MatchEWPDG20_TuneCP5_13TeV-amcatnloFXFX-pythia8/9a90bff8347d1a2f276725baa04a9a83fb83d44c3a899f374eaf2992/000000_000000/0000/tree_103.root
/eos/cms/store/group/phys_higgs/hbb/ntuples/VHbbPostNano/UL/EFT/2017/V1/WJetsToLNu_Pt-400To600_MatchEWPDG20_TuneCP5_13TeV-amcatnloFXFX-pythia8/c86123a4d532d7ed99724cc74256c04423b5b7e8d8e2a69787ebf8cd/000000_000000/0000/tree_104.root
/eos/cms/store/group/phys_higgs/hbb/ntuples/VHbbPostNano/UL/EFT/2017/V1/WJetsToLNu_Pt-400To600_MatchEWPDG20_TuneCP5_13TeV-amcatnloFXFX-pythia8/36b0bfec57ba68beaba2b00675b2738882fc1c68e09a5afdd9600e91/000000_000000/0000/tree_105.root
/eos/cms/store/group/phys_higgs/hbb/ntuples/VHbbPostNano/UL/EFT/2017/V1/WJetsToLNu_Pt-400To600_MatchEWPDG20_TuneCP5_13TeV-amcatnloFXFX-pythia8/9036e1503507a5e7556c321147171bd0b271e0f6fe03487391090824/000000_000000/0000/tree_106.root
/eos/cms/store/group/phys_higgs/hbb/ntuples/VHbbPostNano/UL/EFT/2017/V1/WJetsToLNu_Pt-400To600_MatchEWPDG20_TuneCP5_13TeV-amcatnloFXFX-pythia8/d21942a24e54d33272c17a9e8b25e8c4380e764ffc373efa8e940cab/000000_000000/0000/tree_107.root
/eos/cms/store/group/phys_higgs/hbb/ntuples/VHbbPostNano/UL/EFT/2017/V1/WJetsToLNu_Pt-400To600_MatchEWPDG20_TuneCP5_13TeV-amcatnloFXFX-pythia8/61b2433ee6ac67546c533e4b3831f0fc51a7d2692a4805c3cae125b6/000000_000000/0000/tree_108.root
/eos/cms/store/group/phys_higgs/hbb/ntuples/VHbbPostNano/UL/EFT/2017/V1/WJetsToLNu_Pt-400To600_MatchEWPDG20_TuneCP5_13TeV-amcatnloFXFX-pythia8/1bdd6eba990ea4169365b6d9210c5f7978400230f9a0aaeff7b62083/000000_000000/0000/tree_109.root
/eos/cms/store/group/phys_higgs/hbb/ntuples/VHbbPostNano/UL/EFT/2017/V1/WJetsToLNu_Pt-400To600_MatchEWPDG20_TuneCP5_13TeV-amcatnloFXFX-pythia8/dcfe59bbf9cf0c4b379574d0b4c802a0e3b0f6c6aae1431236d5331d/000000_000000/0000/tree_110.root
/eos/cms/store/group/phys_higgs/hbb/ntuples/VHbbPostNano/UL/EFT/2017/V1/WJetsToLNu_Pt-400To600_MatchEWPDG20_TuneCP5_13TeV-amcatnloFXFX-pythia8/d591d15101a69a8227ca8a9a70335858c070418337d93cd3801e3efa/000000_000000/0000/tree_111.root
/eos/cms/store/group/phys_higgs/hbb/ntuples/VHbbPostNano/UL/EFT/2017/V1/WJetsToLNu_Pt-400To600_MatchEWPDG20_TuneCP5_13TeV-amcatnloFXFX-pythia8/41ad15311e76da1085fd482a9382cc9aa1b9b4b0850b43480f9038e8/000000_000000/0000/tree_112.root
/eos/cms/store/group/phys_higgs/hbb/ntuples/VHbbPostNano/UL/EFT/2017/V1/WJetsToLNu_Pt-400To600_MatchEWPDG20_TuneCP5_13TeV-amcatnloFXFX-pythia8/cc99fd702f234fa49fae3916b265a309bd62212c335d93ceb5990014/000000_000000/0000/tree_113.root
/eos/cms/store/group/phys_higgs/hbb/ntuples/VHbbPostNano/UL/EFT/2017/V1/WJetsToLNu_Pt-400To600_MatchEWPDG20_TuneCP5_13TeV-amcatnloFXFX-pythia8/ef4a22a41033c5c81c3853e0d7734ac9bd3172e649b91760e8b15a58/000000_000000/0000/tree_114.root
/eos/cms/store/group/phys_higgs/hbb/ntuples/VHbbPostNano/UL/EFT/2017/V1/WJetsToLNu_Pt-400To600_MatchEWPDG20_TuneCP5_13TeV-amcatnloFXFX-pythia8/f430703da1e13dab468bd7c5100874e3d0c25ea05dda94e16722cb79/000000_000000/0000/tree_115.root
/eos/cms/store/group/phys_higgs/hbb/ntuples/VHbbPostNano/UL/EFT/2017/V1/WJetsToLNu_Pt-400To600_MatchEWPDG20_TuneCP5_13TeV-amcatnloFXFX-pythia8/ff4f1228a0b8a0a509b393f7f5bb37aa8c73e6ba7b5360a775d03632/000000_000000/0000/tree_116.root
/eos/cms/store/group/phys_higgs/hbb/ntuples/VHbbPostNano/UL/EFT/2017/V1/WJetsToLNu_Pt-400To600_MatchEWPDG20_TuneCP5_13TeV-amcatnloFXFX-pythia8/d4447d7bfaf68fe6f0e2b4ef2a429084497031faa6e02c7a32f44240/000000_000000/0000/tree_117.root
/eos/cms/store/group/phys_higgs/hbb/ntuples/VHbbPostNano/UL/EFT/2017/V1/WJetsToLNu_Pt-400To600_MatchEWPDG20_TuneCP5_13TeV-amcatnloFXFX-pythia8/a1f63ef1334b49186c6286a4784c3307f24b2aea70c17ad8ccc74a41/000000_000000/0000/tree_118.root
/eos/cms/store/group/phys_higgs/hbb/ntuples/VHbbPostNano/UL/EFT/2017/V1/WJetsToLNu_Pt-400To600_MatchEWPDG20_TuneCP5_13TeV-amcatnloFXFX-pythia8/89fa760badc992256d5624c8aa8964527b7a8566cc6b1d2074428b3a/000000_000000/0000/tree_119.root
/eos/cms/store/group/phys_higgs/hbb/ntuples/VHbbPostNano/UL/EFT/2017/V1/WJetsToLNu_Pt-400To600_MatchEWPDG20_TuneCP5_13TeV-amcatnloFXFX-pythia8/f3ee7bac0e4a0f9d99e8d684cb8d0bb38fd670fd3c869b849c7566c7/000000_000000/0000/tree_120.root
/eos/cms/store/group/phys_higgs/hbb/ntuples/VHbbPostNano/UL/EFT/2017/V1/WJetsToLNu_Pt-400To600_MatchEWPDG20_TuneCP5_13TeV-amcatnloFXFX-pythia8/834d3666a0874023f409b864c139a2c6d522056143a73faeb759fd74/000000_000000/0000/tree_121.root
/eos/cms/store/group/phys_higgs/hbb/ntuples/VHbbPostNano/UL/EFT/2017/V1/WJetsToLNu_Pt-400To600_MatchEWPDG20_TuneCP5_13TeV-amcatnloFXFX-pythia8/2836eb7905cad4fed9243d61f223e6f1836b7a07347ee767fed513c4/000000_000000/0000/tree_122.root
/eos/cms/store/group/phys_higgs/hbb/ntuples/VHbbPostNano/UL/EFT/2017/V1/WJetsToLNu_Pt-400To600_MatchEWPDG20_TuneCP5_13TeV-amcatnloFXFX-pythia8/15c5bf2a9f28e16218219685c9dba6202415513e18a70fc38f96acc8/000000_000000/0000/tree_123.root
/eos/cms/store/group/phys_higgs/hbb/ntuples/VHbbPostNano/UL/EFT/2017/V1/WJetsToLNu_Pt-400To600_MatchEWPDG20_TuneCP5_13TeV-amcatnloFXFX-pythia8/a3a78bce8ae9fca29395162bad39ad8c4ba0c434a70248f536c610fd/000000_000000/0000/tree_124.root
/eos/cms/store/group/phys_higgs/hbb/ntuples/VHbbPostNano/UL/EFT/2017/V1/WJetsToLNu_Pt-400To600_MatchEWPDG20_TuneCP5_13TeV-amcatnloFXFX-pythia8/661ce5bb2f13161b777e786f334f9a8e9be00f76579f424fdfb5edde/000000_000000/0000/tree_125.root
/eos/cms/store/group/phys_higgs/hbb/ntuples/VHbbPostNano/UL/EFT/2017/V1/WJetsToLNu_Pt-400To600_MatchEWPDG20_TuneCP5_13TeV-amcatnloFXFX-pythia8/9f7753ef161bcadc9891f5405c5c27ca4ff8925148127475d1151282/000000_000000/0000/tree_126.root
/eos/cms/store/group/phys_higgs/hbb/ntuples/VHbbPostNano/UL/EFT/2017/V1/WJetsToLNu_Pt-400To600_MatchEWPDG20_TuneCP5_13TeV-amcatnloFXFX-pythia8/21f503dd79bb189772d8f9f55b92a1ff9334647b6a8367149b298fa6/000000_000000/0000/tree_127.root
/eos/cms/store/group/phys_higgs/hbb/ntuples/VHbbPostNano/UL/EFT/2017/V1/WJetsToLNu_Pt-400To600_MatchEWPDG20_TuneCP5_13TeV-amcatnloFXFX-pythia8/fa5760933f98adc5f055d60401e0470dd69a0ef96e982440dd671b45/000000_000000/0000/tree_128.root
/eos/cms/store/group/phys_higgs/hbb/ntuples/VHbbPostNano/UL/EFT/2017/V1/WJetsToLNu_Pt-400To600_MatchEWPDG20_TuneCP5_13TeV-amcatnloFXFX-pythia8/899c26743d53a74803149170e82cb4d21c2e1d444b3622849ebe0557/000000_000000/0000/tree_129.root
/eos/cms/store/group/phys_higgs/hbb/ntuples/VHbbPostNano/UL/EFT/2017/V1/WJetsToLNu_Pt-400To600_MatchEWPDG20_TuneCP5_13TeV-amcatnloFXFX-pythia8/d37078778ffdbc664d3dd7305cbfd2234faecbb9c1a01cdd8c2e330f/000000_000000/0000/tree_130.root
/eos/cms/store/group/phys_higgs/hbb/ntuples/VHbbPostNano/UL/EFT/2017/V1/WJetsToLNu_Pt-400To600_MatchEWPDG20_TuneCP5_13TeV-amcatnloFXFX-pythia8/ca94b33da6d3ae8a02cbfa4fd1348e2761ae46029624fc8007ecb157/000000_000000/0000/tree_131.root
/eos/cms/store/group/phys_higgs/hbb/ntuples/VHbbPostNano/UL/EFT/2017/V1/WJetsToLNu_Pt-400To600_MatchEWPDG20_TuneCP5_13TeV-amcatnloFXFX-pythia8/f0d908e629a057f8a1c25dcc410cdf6e7f437165d138562f88687fd8/000000_000000/0000/tree_132.root
/eos/cms/store/group/phys_higgs/hbb/ntuples/VHbbPostNano/UL/EFT/2017/V1/WJetsToLNu_Pt-400To600_MatchEWPDG20_TuneCP5_13TeV-amcatnloFXFX-pythia8/c8584b380cc89d81a4444552cc19dafb965ee68fcc05d46afd287751/000000_000000/0000/tree_133.root
/eos/cms/store/group/phys_higgs/hbb/ntuples/VHbbPostNano/UL/EFT/2017/V1/WJetsToLNu_Pt-400To600_MatchEWPDG20_TuneCP5_13TeV-amcatnloFXFX-pythia8/f2727b6304f638077ec12e1e949ee60cef589397379ac68950e9458b/000000_000000/0000/tree_134.root
/eos/cms/store/group/phys_higgs/hbb/ntuples/VHbbPostNano/UL/EFT/2017/V1/WJetsToLNu_Pt-400To600_MatchEWPDG20_TuneCP5_13TeV-amcatnloFXFX-pythia8/65d182eb93e15f36a742b137d9827bf990de4f32a572711e1434c564/000000_000000/0000/tree_135.root
/eos/cms/store/group/phys_higgs/hbb/ntuples/VHbbPostNano/UL/EFT/2017/V1/WJetsToLNu_Pt-400To600_MatchEWPDG20_TuneCP5_13TeV-amcatnloFXFX-pythia8/651f6b382bf5b62379918c9afb468a8e1d35511a36590a0d25750dd4/000000_000000/0000/tree_136.root
/eos/cms/store/group/phys_higgs/hbb/ntuples/VHbbPostNano/UL/EFT/2017/V1/WJetsToLNu_Pt-400To600_MatchEWPDG20_TuneCP5_13TeV-amcatnloFXFX-pythia8/16ad4b727b8cd3802193fd01ccbd7d74995a35f6deb90dc8c798cb4d/000000_000000/0000/tree_137.root
/eos/cms/store/group/phys_higgs/hbb/ntuples/VHbbPostNano/UL/EFT/2017/V1/WJetsToLNu_Pt-400To600_MatchEWPDG20_TuneCP5_13TeV-amcatnloFXFX-pythia8/0119ff2d0dada59dc8b024432b71c886c23b37780b1c8dc1064c3c7f/000000_000000/0000/tree_138.root
/eos/cms/store/group/phys_higgs/hbb/ntuples/VHbbPostNano/UL/EFT/2017/V1/WJetsToLNu_Pt-400To600_MatchEWPDG20_TuneCP5_13TeV-amcatnloFXFX-pythia8/105976be683c7ca7fc13683f9954fe3618b3d5304a2519e312b57f64/000000_000000/0000/tree_139.root
/eos/cms/store/group/phys_higgs/hbb/ntuples/VHbbPostNano/UL/EFT/2017/V1/WJetsToLNu_Pt-400To600_MatchEWPDG20_TuneCP5_13TeV-amcatnloFXFX-pythia8/9275d9e31a9a113cdef6f550016fe35508125b2b59ed6d7b262cbd7d/000000_000000/0000/tree_140.root
/eos/cms/store/group/phys_higgs/hbb/ntuples/VHbbPostNano/UL/EFT/2017/V1/WJetsToLNu_Pt-400To600_MatchEWPDG20_TuneCP5_13TeV-amcatnloFXFX-pythia8/61f6d77a33d7feaef7a749ba581cd592ab50dc663cc6c9006b147d5a/000000_000000/0000/tree_141.root
/eos/cms/store/group/phys_higgs/hbb/ntuples/VHbbPostNano/UL/EFT/2017/V1/WJetsToLNu_Pt-400To600_MatchEWPDG20_TuneCP5_13TeV-amcatnloFXFX-pythia8/da71ec910f7b47c4aa73af99fd12ff517ccaac27bf72fe5c57db3288/000000_000000/0000/tree_142.root
/eos/cms/store/group/phys_higgs/hbb/ntuples/VHbbPostNano/UL/EFT/2017/V1/WJetsToLNu_Pt-400To600_MatchEWPDG20_TuneCP5_13TeV-amcatnloFXFX-pythia8/64006896aec83bfbc9fa095edb805fcdb25acddce5e60a6c473be592/000000_000000/0000/tree_143.root
/eos/cms/store/group/phys_higgs/hbb/ntuples/VHbbPostNano/UL/EFT/2017/V1/WJetsToLNu_Pt-400To600_MatchEWPDG20_TuneCP5_13TeV-amcatnloFXFX-pythia8/d1301133b03de2b0b59a1b6c13ea19cd8e25301173948c4d688d786b/000000_000000/0000/tree_144.root
/eos/cms/store/group/phys_higgs/hbb/ntuples/VHbbPostNano/UL/EFT/2017/V1/WJetsToLNu_Pt-400To600_MatchEWPDG20_TuneCP5_13TeV-amcatnloFXFX-pythia8/b5b1701fb561b76219f6a206c5e898b72bfc52faea48ee27623b8752/000000_000000/0000/tree_145.root
/eos/cms/store/group/phys_higgs/hbb/ntuples/VHbbPostNano/UL/EFT/2017/V1/WJetsToLNu_Pt-400To600_MatchEWPDG20_TuneCP5_13TeV-amcatnloFXFX-pythia8/8f150ec8194708ab989320243f644c05f6c43da7b24292ed68f9da64/000000_000000/0000/tree_146.root
/eos/cms/store/group/phys_higgs/hbb/ntuples/VHbbPostNano/UL/EFT/2017/V1/WJetsToLNu_Pt-400To600_MatchEWPDG20_TuneCP5_13TeV-amcatnloFXFX-pythia8/47021e7fe8b731171dfa89ebb501e4201c2cbaecaa7c4f361ef9f3df/000000_000000/0000/tree_147.root
/eos/cms/store/group/phys_higgs/hbb/ntuples/VHbbPostNano/UL/EFT/2017/V1/WJetsToLNu_Pt-400To600_MatchEWPDG20_TuneCP5_13TeV-amcatnloFXFX-pythia8/0ee4f05b8530c7d799b2ff996d681a932006ceac432c5937d85b8d47/000000_000000/0000/tree_148.root
/eos/cms/store/group/phys_higgs/hbb/ntuples/VHbbPostNano/UL/EFT/2017/V1/WJetsToLNu_Pt-400To600_MatchEWPDG20_TuneCP5_13TeV-amcatnloFXFX-pythia8/1b232680066756a9bf34005ab3d14dd59302de16b61ee0baa90ebcca/000000_000000/0000/tree_149.root
/eos/cms/store/group/phys_higgs/hbb/ntuples/VHbbPostNano/UL/EFT/2017/V1/WJetsToLNu_Pt-400To600_MatchEWPDG20_TuneCP5_13TeV-amcatnloFXFX-pythia8/027d3a4945e3d67102305f4a46e21d5f90c373f0c3132ee01d3103db/000000_000000/0000/tree_150.root
/eos/cms/store/group/phys_higgs/hbb/ntuples/VHbbPostNano/UL/EFT/2017/V1/WJetsToLNu_Pt-400To600_MatchEWPDG20_TuneCP5_13TeV-amcatnloFXFX-pythia8/139c911aff88a01c09192be8353174027f9e6676d72adde1614a4ef9/000000_000000/0000/tree_151.root
/eos/cms/store/group/phys_higgs/hbb/ntuples/VHbbPostNano/UL/EFT/2017/V1/WJetsToLNu_Pt-400To600_MatchEWPDG20_TuneCP5_13TeV-amcatnloFXFX-pythia8/6b71d17d2ef7e4bc3c853cf479d1b89f324b569ecafc65b814c4bf5c/000000_000000/0000/tree_152.root