/eos/cms/store/group/phys_higgs/hbb/ntuples/VHbbPostNano/UL/EFT/2017/V1/ZJetsToNuNu_HT-200To400_TuneCP5_13TeV-madgraphMLM-pythia8/f425292fba48f29f650d08e87c5d55bf23515822b2d856ae13992c48/000000_000000/0000/tree_0.root
/eos/cms/store/group/phys_higgs/hbb/ntuples/VHbbPostNano/UL/EFT/2017/V1/ZJetsToNuNu_HT-200To400_TuneCP5_13TeV-madgraphMLM-pythia8/85705a1a00faed8f5814755cc3a3d9abadb761b1df265acab1f98589/000000_000000/0000/tree_1.root
/eos/cms/store/group/phys_higgs/hbb/ntuples/VHbbPostNano/UL/EFT/2017/V1/ZJetsToNuNu_HT-200To400_TuneCP5_13TeV-madgraphMLM-pythia8/ab66b2b6b87c7765d45e0de5505472f3aa5c200cbd8e7ec444a9bbc1/000000_000000/0000/tree_2.root
/eos/cms/store/group/phys_higgs/hbb/ntuples/VHbbPostNano/UL/EFT/2017/V1/ZJetsToNuNu_HT-200To400_TuneCP5_13TeV-madgraphMLM-pythia8/759d8bf08ee07faa3746a9e271984c01e4663032730b323480de59f8/000000_000000/0000/tree_3.root
/eos/cms/store/group/phys_higgs/hbb/ntuples/VHbbPostNano/UL/EFT/2017/V1/ZJetsToNuNu_HT-200To400_TuneCP5_13TeV-madgraphMLM-pythia8/39fc0f3f5c35110f1089a4c2283376b1ed144a8e9986c23f8412bd97/000000_000000/0000/tree_4.root
/eos/cms/store/group/phys_higgs/hbb/ntuples/VHbbPostNano/UL/EFT/2017/V1/ZJetsToNuNu_HT-200To400_TuneCP5_13TeV-madgraphMLM-pythia8/ba04bc81ed999c51e5e061004cfa63f472f472397788c8bd7cfbfc8c/000000_000000/0000/tree_5.root
/eos/cms/store/group/phys_higgs/hbb/ntuples/VHbbPostNano/UL/EFT/2017/V1/ZJetsToNuNu_HT-200To400_TuneCP5_13TeV-madgraphMLM-pythia8/c2803accafd60a76359ff7527689698963b31b0ee18026f69465ab25/000000_000000/0000/tree_6.root
/eos/cms/store/group/phys_higgs/hbb/ntuples/VHbbPostNano/UL/EFT/2017/V1/ZJetsToNuNu_HT-200To400_TuneCP5_13TeV-madgraphMLM-pythia8/caff83bc0fbf38975f608f6adaf03b877902c11dd8de731250947361/000000_000000/0000/tree_7.root
/eos/cms/store/group/phys_higgs/hbb/ntuples/VHbbPostNano/UL/EFT/2017/V1/ZJetsToNuNu_HT-200To400_TuneCP5_13TeV-madgraphMLM-pythia8/e624358780a33f07926cea033391fb5f7ff914086e46be562b36fd64/000000_000000/0000/tree_8.root
/eos/cms/store/group/phys_higgs/hbb/ntuples/VHbbPostNano/UL/EFT/2017/V1/ZJetsToNuNu_HT-200To400_TuneCP5_13TeV-madgraphMLM-pythia8/8b79eef6498378758a15bc3c24504be8bcbde6928f797404f72c0ba5/000000_000000/0000/tree_9.root
/eos/cms/store/group/phys_higgs/hbb/ntuples/VHbbPostNano/UL/EFT/2017/V1/ZJetsToNuNu_HT-200To400_TuneCP5_13TeV-madgraphMLM-pythia8/47ca9693ffafb9e8e97f0271be7ef35e20dbb462ac35559998f97840/000000_000000/0000/tree_10.root
/eos/cms/store/group/phys_higgs/hbb/ntuples/VHbbPostNano/UL/EFT/2017/V1/ZJetsToNuNu_HT-200To400_TuneCP5_13TeV-madgraphMLM-pythia8/d233c774e4346b729ca8ef3a70f85f842d603bf88675d1b0b8987552/000000_000000/0000/tree_11.root
/eos/cms/store/group/phys_higgs/hbb/ntuples/VHbbPostNano/UL/EFT/2017/V1/ZJetsToNuNu_HT-200To400_TuneCP5_13TeV-madgraphMLM-pythia8/727c08bfb410a8ed8a46bbf9e95bea3b7594295c85792638dc0deb6f/000000_000000/0000/tree_12.root
/eos/cms/store/group/phys_higgs/hbb/ntuples/VHbbPostNano/UL/EFT/2017/V1/ZJetsToNuNu_HT-200To400_TuneCP5_13TeV-madgraphMLM-pythia8/c1bb6fa5cc42ff2ecaf45574c8815677abbc047ad65e3f6bb57b1ee8/000000_000000/0000/tree_13.root
/eos/cms/store/group/phys_higgs/hbb/ntuples/VHbbPostNano/UL/EFT/2017/V1/ZJetsToNuNu_HT-200To400_TuneCP5_13TeV-madgraphMLM-pythia8/9e988dcc8f5c922c3cc7710f9993fe8a4f8480d35f2f70422da36dc4/000000_000000/0000/tree_14.root
/eos/cms/store/group/phys_higgs/hbb/ntuples/VHbbPostNano/UL/EFT/2017/V1/ZJetsToNuNu_HT-200To400_TuneCP5_13TeV-madgraphMLM-pythia8/254ac06a024af1945c613581c13dbd0418ed244523a5adc4e1a843af/000000_000000/0000/tree_15.root
/eos/cms/store/group/phys_higgs/hbb/ntuples/VHbbPostNano/UL/EFT/2017/V1/ZJetsToNuNu_HT-200To400_TuneCP5_13TeV-madgraphMLM-pythia8/79953179fe2451d762e99846bf4ee212233452e181513186df1ccac4/000000_000000/0000/tree_16.root
/eos/cms/store/group/phys_higgs/hbb/ntuples/VHbbPostNano/UL/EFT/2017/V1/ZJetsToNuNu_HT-200To400_TuneCP5_13TeV-madgraphMLM-pythia8/8718f24bee54fef622d4fd2f246d23451b002f4cc43ac5355f1eeb74/000000_000000/0000/tree_17.root
/eos/cms/store/group/phys_higgs/hbb/ntuples/VHbbPostNano/UL/EFT/2017/V1/ZJetsToNuNu_HT-200To400_TuneCP5_13TeV-madgraphMLM-pythia8/02d22d6a833e326ed8c46fe646e0d450bdf58606c8ec7e68798577af/000000_000000/0000/tree_18.root
/eos/cms/store/group/phys_higgs/hbb/ntuples/VHbbPostNano/UL/EFT/2017/V1/ZJetsToNuNu_HT-200To400_TuneCP5_13TeV-madgraphMLM-pythia8/fd08bbcddefeac88dd7c8143731c7a2a4d9934bc8000fee699d4331b/000000_000000/0000/tree_19.root
/eos/cms/store/group/phys_higgs/hbb/ntuples/VHbbPostNano/UL/EFT/2017/V1/ZJetsToNuNu_HT-200To400_TuneCP5_13TeV-madgraphMLM-pythia8/46ff495f84af9ad796eaefba3de46f2b61f0f0cfcbbf6f71cbbf0337/000000_000000/0000/tree_20.root
/eos/cms/store/group/phys_higgs/hbb/ntuples/VHbbPostNano/UL/EFT/2017/V1/ZJetsToNuNu_HT-200To400_TuneCP5_13TeV-madgraphMLM-pythia8/d6905f86cfb23c7176a6e9a54b77f9d298b0f4eae73cccf8bb873672/000000_000000/0000/tree_21.root
/eos/cms/store/group/phys_higgs/hbb/ntuples/VHbbPostNano/UL/EFT/2017/V1/ZJetsToNuNu_HT-200To400_TuneCP5_13TeV-madgraphMLM-pythia8/0840e673591ba09021eeec2a290ae0405cd1a5573f59b67da3ed1062/000000_000000/0000/tree_22.root
/eos/cms/store/group/phys_higgs/hbb/ntuples/VHbbPostNano/UL/EFT/2017/V1/ZJetsToNuNu_HT-200To400_TuneCP5_13TeV-madgraphMLM-pythia8/3a199632ad2a92319e20894b7184251611ae19c210014ed99c31c613/000000_000000/0000/tree_23.root
/eos/cms/store/group/phys_higgs/hbb/ntuples/VHbbPostNano/UL/EFT/2017/V1/ZJetsToNuNu_HT-200To400_TuneCP5_13TeV-madgraphMLM-pythia8/d8bbbbcc3e4108f329d07e88fdbb409c6b8b05a71691f27c24a5fe6e/000000_000000/0000/tree_24.root
/eos/cms/store/group/phys_higgs/hbb/ntuples/VHbbPostNano/UL/EFT/2017/V1/ZJetsToNuNu_HT-200To400_TuneCP5_13TeV-madgraphMLM-pythia8/4a03a4f3cd99c9adb6e4e075ce790d28c46c5e6aee14693e5cbdfa09/000000_000000/0000/tree_25.root
/eos/cms/store/group/phys_higgs/hbb/ntuples/VHbbPostNano/UL/EFT/2017/V1/ZJetsToNuNu_HT-200To400_TuneCP5_13TeV-madgraphMLM-pythia8/0ba35bd97aec1f0cc2e67d4ac132bafa3f017582a3cb40385e5332f8/000000_000000/0000/tree_26.root
/eos/cms/store/group/phys_higgs/hbb/ntuples/VHbbPostNano/UL/EFT/2017/V1/ZJetsToNuNu_HT-200To400_TuneCP5_13TeV-madgraphMLM-pythia8/ef6010d64a917be302ca7bde65d9697966225e68cc4e5df620824ac2/000000_000000/0000/tree_27.root
/eos/cms/store/group/phys_higgs/hbb/ntuples/VHbbPostNano/UL/EFT/2017/V1/ZJetsToNuNu_HT-200To400_TuneCP5_13TeV-madgraphMLM-pythia8/eba535118f6c9c1be879f674d95b7107b387f4d5837361ede1b55161/000000_000000/0000/tree_28.root
/eos/cms/store/group/phys_higgs/hbb/ntuples/VHbbPostNano/UL/EFT/2017/V1/ZJetsToNuNu_HT-200To400_TuneCP5_13TeV-madgraphMLM-pythia8/c091708b57d8013f9fd0af0e5ceabdc8d7198b0b5a3f44c3193f87cc/000000_000000/0000/tree_29.root
/eos/cms/store/group/phys_higgs/hbb/ntuples/VHbbPostNano/UL/EFT/2017/V1/ZJetsToNuNu_HT-200To400_TuneCP5_13TeV-madgraphMLM-pythia8/55eac9e16266a9a26bbe40c4d58dd0ce394feb24faac3aa6901a198f/000000_000000/0000/tree_30.root
/eos/cms/store/group/phys_higgs/hbb/ntuples/VHbbPostNano/UL/EFT/2017/V1/ZJetsToNuNu_HT-200To400_TuneCP5_13TeV-madgraphMLM-pythia8/2dee9d43bd625c8facb7f928f9e6758bb8be3cf0d0b9d1ed43f45e6e/000000_000000/0000/tree_31.root
/eos/cms/store/group/phys_higgs/hbb/ntuples/VHbbPostNano/UL/EFT/2017/V1/ZJetsToNuNu_HT-200To400_TuneCP5_13TeV-madgraphMLM-pythia8/945164ed5b0d389a5b46a1dc8d9eb9abc42055ee6b59ee4e49d365ea/000000_000000/0000/tree_32.root
/eos/cms/store/group/phys_higgs/hbb/ntuples/VHbbPostNano/UL/EFT/2017/V1/ZJetsToNuNu_HT-200To400_TuneCP5_13TeV-madgraphMLM-pythia8/38ee71e2e4b8cbe6f131de9fc735b579437a73804bc1c54094ce3603/000000_000000/0000/tree_33.root
/eos/cms/store/group/phys_higgs/hbb/ntuples/VHbbPostNano/UL/EFT/2017/V1/ZJetsToNuNu_HT-200To400_TuneCP5_13TeV-madgraphMLM-pythia8/45e71ea756fd3edd4ea223d30c64cd5605411ec54f2b9a921fe5bbc7/000000_000000/0000/tree_34.root
/eos/cms/store/group/phys_higgs/hbb/ntuples/VHbbPostNano/UL/EFT/2017/V1/ZJetsToNuNu_HT-200To400_TuneCP5_13TeV-madgraphMLM-pythia8/06c75258f44a8e8ebe3a819b7df418f6cfda93f3ac7a8ebba3b3f3ec/000000_000000/0000/tree_35.root
/eos/cms/store/group/phys_higgs/hbb/ntuples/VHbbPostNano/UL/EFT/2017/V1/ZJetsToNuNu_HT-200To400_TuneCP5_13TeV-madgraphMLM-pythia8/e9d205b3003615f217c2a73734c54e9a57e977e55840f071e19e4078/000000_000000/0000/tree_36.root
/eos/cms/store/group/phys_higgs/hbb/ntuples/VHbbPostNano/UL/EFT/2017/V1/ZJetsToNuNu_HT-200To400_TuneCP5_13TeV-madgraphMLM-pythia8/d01655618bfd531c1242b7fc0536bb8e9e994b59113e6384f5739568/000000_000000/0000/tree_37.root
/eos/cms/store/group/phys_higgs/hbb/ntuples/VHbbPostNano/UL/EFT/2017/V1/ZJetsToNuNu_HT-200To400_TuneCP5_13TeV-madgraphMLM-pythia8/d3d7ab37b342bb44bd90705ffccf7edea5996c5b8d823fdf1565e1e7/000000_000000/0000/tree_38.root
/eos/cms/store/group/phys_higgs/hbb/ntuples/VHbbPostNano/UL/EFT/2017/V1/ZJetsToNuNu_HT-200To400_TuneCP5_13TeV-madgraphMLM-pythia8/5c359a8f8da825153faed617a4fe033ecedb8dd0ad7f5c9491d1474b/000000_000000/0000/tree_39.root
/eos/cms/store/group/phys_higgs/hbb/ntuples/VHbbPostNano/UL/EFT/2017/V1/ZJetsToNuNu_HT-200To400_TuneCP5_13TeV-madgraphMLM-pythia8/06666a6a9c8768203f597d41955e72733250b003d9ad6c53b520e6cd/000000_000000/0000/tree_40.root
/eos/cms/store/group/phys_higgs/hbb/ntuples/VHbbPostNano/UL/EFT/2017/V1/ZJetsToNuNu_HT-200To400_TuneCP5_13TeV-madgraphMLM-pythia8/42482faac9a7c44322def9fbe9f732219125d6763f94c5380c60015d/000000_000000/0000/tree_41.root
/eos/cms/store/group/phys_higgs/hbb/ntuples/VHbbPostNano/UL/EFT/2017/V1/ZJetsToNuNu_HT-200To400_TuneCP5_13TeV-madgraphMLM-pythia8/672478351d33877b90f4d4317edb9f4ea3b8ba29dad2c15514429b5e/000000_000000/0000/tree_42.root
/eos/cms/store/group/phys_higgs/hbb/ntuples/VHbbPostNano/UL/EFT/2017/V1/ZJetsToNuNu_HT-200To400_TuneCP5_13TeV-madgraphMLM-pythia8/cf1a21f2fd40a0226597ff56bacf6ba03e87fe3f2de2e3749dac892a/000000_000000/0000/tree_43.root
/eos/cms/store/group/phys_higgs/hbb/ntuples/VHbbPostNano/UL/EFT/2017/V1/ZJetsToNuNu_HT-200To400_TuneCP5_13TeV-madgraphMLM-pythia8/11836c481b05fe23adff70067086ebbd72d090e0092a3fa4d38abb0f/000000_000000/0000/tree_44.root
/eos/cms/store/group/phys_higgs/hbb/ntuples/VHbbPostNano/UL/EFT/2017/V1/ZJetsToNuNu_HT-200To400_TuneCP5_13TeV-madgraphMLM-pythia8/d1eea0aa081e62220136f26292d056c8eee36b2780beadf0b576b2f0/000000_000000/0000/tree_45.root
/eos/cms/store/group/phys_higgs/hbb/ntuples/VHbbPostNano/UL/EFT/2017/V1/ZJetsToNuNu_HT-200To400_TuneCP5_13TeV-madgraphMLM-pythia8/a80b16b30990e5ed69a5aae028733943eaee190ab5fc50219e34aaaf/000000_000000/0000/tree_46.root
/eos/cms/store/group/phys_higgs/hbb/ntuples/VHbbPostNano/UL/EFT/2017/V1/ZJetsToNuNu_HT-200To400_TuneCP5_13TeV-madgraphMLM-pythia8/60730f6ed1083d20e74c9e1b24e54b709caeddf70219d4f85e77dbfb/000000_000000/0000/tree_47.root
/eos/cms/store/group/phys_higgs/hbb/ntuples/VHbbPostNano/UL/EFT/2017/V1/ZJetsToNuNu_HT-200To400_TuneCP5_13TeV-madgraphMLM-pythia8/99b71d58bbed6939470c3f82c1926e472ee850a2325f5e98d57e95dd/000000_000000/0000/tree_48.root
/eos/cms/store/group/phys_higgs/hbb/ntuples/VHbbPostNano/UL/EFT/2017/V1/ZJetsToNuNu_HT-200To400_TuneCP5_13TeV-madgraphMLM-pythia8/f482362f55b937196b09f01cb0db7e8c3f37a36b77f4f612a4926870/000000_000000/0000/tree_49.root
/eos/cms/store/group/phys_higgs/hbb/ntuples/VHbbPostNano/UL/EFT/2017/V1/ZJetsToNuNu_HT-200To400_TuneCP5_13TeV-madgraphMLM-pythia8/00262f7ec57bbf0fcb245a6f4c8106dcfcfc16572345d6409840d57b/000000_000000/0000/tree_50.root
/eos/cms/store/group/phys_higgs/hbb/ntuples/VHbbPostNano/UL/EFT/2017/V1/ZJetsToNuNu_HT-200To400_TuneCP5_13TeV-madgraphMLM-pythia8/b43572a6697c6f25186d42a295a34cbf92d8cdb5cd63b120c90fb106/000000_000000/0000/tree_51.root
/eos/cms/store/group/phys_higgs/hbb/ntuples/VHbbPostNano/UL/EFT/2017/V1/ZJetsToNuNu_HT-200To400_TuneCP5_13TeV-madgraphMLM-pythia8/6e2a664742b3a88464337e25a9a92f01d16792509d55426d2dcd4381/000000_000000/0000/tree_52.root
/eos/cms/store/group/phys_higgs/hbb/ntuples/VHbbPostNano/UL/EFT/2017/V1/ZJetsToNuNu_HT-200To400_TuneCP5_13TeV-madgraphMLM-pythia8/30e1aa2b796f91254a32bb47fd3546d93818daf278ba0c33cf401da8/000000_000000/0000/tree_53.root