/store/group/phys_higgs/hbb/ntuples/VHbbPostNano/2018/V13/DYJetsToLL_M-50_HT-400to600_TuneCP5_PSweights_13TeV-madgraphMLM-pythia8/RunIIAutumn18NanoAODv6-Nano25O82/200903_121059/3f5645c8de66e1b94ab47079768d22860209cd183b7e615431fb5415/000000_000000/0000/tree_0.root
/store/group/phys_higgs/hbb/ntuples/VHbbPostNano/2018/V13/DYJetsToLL_M-50_HT-400to600_TuneCP5_PSweights_13TeV-madgraphMLM-pythia8/RunIIAutumn18NanoAODv6-Nano25O82/200903_121059/da1e929010cd73e221ee4e8b9ca70b55ca4344d50275e91a74e8aebd/000000_000000/0000/tree_1.root
/store/group/phys_higgs/hbb/ntuples/VHbbPostNano/2018/V13/DYJetsToLL_M-50_HT-400to600_TuneCP5_PSweights_13TeV-madgraphMLM-pythia8/RunIIAutumn18NanoAODv6-Nano25O82/200903_121059/669ebbe8ec150ef402c6839338816239f0bebffc0926177df6380dc2/000000_000000/0000/tree_2.root
/store/group/phys_higgs/hbb/ntuples/VHbbPostNano/2018/V13/DYJetsToLL_M-50_HT-400to600_TuneCP5_PSweights_13TeV-madgraphMLM-pythia8/RunIIAutumn18NanoAODv6-Nano25O82/200903_121059/a91d50e9a54eb1674c78e24c4b18c2374dc5af112623135e02108b5d/000000_000000/0000/tree_3.root
/store/group/phys_higgs/hbb/ntuples/VHbbPostNano/2018/V13/DYJetsToLL_M-50_HT-400to600_TuneCP5_PSweights_13TeV-madgraphMLM-pythia8/RunIIAutumn18NanoAODv6-Nano25O82/200903_121059/2c42216583c32f5265942961faab2cbada1e14749f1cf78900e427da/000000_000000/0000/tree_4.root
/store/group/phys_higgs/hbb/ntuples/VHbbPostNano/2018/V13/DYJetsToLL_M-50_HT-400to600_TuneCP5_PSweights_13TeV-madgraphMLM-pythia8/RunIIAutumn18NanoAODv6-Nano25O82/200903_121059/d6b8165b76469728a310c35c94e7a89b76183a17557d366ec88de1a4/000000_000000/0000/tree_5.root
/store/group/phys_higgs/hbb/ntuples/VHbbPostNano/2018/V13/DYJetsToLL_M-50_HT-400to600_TuneCP5_PSweights_13TeV-madgraphMLM-pythia8/RunIIAutumn18NanoAODv6-Nano25O82/200903_121059/64dde62535ed7b84c5605acfdc995e6398fcb9f25c112b0ad55d7cf6/000000_000000/0000/tree_6.root
/store/group/phys_higgs/hbb/ntuples/VHbbPostNano/2018/V13/DYJetsToLL_M-50_HT-400to600_TuneCP5_PSweights_13TeV-madgraphMLM-pythia8/RunIIAutumn18NanoAODv6-Nano25O82/200903_121059/50ce98332167747f2751591c6db9fbb8979382e8af3d01955d90eb02/000000_000000/0000/tree_7.root
/store/group/phys_higgs/hbb/ntuples/VHbbPostNano/2018/V13/DYJetsToLL_M-50_HT-400to600_TuneCP5_PSweights_13TeV-madgraphMLM-pythia8/RunIIAutumn18NanoAODv6-Nano25O82/200903_121059/9ec5a694a626d51d5d24eea396e74b29e85ffdea98936d6b95cfb259/000000_000000/0000/tree_8.root
/store/group/phys_higgs/hbb/ntuples/VHbbPostNano/2018/V13/DYJetsToLL_M-50_HT-400to600_TuneCP5_PSweights_13TeV-madgraphMLM-pythia8/RunIIAutumn18NanoAODv6-Nano25O82/200903_121059/58012a3fde91996c28946e2dac3489245549e8437c70988fa5ed9989/000000_000000/0000/tree_9.root
/store/group/phys_higgs/hbb/ntuples/VHbbPostNano/2018/V13/DYJetsToLL_M-50_HT-400to600_TuneCP5_PSweights_13TeV-madgraphMLM-pythia8/RunIIAutumn18NanoAODv7-Nano02A85/200708_081419/96e8a3e19126939eb7dd06c74b7d6524c5c479a02d04663fb59ab49d/000000_000000/0000/tree_10.root
/store/group/phys_higgs/hbb/ntuples/VHbbPostNano/2018/V13/DYJetsToLL_M-50_HT-400to600_TuneCP5_PSweights_13TeV-madgraphMLM-pythia8/RunIIAutumn18NanoAODv7-Nano02A85/200708_081419/b3b09cf75f14912ceb9bd4ea63b49e979c88516afcf8e078886b2b42/000000_000000/0000/tree_11.root
/store/group/phys_higgs/hbb/ntuples/VHbbPostNano/2018/V13/DYJetsToLL_M-50_HT-400to600_TuneCP5_PSweights_13TeV-madgraphMLM-pythia8/RunIIAutumn18NanoAODv7-Nano02A85/200708_081419/795516f370458d7312b9fa1e5e2105829026f21d37ca415c03a1beec/000000_000000/0000/tree_12.root
/store/group/phys_higgs/hbb/ntuples/VHbbPostNano/2018/V13/DYJetsToLL_M-50_HT-400to600_TuneCP5_PSweights_13TeV-madgraphMLM-pythia8/RunIIAutumn18NanoAODv7-Nano02A85/200708_081419/292b1252ebd50a599befb7996da00354c3de1e1f891ac82923daf316/000000_000000/0000/tree_13.root
/store/group/phys_higgs/hbb/ntuples/VHbbPostNano/2018/V13/DYJetsToLL_M-50_HT-400to600_TuneCP5_PSweights_13TeV-madgraphMLM-pythia8/RunIIAutumn18NanoAODv7-Nano02A85/200708_081419/15a5f38e99e19b428c28de49dc97f2686e2e094544bcaeb4b98dbfcf/000000_000000/0000/tree_14.root