/store/group/phys_higgs/hbb/ntuples/VHbbPostNano/2018/V13/WJetsToLNu_HT-2500ToInf_TuneCP5_13TeV-madgraphMLM-pythia8/RunIIAutumn18NanoAODv7-Nano02A83/200708_081118/72c9eb379a900106e53e8b9cbf12257fe6605abb24560e3585edd711/000000_000000/0000/tree_0.root
/store/group/phys_higgs/hbb/ntuples/VHbbPostNano/2018/V13/WJetsToLNu_HT-2500ToInf_TuneCP5_13TeV-madgraphMLM-pythia8/RunIIAutumn18NanoAODv7-Nano02A83/200708_081118/45575a3efae8dd5d4b573bebabee1f9c5466089b8b5ce5dad56228d3/000000_000000/0000/tree_1.root
/store/group/phys_higgs/hbb/ntuples/VHbbPostNano/2018/V13/WJetsToLNu_HT-2500ToInf_TuneCP5_13TeV-madgraphMLM-pythia8/RunIIAutumn18NanoAODv7-Nano02A83/200708_081118/c586024b1f904ac47842450959cb1eecfe503a0793baeac6dfe6c3d6/000000_000000/0000/tree_2.root
/store/group/phys_higgs/hbb/ntuples/VHbbPostNano/2018/V13/WJetsToLNu_HT-2500ToInf_TuneCP5_13TeV-madgraphMLM-pythia8/RunIIAutumn18NanoAODv7-Nano02A83/200708_081118/29ee8b75b5e208022061cd207e44e2eb3713a4a87dd0d2a5b9d4ddc5/000000_000000/0000/tree_3.root
/store/group/phys_higgs/hbb/ntuples/VHbbPostNano/2018/V13/WJetsToLNu_HT-2500ToInf_TuneCP5_13TeV-madgraphMLM-pythia8/RunIIAutumn18NanoAODv7-Nano02A83/200708_081118/f5824ce412800dab964fcf2cc487d720e35adb92ad956179e66f559c/000000_000000/0000/tree_4.root
/store/group/phys_higgs/hbb/ntuples/VHbbPostNano/2018/V13/WJetsToLNu_HT-2500ToInf_TuneCP5_13TeV-madgraphMLM-pythia8/RunIIAutumn18NanoAODv7-Nano02A83/200708_081118/b0a126f3e59ddc8c44d4ec473da89b84ef010a654714499e9a4c52a1/000000_000000/0000/tree_5.root
/store/group/phys_higgs/hbb/ntuples/VHbbPostNano/2018/V13/WJetsToLNu_HT-2500ToInf_TuneCP5_13TeV-madgraphMLM-pythia8/RunIIAutumn18NanoAODv7-Nano02A83/200708_081118/d51a24f75fbe17a68afbedcebeddb168885c6febe41239df5cb2a5c8/000000_000000/0000/tree_6.root
/store/group/phys_higgs/hbb/ntuples/VHbbPostNano/2018/V13/WJetsToLNu_HT-2500ToInf_TuneCP5_13TeV-madgraphMLM-pythia8/RunIIAutumn18NanoAODv7-Nano02A83/200708_081118/4e24f81f6abb94be1881576c156acf1ffba238a6a3ad58c33f1b72b4/000000_000000/0000/tree_7.root
/store/group/phys_higgs/hbb/ntuples/VHbbPostNano/2018/V13/WJetsToLNu_HT-2500ToInf_TuneCP5_13TeV-madgraphMLM-pythia8/RunIIAutumn18NanoAODv7-Nano02A83/200708_081118/e20c6944dbefcc08a67257346b395077dedefbe0f44de95f7378d8ac/000000_000000/0000/tree_8.root