/store/group/phys_higgs/hbb/ntuples/VHbbPostNano/2018/V13/ZBJetsToNuNu_Zpt-100to200_TuneCP5_13TeV-madgraphMLM-pythia8/RunIIAutumn18NanoAODv7-Nano02A82/200518_155014/9a867a9cece54a2ae0271764e995a1a7fb9644e1c918cb580972b166/000000_000000/0000/tree_0.root
/store/group/phys_higgs/hbb/ntuples/VHbbPostNano/2018/V13/ZBJetsToNuNu_Zpt-100to200_TuneCP5_13TeV-madgraphMLM-pythia8/RunIIAutumn18NanoAODv7-Nano02A82/200518_155014/bde816d39ea4f304c9adbbbb108fe9aedf3fb000ceb922af87998fbb/000000_000000/0000/tree_1.root
/store/group/phys_higgs/hbb/ntuples/VHbbPostNano/2018/V13/ZBJetsToNuNu_Zpt-100to200_TuneCP5_13TeV-madgraphMLM-pythia8/RunIIAutumn18NanoAODv7-Nano02A82/200518_155014/fb233c888be3f597f7dbe644905be1b9199aeddb1f37a406b969fdbb/000000_000000/0000/tree_2.root
/store/group/phys_higgs/hbb/ntuples/VHbbPostNano/2018/V13/ZBJetsToNuNu_Zpt-100to200_TuneCP5_13TeV-madgraphMLM-pythia8/RunIIAutumn18NanoAODv7-Nano02A82/200518_155014/3768f588fa1f3855bb99a8626c99c559daf76a96b34314369d0f7d3d/000000_000000/0000/tree_3.root
/store/group/phys_higgs/hbb/ntuples/VHbbPostNano/2018/V13/ZBJetsToNuNu_Zpt-100to200_TuneCP5_13TeV-madgraphMLM-pythia8/RunIIAutumn18NanoAODv7-Nano02A82/200518_155014/d21326ff400127141d0659ddd92f9ef6f8bf5eb23e6e1799ec10e396/000000_000000/0000/tree_4.root
/store/group/phys_higgs/hbb/ntuples/VHbbPostNano/2018/V13/ZBJetsToNuNu_Zpt-100to200_TuneCP5_13TeV-madgraphMLM-pythia8/RunIIAutumn18NanoAODv7-Nano02A82/200518_155014/8facdc9bb7efd4aa8f2c6feebc0431dfa065ec542310e4bc1f31ba65/000000_000000/0000/tree_5.root
/store/group/phys_higgs/hbb/ntuples/VHbbPostNano/2018/V13/ZBJetsToNuNu_Zpt-100to200_TuneCP5_13TeV-madgraphMLM-pythia8/RunIIAutumn18NanoAODv7-Nano02A82/200518_155014/3a91bcb36f48d3e7567b92f9780d6ccc8fde6fd778f834667ff5bf0d/000000_000000/0000/tree_6.root
/store/group/phys_higgs/hbb/ntuples/VHbbPostNano/2018/V13/ZBJetsToNuNu_Zpt-100to200_TuneCP5_13TeV-madgraphMLM-pythia8/RunIIAutumn18NanoAODv7-Nano02A82/200518_155014/394b724039180f9de6a09b164f9b55a1cc16ea7126c463c4e3d3df0c/000000_000000/0000/tree_7.root
/store/group/phys_higgs/hbb/ntuples/VHbbPostNano/2018/V13/ZBJetsToNuNu_Zpt-100to200_TuneCP5_13TeV-madgraphMLM-pythia8/RunIIAutumn18NanoAODv7-Nano02A82/200518_155014/18e24ce4886b677199accc3115562893dc0f8afe56b58a199afb34ad/000000_000000/0000/tree_8.root
/store/group/phys_higgs/hbb/ntuples/VHbbPostNano/2018/V13/ZBJetsToNuNu_Zpt-100to200_TuneCP5_13TeV-madgraphMLM-pythia8/RunIIAutumn18NanoAODv7-Nano02A82/200518_155014/f4852698304e830cf2910c2bd88567dee39d1cd122d51c957ca9ae70/000000_000000/0000/tree_9.root
/store/group/phys_higgs/hbb/ntuples/VHbbPostNano/2018/V13/ZBJetsToNuNu_Zpt-100to200_TuneCP5_13TeV-madgraphMLM-pythia8/RunIIAutumn18NanoAODv7-Nano02A82/200518_155014/2e334508d3b25c38fea32eb413c5d1351a108a31c6e25da63cbfb924/000000_000000/0000/tree_10.root
/store/group/phys_higgs/hbb/ntuples/VHbbPostNano/2018/V13/ZBJetsToNuNu_Zpt-100to200_TuneCP5_13TeV-madgraphMLM-pythia8/RunIIAutumn18NanoAODv7-Nano02A82/200518_155014/e0a6ff3dd0220915cc27b51686886bd2ea29a60e4f0003c17de27f45/000000_000000/0000/tree_11.root
/store/group/phys_higgs/hbb/ntuples/VHbbPostNano/2018/V13/ZBJetsToNuNu_Zpt-100to200_TuneCP5_13TeV-madgraphMLM-pythia8/RunIIAutumn18NanoAODv7-Nano02A82/200518_155014/47a685705cf6f0cb17699b136a8962068f2f9cfb00cef22a92ec2f56/000000_000000/0000/tree_12.root
/store/group/phys_higgs/hbb/ntuples/VHbbPostNano/2018/V13/ZBJetsToNuNu_Zpt-100to200_TuneCP5_13TeV-madgraphMLM-pythia8/RunIIAutumn18NanoAODv7-Nano02A82/200518_155014/1576642c9676b03440b03085b7d1022aa6eb85bbe05f16b3f8aa5660/000000_000000/0000/tree_13.root
/store/group/phys_higgs/hbb/ntuples/VHbbPostNano/2018/V13/ZBJetsToNuNu_Zpt-100to200_TuneCP5_13TeV-madgraphMLM-pythia8/RunIIAutumn18NanoAODv7-Nano02A82/200518_155014/66624f790877c7085f5727bc08282687cf309eae9a7f4fece3f73e93/000000_000000/0000/tree_14.root
/store/group/phys_higgs/hbb/ntuples/VHbbPostNano/2018/V13/ZBJetsToNuNu_Zpt-100to200_TuneCP5_13TeV-madgraphMLM-pythia8/RunIIAutumn18NanoAODv7-Nano02A82/200518_155014/0b338fc263f475348d9820d1da19e49e0d28f8faf3627e0a78369f7f/000000_000000/0000/tree_15.root
/store/group/phys_higgs/hbb/ntuples/VHbbPostNano/2018/V13/ZBJetsToNuNu_Zpt-100to200_TuneCP5_13TeV-madgraphMLM-pythia8/RunIIAutumn18NanoAODv7-Nano02A82/200518_155014/124da51b7b8c536063dc29b7216d6810fe6843f4c9cdb121886a6b26/000000_000000/0000/tree_16.root
/store/group/phys_higgs/hbb/ntuples/VHbbPostNano/2018/V13/ZBJetsToNuNu_Zpt-100to200_TuneCP5_13TeV-madgraphMLM-pythia8/RunIIAutumn18NanoAODv7-Nano02A82/200518_155014/3f57ec6cacd6aa899bb419866069b11abd7a69620cc3f68719551a89/000000_000000/0000/tree_17.root
/store/group/phys_higgs/hbb/ntuples/VHbbPostNano/2018/V13/ZBJetsToNuNu_Zpt-100to200_TuneCP5_13TeV-madgraphMLM-pythia8/RunIIAutumn18NanoAODv7-Nano02A82/200518_155014/f50694ef65aa1492204c2a9193f2c010aae6672fa431af5bb52c3c67/000000_000000/0000/tree_18.root
/store/group/phys_higgs/hbb/ntuples/VHbbPostNano/2018/V13/ZBJetsToNuNu_Zpt-100to200_TuneCP5_13TeV-madgraphMLM-pythia8/RunIIAutumn18NanoAODv7-Nano02A82/200518_155014/1d3f3569cc9d58fe6cc8b868c8f603f685189791bf3e2c33aa638b07/000000_000000/0000/tree_19.root
/store/group/phys_higgs/hbb/ntuples/VHbbPostNano/2018/V13/ZBJetsToNuNu_Zpt-100to200_TuneCP5_13TeV-madgraphMLM-pythia8/RunIIAutumn18NanoAODv7-Nano02A82/200518_155014/8f13f463c8e5c4540c919ce13c3e2fc86a8e9536cfa7dca177092581/000000_000000/0000/tree_20.root
/store/group/phys_higgs/hbb/ntuples/VHbbPostNano/2018/V13/ZBJetsToNuNu_Zpt-100to200_TuneCP5_13TeV-madgraphMLM-pythia8/RunIIAutumn18NanoAODv7-Nano02A82/200518_155014/a7093cf00241ab3e475cd5c7a01220ce9ba74239ccb986a3e6402621/000000_000000/0000/tree_21.root
/store/group/phys_higgs/hbb/ntuples/VHbbPostNano/2018/V13/ZBJetsToNuNu_Zpt-100to200_TuneCP5_13TeV-madgraphMLM-pythia8/RunIIAutumn18NanoAODv7-Nano02A82/200518_155014/aac3b832b55b0e2f39a3a67d3bd35af4dccfa790d751d25043482574/000000_000000/0000/tree_22.root
/store/group/phys_higgs/hbb/ntuples/VHbbPostNano/2018/V13/ZBJetsToNuNu_Zpt-100to200_TuneCP5_13TeV-madgraphMLM-pythia8/RunIIAutumn18NanoAODv7-Nano02A82/200518_155014/53440e43bf7d9e2872b8477c30a48b1b20632ed4bfcac0b09a6ccbf2/000000_000000/0000/tree_23.root
/store/group/phys_higgs/hbb/ntuples/VHbbPostNano/2018/V13/ZBJetsToNuNu_Zpt-100to200_TuneCP5_13TeV-madgraphMLM-pythia8/RunIIAutumn18NanoAODv7-Nano02A82/200518_155014/2ac992787e0444d84a77358b75f463d307ab9b3aeff194c19c7631ed/000000_000000/0000/tree_24.root
/store/group/phys_higgs/hbb/ntuples/VHbbPostNano/2018/V13/ZBJetsToNuNu_Zpt-100to200_TuneCP5_13TeV-madgraphMLM-pythia8/RunIIAutumn18NanoAODv7-Nano02A82/200518_155014/db66049ce53eae20d88e4f54ab2e91e422fb36d04823d6935e0c9c07/000000_000000/0000/tree_25.root
/store/group/phys_higgs/hbb/ntuples/VHbbPostNano/2018/V13/ZBJetsToNuNu_Zpt-100to200_TuneCP5_13TeV-madgraphMLM-pythia8/RunIIAutumn18NanoAODv7-Nano02A82/200518_155014/714305800967091c79d7f2e551fb18208347e658362286d3b3f4a77a/000000_000000/0000/tree_26.root
/store/group/phys_higgs/hbb/ntuples/VHbbPostNano/2018/V13/ZBJetsToNuNu_Zpt-100to200_TuneCP5_13TeV-madgraphMLM-pythia8/RunIIAutumn18NanoAODv7-Nano02A82/200518_155014/6754a1a6ab3a1647afb41ff867799e4a74a4b2e2ce9fd653fd674935/000000_000000/0000/tree_27.root
/store/group/phys_higgs/hbb/ntuples/VHbbPostNano/2018/V13/ZBJetsToNuNu_Zpt-100to200_TuneCP5_13TeV-madgraphMLM-pythia8/RunIIAutumn18NanoAODv7-Nano02A82/200518_155014/47cb2009e0d3e2ab54278b7bd18884cb79605306011b23ca539c38df/000000_000000/0000/tree_28.root
/store/group/phys_higgs/hbb/ntuples/VHbbPostNano/2018/V13/ZBJetsToNuNu_Zpt-100to200_TuneCP5_13TeV-madgraphMLM-pythia8/RunIIAutumn18NanoAODv7-Nano02A82/200518_155014/e528fdf431f04be8c6b6d45fb85e399275dafcf5f3b8c72909f6cb28/000000_000000/0000/tree_29.root
/store/group/phys_higgs/hbb/ntuples/VHbbPostNano/2018/V13/ZBJetsToNuNu_Zpt-100to200_TuneCP5_13TeV-madgraphMLM-pythia8/RunIIAutumn18NanoAODv7-Nano02A82/200518_155014/03ad702febbc9d8413589c537b3493815dff097a55bbc59b3f5fa5cf/000000_000000/0000/tree_30.root
/store/group/phys_higgs/hbb/ntuples/VHbbPostNano/2018/V13/ZBJetsToNuNu_Zpt-100to200_TuneCP5_13TeV-madgraphMLM-pythia8/RunIIAutumn18NanoAODv7-Nano02A82/200518_155014/bb525ee63400297fd27df647d9bacf848ec9ab3cea084c46513c6d63/000000_000000/0000/tree_31.root
/store/group/phys_higgs/hbb/ntuples/VHbbPostNano/2018/V13/ZBJetsToNuNu_Zpt-100to200_TuneCP5_13TeV-madgraphMLM-pythia8/RunIIAutumn18NanoAODv7-Nano02A82/200518_155014/44df8cc317b2fc4d91644b69de2910771d96807fbf5e3a4466a5013a/000000_000000/0000/tree_32.root
/store/group/phys_higgs/hbb/ntuples/VHbbPostNano/2018/V13/ZBJetsToNuNu_Zpt-100to200_TuneCP5_13TeV-madgraphMLM-pythia8/RunIIAutumn18NanoAODv7-Nano02A82/200518_155014/17caf824f1b72a773311e99b7decb2bb4ce150b1adf7c2d2914eb67a/000000_000000/0000/tree_33.root
/store/group/phys_higgs/hbb/ntuples/VHbbPostNano/2018/V13/ZBJetsToNuNu_Zpt-100to200_TuneCP5_13TeV-madgraphMLM-pythia8/RunIIAutumn18NanoAODv7-Nano02A82/200518_155014/2c7d7ad01d45bfc388bb3826292f7ef6f0e0f9f2a37ae6ffa184697e/000000_000000/0000/tree_34.root
/store/group/phys_higgs/hbb/ntuples/VHbbPostNano/2018/V13/ZBJetsToNuNu_Zpt-100to200_TuneCP5_13TeV-madgraphMLM-pythia8/RunIIAutumn18NanoAODv7-Nano02A82/200518_155014/817e4d8399863ce441b986f55364ff7cc911607fa15cc34140f3627c/000000_000000/0000/tree_35.root
/store/group/phys_higgs/hbb/ntuples/VHbbPostNano/2018/V13/ZBJetsToNuNu_Zpt-100to200_TuneCP5_13TeV-madgraphMLM-pythia8/RunIIAutumn18NanoAODv7-Nano02A82/200518_155014/2a19f040c015ce3a2878b18a4df36090d1be924423a366b337591119/000000_000000/0000/tree_36.root
/store/group/phys_higgs/hbb/ntuples/VHbbPostNano/2018/V13/ZBJetsToNuNu_Zpt-100to200_TuneCP5_13TeV-madgraphMLM-pythia8/RunIIAutumn18NanoAODv7-Nano02A82/200518_155014/1586fe43d3c35625bec290d2eb6c4291f8ee07820d37ed151c27d04a/000000_000000/0000/tree_37.root
/store/group/phys_higgs/hbb/ntuples/VHbbPostNano/2018/V13/ZBJetsToNuNu_Zpt-100to200_TuneCP5_13TeV-madgraphMLM-pythia8/RunIIAutumn18NanoAODv7-Nano02A82/200518_155014/b224d03b5dd2d2b5c51438e16c36b3c4a9619120f1b0efa6519cc3ef/000000_000000/0000/tree_38.root
/store/group/phys_higgs/hbb/ntuples/VHbbPostNano/2018/V13/ZBJetsToNuNu_Zpt-100to200_TuneCP5_13TeV-madgraphMLM-pythia8/RunIIAutumn18NanoAODv7-Nano02A82/200518_155014/1912dfc12c4ba563a379eb1740ff83c60f6d100cbcaf27e35606aad3/000000_000000/0000/tree_39.root
/store/group/phys_higgs/hbb/ntuples/VHbbPostNano/2018/V13/ZBJetsToNuNu_Zpt-100to200_TuneCP5_13TeV-madgraphMLM-pythia8/RunIIAutumn18NanoAODv7-Nano02A82/200518_155014/69e9d7bcd0b9a8b849f5217c876153767f9705fe920ca666ef182bdb/000000_000000/0000/tree_40.root
/store/group/phys_higgs/hbb/ntuples/VHbbPostNano/2018/V13/ZBJetsToNuNu_Zpt-100to200_TuneCP5_13TeV-madgraphMLM-pythia8/RunIIAutumn18NanoAODv7-Nano02A82/200518_155014/1918f887bdf5777f5f213b38bd6d75f6ba1c5f48b9a0f51550920ca0/000000_000000/0000/tree_41.root
/store/group/phys_higgs/hbb/ntuples/VHbbPostNano/2018/V13/ZBJetsToNuNu_Zpt-100to200_TuneCP5_13TeV-madgraphMLM-pythia8/RunIIAutumn18NanoAODv7-Nano02A82/200518_155014/01520335b6ceb9e5407437806bb36e474c03639d27d4eda4612679cf/000000_000000/0000/tree_42.root
/store/group/phys_higgs/hbb/ntuples/VHbbPostNano/2018/V13/ZBJetsToNuNu_Zpt-100to200_TuneCP5_13TeV-madgraphMLM-pythia8/RunIIAutumn18NanoAODv7-Nano02A82/200518_155014/6b446177ec238d06ddd5b4d653c31d29afcacab3aa72bf5fd70d95d9/000000_000000/0000/tree_43.root
/store/group/phys_higgs/hbb/ntuples/VHbbPostNano/2018/V13/ZBJetsToNuNu_Zpt-100to200_TuneCP5_13TeV-madgraphMLM-pythia8/RunIIAutumn18NanoAODv7-Nano02A82/200518_155014/5ff49f7e603d056e2d259f1f061acea2afe5701222cc58d2996b6199/000000_000000/0000/tree_44.root
/store/group/phys_higgs/hbb/ntuples/VHbbPostNano/2018/V13/ZBJetsToNuNu_Zpt-100to200_TuneCP5_13TeV-madgraphMLM-pythia8/RunIIAutumn18NanoAODv7-Nano02A82/200518_155014/43b01361adee77b45e313e1a5293b224fd5a7fa59f91670d31d495f8/000000_000000/0000/tree_45.root
/store/group/phys_higgs/hbb/ntuples/VHbbPostNano/2018/V13/ZBJetsToNuNu_Zpt-100to200_TuneCP5_13TeV-madgraphMLM-pythia8/RunIIAutumn18NanoAODv7-Nano02A82/200518_155014/5726b9507cf61bc4bcaaaa1fa3700371402d7c3d40ad157a6439865c/000000_000000/0000/tree_46.root
/store/group/phys_higgs/hbb/ntuples/VHbbPostNano/2018/V13/ZBJetsToNuNu_Zpt-100to200_TuneCP5_13TeV-madgraphMLM-pythia8/RunIIAutumn18NanoAODv7-Nano02A82/200518_155014/a0f054d0255b931abfdfddcf4f3cd84609a125250f13e49ff903eecd/000000_000000/0000/tree_47.root
/store/group/phys_higgs/hbb/ntuples/VHbbPostNano/2018/V13/ZBJetsToNuNu_Zpt-100to200_TuneCP5_13TeV-madgraphMLM-pythia8/RunIIAutumn18NanoAODv7-Nano02A82/200518_155014/3d008c87fd6412359854615f4449941db4678dea7089177b8c138cc8/000000_000000/0000/tree_48.root
/store/group/phys_higgs/hbb/ntuples/VHbbPostNano/2018/V13/ZBJetsToNuNu_Zpt-100to200_TuneCP5_13TeV-madgraphMLM-pythia8/RunIIAutumn18NanoAODv7-Nano02A82/200518_155014/cb0aa8ed0f1a2912b09bda671c45d2356f005dd756c3df87086f3676/000000_000000/0000/tree_49.root
/store/group/phys_higgs/hbb/ntuples/VHbbPostNano/2018/V13/ZBJetsToNuNu_Zpt-100to200_TuneCP5_13TeV-madgraphMLM-pythia8/RunIIAutumn18NanoAODv7-Nano02A82/200518_155014/94660b64776b47547971114d726c71e0aea7fbac03291345945355ce/000000_000000/0000/tree_50.root
/store/group/phys_higgs/hbb/ntuples/VHbbPostNano/2018/V13/ZBJetsToNuNu_Zpt-100to200_TuneCP5_13TeV-madgraphMLM-pythia8/RunIIAutumn18NanoAODv7-Nano02A82/200518_155014/5ebcdc3d0c321455315dfcfa4c0f73c76daa1db49d69f20d78a01b6b/000000_000000/0000/tree_51.root