/eos/cms/store/group/phys_higgs/hbb/ntuples/VHbbPostNano/UL/EFT/2016_preVFP/V1/DYJetsToLL_2J_TuneCP5_13TeV-amcatnloFXFX-pythia8/b2139d9fb86acfd92e3be7b190eb51121bb2275e4c7d30c84e1f3ac8/000000_000000/0000/tree_0.root
/eos/cms/store/group/phys_higgs/hbb/ntuples/VHbbPostNano/UL/EFT/2016_preVFP/V1/DYJetsToLL_2J_TuneCP5_13TeV-amcatnloFXFX-pythia8/c485dcc0a32ea81fc306ad52e2033888a99ef2aae1255723aa258d80/000000_000000/0000/tree_1.root
/eos/cms/store/group/phys_higgs/hbb/ntuples/VHbbPostNano/UL/EFT/2016_preVFP/V1/DYJetsToLL_2J_TuneCP5_13TeV-amcatnloFXFX-pythia8/8f6c78b2ade0ace65d40cf588138d15796f4ecb532690f0b9e624e3a/000000_000000/0000/tree_2.root
/eos/cms/store/group/phys_higgs/hbb/ntuples/VHbbPostNano/UL/EFT/2016_preVFP/V1/DYJetsToLL_2J_TuneCP5_13TeV-amcatnloFXFX-pythia8/f8d9a12b86e04dfbae71832d277ca175a593c57d1b3ea97bdf24a592/000000_000000/0000/tree_3.root
/eos/cms/store/group/phys_higgs/hbb/ntuples/VHbbPostNano/UL/EFT/2016_preVFP/V1/DYJetsToLL_2J_TuneCP5_13TeV-amcatnloFXFX-pythia8/86a902acf94b599f3ad7a53f69e4fbe81bda8d652be5f9c6e165ddea/000000_000000/0000/tree_4.root
/eos/cms/store/group/phys_higgs/hbb/ntuples/VHbbPostNano/UL/EFT/2016_preVFP/V1/DYJetsToLL_2J_TuneCP5_13TeV-amcatnloFXFX-pythia8/9baa00e32ac9a1f970fab9a3fa4c3828bd918fbf17f409d8d1de2a8f/000000_000000/0000/tree_5.root
/eos/cms/store/group/phys_higgs/hbb/ntuples/VHbbPostNano/UL/EFT/2016_preVFP/V1/DYJetsToLL_2J_TuneCP5_13TeV-amcatnloFXFX-pythia8/38f7361dd9258975f44ffe0fa51258a86c6b2ca0206d4e7863ec714f/000000_000000/0000/tree_6.root
/eos/cms/store/group/phys_higgs/hbb/ntuples/VHbbPostNano/UL/EFT/2016_preVFP/V1/DYJetsToLL_2J_TuneCP5_13TeV-amcatnloFXFX-pythia8/b5b9313bc8b75d6bcac1620b738c206244537adb62d00a2ed06a3ac6/000000_000000/0000/tree_7.root
/eos/cms/store/group/phys_higgs/hbb/ntuples/VHbbPostNano/UL/EFT/2016_preVFP/V1/DYJetsToLL_2J_TuneCP5_13TeV-amcatnloFXFX-pythia8/8c9be4b79e53048414d53fa98a836c0afb05e2215e24dfc604e7962f/000000_000000/0000/tree_8.root
/eos/cms/store/group/phys_higgs/hbb/ntuples/VHbbPostNano/UL/EFT/2016_preVFP/V1/DYJetsToLL_2J_TuneCP5_13TeV-amcatnloFXFX-pythia8/d953fe5d7d296830f40be8feb413363f32f1b36764c9f3f09d4ee2fc/000000_000000/0000/tree_9.root
/eos/cms/store/group/phys_higgs/hbb/ntuples/VHbbPostNano/UL/EFT/2016_preVFP/V1/DYJetsToLL_2J_TuneCP5_13TeV-amcatnloFXFX-pythia8/bb6840fd0ccd3c159f514c33dba230713a977c6bec0232d4056e3796/000000_000000/0000/tree_10.root
/eos/cms/store/group/phys_higgs/hbb/ntuples/VHbbPostNano/UL/EFT/2016_preVFP/V1/DYJetsToLL_2J_TuneCP5_13TeV-amcatnloFXFX-pythia8/0afc2bb44b12d7d197975552181e66c17e361045f00bb8823a3ab360/000000_000000/0000/tree_11.root