/eos/cms/store/group/phys_higgs/hbb/ntuples/VHbbPostNano/UL/EFT/2016_preVFP/V1/WJetsToLNu_1J_TuneCP5_13TeV-amcatnloFXFX-pythia8/06cf41c8c339d4607ccb5c4f510de14270d2b39f13472037cab61719/000000_000000/0000/tree_0.root
/eos/cms/store/group/phys_higgs/hbb/ntuples/VHbbPostNano/UL/EFT/2016_preVFP/V1/WJetsToLNu_1J_TuneCP5_13TeV-amcatnloFXFX-pythia8/cbbaaa7560c87ce70413b3fe1514fa78e95d9bb313d5fb3c09ca4fdf/000000_000000/0000/tree_1.root
/eos/cms/store/group/phys_higgs/hbb/ntuples/VHbbPostNano/UL/EFT/2016_preVFP/V1/WJetsToLNu_1J_TuneCP5_13TeV-amcatnloFXFX-pythia8/e3b4dab0478cc8de753ea0b0d41f2fda95f50a09a1db67a7f08c4012/000000_000000/0000/tree_2.root
/eos/cms/store/group/phys_higgs/hbb/ntuples/VHbbPostNano/UL/EFT/2016_preVFP/V1/WJetsToLNu_1J_TuneCP5_13TeV-amcatnloFXFX-pythia8/d211d2d2ab576a8ad4f3ea8300ab7bc886fe97fd2f8b7588d70fffbd/000000_000000/0000/tree_3.root
/eos/cms/store/group/phys_higgs/hbb/ntuples/VHbbPostNano/UL/EFT/2016_preVFP/V1/WJetsToLNu_1J_TuneCP5_13TeV-amcatnloFXFX-pythia8/ecf6584ad33fce6f38acc6f1752720ddd2085823154a9b31eec3b158/000000_000000/0000/tree_4.root