/store/group/phys_higgs/hbb/ntuples/VHbbPostNano/2018/V13/QCD_HT1000to1500_TuneCP5_13TeV-madgraphMLM-pythia8/RunIIAutumn18NanoAODv7-Nano02A80/200610_123513/f5e86d3b1eaaf94b64d6b3560cbf13ebcb2e7c35fcc61de59543019d/000000_000000/0000/tree_0.root
/store/group/phys_higgs/hbb/ntuples/VHbbPostNano/2018/V13/QCD_HT1000to1500_TuneCP5_13TeV-madgraphMLM-pythia8/RunIIAutumn18NanoAODv7-Nano02A80/200610_123513/b7c95b5ff68f8ce41dc2adfe3df5726a883d4957d1696b6b5708bb39/000000_000000/0000/tree_1.root
/store/group/phys_higgs/hbb/ntuples/VHbbPostNano/2018/V13/QCD_HT1000to1500_TuneCP5_13TeV-madgraphMLM-pythia8/RunIIAutumn18NanoAODv7-Nano02A80/200610_123513/f62e4e08bd509aa70ed268bbac26688b9e34f4b3d8f982ee52874248/000000_000000/0000/tree_2.root
/store/group/phys_higgs/hbb/ntuples/VHbbPostNano/2018/V13/QCD_HT1000to1500_TuneCP5_13TeV-madgraphMLM-pythia8/RunIIAutumn18NanoAODv7-Nano02A80/200610_123513/fb9afa35f1b983c3b0aed3c377c05891da2dc7bb2b5d27a54ab349a5/000000_000000/0000/tree_3.root