/store/group/phys_higgs/hbb/ntuples/VHbbPostNano/2018/V13/TTTo2L2Nu_TuneCP5_13TeV-powheg-pythia8/RunIIAutumn18NanoAODv7-Nano02A80/200708_080543/382a3e7bd5aeeb81bfe1a4b1a83d99a7c8305b3850a9131747bcf245/000000_000000/0000/tree_0.root
/store/group/phys_higgs/hbb/ntuples/VHbbPostNano/2018/V13/TTTo2L2Nu_TuneCP5_13TeV-powheg-pythia8/RunIIAutumn18NanoAODv7-Nano02A80/200708_080543/7055f7f673005c1b8c98640fc9826e712df5b92eafca4150306c7777/000000_000000/0000/tree_1.root
/store/group/phys_higgs/hbb/ntuples/VHbbPostNano/2018/V13/TTTo2L2Nu_TuneCP5_13TeV-powheg-pythia8/RunIIAutumn18NanoAODv7-Nano02A80/200708_080543/f216018b0a9d80c790bcd752eafd1779515f1958a964662fe167fbca/000000_000000/0000/tree_2.root
/store/group/phys_higgs/hbb/ntuples/VHbbPostNano/2018/V13/TTTo2L2Nu_TuneCP5_13TeV-powheg-pythia8/RunIIAutumn18NanoAODv7-Nano02A80/200708_080543/dd20d776c23b4b6e21ca2392dff0ec11dbe57d3024615aa8e642aa33/000000_000000/0000/tree_3.root
/store/group/phys_higgs/hbb/ntuples/VHbbPostNano/2018/V13/TTTo2L2Nu_TuneCP5_13TeV-powheg-pythia8/RunIIAutumn18NanoAODv7-Nano02A80/200708_080543/01c65b8bd93435d5c0495f4ddbba472bdbb4e97322558f1db81d6b7b/000000_000000/0000/tree_4.root
/store/group/phys_higgs/hbb/ntuples/VHbbPostNano/2018/V13/TTTo2L2Nu_TuneCP5_13TeV-powheg-pythia8/RunIIAutumn18NanoAODv7-Nano02A80/200708_080543/9be13cfce02b22e084647937d955e9ef417dcb378f1a11fcf2bcd459/000000_000000/0000/tree_5.root
/store/group/phys_higgs/hbb/ntuples/VHbbPostNano/2018/V13/TTTo2L2Nu_TuneCP5_13TeV-powheg-pythia8/RunIIAutumn18NanoAODv7-Nano02A80/200708_080543/993f34c8d8b98702b856791cd60cc233067a4440fb82ac0b2ded9e72/000000_000000/0000/tree_6.root
/store/group/phys_higgs/hbb/ntuples/VHbbPostNano/2018/V13/TTTo2L2Nu_TuneCP5_13TeV-powheg-pythia8/RunIIAutumn18NanoAODv7-Nano02A80/200708_080543/33797732586490fc290144a2bbd9b9c8fbfedb55c337ebd3753d1c46/000000_000000/0000/tree_7.root
/store/group/phys_higgs/hbb/ntuples/VHbbPostNano/2018/V13/TTTo2L2Nu_TuneCP5_13TeV-powheg-pythia8/RunIIAutumn18NanoAODv7-Nano02A80/200708_080543/5849852345d14de342d8e2a076fe168f319e35118304cb2ccdb5b314/000000_000000/0000/tree_8.root
/store/group/phys_higgs/hbb/ntuples/VHbbPostNano/2018/V13/TTTo2L2Nu_TuneCP5_13TeV-powheg-pythia8/RunIIAutumn18NanoAODv7-Nano02A80/200708_080543/c6a4304523f49eedeadd91d32e7d42042ea251e58d71069dce482a7e/000000_000000/0000/tree_9.root
/store/group/phys_higgs/hbb/ntuples/VHbbPostNano/2018/V13/TTTo2L2Nu_TuneCP5_13TeV-powheg-pythia8/RunIIAutumn18NanoAODv7-Nano02A80/200708_080543/964b8a9e6bd7d2b45733c6c905429bbfdfd75948a05a04b115a2eb01/000000_000000/0000/tree_10.root
/store/group/phys_higgs/hbb/ntuples/VHbbPostNano/2018/V13/TTTo2L2Nu_TuneCP5_13TeV-powheg-pythia8/RunIIAutumn18NanoAODv7-Nano02A80/200708_080543/38de4c75a30d07774150e4c85908ea006f46589250a40e9ae5cb0c65/000000_000000/0000/tree_11.root
/store/group/phys_higgs/hbb/ntuples/VHbbPostNano/2018/V13/TTTo2L2Nu_TuneCP5_13TeV-powheg-pythia8/RunIIAutumn18NanoAODv7-Nano02A80/200708_080543/efd18c53e5e5bcc56a9b7de33d11d9565338d8b54435792dade53443/000000_000000/0000/tree_12.root
/store/group/phys_higgs/hbb/ntuples/VHbbPostNano/2018/V13/TTTo2L2Nu_TuneCP5_13TeV-powheg-pythia8/RunIIAutumn18NanoAODv7-Nano02A80/200708_080543/8f762e2140dcc79fbba91463f6c1dbb49c5264117b3501152393af53/000000_000000/0000/tree_13.root
/store/group/phys_higgs/hbb/ntuples/VHbbPostNano/2018/V13/TTTo2L2Nu_TuneCP5_13TeV-powheg-pythia8/RunIIAutumn18NanoAODv7-Nano02A80/200708_080543/263858a4f35c7c590af062dfa3f45669b571d137f0f820124134bd5e/000000_000000/0000/tree_14.root
/store/group/phys_higgs/hbb/ntuples/VHbbPostNano/2018/V13/TTTo2L2Nu_TuneCP5_13TeV-powheg-pythia8/RunIIAutumn18NanoAODv7-Nano02A80/200708_080543/c9eb89a26eb85258c514fcb7d1276d317f42b6222e56c0eed17229bf/000000_000000/0000/tree_15.root
/store/group/phys_higgs/hbb/ntuples/VHbbPostNano/2018/V13/TTTo2L2Nu_TuneCP5_13TeV-powheg-pythia8/RunIIAutumn18NanoAODv7-Nano02A80/200708_080543/2ff3e1cdb63eb1713a5bfdd0e8d990e9ab104477ea955bd331d767f8/000000_000000/0000/tree_16.root
/store/group/phys_higgs/hbb/ntuples/VHbbPostNano/2018/V13/TTTo2L2Nu_TuneCP5_13TeV-powheg-pythia8/RunIIAutumn18NanoAODv7-Nano02A80/200708_080543/6bcf6fe13bf237a74a4671d5f9198c17f3eba762f43c0f63adb57771/000000_000000/0000/tree_17.root
/store/group/phys_higgs/hbb/ntuples/VHbbPostNano/2018/V13/TTTo2L2Nu_TuneCP5_13TeV-powheg-pythia8/RunIIAutumn18NanoAODv7-Nano02A80/200708_080543/f479e20e2d2afecd0fe9e6a3abb2381d1bd73f218d7cebf0d48fb670/000000_000000/0000/tree_18.root
/store/group/phys_higgs/hbb/ntuples/VHbbPostNano/2018/V13/TTTo2L2Nu_TuneCP5_13TeV-powheg-pythia8/RunIIAutumn18NanoAODv7-Nano02A80/200708_080543/6ae56edbebb166d26b4e9bbe61fe8057133d64ebf42d0cd0d6fad994/000000_000000/0000/tree_19.root
/store/group/phys_higgs/hbb/ntuples/VHbbPostNano/2018/V13/TTTo2L2Nu_TuneCP5_13TeV-powheg-pythia8/RunIIAutumn18NanoAODv7-Nano02A80/200708_080543/f0ed0a74863115b90c92213ef92565768e388895f3230a4942d38464/000000_000000/0000/tree_20.root
/store/group/phys_higgs/hbb/ntuples/VHbbPostNano/2018/V13/TTTo2L2Nu_TuneCP5_13TeV-powheg-pythia8/RunIIAutumn18NanoAODv7-Nano02A80/200708_080543/9d97e8c43748d0372ab6110d0a7f4212a19ddc2bf6a15dac36dee72e/000000_000000/0000/tree_21.root
/store/group/phys_higgs/hbb/ntuples/VHbbPostNano/2018/V13/TTTo2L2Nu_TuneCP5_13TeV-powheg-pythia8/RunIIAutumn18NanoAODv7-Nano02A80/200708_080543/e301f46275e3c944e17ea559e8164ec311aa7213a05ad6cd13231c7d/000000_000000/0000/tree_22.root
/store/group/phys_higgs/hbb/ntuples/VHbbPostNano/2018/V13/TTTo2L2Nu_TuneCP5_13TeV-powheg-pythia8/RunIIAutumn18NanoAODv7-Nano02A80/200708_080543/6bf293b46cdddeee93de01c84217f0774b7e91e6f103a63e7018b1a9/000000_000000/0000/tree_23.root
/store/group/phys_higgs/hbb/ntuples/VHbbPostNano/2018/V13/TTTo2L2Nu_TuneCP5_13TeV-powheg-pythia8/RunIIAutumn18NanoAODv7-Nano02A80/200708_080543/9a78ed13eb04186ef56ec6001ec8c0a774c4200b2ed018a1fb527472/000000_000000/0000/tree_24.root
/store/group/phys_higgs/hbb/ntuples/VHbbPostNano/2018/V13/TTTo2L2Nu_TuneCP5_13TeV-powheg-pythia8/RunIIAutumn18NanoAODv7-Nano02A80/200708_080543/622583aa169ab90e58d9e4967c8c28cf4664c8e9240f39c9d8c33e0c/000000_000000/0000/tree_25.root
/store/group/phys_higgs/hbb/ntuples/VHbbPostNano/2018/V13/TTTo2L2Nu_TuneCP5_13TeV-powheg-pythia8/RunIIAutumn18NanoAODv7-Nano02A80/200708_080543/1ca07f60f9cccd39e18bf8ed045b1803f660b6c831748afeb547d11c/000000_000000/0000/tree_26.root
/store/group/phys_higgs/hbb/ntuples/VHbbPostNano/2018/V13/TTTo2L2Nu_TuneCP5_13TeV-powheg-pythia8/RunIIAutumn18NanoAODv7-Nano02A80/200708_080543/a3c2c8a7f0f99d642073482fd6a1508e4e4e4e17ea8daab505ac2425/000000_000000/0000/tree_27.root
/store/group/phys_higgs/hbb/ntuples/VHbbPostNano/2018/V13/TTTo2L2Nu_TuneCP5_13TeV-powheg-pythia8/RunIIAutumn18NanoAODv7-Nano02A80/200708_080543/11e34bc1875d7fcc4fec4412872422b59b24b2f5eb6884b493626a79/000000_000000/0000/tree_28.root
/store/group/phys_higgs/hbb/ntuples/VHbbPostNano/2018/V13/TTTo2L2Nu_TuneCP5_13TeV-powheg-pythia8/RunIIAutumn18NanoAODv7-Nano02A80/200708_080543/7a2acde0eb49a8377cce5d05796a633b4236665e77370ea48f2cfaf4/000000_000000/0000/tree_29.root
/store/group/phys_higgs/hbb/ntuples/VHbbPostNano/2018/V13/TTTo2L2Nu_TuneCP5_13TeV-powheg-pythia8/RunIIAutumn18NanoAODv7-Nano02A80/200708_080543/19f9e7041b940b9111100562c9d40a4d60871eebd8adae859afccc2a/000000_000000/0000/tree_30.root
/store/group/phys_higgs/hbb/ntuples/VHbbPostNano/2018/V13/TTTo2L2Nu_TuneCP5_13TeV-powheg-pythia8/RunIIAutumn18NanoAODv7-Nano02A80/200708_080543/e0d0f2237d72c2177c3f78f6201b23fff2280b85fdb089b98e97628b/000000_000000/0000/tree_31.root
/store/group/phys_higgs/hbb/ntuples/VHbbPostNano/2018/V13/TTTo2L2Nu_TuneCP5_13TeV-powheg-pythia8/RunIIAutumn18NanoAODv7-Nano02A80/200708_080543/8224108eab6d9bc6b6da1d5aeaa124f28adfab4224240bd37de2c156/000000_000000/0000/tree_32.root