/store/group/phys_higgs/hbb/ntuples/VHbbPostNano/2018/V13/WJetsToLNu_BGenFilter_Wpt-200toInf_TuneCP5_13TeV-madgraphMLM-pythia8/RunIIAutumn18NanoAODv7-Nano02A83/200616_174503/bbfab7160b5bcf4170e1ee29d1d961ffb45af0a7b497d89c338602bf/000000_000000/0000/tree_0.root
/store/group/phys_higgs/hbb/ntuples/VHbbPostNano/2018/V13/WJetsToLNu_BGenFilter_Wpt-200toInf_TuneCP5_13TeV-madgraphMLM-pythia8/RunIIAutumn18NanoAODv7-Nano02A83/200616_174503/9b3d40b48961448c82d58ed588602a06bf70513b7599e11e28d52bb8/000000_000000/0000/tree_1.root
/store/group/phys_higgs/hbb/ntuples/VHbbPostNano/2018/V13/WJetsToLNu_BGenFilter_Wpt-200toInf_TuneCP5_13TeV-madgraphMLM-pythia8/RunIIAutumn18NanoAODv7-Nano02A83/200616_174503/bfc1e336064cfb502a9ff4320bcf43d91127d28bc6f07d6a7539bd64/000000_000000/0000/tree_2.root
/store/group/phys_higgs/hbb/ntuples/VHbbPostNano/2018/V13/WJetsToLNu_BGenFilter_Wpt-200toInf_TuneCP5_13TeV-madgraphMLM-pythia8/RunIIAutumn18NanoAODv7-Nano02A83/200616_174503/178831e4403240d2d2f5e2a6a745b2c02d2c1c5dd593a491927d561c/000000_000000/0000/tree_3.root
/store/group/phys_higgs/hbb/ntuples/VHbbPostNano/2018/V13/WJetsToLNu_BGenFilter_Wpt-200toInf_TuneCP5_13TeV-madgraphMLM-pythia8/RunIIAutumn18NanoAODv7-Nano02A83/200616_174503/dac6666a312464f1965d178690b1ab82b5450a0327ec542f38003697/000000_000000/0000/tree_4.root
/store/group/phys_higgs/hbb/ntuples/VHbbPostNano/2018/V13/WJetsToLNu_BGenFilter_Wpt-200toInf_TuneCP5_13TeV-madgraphMLM-pythia8/RunIIAutumn18NanoAODv7-Nano02A83/200616_174503/370dfd364195989bb106a45857039295e91e0b42e6b6c717893f7c06/000000_000000/0000/tree_5.root
/store/group/phys_higgs/hbb/ntuples/VHbbPostNano/2018/V13/WJetsToLNu_BGenFilter_Wpt-200toInf_TuneCP5_13TeV-madgraphMLM-pythia8/RunIIAutumn18NanoAODv7-Nano02A83/200616_174503/e78764504929209c2dd7683b7ad2ac93e8d55e48b3e9372709881458/000000_000000/0000/tree_6.root
/store/group/phys_higgs/hbb/ntuples/VHbbPostNano/2018/V13/WJetsToLNu_BGenFilter_Wpt-200toInf_TuneCP5_13TeV-madgraphMLM-pythia8/RunIIAutumn18NanoAODv7-Nano02A83/200616_174503/17255bd93393e3882eb5803ed70234643e56e278774f6615fde12565/000000_000000/0000/tree_7.root
/store/group/phys_higgs/hbb/ntuples/VHbbPostNano/2018/V13/WJetsToLNu_BGenFilter_Wpt-200toInf_TuneCP5_13TeV-madgraphMLM-pythia8/RunIIAutumn18NanoAODv7-Nano02A83/200616_174503/7a00e5171ad8b165367871e0bf613129bc3f72618812af6a8bf006e4/000000_000000/0000/tree_8.root
/store/group/phys_higgs/hbb/ntuples/VHbbPostNano/2018/V13/WJetsToLNu_BGenFilter_Wpt-200toInf_TuneCP5_13TeV-madgraphMLM-pythia8/RunIIAutumn18NanoAODv7-Nano02A83/200616_174503/6214bb19bf079a634d31601b15f7fc3389bb9dd7540a99d40d0d29be/000000_000000/0000/tree_9.root
/store/group/phys_higgs/hbb/ntuples/VHbbPostNano/2018/V13/WJetsToLNu_BGenFilter_Wpt-200toInf_TuneCP5_13TeV-madgraphMLM-pythia8/RunIIAutumn18NanoAODv7-Nano02A83/200616_174503/f810ac43e83dc47a271d826c6caf31fc18de40cfc7450ba72ccadc0c/000000_000000/0000/tree_10.root
/store/group/phys_higgs/hbb/ntuples/VHbbPostNano/2018/V13/WJetsToLNu_BGenFilter_Wpt-200toInf_TuneCP5_13TeV-madgraphMLM-pythia8/RunIIAutumn18NanoAODv7-Nano02A83/200616_174503/90e2d399a16f3946bb5e1c2da80fbe3ccce8cf9c7eaa1890a9fd22fa/000000_000000/0000/tree_11.root
/store/group/phys_higgs/hbb/ntuples/VHbbPostNano/2018/V13/WJetsToLNu_BGenFilter_Wpt-200toInf_TuneCP5_13TeV-madgraphMLM-pythia8/RunIIAutumn18NanoAODv7-Nano02A83/200616_174503/b53f3c725fd41a5d25dcfc5aa83db0f1221ed486ff52f2e601790ab8/000000_000000/0000/tree_12.root
/store/group/phys_higgs/hbb/ntuples/VHbbPostNano/2018/V13/WJetsToLNu_BGenFilter_Wpt-200toInf_TuneCP5_13TeV-madgraphMLM-pythia8/RunIIAutumn18NanoAODv7-Nano02A83/200616_174503/9e838001b01529b91892423c45daab94220f8397b9e6a1eafd876ceb/000000_000000/0000/tree_13.root
/store/group/phys_higgs/hbb/ntuples/VHbbPostNano/2018/V13/WJetsToLNu_BGenFilter_Wpt-200toInf_TuneCP5_13TeV-madgraphMLM-pythia8/RunIIAutumn18NanoAODv7-Nano02A83/200616_174503/e2ad47c91e7e6327bcb554379993f4346220aedc60d7e5dcc96403f8/000000_000000/0000/tree_14.root
/store/group/phys_higgs/hbb/ntuples/VHbbPostNano/2018/V13/WJetsToLNu_BGenFilter_Wpt-200toInf_TuneCP5_13TeV-madgraphMLM-pythia8/RunIIAutumn18NanoAODv7-Nano02A83/200616_174503/51c8667c4813193bed9620461c57b19b4450f541ab1dd6decaf52bdd/000000_000000/0000/tree_15.root
/store/group/phys_higgs/hbb/ntuples/VHbbPostNano/2018/V13/WJetsToLNu_BGenFilter_Wpt-200toInf_TuneCP5_13TeV-madgraphMLM-pythia8/RunIIAutumn18NanoAODv7-Nano02A83/200616_174503/ff7cec8999894986d95fe59fc25116ed6cfe8a4ad5ed1fd3c2298819/000000_000000/0000/tree_16.root