/store/group/phys_higgs/hbb/ntuples/VHbbPostNano/2018/V13/ZH_HToBB_ZToNuNu_M125_13TeV_powheg_pythia8/RunIIAutumn18NanoAODv7-Nano02A85/200519_095652/e470ffa360056ba358bc672075326d6b07ac4c07298acabb27358829/000000_000000/0000/tree_0.root
/store/group/phys_higgs/hbb/ntuples/VHbbPostNano/2018/V13/ZH_HToBB_ZToNuNu_M125_13TeV_powheg_pythia8/RunIIAutumn18NanoAODv7-Nano02A85/200519_095652/e4075dcb5e5405ac3a2a41997f76c26f50e81ceab704c2f082059cdf/000000_000000/0000/tree_1.root
/store/group/phys_higgs/hbb/ntuples/VHbbPostNano/2018/V13/ZH_HToBB_ZToNuNu_M125_13TeV_powheg_pythia8/RunIIAutumn18NanoAODv7-Nano02A85/200519_095652/b9582ef9f127b592a16e60dfff00ec3660de04864973b03f4be5bb4a/000000_000000/0000/tree_2.root
/store/group/phys_higgs/hbb/ntuples/VHbbPostNano/2018/V13/ZH_HToBB_ZToNuNu_M125_13TeV_powheg_pythia8/RunIIAutumn18NanoAODv7-Nano02A85/200519_095652/41fa7a6a6220835ada184c859b6404b570887f2dd5bb7ef09a3bd30f/000000_000000/0000/tree_3.root
/store/group/phys_higgs/hbb/ntuples/VHbbPostNano/2018/V13/ZH_HToBB_ZToNuNu_M125_13TeV_powheg_pythia8/RunIIAutumn18NanoAODv7-Nano02A85/200519_095652/dfa39af887aabf21b6dd1f5fd36f1b4162cd3637504c8bb7a4083c65/000000_000000/0000/tree_4.root
/store/group/phys_higgs/hbb/ntuples/VHbbPostNano/2018/V13/ZH_HToBB_ZToNuNu_M125_13TeV_powheg_pythia8/RunIIAutumn18NanoAODv7-Nano02A85/200519_095652/fc685d1fd23af0169aba4783af2c008d32ba50e47e8b77c2d800ff80/000000_000000/0000/tree_5.root