[dc:SR_med_Wmn]
rebin_list=[0.00000, 0.19705, 0.31000, 0.41599, 0.49697, 0.57102, 0.63724, 0.69710, 0.75150, 0.79756, 0.84188, 0.88059, 0.91294, 0.94120, 0.96592, 1.00001]

[dc:SR_med_Wen]
rebin_list=[0.00000, 0.20168, 0.30869, 0.42006, 0.50526, 0.58522, 0.65384, 0.71521, 0.76634, 0.81349, 0.85373, 0.88903, 0.91967, 0.94582, 0.96845, 1.00001]

[dc:SR_high1_Wmn]
rebin_list=[0.00000, 0.38539, 0.56428, 0.66839, 0.74794, 0.80416, 0.84871, 0.88309, 0.91101, 0.93014, 0.94609, 0.96022, 0.97168, 0.97951, 0.98732, 1.00001]

[dc:SR_high1_Wen]
rebin_list=[0.00000, 0.40774, 0.57883, 0.68156, 0.75680, 0.81433, 0.85860, 0.89311, 0.92132, 0.94020, 0.95666, 0.96907, 0.97861, 0.98583, 1.00001]

[dc:SR_high2_Wmn]
rebin_list=[0.00000, 0.82326, 0.93201, 0.96530, 0.98313, 1.00001]

[dc:SR_high2_Wen]
rebin_list=[0.00000, 0.84005, 0.92786, 0.96695, 0.98447, 1.00001]

[dc:SR_high_Wmn]
rebin_list=[0.00000, 0.42209, 0.59628, 0.69592, 0.77138, 0.82000, 0.86453, 0.89600, 0.92112, 0.93824, 0.95287, 0.96489, 0.97483, 0.98189, 0.98819, 1.00001]

[dc:SR_high_Wen]
rebin_list=[0.00000, 0.42870, 0.58974, 0.68941, 0.76310, 0.81815, 0.86222, 0.89371, 0.91907, 0.93808, 0.95305, 0.96570, 0.97450, 0.98204, 0.98795, 1.00001]

[dc:SR_high_Wen_BOOST]
rebin_list=[-1.00000, -0.01802, 0.14696, 0.26134, 0.38966, 1.00001]

[dc:SR_high_Wmn_BOOST]
rebin_list=[-1.00000, -0.04228, 0.09120, 0.20818, 0.29752, 0.40946, 1.00001]

[dc:SR_high1_Wen_BOOST]
rebin_list=[-1.00000, -0.08292, 0.08224, 0.19080, 0.29782, 1.00001]

[dc:SR_high1_Wmn_BOOST]
rebin_list=[-1.00000, -0.07178, 0.06004, 0.18236, 0.28234, 1.00001]

[dc:SR_high2_Wen_BOOST]
rebin_list=[-1.00000, 0.10148, 0.25254, 0.37630, 0.49812, 1.00001]

[dc:SR_high2_Wmn_BOOST]
rebin_list=[-1.00000, 0.10050, 0.26312, 0.37474, 0.49196, 1.00001]

[dc:VV_SR_med_Wmn]
rebin_list=[0.00000, 0.22293, 0.37340, 0.44389, 0.50308, 0.56182, 0.61965, 0.68120, 0.73632, 0.78086, 0.81962, 0.85597, 0.88897, 0.91750, 0.94294, 1.00001]

[dc:VV_SR_med_Wen]
rebin_list=[0.00000, 0.24851, 0.36190, 0.43955, 0.49609, 0.55613, 0.61024, 0.67712, 0.72754, 0.77964, 0.82407, 0.86122, 0.89155, 0.91919, 0.94639, 1.00001]

[dc:VV_SR_high1_Wmn]
rebin_list=[0.00000, 0.37087, 0.53217, 0.62758, 0.70848, 0.75579, 0.79943, 0.82796, 0.86836, 0.89848, 0.91291, 0.92875, 0.94599, 0.96001, 0.97304, 1.00001]

[dc:VV_SR_high1_Wen]
rebin_list=[0.00000, 0.39020, 0.50993, 0.58984, 0.69781, 0.76051, 0.79980, 0.85297, 0.87955, 0.89525, 0.91479, 0.93116, 0.94652, 0.95959, 0.96941, 1.00001]

[dc:VV_SR_high2_Wmn]
rebin_list=[0.00000, 0.75325, 0.87406, 0.93669, 0.96058, 1.00001]

[dc:VV_SR_high2_Wen]
rebin_list=[0.00000, 0.65310, 0.78147, 0.90726, 0.95927, 1.00001]

[dc:VV_SR_high1_Wmn_BOOST]
rebin_list=[-1.00000, -0.11632, -0.01340, 0.03558, 0.09744, 0.13488, 0.22256, 0.26948, 0.33180, 0.41356, 0.48532, 1.00001]

[dc:VV_SR_high2_Wmn_BOOST]
rebin_list=[-1.00000, 0.05646, 0.21108, 0.30148, 0.40594, 1.00001]

[dc:VV_SR_high1_Wen_BOOST]
rebin_list=[-1.00000, -0.18422, -0.09610, -0.05980, -0.02242, 0.03134, 0.08144, 0.13826, 0.20556, 0.25952, 0.29848, 0.33218, 0.41300, 1.00001]

[dc:VV_SR_high2_Wen_BOOST]
rebin_list=[-1.00000, 0.06538, 0.19180, 0.31738, 0.47024, 1.00001]

