/store/group/phys_higgs/hbb/ntuples/VHbbPostNano/2018/V13/DYJetsToLL_M-50_HT-800to1200_TuneCP5_PSweights_13TeV-madgraphMLM-pythia8/ecb20f621aba8987d7e5a55987dfa6ea9f9936d25bb5104761cdf49d/000000_000000/0000/tree_0.root
/store/group/phys_higgs/hbb/ntuples/VHbbPostNano/2018/V13/DYJetsToLL_M-50_HT-800to1200_TuneCP5_PSweights_13TeV-madgraphMLM-pythia8/a7e7082900df691054b23327463fb212657d540c16551e92f51cd943/000000_000000/0000/tree_1.root
/store/group/phys_higgs/hbb/ntuples/VHbbPostNano/2018/V13/DYJetsToLL_M-50_HT-800to1200_TuneCP5_PSweights_13TeV-madgraphMLM-pythia8/c94806a9d8880707c90fd6231aadae215568ad79a1b427380d8c169b/000000_000000/0000/tree_2.root
/store/group/phys_higgs/hbb/ntuples/VHbbPostNano/2018/V13/DYJetsToLL_M-50_HT-800to1200_TuneCP5_PSweights_13TeV-madgraphMLM-pythia8/8fab7b3788230ab8e2b492bb29295ccb73abff6e59cd1ff608683122/000000_000000/0000/tree_3.root
/store/group/phys_higgs/hbb/ntuples/VHbbPostNano/2018/V13/DYJetsToLL_M-50_HT-800to1200_TuneCP5_PSweights_13TeV-madgraphMLM-pythia8/637015bf6a73f21d59e7c5d39e3fbc7d95774e4dc861ac0a7c253552/000000_000000/0000/tree_4.root
/store/group/phys_higgs/hbb/ntuples/VHbbPostNano/2018/V13/DYJetsToLL_M-50_HT-800to1200_TuneCP5_PSweights_13TeV-madgraphMLM-pythia8/9786e8357107b8f5a43aecd07b97822f766fef3dd6212daeb678934f/000000_000000/0000/tree_5.root
/store/group/phys_higgs/hbb/ntuples/VHbbPostNano/2018/V13/DYJetsToLL_M-50_HT-800to1200_TuneCP5_PSweights_13TeV-madgraphMLM-pythia8/ff44e8b176af7cd352eda16e66e8247d2a1bdc1550fdf342f91cf060/000000_000000/0000/tree_6.root
/store/group/phys_higgs/hbb/ntuples/VHbbPostNano/2018/V13/DYJetsToLL_M-50_HT-800to1200_TuneCP5_PSweights_13TeV-madgraphMLM-pythia8/d58fd16a5aa3262c2b9a7dcce8a6a1b79c1d214e9680ee7fd8042bc9/000000_000000/0000/tree_7.root