/store/group/phys_higgs/hbb/ntuples/VHbbPostNano/2018/V13/EGamma/a43cdabd69389ed124498c8bdabd11ae71a49193b28a5c06692cf7cb/000000_000000/0000/tree_0.root
/store/group/phys_higgs/hbb/ntuples/VHbbPostNano/2018/V13/EGamma/4e2d47c62edf18556721ec50788c7e72acabbbe3446495ee9ca49c19/000000_000000/0000/tree_1.root
/store/group/phys_higgs/hbb/ntuples/VHbbPostNano/2018/V13/EGamma/46d7c677291f567e5b5e36f812bf66d347eec91c9b0eca9045962a11/000000_000000/0000/tree_2.root
/store/group/phys_higgs/hbb/ntuples/VHbbPostNano/2018/V13/EGamma/b9c20de53238ccc5b49ff2b64dea436082ce0cde6879ebbcca31ed7e/000000_000000/0000/tree_3.root
/store/group/phys_higgs/hbb/ntuples/VHbbPostNano/2018/V13/EGamma/e590ad90a8bcf3305c5247e5d9dbc9523dea7e562941901ee8f1d5fc/000000_000000/0000/tree_4.root
/store/group/phys_higgs/hbb/ntuples/VHbbPostNano/2018/V13/EGamma/f3fbe12f4214aacc12c57f2fd6eb15c116417fed1d10c4d81fb6f929/000000_000000/0000/tree_5.root
/store/group/phys_higgs/hbb/ntuples/VHbbPostNano/2018/V13/EGamma/133aa0c486144db70a117e5d4f8c72fae9ef1c5427f60563a27c6bc9/000000_000000/0000/tree_6.root
/store/group/phys_higgs/hbb/ntuples/VHbbPostNano/2018/V13/EGamma/2176f46a1c29897d139433c73bf2f342213312092e8a457d6dde066b/000000_000000/0000/tree_7.root
/store/group/phys_higgs/hbb/ntuples/VHbbPostNano/2018/V13/EGamma/db6038d976977a95d0d00d481346e224956e3ba09f938bc13ba18d6c/000000_000000/0000/tree_8.root
/store/group/phys_higgs/hbb/ntuples/VHbbPostNano/2018/V13/EGamma/4739f97055106cbc73ab956b631c33f1c4e3b167e65a2b7d2000d901/000000_000000/0000/tree_9.root
/store/group/phys_higgs/hbb/ntuples/VHbbPostNano/2018/V13/EGamma/4e62d3d757da27a97e47874a818db6400d0721e873c1bff81a7ca706/000000_000000/0000/tree_10.root
/store/group/phys_higgs/hbb/ntuples/VHbbPostNano/2018/V13/EGamma/869c8b29f6682c8cf352ebc3e1b8d6d0bbd805e019399d291e38e917/000000_000000/0000/tree_11.root
/store/group/phys_higgs/hbb/ntuples/VHbbPostNano/2018/V13/EGamma/662fd4b57ba03dde0ed843b6f93e2688dd3dc5fd8536a5547bcda77e/000000_000000/0000/tree_12.root
/store/group/phys_higgs/hbb/ntuples/VHbbPostNano/2018/V13/EGamma/ed9c4f9379d9db27e7c232c6165dda76124c3c731b4f05ab79eb327a/000000_000000/0000/tree_13.root
/store/group/phys_higgs/hbb/ntuples/VHbbPostNano/2018/V13/EGamma/f022e4dd66729947e04e4ef98383f06c41981425b1b96ec0f221e79d/000000_000000/0000/tree_14.root
/store/group/phys_higgs/hbb/ntuples/VHbbPostNano/2018/V13/EGamma/d563cea46ae9915fc19702b79dd4d1c1d294baf83d26b7a0b457b1b7/000000_000000/0000/tree_15.root
/store/group/phys_higgs/hbb/ntuples/VHbbPostNano/2018/V13/EGamma/d8adf4079a8ea8a3f21ac5e0b3bdc5458d6a5880805f22e2281583f5/000000_000000/0000/tree_16.root
/store/group/phys_higgs/hbb/ntuples/VHbbPostNano/2018/V13/EGamma/f85827b9da270764e4f56597217c54f14060f6c3a78709e38ab41969/000000_000000/0000/tree_17.root
/store/group/phys_higgs/hbb/ntuples/VHbbPostNano/2018/V13/EGamma/cd2ace4f3e9f2cff864cd7c1b704745bc566768f5884151ec974a651/000000_000000/0000/tree_18.root
/store/group/phys_higgs/hbb/ntuples/VHbbPostNano/2018/V13/EGamma/e6facc16504ee9d4cb2a09df949634636aab370af1166aa24208f98d/000000_000000/0000/tree_19.root
/store/group/phys_higgs/hbb/ntuples/VHbbPostNano/2018/V13/EGamma/f2349a82fbd3d3f708613066c6b72a1c393bc2ecf5a66dbe554cb76c/000000_000000/0000/tree_20.root
/store/group/phys_higgs/hbb/ntuples/VHbbPostNano/2018/V13/EGamma/c59018427bcedd70b80c7bd0d665ba5530bcd83929e74c0a74944393/000000_000000/0000/tree_21.root
/store/group/phys_higgs/hbb/ntuples/VHbbPostNano/2018/V13/EGamma/9209a48ec087645e01bbfcaa869b3788d290b722576089617e07ec88/000000_000000/0000/tree_22.root
/store/group/phys_higgs/hbb/ntuples/VHbbPostNano/2018/V13/EGamma/31669291c6ebd50c0572efffb1e9699daf7a30557eb30bbbe18eff58/000000_000000/0000/tree_23.root
/store/group/phys_higgs/hbb/ntuples/VHbbPostNano/2018/V13/EGamma/2c381c17ea99ba0bf0c05f9ce6ca7610174f03fdcb1d54273c881cc9/000000_000000/0000/tree_24.root
/store/group/phys_higgs/hbb/ntuples/VHbbPostNano/2018/V13/EGamma/5cf211ace115f7c72823157ebf154175060e488007fa54c4a325b7b9/000000_000000/0000/tree_25.root
/store/group/phys_higgs/hbb/ntuples/VHbbPostNano/2018/V13/EGamma/ce43ab927a8fa883e1b7a9dc07aaa08d861c2434ab8df35859e8431a/000000_000000/0000/tree_26.root
/store/group/phys_higgs/hbb/ntuples/VHbbPostNano/2018/V13/EGamma/71c2286f390eeb0b690a3fb681497eef90c45a3b9b0733f9fa2fd1b7/000000_000000/0000/tree_27.root
/store/group/phys_higgs/hbb/ntuples/VHbbPostNano/2018/V13/EGamma/02ba5c8f87cfee04ddfe98aa86a87e7ac6a0dcebfc762e120f663cbb/000000_000000/0000/tree_28.root
/store/group/phys_higgs/hbb/ntuples/VHbbPostNano/2018/V13/EGamma/53c615085d242b3b440dc15a947e4e5e0271b5e8f5d7ca4d309e33d0/000000_000000/0000/tree_29.root
/store/group/phys_higgs/hbb/ntuples/VHbbPostNano/2018/V13/EGamma/9d49a309976647fd21ebde990fe12bb96c93f7b8a38a314576e681e4/000000_000000/0000/tree_30.root
/store/group/phys_higgs/hbb/ntuples/VHbbPostNano/2018/V13/EGamma/173f0a3f06cece8f11b03a529685b4090e555ee78fd37703bdfb6dd7/000000_000000/0000/tree_31.root
/store/group/phys_higgs/hbb/ntuples/VHbbPostNano/2018/V13/EGamma/c1cb4ed7d9a4357cf511ada15e4c35a4f3d3488272c919c3e83e7925/000000_000000/0000/tree_32.root
/store/group/phys_higgs/hbb/ntuples/VHbbPostNano/2018/V13/EGamma/a3e0a663da83278a052ca9d647e94a034d8bed9826a15b2215c540d9/000000_000000/0000/tree_33.root
/store/group/phys_higgs/hbb/ntuples/VHbbPostNano/2018/V13/EGamma/23a03e8720e840abaa41f10d8ca857b1e48d9c45d69c324470a91393/000000_000000/0000/tree_34.root
/store/group/phys_higgs/hbb/ntuples/VHbbPostNano/2018/V13/EGamma/1fa6bb579054eb020cb076281ee5e5d613d741c0e57096c4218733b8/000000_000000/0000/tree_35.root
/store/group/phys_higgs/hbb/ntuples/VHbbPostNano/2018/V13/EGamma/d5fd4d8c53e149e615017de1ff996f05945f9cd0c615a23b65922a54/000000_000000/0000/tree_36.root
/store/group/phys_higgs/hbb/ntuples/VHbbPostNano/2018/V13/EGamma/617b26af1fb2eee7f822b6a29d60849c8888d0e5cebb4597b25d30ec/000000_000000/0000/tree_37.root
/store/group/phys_higgs/hbb/ntuples/VHbbPostNano/2018/V13/EGamma/29bccf04dda4a892fc197d7c58c873a2db5fd3ad98f14acc389a1a19/000000_000000/0000/tree_38.root
/store/group/phys_higgs/hbb/ntuples/VHbbPostNano/2018/V13/EGamma/9ae790864dd34fafaf7e6586913c943d3b514de1eebfd13902f044d4/000000_000000/0000/tree_39.root
/store/group/phys_higgs/hbb/ntuples/VHbbPostNano/2018/V13/EGamma/458cd5026e23e195bda39c07a908ea1f47700cf5c4b9ed8307027c48/000000_000000/0000/tree_40.root
/store/group/phys_higgs/hbb/ntuples/VHbbPostNano/2018/V13/EGamma/86bbaf7c854b8d2ea0e2d4bfc987bf899f977d8b21bf761bb05bdfc3/000000_000000/0000/tree_41.root
/store/group/phys_higgs/hbb/ntuples/VHbbPostNano/2018/V13/EGamma/3ae7fa4bab8823a08e88bc261e65baf1ee9bc6c1ebe715955393aa8c/000000_000000/0000/tree_42.root
/store/group/phys_higgs/hbb/ntuples/VHbbPostNano/2018/V13/EGamma/119369529a8534d90ee19ac8a059fd1c75c016a29305919b3810ef5d/000000_000000/0000/tree_43.root
/store/group/phys_higgs/hbb/ntuples/VHbbPostNano/2018/V13/EGamma/f6ad939ba1a86bba4fbcaf0486ccda14e91afd3474817146b3201e11/000000_000000/0000/tree_44.root
/store/group/phys_higgs/hbb/ntuples/VHbbPostNano/2018/V13/EGamma/f8341398a383fad5803950a3c50b072332935eeb2eef65b2df38b091/000000_000000/0000/tree_45.root
/store/group/phys_higgs/hbb/ntuples/VHbbPostNano/2018/V13/EGamma/28ea210a9f270ac239b3ef130ff2425a52dc59dcc0a97865ee54934e/000000_000000/0000/tree_46.root
/store/group/phys_higgs/hbb/ntuples/VHbbPostNano/2018/V13/EGamma/cdc5919f487ad06b7b79136158902188f8f9c29e52ad03bccc2fbd1f/000000_000000/0000/tree_47.root
/store/group/phys_higgs/hbb/ntuples/VHbbPostNano/2018/V13/EGamma/6965de713997c896f6309ca90b6c6e713d0d5c28940c54d12d3f4861/000000_000000/0000/tree_48.root
/store/group/phys_higgs/hbb/ntuples/VHbbPostNano/2018/V13/EGamma/52d36a3862687136ecea6d1404a95c2f5bb3f7b59dacde64df3e63a0/000000_000000/0000/tree_49.root
/store/group/phys_higgs/hbb/ntuples/VHbbPostNano/2018/V13/EGamma/bd15b84ca5f7133d90bbab5a56f22a07092082466bebad13a51c6244/000000_000000/0000/tree_50.root
/store/group/phys_higgs/hbb/ntuples/VHbbPostNano/2018/V13/EGamma/b16794a854ec61f14f7f8a9f1e29872be5ca10890cb31f19bbdd12b3/000000_000000/0000/tree_51.root
/store/group/phys_higgs/hbb/ntuples/VHbbPostNano/2018/V13/EGamma/b2c2f74c4812c2cf0645710beeda901ec3de43dd26402c27b3d17566/000000_000000/0000/tree_52.root
/store/group/phys_higgs/hbb/ntuples/VHbbPostNano/2018/V13/EGamma/26d6896647d6b9387d5d46b4e2f1ac20ef8f64e4ace641d11fffc2f5/000000_000000/0000/tree_53.root
/store/group/phys_higgs/hbb/ntuples/VHbbPostNano/2018/V13/EGamma/2089831ffa9c74895fe6658431abaf67b97627c64a76f1f616e5d770/000000_000000/0000/tree_54.root
/store/group/phys_higgs/hbb/ntuples/VHbbPostNano/2018/V13/EGamma/660215d3b3f2884d50c2468880e8e657ee2d15d3fbdd6e36596f1c62/000000_000000/0000/tree_55.root
/store/group/phys_higgs/hbb/ntuples/VHbbPostNano/2018/V13/EGamma/fd8c655cc38f533b8a959704e401a588faa794ea6f45f4e929deaae6/000000_000000/0000/tree_56.root
/store/group/phys_higgs/hbb/ntuples/VHbbPostNano/2018/V13/EGamma/a19bb2f20257286ef0f7df5f6e2723ef0393d10cc247b3fb0b81ef48/000000_000000/0000/tree_57.root
/store/group/phys_higgs/hbb/ntuples/VHbbPostNano/2018/V13/EGamma/88828db3300aad82d565728446e9317b88101fd8cf1f76db4be84853/000000_000000/0000/tree_58.root
/store/group/phys_higgs/hbb/ntuples/VHbbPostNano/2018/V13/EGamma/1968dac7f4208cabe7596c7a632b9211443af0d8022ae42b84d0b519/000000_000000/0000/tree_59.root
/store/group/phys_higgs/hbb/ntuples/VHbbPostNano/2018/V13/EGamma/66b11e58c54bc2701dee710cf731108a6fef0db4c1a90705b55fe2e1/000000_000000/0000/tree_60.root
/store/group/phys_higgs/hbb/ntuples/VHbbPostNano/2018/V13/EGamma/6362715a6dabf1b666f6b449c7d43736e207f6f99b70572bbb7e4de7/000000_000000/0000/tree_61.root
/store/group/phys_higgs/hbb/ntuples/VHbbPostNano/2018/V13/EGamma/8a2fc0ee852a9c0e81063ca85eaade6001b655d8ee3d8f12d51c12b2/000000_000000/0000/tree_62.root
/store/group/phys_higgs/hbb/ntuples/VHbbPostNano/2018/V13/EGamma/d152698d2cabeacefca7aa06aec6f60dd92d98494c8949ca64f19b37/000000_000000/0000/tree_63.root
/store/group/phys_higgs/hbb/ntuples/VHbbPostNano/2018/V13/EGamma/8592cdbbc8f91d901fc6722ec915ed66a76e31303ac4032142eeaa84/000000_000000/0000/tree_64.root
/store/group/phys_higgs/hbb/ntuples/VHbbPostNano/2018/V13/EGamma/da488928027270b25cc857bf24f49cbb6deea555ee5badf90b4d6b44/000000_000000/0000/tree_65.root
/store/group/phys_higgs/hbb/ntuples/VHbbPostNano/2018/V13/EGamma/4354a69357f62d4e49608e6556a0bf4587ba5c5895622f9a62e5324f/000000_000000/0000/tree_66.root
/store/group/phys_higgs/hbb/ntuples/VHbbPostNano/2018/V13/EGamma/09807f729d42078e6a1ca25332268781d68cfe9ba58d8dc5b2ff332c/000000_000000/0000/tree_67.root
/store/group/phys_higgs/hbb/ntuples/VHbbPostNano/2018/V13/EGamma/13fa37e80cf3475b9f36f8ddb5698e70f6cf7be24027dbc488ddd6ad/000000_000000/0000/tree_68.root
/store/group/phys_higgs/hbb/ntuples/VHbbPostNano/2018/V13/EGamma/55d67e51356be268db1fabf4440863d426f3fb5cc1f6fa6735f23cca/000000_000000/0000/tree_69.root
/store/group/phys_higgs/hbb/ntuples/VHbbPostNano/2018/V13/EGamma/f423ddc8efcc932a030cca008f2a5d3d3eef748b64106b319395c517/000000_000000/0000/tree_70.root
/store/group/phys_higgs/hbb/ntuples/VHbbPostNano/2018/V13/EGamma/cce529b5f7ea4b3fd55838472904b3edce4a7a1361b3b5eead270f78/000000_000000/0000/tree_71.root
/store/group/phys_higgs/hbb/ntuples/VHbbPostNano/2018/V13/EGamma/9c63516c7b1a5515bc01f6069cdd6ee0647eec2a747491776ed25900/000000_000000/0000/tree_72.root
/store/group/phys_higgs/hbb/ntuples/VHbbPostNano/2018/V13/EGamma/d23618dee2527b031da8f5b1ad5ebf6b35c4e7722ee50d1de5b487be/000000_000000/0000/tree_73.root
/store/group/phys_higgs/hbb/ntuples/VHbbPostNano/2018/V13/EGamma/3044d5481d8b54b181b07a61c1dfe9988517947210df7afb41f804ba/000000_000000/0000/tree_74.root
/store/group/phys_higgs/hbb/ntuples/VHbbPostNano/2018/V13/EGamma/2e8ec55cff3c48a411ab081b87973e9bf074fe6a6bf9efd0bb35ebc6/000000_000000/0000/tree_75.root
/store/group/phys_higgs/hbb/ntuples/VHbbPostNano/2018/V13/EGamma/6c8127079a200e4cb4664ad5c5f73c65333181adca027fe54867f85f/000000_000000/0000/tree_76.root
/store/group/phys_higgs/hbb/ntuples/VHbbPostNano/2018/V13/EGamma/8eeec603edf4631487cf4129e5eaf4d860fe465fa38a3e2f4de6580b/000000_000000/0000/tree_77.root
/store/group/phys_higgs/hbb/ntuples/VHbbPostNano/2018/V13/EGamma/2982b3d8da8e8756ece694b97ae9a1d455f95e912e662b5b7ee4886f/000000_000000/0000/tree_78.root