/store/group/phys_higgs/hbb/ntuples/VHbbPostNano/2018/V12/DYJetsToLL_2J_TuneCP5_13TeV-amcatnloFXFX-pythia8/3e2d5ec285a4bc1382b288e067a15c59a44473893baaeef673d55a4e/000000_000000/0000/tree_0.root
/store/group/phys_higgs/hbb/ntuples/VHbbPostNano/2018/V12/DYJetsToLL_2J_TuneCP5_13TeV-amcatnloFXFX-pythia8/5194431fb1ea794b35f34647d51eab31ca7895e4f88290c32f6aef5f/000000_000000/0000/tree_1.root
/store/group/phys_higgs/hbb/ntuples/VHbbPostNano/2018/V12/DYJetsToLL_2J_TuneCP5_13TeV-amcatnloFXFX-pythia8/da266ab4763ca41d4a5f4190f8ce0c534750f48c11ce222061a77c3d/000000_000000/0000/tree_2.root
/store/group/phys_higgs/hbb/ntuples/VHbbPostNano/2018/V12/DYJetsToLL_2J_TuneCP5_13TeV-amcatnloFXFX-pythia8/5d7297ad9a21326917e9f26ac569deb6a6255bff7da7466720f44e6a/000000_000000/0000/tree_3.root
/store/group/phys_higgs/hbb/ntuples/VHbbPostNano/2018/V12/DYJetsToLL_2J_TuneCP5_13TeV-amcatnloFXFX-pythia8/403de8d42165802e3625f24d438d928c7c891224980d41dcb592ced8/000000_000000/0000/tree_4.root
/store/group/phys_higgs/hbb/ntuples/VHbbPostNano/2018/V12/DYJetsToLL_2J_TuneCP5_13TeV-amcatnloFXFX-pythia8/a9b7babd7ac0b0a4c4ba201f6db423569b9e75bf5c03bd77f259cda3/000000_000000/0000/tree_5.root
/store/group/phys_higgs/hbb/ntuples/VHbbPostNano/2018/V12/DYJetsToLL_2J_TuneCP5_13TeV-amcatnloFXFX-pythia8/b6912dd39c5615186a2eeed9231363f1095850f3f1c272ced1129dfa/000000_000000/0000/tree_6.root
/store/group/phys_higgs/hbb/ntuples/VHbbPostNano/2018/V12/DYJetsToLL_2J_TuneCP5_13TeV-amcatnloFXFX-pythia8/22c9c291859623ed736cc54410798df423ea0b45b734411a09fb2e72/000000_000000/0000/tree_7.root
/store/group/phys_higgs/hbb/ntuples/VHbbPostNano/2018/V12/DYJetsToLL_2J_TuneCP5_13TeV-amcatnloFXFX-pythia8/ac6c3fd69f5fdd3fc95c8be05a423c42c00ac953783a62ebbcc8a5b9/000000_000000/0000/tree_8.root
/store/group/phys_higgs/hbb/ntuples/VHbbPostNano/2018/V12/DYJetsToLL_2J_TuneCP5_13TeV-amcatnloFXFX-pythia8/a7bbb007492e372f9c830b963e2c99b4477f4197deeb51635d42a4c1/000000_000000/0000/tree_9.root
/store/group/phys_higgs/hbb/ntuples/VHbbPostNano/2018/V12/DYJetsToLL_2J_TuneCP5_13TeV-amcatnloFXFX-pythia8/738dec4a1bdb24efbe4b2eea4a7bab585963ff0714571271e54a0905/000000_000000/0000/tree_10.root
/store/group/phys_higgs/hbb/ntuples/VHbbPostNano/2018/V12/DYJetsToLL_2J_TuneCP5_13TeV-amcatnloFXFX-pythia8/de48fdd7cadf4d99e32b5545baeb09fce06885705531e3242132f712/000000_000000/0000/tree_11.root
/store/group/phys_higgs/hbb/ntuples/VHbbPostNano/2018/V12/DYJetsToLL_2J_TuneCP5_13TeV-amcatnloFXFX-pythia8/d1c9aa21942f66fe03de54972971af55c6b83f7f68953d5075f2e1f6/000000_000000/0000/tree_12.root
/store/group/phys_higgs/hbb/ntuples/VHbbPostNano/2018/V12/DYJetsToLL_2J_TuneCP5_13TeV-amcatnloFXFX-pythia8/070b9fee2a66b73a6d56a053e96779155512384b65a24ab17576011d/000000_000000/0000/tree_13.root
/store/group/phys_higgs/hbb/ntuples/VHbbPostNano/2018/V12/DYJetsToLL_2J_TuneCP5_13TeV-amcatnloFXFX-pythia8/fdcaf2daa7fd07e52fb880a14cb9291b05f0537264db0715b5b144ac/000000_000000/0000/tree_14.root
/store/group/phys_higgs/hbb/ntuples/VHbbPostNano/2018/V12/DYJetsToLL_2J_TuneCP5_13TeV-amcatnloFXFX-pythia8/82c53f52333e78974e583c589116bbea877f5418544edfcaa0281231/000000_000000/0000/tree_15.root
/store/group/phys_higgs/hbb/ntuples/VHbbPostNano/2018/V12/DYJetsToLL_2J_TuneCP5_13TeV-amcatnloFXFX-pythia8/8d04c9d008bd30965970ceb4ce9aa5d5c6cd5cfd3b868d01329a58b8/000000_000000/0000/tree_16.root
/store/group/phys_higgs/hbb/ntuples/VHbbPostNano/2018/V12/DYJetsToLL_2J_TuneCP5_13TeV-amcatnloFXFX-pythia8/172cb04818d32cd8f5ab84d6053e0038bc70c5d895d73a10da469f87/000000_000000/0000/tree_17.root