/store/group/phys_higgs/hbb/ntuples/VHbbPostNano/2018/V12/ST_s-channel_4f_leptonDecays_TuneCP5_13TeV-madgraph-pythia8/7b5b3769ba29ed010556381e8e47c781ead2ad91439eddf27608d971/000000_000000/0000/tree_0.root
/store/group/phys_higgs/hbb/ntuples/VHbbPostNano/2018/V12/ST_s-channel_4f_leptonDecays_TuneCP5_13TeV-madgraph-pythia8/be106762ab523d89c98725810cddaa53a25f8ece001858a008990343/000000_000000/0000/tree_1.root
/store/group/phys_higgs/hbb/ntuples/VHbbPostNano/2018/V12/ST_s-channel_4f_leptonDecays_TuneCP5_13TeV-madgraph-pythia8/65454496c06a5db8e43762433e50ae76556e71e34632069e12af1fca/000000_000000/0000/tree_2.root
/store/group/phys_higgs/hbb/ntuples/VHbbPostNano/2018/V12/ST_s-channel_4f_leptonDecays_TuneCP5_13TeV-madgraph-pythia8/3d75664dc018ddd67d1df26514051ef6c31969c1ef95b3f7806d0cb6/000000_000000/0000/tree_3.root
/store/group/phys_higgs/hbb/ntuples/VHbbPostNano/2018/V12/ST_s-channel_4f_leptonDecays_TuneCP5_13TeV-madgraph-pythia8/ade0b421cc62f47f6b20fb0cae0dbf8d82e90418bf43c66a1258c1a1/000000_000000/0000/tree_4.root
/store/group/phys_higgs/hbb/ntuples/VHbbPostNano/2018/V12/ST_s-channel_4f_leptonDecays_TuneCP5_13TeV-madgraph-pythia8/1ffbf1a6f7a51a1581239edbe4b41f800d5626e63c56a8994bded317/000000_000000/0000/tree_5.root
/store/group/phys_higgs/hbb/ntuples/VHbbPostNano/2018/V12/ST_s-channel_4f_leptonDecays_TuneCP5_13TeV-madgraph-pythia8/7f9a82a4dd0cbde967ff0512b38d198b697385fd01218886f7ed1800/000000_000000/0000/tree_6.root
/store/group/phys_higgs/hbb/ntuples/VHbbPostNano/2018/V12/ST_s-channel_4f_leptonDecays_TuneCP5_13TeV-madgraph-pythia8/4cbce045daa7b2544c7d9e423cbd05161779c81ee5805a4a5ba17ff3/000000_000000/0000/tree_7.root
/store/group/phys_higgs/hbb/ntuples/VHbbPostNano/2018/V12/ST_s-channel_4f_leptonDecays_TuneCP5_13TeV-madgraph-pythia8/61b9abd403e8cb86c75b43e477481689b078d746b080555510ea2d13/000000_000000/0000/tree_8.root
/store/group/phys_higgs/hbb/ntuples/VHbbPostNano/2018/V12/ST_s-channel_4f_leptonDecays_TuneCP5_13TeV-madgraph-pythia8/bc6d013d05e694f6b8c7499e68ee2a83bee86f686a69c646ab918651/000000_000000/0000/tree_9.root
/store/group/phys_higgs/hbb/ntuples/VHbbPostNano/2018/V12/ST_s-channel_4f_leptonDecays_TuneCP5_13TeV-madgraph-pythia8/cfdf14157fba3c42cd8b55545223dd7fc3eaf2965abd86c1001d4fc8/000000_000000/0000/tree_10.root
/store/group/phys_higgs/hbb/ntuples/VHbbPostNano/2018/V12/ST_s-channel_4f_leptonDecays_TuneCP5_13TeV-madgraph-pythia8/2d23697fcc8de913cfd32b5c694bd1b86427d9339b455a2db31d1423/000000_000000/0000/tree_11.root
/store/group/phys_higgs/hbb/ntuples/VHbbPostNano/2018/V12/ST_s-channel_4f_leptonDecays_TuneCP5_13TeV-madgraph-pythia8/846fc4cc368335d169f6ed04b8226a218b7c7e879a0cbf79651d7938/000000_000000/0000/tree_12.root
/store/group/phys_higgs/hbb/ntuples/VHbbPostNano/2018/V12/ST_s-channel_4f_leptonDecays_TuneCP5_13TeV-madgraph-pythia8/9347b981aacd5ef9ef18ba2cc71dde356314a3c00215095c2923006e/000000_000000/0000/tree_13.root
/store/group/phys_higgs/hbb/ntuples/VHbbPostNano/2018/V12/ST_s-channel_4f_leptonDecays_TuneCP5_13TeV-madgraph-pythia8/3a0d8f0e1b14e3ca2d9c3ce01c6d7ab32e5a9f71defb299cd1bea7f4/000000_000000/0000/tree_14.root
/store/group/phys_higgs/hbb/ntuples/VHbbPostNano/2018/V12/ST_s-channel_4f_leptonDecays_TuneCP5_13TeV-madgraph-pythia8/0fb4bca5931b6c719200b7b094a8eff40496a107b8396708c4551cf2/000000_000000/0000/tree_15.root
/store/group/phys_higgs/hbb/ntuples/VHbbPostNano/2018/V12/ST_s-channel_4f_leptonDecays_TuneCP5_13TeV-madgraph-pythia8/b984084dff60ed9ab9c04b69aacad16239135e1f8bf788159760eb27/000000_000000/0000/tree_16.root
/store/group/phys_higgs/hbb/ntuples/VHbbPostNano/2018/V12/ST_s-channel_4f_leptonDecays_TuneCP5_13TeV-madgraph-pythia8/13a73f1c446ed78b13badd4db7f1baf531f6cb1180e45c372de736c1/000000_000000/0000/tree_17.root
/store/group/phys_higgs/hbb/ntuples/VHbbPostNano/2018/V12/ST_s-channel_4f_leptonDecays_TuneCP5_13TeV-madgraph-pythia8/583e177fdd7e929c3829baa64c7d17538c718222ec733923b8a41700/000000_000000/0000/tree_18.root
/store/group/phys_higgs/hbb/ntuples/VHbbPostNano/2018/V12/ST_s-channel_4f_leptonDecays_TuneCP5_13TeV-madgraph-pythia8/63278fab70dca55f0df5eb51cf4e40e2b5faf684f5de84598952db84/000000_000000/0000/tree_19.root
/store/group/phys_higgs/hbb/ntuples/VHbbPostNano/2018/V12/ST_s-channel_4f_leptonDecays_TuneCP5_13TeV-madgraph-pythia8/1795c232182a0ccd5a4a5b981c434eea17e68c2532f106abc510772d/000000_000000/0000/tree_20.root
/store/group/phys_higgs/hbb/ntuples/VHbbPostNano/2018/V12/ST_s-channel_4f_leptonDecays_TuneCP5_13TeV-madgraph-pythia8/674544d9cff5f1a828dcb25d4d2aa3d2ca638e22476c699c6a44f025/000000_000000/0000/tree_21.root
/store/group/phys_higgs/hbb/ntuples/VHbbPostNano/2018/V12/ST_s-channel_4f_leptonDecays_TuneCP5_13TeV-madgraph-pythia8/c71807b72d6b21bc0b9d6a2e6933e435f6d47f57cac18952f361d1fd/000000_000000/0000/tree_22.root
/store/group/phys_higgs/hbb/ntuples/VHbbPostNano/2018/V12/ST_s-channel_4f_leptonDecays_TuneCP5_13TeV-madgraph-pythia8/17344b020bcc346fd8139146932f533251028cf1bb3734cb6e8c667d/000000_000000/0000/tree_23.root
/store/group/phys_higgs/hbb/ntuples/VHbbPostNano/2018/V12/ST_s-channel_4f_leptonDecays_TuneCP5_13TeV-madgraph-pythia8/e1db44986e8617e38e9421f75299fcd75578fbf9fef30afea2390f30/000000_000000/0000/tree_24.root
/store/group/phys_higgs/hbb/ntuples/VHbbPostNano/2018/V12/ST_s-channel_4f_leptonDecays_TuneCP5_13TeV-madgraph-pythia8/691f7d7f19de55e455530299c6543f8767bf26fb46303f6aaa846f59/000000_000000/0000/tree_25.root
/store/group/phys_higgs/hbb/ntuples/VHbbPostNano/2018/V12/ST_s-channel_4f_leptonDecays_TuneCP5_13TeV-madgraph-pythia8/a0400d75f6f0c91aa94621d8e75e808619845e4ab1d3ade64b328ad8/000000_000000/0000/tree_26.root
/store/group/phys_higgs/hbb/ntuples/VHbbPostNano/2018/V12/ST_s-channel_4f_leptonDecays_TuneCP5_13TeV-madgraph-pythia8/8564e371b2a046973d6c5d21a6206a7bcf7426184f275bec16861005/000000_000000/0000/tree_27.root
/store/group/phys_higgs/hbb/ntuples/VHbbPostNano/2018/V12/ST_s-channel_4f_leptonDecays_TuneCP5_13TeV-madgraph-pythia8/2728bb0ad919e36137c47d1821d4ef984b47bce3b22c830c631b06c5/000000_000000/0000/tree_28.root
/store/group/phys_higgs/hbb/ntuples/VHbbPostNano/2018/V12/ST_s-channel_4f_leptonDecays_TuneCP5_13TeV-madgraph-pythia8/e1a15bd076241a772accdceb87fc97170249bc2a8bb30ea145c32c11/000000_000000/0000/tree_29.root
/store/group/phys_higgs/hbb/ntuples/VHbbPostNano/2018/V12/ST_s-channel_4f_leptonDecays_TuneCP5_13TeV-madgraph-pythia8/4e431aef5e783dca9bd6f54d31c8513efe60c692872cb2a520f702a2/000000_000000/0000/tree_30.root
/store/group/phys_higgs/hbb/ntuples/VHbbPostNano/2018/V12/ST_s-channel_4f_leptonDecays_TuneCP5_13TeV-madgraph-pythia8/1dc70edd1b263e80bdf0ebc9930ddd3a6e1d7f14659eaff6706b8f8a/000000_000000/0000/tree_31.root
/store/group/phys_higgs/hbb/ntuples/VHbbPostNano/2018/V12/ST_s-channel_4f_leptonDecays_TuneCP5_13TeV-madgraph-pythia8/fb5f2a6a4cde044dbf34c9d9a83b2aed72c92dc0857df09c0fb35545/000000_000000/0000/tree_32.root