/store/group/phys_higgs/hbb/ntuples/VHbbPostNano/2018/V12/WBJetsToLNu_Wpt-100to200_TuneCP5_13TeV-madgraphMLM-pythia8/84c46cf93d8d42a730ce6507468e13af08ec375d308208409b23eb73/000000_000000/0000/tree_0.root
/store/group/phys_higgs/hbb/ntuples/VHbbPostNano/2018/V12/WBJetsToLNu_Wpt-100to200_TuneCP5_13TeV-madgraphMLM-pythia8/5a066918a119f948cb753b05e800674225c568ec75299bb534880dd7/000000_000000/0000/tree_1.root
/store/group/phys_higgs/hbb/ntuples/VHbbPostNano/2018/V12/WBJetsToLNu_Wpt-100to200_TuneCP5_13TeV-madgraphMLM-pythia8/fe5d9a097aec3394b22bb50caa9f8fe1007be4f24098257c4f7b060c/000000_000000/0000/tree_2.root
/store/group/phys_higgs/hbb/ntuples/VHbbPostNano/2018/V12/WBJetsToLNu_Wpt-100to200_TuneCP5_13TeV-madgraphMLM-pythia8/0f75173af487970530503199bdd409d0917c2f5ef36a59aa5860680e/000000_000000/0000/tree_3.root
/store/group/phys_higgs/hbb/ntuples/VHbbPostNano/2018/V12/WBJetsToLNu_Wpt-100to200_TuneCP5_13TeV-madgraphMLM-pythia8/fa9fa72ace44e68d996052928103286db5c02109b2fd0fbd5b027bcf/000000_000000/0000/tree_4.root
/store/group/phys_higgs/hbb/ntuples/VHbbPostNano/2018/V12/WBJetsToLNu_Wpt-100to200_TuneCP5_13TeV-madgraphMLM-pythia8/83707fb5d4dd96c2888b880b585fcacf64b9c8e136d7b18d85f1b21e/000000_000000/0000/tree_5.root
/store/group/phys_higgs/hbb/ntuples/VHbbPostNano/2018/V12/WBJetsToLNu_Wpt-100to200_TuneCP5_13TeV-madgraphMLM-pythia8/688dd85cfdfbd709e707515190514d06e8758553b924cccd46b75ecc/000000_000000/0000/tree_6.root
/store/group/phys_higgs/hbb/ntuples/VHbbPostNano/2018/V12/WBJetsToLNu_Wpt-100to200_TuneCP5_13TeV-madgraphMLM-pythia8/511ec89b40b635c18220fce13ad093478394378b279f9a10408e25e7/000000_000000/0000/tree_7.root
/store/group/phys_higgs/hbb/ntuples/VHbbPostNano/2018/V12/WBJetsToLNu_Wpt-100to200_TuneCP5_13TeV-madgraphMLM-pythia8/e020681b7f753b70a93249c7212a1e22a27e2d18da853f2ca5f58d59/000000_000000/0000/tree_8.root
/store/group/phys_higgs/hbb/ntuples/VHbbPostNano/2018/V12/WBJetsToLNu_Wpt-100to200_TuneCP5_13TeV-madgraphMLM-pythia8/16811e272437e0d2a033f3911f154a180055614b9db598a5856f751e/000000_000000/0000/tree_9.root
/store/group/phys_higgs/hbb/ntuples/VHbbPostNano/2018/V12/WBJetsToLNu_Wpt-100to200_TuneCP5_13TeV-madgraphMLM-pythia8/569c984d31e21f16b58431c7976a7ccc9ee2fe2296f3deb9fd374248/000000_000000/0000/tree_10.root