/store/group/phys_higgs/hbb/ntuples/VHbbPostNano/2018/V12/DY1JetsToLL_M-50_LHEZpT_250-400_TuneCP5_13TeV-amcnloFXFX-pythia8/c107f9ca03fe2eb5507b7313047719b0c6c956495787cab43922e3e3/000000_000000/0000/tree_0.root
/store/group/phys_higgs/hbb/ntuples/VHbbPostNano/2018/V12/DY1JetsToLL_M-50_LHEZpT_250-400_TuneCP5_13TeV-amcnloFXFX-pythia8/dcfc9bfc03bdab15baa23954f843dd13f813343160940b6a9f81db2a/000000_000000/0000/tree_1.root
/store/group/phys_higgs/hbb/ntuples/VHbbPostNano/2018/V12/DY1JetsToLL_M-50_LHEZpT_250-400_TuneCP5_13TeV-amcnloFXFX-pythia8/c55a80f8273a757d64e0c3b2f1f68ac2fb65b269ac58524599e49c0b/000000_000000/0000/tree_2.root
/store/group/phys_higgs/hbb/ntuples/VHbbPostNano/2018/V12/DY1JetsToLL_M-50_LHEZpT_250-400_TuneCP5_13TeV-amcnloFXFX-pythia8/8636a8bf0d6cff531c9dfcfefdded7ed32e6092f01f6ad1a41c7b8c5/000000_000000/0000/tree_3.root
/store/group/phys_higgs/hbb/ntuples/VHbbPostNano/2018/V12/DY1JetsToLL_M-50_LHEZpT_250-400_TuneCP5_13TeV-amcnloFXFX-pythia8/7e14f65b9112bd8412e9f5e92d96349b1905d707d4a20a02b0b9dcd8/000000_000000/0000/tree_4.root
/store/group/phys_higgs/hbb/ntuples/VHbbPostNano/2018/V12/DY1JetsToLL_M-50_LHEZpT_250-400_TuneCP5_13TeV-amcnloFXFX-pythia8/7079c463aa6e1a83fae11872573697428b100630948aa9e15854f171/000000_000000/0000/tree_5.root
/store/group/phys_higgs/hbb/ntuples/VHbbPostNano/2018/V12/DY1JetsToLL_M-50_LHEZpT_250-400_TuneCP5_13TeV-amcnloFXFX-pythia8/04b3d43f6baf05d78cd7e80b131488783b89397da8179eb271e17ff5/000000_000000/0000/tree_6.root
/store/group/phys_higgs/hbb/ntuples/VHbbPostNano/2018/V12/DY1JetsToLL_M-50_LHEZpT_250-400_TuneCP5_13TeV-amcnloFXFX-pythia8/317ac62726dc1c19d335a40ed8b670b234150501622e0611cb50e6b9/000000_000000/0000/tree_7.root