/store/group/phys_higgs/hbb/ntuples/VHbbPostNano/2018/V12/DYJetsToLL_Pt-650ToInf_TuneCP5_13TeV-amcatnloFXFX-pythia8/b10bcfd4bfdaabafec326712f7f6fd5a2115cc82a3e95f8aedda6ef9/000000_000000/0000/tree_0.root
/store/group/phys_higgs/hbb/ntuples/VHbbPostNano/2018/V12/DYJetsToLL_Pt-650ToInf_TuneCP5_13TeV-amcatnloFXFX-pythia8/159d406b6b87c852ab8a910c7de7133148338f9d5701bb0230a90ed2/000000_000000/0000/tree_1.root
/store/group/phys_higgs/hbb/ntuples/VHbbPostNano/2018/V12/DYJetsToLL_Pt-650ToInf_TuneCP5_13TeV-amcatnloFXFX-pythia8/844106580fd0a01c9fd63e74bcaed1ab8773b99697cf7a3545b56553/000000_000000/0000/tree_2.root
/store/group/phys_higgs/hbb/ntuples/VHbbPostNano/2018/V12/DYJetsToLL_Pt-650ToInf_TuneCP5_13TeV-amcatnloFXFX-pythia8/566538e0ce967304d6a5d9c69216d21c4fbc23cde7b27b0eddea4e24/000000_000000/0000/tree_3.root
/store/group/phys_higgs/hbb/ntuples/VHbbPostNano/2018/V12/DYJetsToLL_Pt-650ToInf_TuneCP5_13TeV-amcatnloFXFX-pythia8/c20e7a97e360581713a89e0e7bdf77ee7135b1bf15edc167f90161e3/000000_000000/0000/tree_4.root
/store/group/phys_higgs/hbb/ntuples/VHbbPostNano/2018/V12/DYJetsToLL_Pt-650ToInf_TuneCP5_13TeV-amcatnloFXFX-pythia8/6b6a1a43665a447279757339488f4123b073534fe431424052d6d7ae/000000_000000/0000/tree_5.root
/store/group/phys_higgs/hbb/ntuples/VHbbPostNano/2018/V12/DYJetsToLL_Pt-650ToInf_TuneCP5_13TeV-amcatnloFXFX-pythia8/9dd6ee31e652f85516350c283eb5c33e8ef0d620688b0134842bacc0/000000_000000/0000/tree_6.root
/store/group/phys_higgs/hbb/ntuples/VHbbPostNano/2018/V12/DYJetsToLL_Pt-650ToInf_TuneCP5_13TeV-amcatnloFXFX-pythia8/1ea8ec2c3a7e64bb1854fec72868830eb4a996e6f2757bcbaf6ece24/000000_000000/0000/tree_7.root
/store/group/phys_higgs/hbb/ntuples/VHbbPostNano/2018/V12/DYJetsToLL_Pt-650ToInf_TuneCP5_13TeV-amcatnloFXFX-pythia8/a535d283c8dd6a554059e75f84ac681df30d1b95eb0aec30be1a71ab/000000_000000/0000/tree_8.root
/store/group/phys_higgs/hbb/ntuples/VHbbPostNano/2018/V12/DYJetsToLL_Pt-650ToInf_TuneCP5_13TeV-amcatnloFXFX-pythia8/ad8c0e06fcc4c07c5ca18eeb0f9a7ab0459cc69cb9b3051a30d0aab5/000000_000000/0000/tree_9.root