/store/group/phys_higgs/hbb/ntuples/VHbbPostNano/2018/V12/Z1JetsToNuNu_M-50_LHEZpT_400-inf_TuneCP5_13TeV-amcnloFXFX-pythia8/4479e8cee62f790d357088c5336c23ea971e80168861ceb53bf71551/000000_000000/0000/tree_0.root
/store/group/phys_higgs/hbb/ntuples/VHbbPostNano/2018/V12/Z1JetsToNuNu_M-50_LHEZpT_400-inf_TuneCP5_13TeV-amcnloFXFX-pythia8/f7552597310de105a8b5140f6592cd375375fe4b0a247b267ba0e3b1/000000_000000/0000/tree_1.root
/store/group/phys_higgs/hbb/ntuples/VHbbPostNano/2018/V12/Z1JetsToNuNu_M-50_LHEZpT_400-inf_TuneCP5_13TeV-amcnloFXFX-pythia8/af97424952e927111db245d7006bf6e3e7e943f3cac5639eae9e139b/000000_000000/0000/tree_2.root
/store/group/phys_higgs/hbb/ntuples/VHbbPostNano/2018/V12/Z1JetsToNuNu_M-50_LHEZpT_400-inf_TuneCP5_13TeV-amcnloFXFX-pythia8/84589f21c2aa664de8e77668e04a343b35d3ce963e585a2f10b55b68/000000_000000/0000/tree_3.root
/store/group/phys_higgs/hbb/ntuples/VHbbPostNano/2018/V12/Z1JetsToNuNu_M-50_LHEZpT_400-inf_TuneCP5_13TeV-amcnloFXFX-pythia8/143903fd33240f8e9e47a7afd4bdc569ab5bba7d57d52f3b6468582b/000000_000000/0000/tree_4.root
/store/group/phys_higgs/hbb/ntuples/VHbbPostNano/2018/V12/Z1JetsToNuNu_M-50_LHEZpT_400-inf_TuneCP5_13TeV-amcnloFXFX-pythia8/6c7c33af03d609a541edc3aab3e3ed27c7d2fb4382894a8405b111fa/000000_000000/0000/tree_5.root
/store/group/phys_higgs/hbb/ntuples/VHbbPostNano/2018/V12/Z1JetsToNuNu_M-50_LHEZpT_400-inf_TuneCP5_13TeV-amcnloFXFX-pythia8/3a99e03dfd276b0567759f6423929a776c54d39ff5d280f0b6689360/000000_000000/0000/tree_6.root
/store/group/phys_higgs/hbb/ntuples/VHbbPostNano/2018/V12/Z1JetsToNuNu_M-50_LHEZpT_400-inf_TuneCP5_13TeV-amcnloFXFX-pythia8/0abbcf77b434963f734b74bd003ce815ca5ac8b9b70898a9850a148d/000000_000000/0000/tree_7.root
/store/group/phys_higgs/hbb/ntuples/VHbbPostNano/2018/V12/Z1JetsToNuNu_M-50_LHEZpT_400-inf_TuneCP5_13TeV-amcnloFXFX-pythia8/8302fc2a10b171554082ba3aa57d7cc1c15462f68ccae1a6af7fa586/000000_000000/0000/tree_8.root
/store/group/phys_higgs/hbb/ntuples/VHbbPostNano/2018/V12/Z1JetsToNuNu_M-50_LHEZpT_400-inf_TuneCP5_13TeV-amcnloFXFX-pythia8/d8adf31d2169133cd5abbf1f697863db73ffbbbb252894bf96f7185a/000000_000000/0000/tree_9.root