/eos/cms/store/group/phys_higgs/ec/hbb/ntuples/VHbbPostNano/UL/EFT/2018/V1/QCD_HT2000toInf_TuneCP5_PSWeights_13TeV-madgraph-pythia8/4b6c99bb65812bec82b3d1804bbc2518ea9eaf4ab85e32007c3cfc63/000000_000000/0000/tree_0.root
/eos/cms/store/group/phys_higgs/ec/hbb/ntuples/VHbbPostNano/UL/EFT/2018/V1/QCD_HT2000toInf_TuneCP5_PSWeights_13TeV-madgraph-pythia8/43ad21f7b4dd9d89f45438d3379225cdf5872a3f8d3bb988b9d3d1e9/000000_000000/0000/tree_1.root
/eos/cms/store/group/phys_higgs/ec/hbb/ntuples/VHbbPostNano/UL/EFT/2018/V1/QCD_HT2000toInf_TuneCP5_PSWeights_13TeV-madgraph-pythia8/10bd0f4c2f567a5bcb96bc9f3475a796f571fb23ffdf2ac355e33502/000000_000000/0000/tree_2.root
/eos/cms/store/group/phys_higgs/ec/hbb/ntuples/VHbbPostNano/UL/EFT/2018/V1/QCD_HT2000toInf_TuneCP5_PSWeights_13TeV-madgraph-pythia8/4e4109a6cabc917db3219fdc9fd1baacd11d7eec67e18acc8ae3f3fa/000000_000000/0000/tree_3.root
/eos/cms/store/group/phys_higgs/ec/hbb/ntuples/VHbbPostNano/UL/EFT/2018/V1/QCD_HT2000toInf_TuneCP5_PSWeights_13TeV-madgraph-pythia8/fe1570a2f3e6a88fa4598ad4ac625d241b5c3ce3d218bb02c5f60aa0/000000_000000/0000/tree_4.root
/eos/cms/store/group/phys_higgs/ec/hbb/ntuples/VHbbPostNano/UL/EFT/2018/V1/QCD_HT2000toInf_TuneCP5_PSWeights_13TeV-madgraph-pythia8/b2068423355ea07c07bb404ae863d1d226c9bd8f9197f483ea94ef20/000000_000000/0000/tree_5.root
/eos/cms/store/group/phys_higgs/ec/hbb/ntuples/VHbbPostNano/UL/EFT/2018/V1/QCD_HT2000toInf_TuneCP5_PSWeights_13TeV-madgraph-pythia8/b2e0516ece0e993f3fcef376e2e742f738cb2f94c608cbd24dd554f3/000000_000000/0000/tree_6.root
/eos/cms/store/group/phys_higgs/ec/hbb/ntuples/VHbbPostNano/UL/EFT/2018/V1/QCD_HT2000toInf_TuneCP5_PSWeights_13TeV-madgraph-pythia8/7ec527396f479aa117590c9cbd0bfb56c05f1d140c27acc0e621a0b9/000000_000000/0000/tree_7.root
/eos/cms/store/group/phys_higgs/ec/hbb/ntuples/VHbbPostNano/UL/EFT/2018/V1/QCD_HT2000toInf_TuneCP5_PSWeights_13TeV-madgraph-pythia8/9e5b48eb2dae749e4a6efa42ac43bfd987c53ac8e0df60f1f99a87bc/000000_000000/0000/tree_8.root
/eos/cms/store/group/phys_higgs/ec/hbb/ntuples/VHbbPostNano/UL/EFT/2018/V1/QCD_HT2000toInf_TuneCP5_PSWeights_13TeV-madgraph-pythia8/73461a13f0fa9e7dfb35ef4f72d9e36aad7c75ffd7415a8d75da114c/000000_000000/0000/tree_9.root
/eos/cms/store/group/phys_higgs/ec/hbb/ntuples/VHbbPostNano/UL/EFT/2018/V1/QCD_HT2000toInf_TuneCP5_PSWeights_13TeV-madgraph-pythia8/c83e845a27c59ca48e483719995676a612102a990f780a035e430983/000000_000000/0000/tree_10.root
/eos/cms/store/group/phys_higgs/ec/hbb/ntuples/VHbbPostNano/UL/EFT/2018/V1/QCD_HT2000toInf_TuneCP5_PSWeights_13TeV-madgraph-pythia8/b4fd5e3023da57a087bbd6cc7ba8ca0a77b2d3d293d53a8790413a4b/000000_000000/0000/tree_11.root
/eos/cms/store/group/phys_higgs/ec/hbb/ntuples/VHbbPostNano/UL/EFT/2018/V1/QCD_HT2000toInf_TuneCP5_PSWeights_13TeV-madgraph-pythia8/38685797972119ba6ca216e6ef05a729b208cc545df50aa12334d48d/000000_000000/0000/tree_12.root