/eos/cms/store/group/phys_higgs/ec/hbb/ntuples/VHbbPostNano/UL/EFT/2018/V1/ST_t-channel_antitop_5f_InclusiveDecays_TuneCP5_13TeV-powheg-pythia8/7137e2a20a7966666bcf4efff4a16f2e21f7ac1100f4009e400c8d65/000000_000000/0000/tree_0.root
/eos/cms/store/group/phys_higgs/ec/hbb/ntuples/VHbbPostNano/UL/EFT/2018/V1/ST_t-channel_antitop_5f_InclusiveDecays_TuneCP5_13TeV-powheg-pythia8/c018ce80b28bd8d1058d3576502a7aab0a1617048d8ec908488c7b32/000000_000000/0000/tree_1.root
/eos/cms/store/group/phys_higgs/ec/hbb/ntuples/VHbbPostNano/UL/EFT/2018/V1/ST_t-channel_antitop_5f_InclusiveDecays_TuneCP5_13TeV-powheg-pythia8/b3154ab5dff5178f4f825283125da18a6d3582de8bf341a925561d8e/000000_000000/0000/tree_2.root
/eos/cms/store/group/phys_higgs/ec/hbb/ntuples/VHbbPostNano/UL/EFT/2018/V1/ST_t-channel_antitop_5f_InclusiveDecays_TuneCP5_13TeV-powheg-pythia8/cb399b3c47c34c2f876d7f868c740c8fe781dfdf9abb014d3c877292/000000_000000/0000/tree_3.root
/eos/cms/store/group/phys_higgs/ec/hbb/ntuples/VHbbPostNano/UL/EFT/2018/V1/ST_t-channel_antitop_5f_InclusiveDecays_TuneCP5_13TeV-powheg-pythia8/c2b42d7a295ddbb36ec0f802a51c6745f1a8467b55f117ac9f99586a/000000_000000/0000/tree_4.root
/eos/cms/store/group/phys_higgs/ec/hbb/ntuples/VHbbPostNano/UL/EFT/2018/V1/ST_t-channel_antitop_5f_InclusiveDecays_TuneCP5_13TeV-powheg-pythia8/8314ec0a4687b52dc9fb3d6c0d663e13ab0f242962aaa27d50e46e85/000000_000000/0000/tree_5.root
/eos/cms/store/group/phys_higgs/ec/hbb/ntuples/VHbbPostNano/UL/EFT/2018/V1/ST_t-channel_antitop_5f_InclusiveDecays_TuneCP5_13TeV-powheg-pythia8/97d5439a01e8759cf736b2981ff44587d1b75ac6daf528061e17469a/000000_000000/0000/tree_6.root
/eos/cms/store/group/phys_higgs/ec/hbb/ntuples/VHbbPostNano/UL/EFT/2018/V1/ST_t-channel_antitop_5f_InclusiveDecays_TuneCP5_13TeV-powheg-pythia8/388a16f3b48a12b92497e0ff7aa671bfef88b63d3ca0661dddfdec73/000000_000000/0000/tree_7.root
/eos/cms/store/group/phys_higgs/ec/hbb/ntuples/VHbbPostNano/UL/EFT/2018/V1/ST_t-channel_antitop_5f_InclusiveDecays_TuneCP5_13TeV-powheg-pythia8/9779c2d048bd3cd688b85e4403274c143102622bdc8c2b2f3a2e508a/000000_000000/0000/tree_8.root