/eos/cms/store/group/phys_higgs/ec/hbb/ntuples/VHbbPostNano/UL/EFT/2018/V1/ST_tW_top_5f_NoFullyHadronicDecays_TuneCP5_13TeV-powheg-pythia8/adc60357ad4d2e9236a694332c89d01578c3665cdc326f6a5bd7e145/000000_000000/0000/tree_0.root
/eos/cms/store/group/phys_higgs/ec/hbb/ntuples/VHbbPostNano/UL/EFT/2018/V1/ST_tW_top_5f_NoFullyHadronicDecays_TuneCP5_13TeV-powheg-pythia8/daab0dd05a7fa89482c5dc01e1a3a54e2ea349ca8011e7166de03c51/000000_000000/0000/tree_1.root
/eos/cms/store/group/phys_higgs/ec/hbb/ntuples/VHbbPostNano/UL/EFT/2018/V1/ST_tW_top_5f_NoFullyHadronicDecays_TuneCP5_13TeV-powheg-pythia8/703701849f052810fa7df255a67df2fd4bef7044e0218da3d7f2c4b5/000000_000000/0000/tree_2.root
/eos/cms/store/group/phys_higgs/ec/hbb/ntuples/VHbbPostNano/UL/EFT/2018/V1/ST_tW_top_5f_NoFullyHadronicDecays_TuneCP5_13TeV-powheg-pythia8/42960cd5b49cdc171c11694a8fcc25326f95d051cbcd4ecedf1642d7/000000_000000/0000/tree_3.root
/eos/cms/store/group/phys_higgs/ec/hbb/ntuples/VHbbPostNano/UL/EFT/2018/V1/ST_tW_top_5f_NoFullyHadronicDecays_TuneCP5_13TeV-powheg-pythia8/638846f30e80b850bc86c8dfabfa1595a3c4df83dadb2cb6f818ce39/000000_000000/0000/tree_4.root
/eos/cms/store/group/phys_higgs/ec/hbb/ntuples/VHbbPostNano/UL/EFT/2018/V1/ST_tW_top_5f_NoFullyHadronicDecays_TuneCP5_13TeV-powheg-pythia8/a860587dba00f4ee12fad3f00eb669e86ab9e3365692b88cf2a52f1d/000000_000000/0000/tree_5.root
/eos/cms/store/group/phys_higgs/ec/hbb/ntuples/VHbbPostNano/UL/EFT/2018/V1/ST_tW_top_5f_NoFullyHadronicDecays_TuneCP5_13TeV-powheg-pythia8/c6465bf608555b4444f2aab3bae6af0c00acfe7a101ee9f276201a37/000000_000000/0000/tree_6.root
/eos/cms/store/group/phys_higgs/ec/hbb/ntuples/VHbbPostNano/UL/EFT/2018/V1/ST_tW_top_5f_NoFullyHadronicDecays_TuneCP5_13TeV-powheg-pythia8/cfb6c399822d9b5419fa8e93783676349863ca37decce54d25624090/000000_000000/0000/tree_7.root
/eos/cms/store/group/phys_higgs/ec/hbb/ntuples/VHbbPostNano/UL/EFT/2018/V1/ST_tW_top_5f_NoFullyHadronicDecays_TuneCP5_13TeV-powheg-pythia8/217a8eb2f2e9b44d819551b8a72b51ab274a155a55cd98dd1d51b85d/000000_000000/0000/tree_8.root
/eos/cms/store/group/phys_higgs/ec/hbb/ntuples/VHbbPostNano/UL/EFT/2018/V1/ST_tW_top_5f_NoFullyHadronicDecays_TuneCP5_13TeV-powheg-pythia8/2ee71fb2a9ef52402384e417b17de07524d7efd6771788c828342015/000000_000000/0000/tree_9.root