/eos/cms/store/group/phys_higgs/ec/hbb/ntuples/VHbbPostNano/UL/EFT/2018/V1/ST_tW_top_5f_inclusiveDecays_TuneCP5_13TeV-powheg-pythia8/d2c32d7a566a98a944f57903944b73dc5ac594616554dbb0dff955ed/000000_000000/0000/tree_0.root
/eos/cms/store/group/phys_higgs/ec/hbb/ntuples/VHbbPostNano/UL/EFT/2018/V1/ST_tW_top_5f_inclusiveDecays_TuneCP5_13TeV-powheg-pythia8/b71385509b63d4711b07d149a0a3f1e95efa8860e443f8a8006bcc48/000000_000000/0000/tree_1.root
/eos/cms/store/group/phys_higgs/ec/hbb/ntuples/VHbbPostNano/UL/EFT/2018/V1/ST_tW_top_5f_inclusiveDecays_TuneCP5_13TeV-powheg-pythia8/a36719cd0dbc1135b358d152e81a58d299a04827fbe5ead8d98de81c/000000_000000/0000/tree_2.root
/eos/cms/store/group/phys_higgs/ec/hbb/ntuples/VHbbPostNano/UL/EFT/2018/V1/ST_tW_top_5f_inclusiveDecays_TuneCP5_13TeV-powheg-pythia8/2787d47abec03ea17f39b35a9677ab3846e54c1672230353e2d51957/000000_000000/0000/tree_3.root