/eos/cms/store/group/phys_higgs/ec/hbb/ntuples/VHbbPostNano/UL/EFT/2018/a30774c217d533e17baf0a20eccd2bab904116a60f3282241016be86/000000_000000/0000/tree_0.root
/eos/cms/store/group/phys_higgs/ec/hbb/ntuples/VHbbPostNano/UL/EFT/2018/dcfe100875366838ed4a13d82ff02d96570faf73fe0b18d945a8ba5b/000000_000000/0000/tree_1.root
/eos/cms/store/group/phys_higgs/ec/hbb/ntuples/VHbbPostNano/UL/EFT/2018/d8323b638ee8e980591955fad0c0cc29ecdbb5fec408659551c59d56/000000_000000/0000/tree_2.root
/eos/cms/store/group/phys_higgs/ec/hbb/ntuples/VHbbPostNano/UL/EFT/2018/1bfeb5093e613b839d4296a7087a867d6291b4c328128e2a966599d8/000000_000000/0000/tree_3.root
/eos/cms/store/group/phys_higgs/ec/hbb/ntuples/VHbbPostNano/UL/EFT/2018/3231f811eabb31b681bc8ef4ddd95650b84f8dfc9daf356d8ce535c4/000000_000000/0000/tree_4.root
/eos/cms/store/group/phys_higgs/ec/hbb/ntuples/VHbbPostNano/UL/EFT/2018/713a6b989f1b5176eefb6a94cb2c43b96f2faa7fffa81c07101a2a1e/000000_000000/0000/tree_5.root
/eos/cms/store/group/phys_higgs/ec/hbb/ntuples/VHbbPostNano/UL/EFT/2018/6839e31dd7c7f085c63d88ad685d54aa2b3c67184db1f74e01b998a4/000000_000000/0000/tree_6.root
/eos/cms/store/group/phys_higgs/ec/hbb/ntuples/VHbbPostNano/UL/EFT/2018/0670969ad9cb732377ca6aa6dd53c2117ac916c410281b32669f7ef5/000000_000000/0000/tree_7.root
/eos/cms/store/group/phys_higgs/ec/hbb/ntuples/VHbbPostNano/UL/EFT/2018/73ccde0dc652b39ce58292afd8262b3a096a875bd04969e7cdc24863/000000_000000/0000/tree_8.root
/eos/cms/store/group/phys_higgs/ec/hbb/ntuples/VHbbPostNano/UL/EFT/2018/bf6f49f6a3fa1b06d8e202ddb8ba3971fa5f97365b0e4086f33676a6/000000_000000/0000/tree_9.root
/eos/cms/store/group/phys_higgs/ec/hbb/ntuples/VHbbPostNano/UL/EFT/2018/05e5ff00b5b6bb6e54563853fb8490d033803d6afe709e1f18fcb3d4/000000_000000/0000/tree_10.root
/eos/cms/store/group/phys_higgs/ec/hbb/ntuples/VHbbPostNano/UL/EFT/2018/04be5cf846bcf393bdfa87db5a6275441d9be4c09637245a8d402511/000000_000000/0000/tree_11.root
/eos/cms/store/group/phys_higgs/ec/hbb/ntuples/VHbbPostNano/UL/EFT/2018/6c631930a09de483d5799b0c318ea5d84137c1bc4361aa11a66bf7bb/000000_000000/0000/tree_12.root
/eos/cms/store/group/phys_higgs/ec/hbb/ntuples/VHbbPostNano/UL/EFT/2018/5c0239236a083075ea5e76825471cea296e6d89bcfbb656cc92be72f/000000_000000/0000/tree_13.root
/eos/cms/store/group/phys_higgs/ec/hbb/ntuples/VHbbPostNano/UL/EFT/2018/4de63dbb21fcef7d64f1089e7547a6bfa9128e8398f827d968e9c42b/000000_000000/0000/tree_14.root
/eos/cms/store/group/phys_higgs/ec/hbb/ntuples/VHbbPostNano/UL/EFT/2018/06631525900f9e39c64f2609a0d33ef76d341b877b69bb1dd68202ac/000000_000000/0000/tree_15.root
/eos/cms/store/group/phys_higgs/ec/hbb/ntuples/VHbbPostNano/UL/EFT/2018/51d5bd86089b1909d9d8ef3bc3b777257f779efff084a2702fe6c0ad/000000_000000/0000/tree_16.root
/eos/cms/store/group/phys_higgs/ec/hbb/ntuples/VHbbPostNano/UL/EFT/2018/2309c1ad600ef9fa122a5c7878fb90ae7e96ee0976410c4113e6592b/000000_000000/0000/tree_17.root
/eos/cms/store/group/phys_higgs/ec/hbb/ntuples/VHbbPostNano/UL/EFT/2018/0b284c7c4876ba0e3668e14d93ab19e5c7b182148bc0be7aa31a43ef/000000_000000/0000/tree_18.root
/eos/cms/store/group/phys_higgs/ec/hbb/ntuples/VHbbPostNano/UL/EFT/2018/439f23279253bd264bc1f816885b98a7fc30defaf48f288618423330/000000_000000/0000/tree_19.root
/eos/cms/store/group/phys_higgs/ec/hbb/ntuples/VHbbPostNano/UL/EFT/2018/20d6f189931b45e41bd3160046e25e107e8668fd495d54ae22a3531b/000000_000000/0000/tree_20.root
/eos/cms/store/group/phys_higgs/ec/hbb/ntuples/VHbbPostNano/UL/EFT/2018/8d3d66dde4a14a43ce2fbc0bea59d5f4cf2a5e30f3daff7f06bbc4b6/000000_000000/0000/tree_21.root
/eos/cms/store/group/phys_higgs/ec/hbb/ntuples/VHbbPostNano/UL/EFT/2018/a675797c92233faf5a7ed661e2ae0f650fa25bb5b3a2992c09e55dd2/000000_000000/0000/tree_22.root
/eos/cms/store/group/phys_higgs/ec/hbb/ntuples/VHbbPostNano/UL/EFT/2018/88256709403bb6a84d23165af2899491771d6af07ebe4bcfd4ec6857/000000_000000/0000/tree_23.root
/eos/cms/store/group/phys_higgs/ec/hbb/ntuples/VHbbPostNano/UL/EFT/2018/868648e4c806c3f1989b24f21e028592290b85fe5eb7fef105c86ec5/000000_000000/0000/tree_24.root
/eos/cms/store/group/phys_higgs/ec/hbb/ntuples/VHbbPostNano/UL/EFT/2018/e96976285d500c65f893806b181828abfd000bfe16571d468717b7cd/000000_000000/0000/tree_25.root
/eos/cms/store/group/phys_higgs/ec/hbb/ntuples/VHbbPostNano/UL/EFT/2018/b6e66af374e54dfe6085a3f48ce9783b7f4f18d4cc90d12d9ac3c865/000000_000000/0000/tree_26.root
/eos/cms/store/group/phys_higgs/ec/hbb/ntuples/VHbbPostNano/UL/EFT/2018/3d939bc5dfe7a4375b4ff527a824d533fc8a54087ac5e4a14a329221/000000_000000/0000/tree_27.root
/eos/cms/store/group/phys_higgs/ec/hbb/ntuples/VHbbPostNano/UL/EFT/2018/74174b2ae9d655ea398f9b13d0c4056f5642249d5ba0fe34fe506eab/000000_000000/0000/tree_28.root
/eos/cms/store/group/phys_higgs/ec/hbb/ntuples/VHbbPostNano/UL/EFT/2018/4ce0d6735f4feed8037647f989659c31d9a83e2dc90c6b4deef83a5a/000000_000000/0000/tree_29.root
/eos/cms/store/group/phys_higgs/ec/hbb/ntuples/VHbbPostNano/UL/EFT/2018/f432816e125d93469d065190a1ee106102b701c25268b95d9ccfc19a/000000_000000/0000/tree_30.root
/eos/cms/store/group/phys_higgs/ec/hbb/ntuples/VHbbPostNano/UL/EFT/2018/1e36819cef07b006b6c77bd9c7f1ac6fe7d376960041d6c9d2cb4e27/000000_000000/0000/tree_31.root
/eos/cms/store/group/phys_higgs/ec/hbb/ntuples/VHbbPostNano/UL/EFT/2018/5056f72a5df6cbd44501dd3081a52765acfc8e08286255e2042e9034/000000_000000/0000/tree_32.root
/eos/cms/store/group/phys_higgs/ec/hbb/ntuples/VHbbPostNano/UL/EFT/2018/f93de514eb56478b4d97edefe8ee05c145f3cdb800879311b5206342/000000_000000/0000/tree_33.root
/eos/cms/store/group/phys_higgs/ec/hbb/ntuples/VHbbPostNano/UL/EFT/2018/d1bddc7501c1e7baacb02c94710c3f09fb375a599dd8e419a20ede84/000000_000000/0000/tree_34.root
/eos/cms/store/group/phys_higgs/ec/hbb/ntuples/VHbbPostNano/UL/EFT/2018/a62908a15fe971a4e22cf963746221a554192d8c83673b27d9ab915b/000000_000000/0000/tree_35.root
/eos/cms/store/group/phys_higgs/ec/hbb/ntuples/VHbbPostNano/UL/EFT/2018/3d82f2ea2922c97e3c4401da2781bf26cbc09e50417bbef67d09d907/000000_000000/0000/tree_36.root
/eos/cms/store/group/phys_higgs/ec/hbb/ntuples/VHbbPostNano/UL/EFT/2018/dcdae8ce9562286765c747a601f9426c1fe0560f193e43191f56cb84/000000_000000/0000/tree_37.root
/eos/cms/store/group/phys_higgs/ec/hbb/ntuples/VHbbPostNano/UL/EFT/2018/3391a49cc5cc70366d0aef1b74f341b3340739808e130a3f7dd6385f/000000_000000/0000/tree_38.root
/eos/cms/store/group/phys_higgs/ec/hbb/ntuples/VHbbPostNano/UL/EFT/2018/4877a56a313e51f302cffe56d4ff2e64bb42d3b69da4f058d9eea42e/000000_000000/0000/tree_39.root
/eos/cms/store/group/phys_higgs/ec/hbb/ntuples/VHbbPostNano/UL/EFT/2018/d3cc3d4740604880f9ad2fae0978d6378abcf9bde6f4569dbcce7e3a/000000_000000/0000/tree_40.root
/eos/cms/store/group/phys_higgs/ec/hbb/ntuples/VHbbPostNano/UL/EFT/2018/d3a96afd3f921a87a080100157257c38aa5ad00a7ce92e60bc643b14/000000_000000/0000/tree_41.root
/eos/cms/store/group/phys_higgs/ec/hbb/ntuples/VHbbPostNano/UL/EFT/2018/fb3c3576d9b8d40e7648b05cfb5f267a035c421ffb2bd5557287ed9a/000000_000000/0000/tree_42.root
/eos/cms/store/group/phys_higgs/ec/hbb/ntuples/VHbbPostNano/UL/EFT/2018/8a95708331abf56d95c692a82d91621adb47ed435f9244d2e826c56d/000000_000000/0000/tree_43.root
/eos/cms/store/group/phys_higgs/ec/hbb/ntuples/VHbbPostNano/UL/EFT/2018/9dfc17acf58ad1ef0d25e0e8fc86471eabdf4e7314fb16dcaad4fad3/000000_000000/0000/tree_44.root
/eos/cms/store/group/phys_higgs/ec/hbb/ntuples/VHbbPostNano/UL/EFT/2018/54c2c8e89d6b8c40f371061faa9fc86de5f208c03f8e59f45d747e53/000000_000000/0000/tree_45.root
/eos/cms/store/group/phys_higgs/ec/hbb/ntuples/VHbbPostNano/UL/EFT/2018/8e7ca15982b5d0276bdf946149a4ca9337f0be3d96f510b73528fa95/000000_000000/0000/tree_46.root
/eos/cms/store/group/phys_higgs/ec/hbb/ntuples/VHbbPostNano/UL/EFT/2018/d5f87d23e667f7195e1edd67abb7126c45eac350224af4b286e69f4e/000000_000000/0000/tree_47.root
/eos/cms/store/group/phys_higgs/ec/hbb/ntuples/VHbbPostNano/UL/EFT/2018/ff630962428891f1c7bfac8781769675c7a28f16e3ffb2c1f002e9dc/000000_000000/0000/tree_48.root
/eos/cms/store/group/phys_higgs/ec/hbb/ntuples/VHbbPostNano/UL/EFT/2018/37371889320398ff06d88824f9970ae98f3c0ad632bf3a74020a6fa3/000000_000000/0000/tree_49.root
/eos/cms/store/group/phys_higgs/ec/hbb/ntuples/VHbbPostNano/UL/EFT/2018/da30e181145e8c45313723dcd3a19a50210b17e548e7d952d6a68626/000000_000000/0000/tree_50.root
/eos/cms/store/group/phys_higgs/ec/hbb/ntuples/VHbbPostNano/UL/EFT/2018/71e4f715b09299fa579cf2800ae885472a75301b45429d9a6ea51bd8/000000_000000/0000/tree_51.root
/eos/cms/store/group/phys_higgs/ec/hbb/ntuples/VHbbPostNano/UL/EFT/2018/169ea815ebfbfc5e078d78a97a54bc2ea0dbc5f98f2db39677c8f1c3/000000_000000/0000/tree_52.root
/eos/cms/store/group/phys_higgs/ec/hbb/ntuples/VHbbPostNano/UL/EFT/2018/8fc43b539d2def108584ec6fff7e729e03c47f7bd11036bad1786d82/000000_000000/0000/tree_53.root
/eos/cms/store/group/phys_higgs/ec/hbb/ntuples/VHbbPostNano/UL/EFT/2018/8a9366a35223686aa76e5d1dd4d4f1866608826c0fa44bda2471e9f0/000000_000000/0000/tree_54.root
/eos/cms/store/group/phys_higgs/ec/hbb/ntuples/VHbbPostNano/UL/EFT/2018/2ce159e47dc96562f4597e88aca3fc8b317661960e0046323e7b7290/000000_000000/0000/tree_55.root
/eos/cms/store/group/phys_higgs/ec/hbb/ntuples/VHbbPostNano/UL/EFT/2018/9eb2fe75022913324e152f83302e5566107ca28ca35a9abb03e42e92/000000_000000/0000/tree_56.root
/eos/cms/store/group/phys_higgs/ec/hbb/ntuples/VHbbPostNano/UL/EFT/2018/83538cf31b5d785cd7e80a247a59f9f831856e5beeba3961225e6599/000000_000000/0000/tree_57.root
/eos/cms/store/group/phys_higgs/ec/hbb/ntuples/VHbbPostNano/UL/EFT/2018/13b7708fdbf7d1b6afb30e53ad558294ff49a072066341880c430bea/000000_000000/0000/tree_58.root
/eos/cms/store/group/phys_higgs/ec/hbb/ntuples/VHbbPostNano/UL/EFT/2018/bb43e708a8b4f0948696c063fdc1972933afcd9922494710bbaa25ad/000000_000000/0000/tree_59.root
/eos/cms/store/group/phys_higgs/ec/hbb/ntuples/VHbbPostNano/UL/EFT/2018/7accc7b83d620efd177df72ab4cd9316b9c450eab4b92444f9de3385/000000_000000/0000/tree_60.root
/eos/cms/store/group/phys_higgs/ec/hbb/ntuples/VHbbPostNano/UL/EFT/2018/c86716a2fa66187673b35e8bc0403c98e892a14ea8f5a32562a8e94d/000000_000000/0000/tree_61.root
/eos/cms/store/group/phys_higgs/ec/hbb/ntuples/VHbbPostNano/UL/EFT/2018/56e6b13ad5e9098d8013ed98d9b63d3841b0bf40f274b1b32e7fbf62/000000_000000/0000/tree_62.root
/eos/cms/store/group/phys_higgs/ec/hbb/ntuples/VHbbPostNano/UL/EFT/2018/97f9118c9b1a8f3595553e4d70c5f4899854003e187c9a4929fea849/000000_000000/0000/tree_63.root
/eos/cms/store/group/phys_higgs/ec/hbb/ntuples/VHbbPostNano/UL/EFT/2018/62fe62fec11019bd0f4a8061058a12c945f536875e63aa8ab529f032/000000_000000/0000/tree_64.root
/eos/cms/store/group/phys_higgs/ec/hbb/ntuples/VHbbPostNano/UL/EFT/2018/e22517b3ebca096584e5369332f0a40fefa0b799067d2769e7182626/000000_000000/0000/tree_65.root
/eos/cms/store/group/phys_higgs/ec/hbb/ntuples/VHbbPostNano/UL/EFT/2018/41163b3ceb0f5d9e7234d1cee75ee08a648c188479b546381d7b9a97/000000_000000/0000/tree_66.root
/eos/cms/store/group/phys_higgs/ec/hbb/ntuples/VHbbPostNano/UL/EFT/2018/457a2c19622ac768db74a2da69f27b134af96dd9090d66462f33ffd9/000000_000000/0000/tree_67.root
/eos/cms/store/group/phys_higgs/ec/hbb/ntuples/VHbbPostNano/UL/EFT/2018/df88b81a852d1c1811efcad8a638065679dc4166746b91512dae626d/000000_000000/0000/tree_68.root
/eos/cms/store/group/phys_higgs/ec/hbb/ntuples/VHbbPostNano/UL/EFT/2018/83c01203119df9186cc30e0e2f44f1a1155a84d013973f922ab41e5d/000000_000000/0000/tree_69.root
/eos/cms/store/group/phys_higgs/ec/hbb/ntuples/VHbbPostNano/UL/EFT/2018/84522d1d1d7446a5d36b01cb0aa77e64ef6f75bfa3db758c4468f867/000000_000000/0000/tree_70.root
/eos/cms/store/group/phys_higgs/ec/hbb/ntuples/VHbbPostNano/UL/EFT/2018/6a0f9c266cca7c5acfa70e92f956c12dd902df3c14dea29819b45d95/000000_000000/0000/tree_71.root
/eos/cms/store/group/phys_higgs/ec/hbb/ntuples/VHbbPostNano/UL/EFT/2018/74723a597e5f38924ac38d0e1c10aaf7f112e27fce6d75df54605abe/000000_000000/0000/tree_72.root
/eos/cms/store/group/phys_higgs/ec/hbb/ntuples/VHbbPostNano/UL/EFT/2018/0902be45183b2a4a19ce1946bdc9ce808647be61ab49db76f48f314a/000000_000000/0000/tree_73.root
/eos/cms/store/group/phys_higgs/ec/hbb/ntuples/VHbbPostNano/UL/EFT/2018/0f6d2390690c363293e66f621dcc0164e70af8001c8b5380d8b4f95a/000000_000000/0000/tree_74.root
/eos/cms/store/group/phys_higgs/ec/hbb/ntuples/VHbbPostNano/UL/EFT/2018/372add0009ba95d650e81af593a34c8e70ff27a2250cb32c5a1658b5/000000_000000/0000/tree_75.root
/eos/cms/store/group/phys_higgs/ec/hbb/ntuples/VHbbPostNano/UL/EFT/2018/4e289df2afa7832bda40fd6c536056e5c91d12557750e59f56611b42/000000_000000/0000/tree_76.root
/eos/cms/store/group/phys_higgs/ec/hbb/ntuples/VHbbPostNano/UL/EFT/2018/d03e361e3f728b73eff56a9e2854fbc29f40bc4f9bee67a17539b402/000000_000000/0000/tree_77.root
/eos/cms/store/group/phys_higgs/ec/hbb/ntuples/VHbbPostNano/UL/EFT/2018/bd3d44f5b469646fc98fe601a75d3661779b7a41787964284255bf31/000000_000000/0000/tree_78.root
/eos/cms/store/group/phys_higgs/ec/hbb/ntuples/VHbbPostNano/UL/EFT/2018/431754567c4264dfe74bb6c0e42b3f15f8834c290ac67287713a2bb0/000000_000000/0000/tree_79.root
/eos/cms/store/group/phys_higgs/ec/hbb/ntuples/VHbbPostNano/UL/EFT/2018/cf3db8b214969e68954e0c2d38cff3b7dc5b75b83e51a72fcde108ff/000000_000000/0000/tree_80.root
/eos/cms/store/group/phys_higgs/ec/hbb/ntuples/VHbbPostNano/UL/EFT/2018/06e994ff70a43788c568e033f7e22873ab202693b8d692f69bfff1a0/000000_000000/0000/tree_81.root
/eos/cms/store/group/phys_higgs/ec/hbb/ntuples/VHbbPostNano/UL/EFT/2018/4b41aa3bc48aca7f5bb6841ef524002a94b474d121f4b72f036dced0/000000_000000/0000/tree_82.root
/eos/cms/store/group/phys_higgs/ec/hbb/ntuples/VHbbPostNano/UL/EFT/2018/2b1fd3e78f5b1ec54e42de9c2bd3919956779c12af05b566f420c0ee/000000_000000/0000/tree_83.root
/eos/cms/store/group/phys_higgs/ec/hbb/ntuples/VHbbPostNano/UL/EFT/2018/125930613874c9a272682f8a6d1d86a84b15619ee47c864dab2f2210/000000_000000/0000/tree_84.root
/eos/cms/store/group/phys_higgs/ec/hbb/ntuples/VHbbPostNano/UL/EFT/2018/94c8bc85fa6364f5ff046ab3a2348b41f941e115f52a3f791bbe7e93/000000_000000/0000/tree_85.root
/eos/cms/store/group/phys_higgs/ec/hbb/ntuples/VHbbPostNano/UL/EFT/2018/bf2430038aa69974f6b157caa091ba028a4fd5d757eb2f4951db55f9/000000_000000/0000/tree_86.root
/eos/cms/store/group/phys_higgs/ec/hbb/ntuples/VHbbPostNano/UL/EFT/2018/a15f47b8a7509452a931ffd04ea459b970a8c7dadef9a3d37ca39f87/000000_000000/0000/tree_87.root
/eos/cms/store/group/phys_higgs/ec/hbb/ntuples/VHbbPostNano/UL/EFT/2018/b954fd1e3d8bda015c54b23e45795a09499cef416ca8c54e2b49fb76/000000_000000/0000/tree_88.root
/eos/cms/store/group/phys_higgs/ec/hbb/ntuples/VHbbPostNano/UL/EFT/2018/0476f68399976b7806e9daefed0a447500a88e16951318e14f1387a4/000000_000000/0000/tree_89.root
/eos/cms/store/group/phys_higgs/ec/hbb/ntuples/VHbbPostNano/UL/EFT/2018/2f065efe5e084bc5e8440da9f7deeccc7cc3babb37e3e1514664ffcf/000000_000000/0000/tree_90.root
/eos/cms/store/group/phys_higgs/ec/hbb/ntuples/VHbbPostNano/UL/EFT/2018/8354f26110a15056e4b6f8326b0d66aa539b3e0198fae713374e86f9/000000_000000/0000/tree_91.root
/eos/cms/store/group/phys_higgs/ec/hbb/ntuples/VHbbPostNano/UL/EFT/2018/7a8009a92c70df14d32ec55d286b98ecfc2289fe3b0a69ea8a0a1ce5/000000_000000/0000/tree_92.root
/eos/cms/store/group/phys_higgs/ec/hbb/ntuples/VHbbPostNano/UL/EFT/2018/756d54df7d4e9c6a63c45f0e784d57966d9f6659285ac2696c1a5fba/000000_000000/0000/tree_93.root
/eos/cms/store/group/phys_higgs/ec/hbb/ntuples/VHbbPostNano/UL/EFT/2018/7e02a542a5f737b9d07677cec62a461099691153f8ba8dfa5bf35821/000000_000000/0000/tree_94.root
/eos/cms/store/group/phys_higgs/ec/hbb/ntuples/VHbbPostNano/UL/EFT/2018/78b139d8ea24357d4fa71539b0be937ddc1c72a64f6fdb418ef9f1f1/000000_000000/0000/tree_95.root
/eos/cms/store/group/phys_higgs/ec/hbb/ntuples/VHbbPostNano/UL/EFT/2018/b7715252ca99ca50c44981e0d8ce428ac2b2d45817cbf3ebd2c8fcbc/000000_000000/0000/tree_96.root
/eos/cms/store/group/phys_higgs/ec/hbb/ntuples/VHbbPostNano/UL/EFT/2018/0b14ca9f2484a43b0cf26b1f8b420b797fb1d7bd016733e129efa91f/000000_000000/0000/tree_97.root
/eos/cms/store/group/phys_higgs/ec/hbb/ntuples/VHbbPostNano/UL/EFT/2018/65b041aeee44501ceab245f5e1cd20d99fbaa5cd9fffc97938bbb7e6/000000_000000/0000/tree_98.root
/eos/cms/store/group/phys_higgs/ec/hbb/ntuples/VHbbPostNano/UL/EFT/2018/1b24c7ecbf078a299814140d501007713b912de8a4ca918d22794265/000000_000000/0000/tree_99.root
/eos/cms/store/group/phys_higgs/ec/hbb/ntuples/VHbbPostNano/UL/EFT/2018/e28554d489c09f344682b9bf6ed2dc537e1bffba0ec17395436ceb18/000000_000000/0000/tree_100.root
/eos/cms/store/group/phys_higgs/ec/hbb/ntuples/VHbbPostNano/UL/EFT/2018/22d2ae4033a175b5017099d66db9236d0cda01dbed8b3e0434bc6ecb/000000_000000/0000/tree_101.root
/eos/cms/store/group/phys_higgs/ec/hbb/ntuples/VHbbPostNano/UL/EFT/2018/4900435228541213bb6169baf1ccf66e913a86cb7844393eba3d5e97/000000_000000/0000/tree_102.root
/eos/cms/store/group/phys_higgs/ec/hbb/ntuples/VHbbPostNano/UL/EFT/2018/4829e6a18c3db8997e9531bf76076d0f24aa4d4e6abe9fe709ddbcbc/000000_000000/0000/tree_103.root
/eos/cms/store/group/phys_higgs/ec/hbb/ntuples/VHbbPostNano/UL/EFT/2018/17f33f2a236e2529607bc7795b42a9b49e633b967d91088eb82c14d3/000000_000000/0000/tree_104.root
/eos/cms/store/group/phys_higgs/ec/hbb/ntuples/VHbbPostNano/UL/EFT/2018/88d82c0f477bc365d7f6f595b8a562b28fb269d4f68164267bfa10e1/000000_000000/0000/tree_105.root
/eos/cms/store/group/phys_higgs/ec/hbb/ntuples/VHbbPostNano/UL/EFT/2018/9b1855f68f9a27b0a3efadc58fe57c2d3ee8c7b96d5c5c94b6d236a9/000000_000000/0000/tree_106.root
/eos/cms/store/group/phys_higgs/ec/hbb/ntuples/VHbbPostNano/UL/EFT/2018/377ff9875979bcc049561b6a69dd8ba68e99bc14bf0bc967d3c4d3f8/000000_000000/0000/tree_107.root
/eos/cms/store/group/phys_higgs/ec/hbb/ntuples/VHbbPostNano/UL/EFT/2018/71f4138b6b06cc3abbc93689a780dd54606dcf2745e6bf725a51199f/000000_000000/0000/tree_108.root
/eos/cms/store/group/phys_higgs/ec/hbb/ntuples/VHbbPostNano/UL/EFT/2018/0c46e81d8f3e23009c7e722dc736c9ce71d65b3a2213f0a3d844821d/000000_000000/0000/tree_109.root
/eos/cms/store/group/phys_higgs/ec/hbb/ntuples/VHbbPostNano/UL/EFT/2018/7122ffe6ab539a681fc80733ac62696cb22936d8478f4ad7cb4ea867/000000_000000/0000/tree_110.root
/eos/cms/store/group/phys_higgs/ec/hbb/ntuples/VHbbPostNano/UL/EFT/2018/f28f5d7047bc0d60346f154e9f4523055513e31288c283fc67321576/000000_000000/0000/tree_111.root
/eos/cms/store/group/phys_higgs/ec/hbb/ntuples/VHbbPostNano/UL/EFT/2018/7f5cdbcf99e92cea1bc940f1a1107b0a08fd4e2fd2709736c95986fe/000000_000000/0000/tree_112.root
/eos/cms/store/group/phys_higgs/ec/hbb/ntuples/VHbbPostNano/UL/EFT/2018/b1ff6cb887699a5f028256df168879154f6f891e1128a76e553bfa96/000000_000000/0000/tree_113.root
/eos/cms/store/group/phys_higgs/ec/hbb/ntuples/VHbbPostNano/UL/EFT/2018/2a2a5e2e5d6263c312da2436a1c7692479353155a60e20e949de46b0/000000_000000/0000/tree_114.root
/eos/cms/store/group/phys_higgs/ec/hbb/ntuples/VHbbPostNano/UL/EFT/2018/533af64cbe0f326e701f1500b7ece18a923e78a608b8cd604fa69054/000000_000000/0000/tree_115.root
/eos/cms/store/group/phys_higgs/ec/hbb/ntuples/VHbbPostNano/UL/EFT/2018/c88059468a86e08220d35a607f375e3bf08abd8b16c7f1b6325c9234/000000_000000/0000/tree_116.root
/eos/cms/store/group/phys_higgs/ec/hbb/ntuples/VHbbPostNano/UL/EFT/2018/7cc8d0324f7382e3aac8f0afd6b13e9d8cfade5569b85a846d963062/000000_000000/0000/tree_117.root
/eos/cms/store/group/phys_higgs/ec/hbb/ntuples/VHbbPostNano/UL/EFT/2018/d94f2adeb9e17e95acc5bc651384ba37023ba4467b27b03c0f8fd6c0/000000_000000/0000/tree_118.root
/eos/cms/store/group/phys_higgs/ec/hbb/ntuples/VHbbPostNano/UL/EFT/2018/48cd2335f6f1063cf6807adea5be92f0a793217ec2f29ce626b03925/000000_000000/0000/tree_119.root
/eos/cms/store/group/phys_higgs/ec/hbb/ntuples/VHbbPostNano/UL/EFT/2018/9b2e77d61512f8fee3c3a7ebf045249d77fa31e076e57f886497b353/000000_000000/0000/tree_120.root
/eos/cms/store/group/phys_higgs/ec/hbb/ntuples/VHbbPostNano/UL/EFT/2018/8217a1adf1efad446ebeb7c4ce11d24b5cf5d5ec4637c337c4dae55f/000000_000000/0000/tree_121.root
/eos/cms/store/group/phys_higgs/ec/hbb/ntuples/VHbbPostNano/UL/EFT/2018/27845c094dfc353d834bf07d9b8a5cd740959b48022103f87e256299/000000_000000/0000/tree_122.root
/eos/cms/store/group/phys_higgs/ec/hbb/ntuples/VHbbPostNano/UL/EFT/2018/8ca39f8512e687befb273a2d83fce67f98407b1078cd2a560544808b/000000_000000/0000/tree_123.root
/eos/cms/store/group/phys_higgs/ec/hbb/ntuples/VHbbPostNano/UL/EFT/2018/098e31c5e3c9b7ff9a413f8144beeb2872faec70b58cbf44c32d87fa/000000_000000/0000/tree_124.root
/eos/cms/store/group/phys_higgs/ec/hbb/ntuples/VHbbPostNano/UL/EFT/2018/d68d7f54bb11b6ae2c3b7cb160ce456e2e55e38fe7566efa5b9454e0/000000_000000/0000/tree_125.root
/eos/cms/store/group/phys_higgs/ec/hbb/ntuples/VHbbPostNano/UL/EFT/2018/b560996360dd7170558cfe37197ba6aa73e337d24f86e3208d545095/000000_000000/0000/tree_126.root
/eos/cms/store/group/phys_higgs/ec/hbb/ntuples/VHbbPostNano/UL/EFT/2018/26c27fc79836db46a616d66726e58c974bd5fe37507b0d523d449bac/000000_000000/0000/tree_127.root
/eos/cms/store/group/phys_higgs/ec/hbb/ntuples/VHbbPostNano/UL/EFT/2018/fb787817f94d7df8a7fe342cac316549d68ee9d0903f85a21dea844a/000000_000000/0000/tree_128.root
/eos/cms/store/group/phys_higgs/ec/hbb/ntuples/VHbbPostNano/UL/EFT/2018/77f3fcb1e318054249ed485f7a2a5bc7785592a89c2c095d5d519835/000000_000000/0000/tree_129.root
/eos/cms/store/group/phys_higgs/ec/hbb/ntuples/VHbbPostNano/UL/EFT/2018/9b71fe22b80e95c576a28c5474f6614d4b8fb082cd1472a1e1dc2cc4/000000_000000/0000/tree_130.root
/eos/cms/store/group/phys_higgs/ec/hbb/ntuples/VHbbPostNano/UL/EFT/2018/b8b05a49edaa9a17f52e7233fc02180e5736ea4d653cca3d0293f2fe/000000_000000/0000/tree_131.root
/eos/cms/store/group/phys_higgs/ec/hbb/ntuples/VHbbPostNano/UL/EFT/2018/7b9fc0178e0ddc2177bb19ff700b25a25a3f007648d9a7cf97ea4954/000000_000000/0000/tree_132.root
/eos/cms/store/group/phys_higgs/ec/hbb/ntuples/VHbbPostNano/UL/EFT/2018/c3a86d53bfd2a2020445735855eaacb826fac62f95db4eac0bba1177/000000_000000/0000/tree_133.root
/eos/cms/store/group/phys_higgs/ec/hbb/ntuples/VHbbPostNano/UL/EFT/2018/f37f3934e039474b0f0070a0a72ff2e027bd3d7550d7ccedff70df44/000000_000000/0000/tree_134.root
/eos/cms/store/group/phys_higgs/ec/hbb/ntuples/VHbbPostNano/UL/EFT/2018/e645f85d23225300f7e1002f2eec10c1e62f8cf8059efe367ff71d72/000000_000000/0000/tree_135.root
/eos/cms/store/group/phys_higgs/ec/hbb/ntuples/VHbbPostNano/UL/EFT/2018/49804d770a3a1fdb6a436c13b715cada86eb188b282d84a3e5147bac/000000_000000/0000/tree_136.root
/eos/cms/store/group/phys_higgs/ec/hbb/ntuples/VHbbPostNano/UL/EFT/2018/4761e2615fb0cc4ab574038924bba50f421dc9376aea09042314e5ac/000000_000000/0000/tree_137.root
/eos/cms/store/group/phys_higgs/ec/hbb/ntuples/VHbbPostNano/UL/EFT/2018/dc5bac0a8e2f7ba78036542b5f397be90185f188cc00c1a4c847c5dc/000000_000000/0000/tree_138.root
/eos/cms/store/group/phys_higgs/ec/hbb/ntuples/VHbbPostNano/UL/EFT/2018/cbd3abace0c1426034ae84e82438d726bad98697ad3d253459285e79/000000_000000/0000/tree_139.root
/eos/cms/store/group/phys_higgs/ec/hbb/ntuples/VHbbPostNano/UL/EFT/2018/5b0741ff11783064127c3e59625f6192c0ccacac91e237bc5ab5d062/000000_000000/0000/tree_140.root
/eos/cms/store/group/phys_higgs/ec/hbb/ntuples/VHbbPostNano/UL/EFT/2018/066a3f94303c4660bb12e210a68aa2eed5e2b35589449dfacf5deb49/000000_000000/0000/tree_141.root
/eos/cms/store/group/phys_higgs/ec/hbb/ntuples/VHbbPostNano/UL/EFT/2018/be58d6891340635b8446f938749d98ed0ab5d63b3dfd77fc292bdae5/000000_000000/0000/tree_142.root
/eos/cms/store/group/phys_higgs/ec/hbb/ntuples/VHbbPostNano/UL/EFT/2018/9efe32680e8a506c475cea2337713337ad99ec8650fb4aca4fe11178/000000_000000/0000/tree_143.root
/eos/cms/store/group/phys_higgs/ec/hbb/ntuples/VHbbPostNano/UL/EFT/2018/443dcc7b0646ada063949b665c8e4b1dba995ff48fccac711508d0a0/000000_000000/0000/tree_144.root
/eos/cms/store/group/phys_higgs/ec/hbb/ntuples/VHbbPostNano/UL/EFT/2018/6b57403a318e48e69fed8404cf353717ffce9539ec0d6c172a9f1197/000000_000000/0000/tree_145.root
/eos/cms/store/group/phys_higgs/ec/hbb/ntuples/VHbbPostNano/UL/EFT/2018/1a3520d8e2a96fb3fa69b750c22558a54e9b795b86174fca0deb88c0/000000_000000/0000/tree_146.root
/eos/cms/store/group/phys_higgs/ec/hbb/ntuples/VHbbPostNano/UL/EFT/2018/8c14babcb5aec4be225bbd77f77ac0748dea2b425ede095b36666136/000000_000000/0000/tree_147.root
/eos/cms/store/group/phys_higgs/ec/hbb/ntuples/VHbbPostNano/UL/EFT/2018/550d49449eac2f88a4754ed8514ec3e27eba8ade8d6c037206174f85/000000_000000/0000/tree_148.root
/eos/cms/store/group/phys_higgs/ec/hbb/ntuples/VHbbPostNano/UL/EFT/2018/90d6ce27c840cce1311c9798fb826402e6a43cdce20d5fe512f32275/000000_000000/0000/tree_149.root
/eos/cms/store/group/phys_higgs/ec/hbb/ntuples/VHbbPostNano/UL/EFT/2018/02b28cd4b547993ac2ba368f8bbf891502bc965d67eb20defa072018/000000_000000/0000/tree_150.root
/eos/cms/store/group/phys_higgs/ec/hbb/ntuples/VHbbPostNano/UL/EFT/2018/648a7d78cfd5d53934bf39380fa1c9b6eae2b2752449cd544d081a6b/000000_000000/0000/tree_151.root
/eos/cms/store/group/phys_higgs/ec/hbb/ntuples/VHbbPostNano/UL/EFT/2018/a49c613c9ca364756e62f79e75b6589a152d30a326756a9c2e2e33fb/000000_000000/0000/tree_152.root
/eos/cms/store/group/phys_higgs/ec/hbb/ntuples/VHbbPostNano/UL/EFT/2018/edc593e640c2459b097f8147f41ccfe103c0af5c0260260d6f244a74/000000_000000/0000/tree_153.root
/eos/cms/store/group/phys_higgs/ec/hbb/ntuples/VHbbPostNano/UL/EFT/2018/4a010ca1f7a9a2ef4bb6d8c77a8b99331a655bcf0604bc5b85a87c59/000000_000000/0000/tree_154.root
/eos/cms/store/group/phys_higgs/ec/hbb/ntuples/VHbbPostNano/UL/EFT/2018/1e41e474c984adffbe8847957bd98d1f2863930bc8bcac05e8237356/000000_000000/0000/tree_155.root
/eos/cms/store/group/phys_higgs/ec/hbb/ntuples/VHbbPostNano/UL/EFT/2018/168c5a5a049376b83abacb9fedd5b3a9620a9ea2ed19c30c9262cb65/000000_000000/0000/tree_156.root
/eos/cms/store/group/phys_higgs/ec/hbb/ntuples/VHbbPostNano/UL/EFT/2018/32b60945aac274eb1a997c24229c14c905faeb0d35da31074535edb3/000000_000000/0000/tree_157.root
/eos/cms/store/group/phys_higgs/ec/hbb/ntuples/VHbbPostNano/UL/EFT/2018/865834f5a45d82d399730ea65b8a81987b60f6191a9fad69477737fa/000000_000000/0000/tree_158.root
/eos/cms/store/group/phys_higgs/ec/hbb/ntuples/VHbbPostNano/UL/EFT/2018/d8b3d4183a07f96f43eb0981f7e23fed8ffc877339516302418b7bdb/000000_000000/0000/tree_159.root
/eos/cms/store/group/phys_higgs/ec/hbb/ntuples/VHbbPostNano/UL/EFT/2018/24d923fff6122442bd84f70b994047c7c723ff2c232a697ea0fe9c07/000000_000000/0000/tree_160.root
/eos/cms/store/group/phys_higgs/ec/hbb/ntuples/VHbbPostNano/UL/EFT/2018/f966ff4529623032b4536f5df7fd3ee1bf8ab0fd32137a774158c59e/000000_000000/0000/tree_161.root
/eos/cms/store/group/phys_higgs/ec/hbb/ntuples/VHbbPostNano/UL/EFT/2018/46022de0fa5af0d65f3dab8ad0bc1bb4a731be1175c4da9140bde509/000000_000000/0000/tree_162.root
/eos/cms/store/group/phys_higgs/ec/hbb/ntuples/VHbbPostNano/UL/EFT/2018/89a815fd8308466b8c618e86a5beded7d6b2590b3504aeb6dee58914/000000_000000/0000/tree_163.root
/eos/cms/store/group/phys_higgs/ec/hbb/ntuples/VHbbPostNano/UL/EFT/2018/9915cb9838284028ae149388b4f7f15ee1e5c0a81ddff7b5039c60f7/000000_000000/0000/tree_164.root
/eos/cms/store/group/phys_higgs/ec/hbb/ntuples/VHbbPostNano/UL/EFT/2018/9e9715de5e8de83b064abff3fadb86b4b1df816bda447909f42209cc/000000_000000/0000/tree_165.root
/eos/cms/store/group/phys_higgs/ec/hbb/ntuples/VHbbPostNano/UL/EFT/2018/697e87a1d21beb65675f4960f6c7bbcf4c13feb342a870b09c0b9183/000000_000000/0000/tree_166.root
/eos/cms/store/group/phys_higgs/ec/hbb/ntuples/VHbbPostNano/UL/EFT/2018/b23fc8bf2c1f34f67d886a75a904d39365ac52f9f299239303d31ce8/000000_000000/0000/tree_167.root
/eos/cms/store/group/phys_higgs/ec/hbb/ntuples/VHbbPostNano/UL/EFT/2018/7050a1a87288dcd48f73c3ea49cb52bd05a9d699941d1472fc0bb704/000000_000000/0000/tree_168.root
/eos/cms/store/group/phys_higgs/ec/hbb/ntuples/VHbbPostNano/UL/EFT/2018/f4f85bc06d4241ce578c07f4703f22ae294a63d3a7f36a5759ce560b/000000_000000/0000/tree_169.root
/eos/cms/store/group/phys_higgs/ec/hbb/ntuples/VHbbPostNano/UL/EFT/2018/e7612d27e8e00129475e07b2c58c184c773ce3fb0cb037f73d37fe0c/000000_000000/0000/tree_170.root
/eos/cms/store/group/phys_higgs/ec/hbb/ntuples/VHbbPostNano/UL/EFT/2018/740f8cd38437495c2f71381d55eef9e577d46301b0fcc13906a829be/000000_000000/0000/tree_171.root
/eos/cms/store/group/phys_higgs/ec/hbb/ntuples/VHbbPostNano/UL/EFT/2018/879717d8867c8bb5b4f795394decd12988bc795beb146735589318a9/000000_000000/0000/tree_172.root
/eos/cms/store/group/phys_higgs/ec/hbb/ntuples/VHbbPostNano/UL/EFT/2018/30346c2db058af3eeefa1893506d15c23636575924aed314972a586f/000000_000000/0000/tree_173.root
/eos/cms/store/group/phys_higgs/ec/hbb/ntuples/VHbbPostNano/UL/EFT/2018/0cc90135b60c2d980d6567e4c4a78764d59bfbdc75f02b4f396ad065/000000_000000/0000/tree_174.root
/eos/cms/store/group/phys_higgs/ec/hbb/ntuples/VHbbPostNano/UL/EFT/2018/3eba0016c871a526bea5b4983302a39b0cb6198c84bc152b0a4ac9d1/000000_000000/0000/tree_175.root
/eos/cms/store/group/phys_higgs/ec/hbb/ntuples/VHbbPostNano/UL/EFT/2018/3008fa5dc53886a22a082603c084e67b6f543ae4cf71675aeab50cfa/000000_000000/0000/tree_176.root
/eos/cms/store/group/phys_higgs/ec/hbb/ntuples/VHbbPostNano/UL/EFT/2018/3fce02e5676e59b2b7794f31f9289cb16532d25960bdf8af080bf7b7/000000_000000/0000/tree_177.root
/eos/cms/store/group/phys_higgs/ec/hbb/ntuples/VHbbPostNano/UL/EFT/2018/e06f68098a1726f71bc038bf405dd6ef445ebfdd24b8dbba12496d9a/000000_000000/0000/tree_178.root
/eos/cms/store/group/phys_higgs/ec/hbb/ntuples/VHbbPostNano/UL/EFT/2018/a43023971e73e3c20b84e1171376d41defe36eac84ee404c71d9002a/000000_000000/0000/tree_179.root
/eos/cms/store/group/phys_higgs/ec/hbb/ntuples/VHbbPostNano/UL/EFT/2018/752ea30cd0f27f1ae1ebf97277e2d40ea9bb4a5647602bd3d72f0347/000000_000000/0000/tree_180.root
/eos/cms/store/group/phys_higgs/ec/hbb/ntuples/VHbbPostNano/UL/EFT/2018/758fe9b2e7892e96a83be05c23cf37836b28309eda05befa64b3bbc0/000000_000000/0000/tree_181.root
/eos/cms/store/group/phys_higgs/ec/hbb/ntuples/VHbbPostNano/UL/EFT/2018/79ac66d7dbca2813c3e3293e4af4b4339d803a0c837b68fa905d5e74/000000_000000/0000/tree_182.root
/eos/cms/store/group/phys_higgs/ec/hbb/ntuples/VHbbPostNano/UL/EFT/2018/eaee88fbf5eb923110d90506e89faef8f553ae2a525a99213d6b897b/000000_000000/0000/tree_183.root
/eos/cms/store/group/phys_higgs/ec/hbb/ntuples/VHbbPostNano/UL/EFT/2018/6695e86e119f8a7985e7a798524f3a38678c59f5ddb24d51a756797f/000000_000000/0000/tree_184.root
/eos/cms/store/group/phys_higgs/ec/hbb/ntuples/VHbbPostNano/UL/EFT/2018/468c6a346ada340961129f3c95cb53c9390e80c2b248ace3295c90cd/000000_000000/0000/tree_185.root
/eos/cms/store/group/phys_higgs/ec/hbb/ntuples/VHbbPostNano/UL/EFT/2018/755597a506bc87bcfd9adbc9e631a502b37c3b0786cd7dae550308fc/000000_000000/0000/tree_186.root
/eos/cms/store/group/phys_higgs/ec/hbb/ntuples/VHbbPostNano/UL/EFT/2018/a6e7c8dacd6f18c30f36fd284254dfc02dd2f590922f2a0ebb5f1e11/000000_000000/0000/tree_187.root
/eos/cms/store/group/phys_higgs/ec/hbb/ntuples/VHbbPostNano/UL/EFT/2018/8e1c7dbf406f4eb2ae51e7a3ba7d298654fd8d7c966c6ccc6c5be0a1/000000_000000/0000/tree_188.root
/eos/cms/store/group/phys_higgs/ec/hbb/ntuples/VHbbPostNano/UL/EFT/2018/f47a459b2b6fc3de9dbfbf1b7cd95f54401859bc9d4b6f3f8c6314ee/000000_000000/0000/tree_189.root
/eos/cms/store/group/phys_higgs/ec/hbb/ntuples/VHbbPostNano/UL/EFT/2018/12b23496547c1a2050c887f8c9355fd6d23adc417b73ca57e54079af/000000_000000/0000/tree_190.root
/eos/cms/store/group/phys_higgs/ec/hbb/ntuples/VHbbPostNano/UL/EFT/2018/b5be06e9d93b0974e2b5604c73165a55e9411e87303898ac0b50511a/000000_000000/0000/tree_191.root
/eos/cms/store/group/phys_higgs/ec/hbb/ntuples/VHbbPostNano/UL/EFT/2018/df62c1756c75607e779320a090e188ed480090f0995010cd2864e687/000000_000000/0000/tree_192.root
/eos/cms/store/group/phys_higgs/ec/hbb/ntuples/VHbbPostNano/UL/EFT/2018/6e0065eca5694bc526aad2a97273682d5a8f5035d03f1b5e745018b7/000000_000000/0000/tree_193.root
/eos/cms/store/group/phys_higgs/ec/hbb/ntuples/VHbbPostNano/UL/EFT/2018/d0cdf3b0a0558c5b5b2af2360d2dcd42e48581ec1a21e60d15b20048/000000_000000/0000/tree_194.root
/eos/cms/store/group/phys_higgs/ec/hbb/ntuples/VHbbPostNano/UL/EFT/2018/38c868eb6331a491ab118793d688cbb8f29beb5fa348f4f0bb939635/000000_000000/0000/tree_195.root
/eos/cms/store/group/phys_higgs/ec/hbb/ntuples/VHbbPostNano/UL/EFT/2018/d853f5d08add3dc561271d71f0265df1281a1a867cec410a82ca4854/000000_000000/0000/tree_196.root
/eos/cms/store/group/phys_higgs/ec/hbb/ntuples/VHbbPostNano/UL/EFT/2018/5ae82969e1423b0719a161043fdb03cebd340d102d74f4f15db6b2cb/000000_000000/0000/tree_197.root
/eos/cms/store/group/phys_higgs/ec/hbb/ntuples/VHbbPostNano/UL/EFT/2018/a63db505cb1630b27fdced28ab0c033f7f7913dbcd4e11ad4c8fab67/000000_000000/0000/tree_198.root
/eos/cms/store/group/phys_higgs/ec/hbb/ntuples/VHbbPostNano/UL/EFT/2018/e4ed657501ea28bf19f70d93a3e35a3193eaef7a119ec8482425a4c4/000000_000000/0000/tree_199.root
/eos/cms/store/group/phys_higgs/ec/hbb/ntuples/VHbbPostNano/UL/EFT/2018/ca58d814cc6e9530aa9718db472c6b9758211f79feab4a628973073d/000000_000000/0000/tree_200.root
/eos/cms/store/group/phys_higgs/ec/hbb/ntuples/VHbbPostNano/UL/EFT/2018/1038a0fc25a85acf18e29784d91fae65c0d7d75e28613fe044e68738/000000_000000/0000/tree_201.root
/eos/cms/store/group/phys_higgs/ec/hbb/ntuples/VHbbPostNano/UL/EFT/2018/df5ebed979345065c42406cae0415f6a695b5950f6eec9ce303f89d3/000000_000000/0000/tree_202.root
/eos/cms/store/group/phys_higgs/ec/hbb/ntuples/VHbbPostNano/UL/EFT/2018/c485c5ec8531a76583debc41dd45a935fea1fca3b3aa7cd937a351ca/000000_000000/0000/tree_203.root
/eos/cms/store/group/phys_higgs/ec/hbb/ntuples/VHbbPostNano/UL/EFT/2018/b785d25a5937fe3c30ee9c2ff84d868d04645143814d525ea1b41df9/000000_000000/0000/tree_204.root
/eos/cms/store/group/phys_higgs/ec/hbb/ntuples/VHbbPostNano/UL/EFT/2018/bd1fc2475938ccef21c2d0f1d7b6193445115c8eca94641f9ef5213b/000000_000000/0000/tree_205.root
/eos/cms/store/group/phys_higgs/ec/hbb/ntuples/VHbbPostNano/UL/EFT/2018/c079317d54743c36694e43c8ece2570234092542b07d6e403148df7e/000000_000000/0000/tree_206.root
/eos/cms/store/group/phys_higgs/ec/hbb/ntuples/VHbbPostNano/UL/EFT/2018/d93b4ee3513398fcdd7879f82061aa0e4063d1a5472b529b72ec693c/000000_000000/0000/tree_207.root
/eos/cms/store/group/phys_higgs/ec/hbb/ntuples/VHbbPostNano/UL/EFT/2018/aac2ac814b8c0765cde426766425c5c216e093285d640bd7668114f6/000000_000000/0000/tree_208.root
/eos/cms/store/group/phys_higgs/ec/hbb/ntuples/VHbbPostNano/UL/EFT/2018/eaf3119f76e117d0921533a7337d3fe1b4523adbe7b37f93ad8c001b/000000_000000/0000/tree_209.root
/eos/cms/store/group/phys_higgs/ec/hbb/ntuples/VHbbPostNano/UL/EFT/2018/abe3bf955d1d88aedefacdc1476f64d48016ffb52df9ee66c4ff0c92/000000_000000/0000/tree_210.root
/eos/cms/store/group/phys_higgs/ec/hbb/ntuples/VHbbPostNano/UL/EFT/2018/3622ba5139c9dd00b5e9bbbaced949ade749cf56721d1388f95093e6/000000_000000/0000/tree_211.root
/eos/cms/store/group/phys_higgs/ec/hbb/ntuples/VHbbPostNano/UL/EFT/2018/3ed07c5000a1d898673aab98dea61bc120ee009e9ed5ef91efe428cd/000000_000000/0000/tree_212.root
/eos/cms/store/group/phys_higgs/ec/hbb/ntuples/VHbbPostNano/UL/EFT/2018/f9e05be90b60e696776ce5e34c7b0ad95672753e3484691b6b2f91b9/000000_000000/0000/tree_213.root
/eos/cms/store/group/phys_higgs/ec/hbb/ntuples/VHbbPostNano/UL/EFT/2018/964eb00461bd5b55c58be7db569462332eccae5439617108e0eed745/000000_000000/0000/tree_214.root
/eos/cms/store/group/phys_higgs/ec/hbb/ntuples/VHbbPostNano/UL/EFT/2018/22cf6ee3bc7163225ca9376561a2712dbb8d1a1375bbf749470840d4/000000_000000/0000/tree_215.root
/eos/cms/store/group/phys_higgs/ec/hbb/ntuples/VHbbPostNano/UL/EFT/2018/eaee851888b1769af79f9b09c84d854e87ccf7ee6fe089a3842facb4/000000_000000/0000/tree_216.root
/eos/cms/store/group/phys_higgs/ec/hbb/ntuples/VHbbPostNano/UL/EFT/2018/f48b6b14964b56e87d1857cfb6cc0caf38e75ad3058cb1c4d196b50e/000000_000000/0000/tree_217.root
/eos/cms/store/group/phys_higgs/ec/hbb/ntuples/VHbbPostNano/UL/EFT/2018/cf84ff29f3d9f303114566481d79e0110bb3646e90e5a028565329f2/000000_000000/0000/tree_218.root
/eos/cms/store/group/phys_higgs/ec/hbb/ntuples/VHbbPostNano/UL/EFT/2018/48972dfc4e7d32f8f9a311b00c8169783f1e7e0b3a03ed799ae6a897/000000_000000/0000/tree_219.root
/eos/cms/store/group/phys_higgs/ec/hbb/ntuples/VHbbPostNano/UL/EFT/2018/89853ce449c17d2902488389c4ced7767c930e7106dcaea8c4ec5fc2/000000_000000/0000/tree_220.root
/eos/cms/store/group/phys_higgs/ec/hbb/ntuples/VHbbPostNano/UL/EFT/2018/29d7991e58842907863609cd09bae2f982d59cf84beb1127bd1b7a41/000000_000000/0000/tree_221.root
/eos/cms/store/group/phys_higgs/ec/hbb/ntuples/VHbbPostNano/UL/EFT/2018/f55515c0e6c5111a6162646197afa409f8055acef70ac214994a95e1/000000_000000/0000/tree_222.root
/eos/cms/store/group/phys_higgs/ec/hbb/ntuples/VHbbPostNano/UL/EFT/2018/deed2ff9af64bd26a3b1d91c72b3f2534f01f1597120622c9460b74b/000000_000000/0000/tree_223.root
/eos/cms/store/group/phys_higgs/ec/hbb/ntuples/VHbbPostNano/UL/EFT/2018/1e8da3e3ec893ab67f8e793426a30f4fbb6acebfee5a9f07b0676acd/000000_000000/0000/tree_224.root
/eos/cms/store/group/phys_higgs/ec/hbb/ntuples/VHbbPostNano/UL/EFT/2018/60838ca3787712204b01604f07c25c18c8bcf62608e6d7e2ac27ceb7/000000_000000/0000/tree_225.root
/eos/cms/store/group/phys_higgs/ec/hbb/ntuples/VHbbPostNano/UL/EFT/2018/2f6417fdb29297e8a4e594bd4d094f4ae9c15e68c02eea5841de3703/000000_000000/0000/tree_226.root
/eos/cms/store/group/phys_higgs/ec/hbb/ntuples/VHbbPostNano/UL/EFT/2018/b65d858cd8a14185bf5ea47201ef5a9ac2a04ac8a5fe0de94337a2fb/000000_000000/0000/tree_227.root
/eos/cms/store/group/phys_higgs/ec/hbb/ntuples/VHbbPostNano/UL/EFT/2018/3d6b4256483c42c0a09e5ab4560c75d6903505730a9710dd6131e0e3/000000_000000/0000/tree_228.root
/eos/cms/store/group/phys_higgs/ec/hbb/ntuples/VHbbPostNano/UL/EFT/2018/97004e2f6f9bc74aa6435f0307ee1a8a44f0960d44117823a3f56017/000000_000000/0000/tree_229.root
/eos/cms/store/group/phys_higgs/ec/hbb/ntuples/VHbbPostNano/UL/EFT/2018/f7244683c169c1b37ecf18856ec8d36c47c8444933144fd11568e43b/000000_000000/0000/tree_230.root
/eos/cms/store/group/phys_higgs/ec/hbb/ntuples/VHbbPostNano/UL/EFT/2018/9f83aa46877ab38ccde420c0d743ba6360710d7e85750b7ff36702e3/000000_000000/0000/tree_231.root
/eos/cms/store/group/phys_higgs/ec/hbb/ntuples/VHbbPostNano/UL/EFT/2018/6d28649625d4a71ad8a931a3e55bcb007cae07d34810a3b302f52b16/000000_000000/0000/tree_232.root
/eos/cms/store/group/phys_higgs/ec/hbb/ntuples/VHbbPostNano/UL/EFT/2018/bfc206757708a91b62cb5521809a8306d4d201e64d896c94db6851a5/000000_000000/0000/tree_233.root
/eos/cms/store/group/phys_higgs/ec/hbb/ntuples/VHbbPostNano/UL/EFT/2018/a1898f763c94935eb506bbdf128a28b51b4e7f1756f1c71bbc534176/000000_000000/0000/tree_234.root
/eos/cms/store/group/phys_higgs/ec/hbb/ntuples/VHbbPostNano/UL/EFT/2018/cd169cd770ab9a0dd3b4ead58593fd56d5a777044f3a814abf557d0e/000000_000000/0000/tree_235.root
/eos/cms/store/group/phys_higgs/ec/hbb/ntuples/VHbbPostNano/UL/EFT/2018/34ceb1c749b4aea22072c9a3d459530098916941a3751f2d50c0532a/000000_000000/0000/tree_236.root
/eos/cms/store/group/phys_higgs/ec/hbb/ntuples/VHbbPostNano/UL/EFT/2018/f3a5ae5f66a1aa9ca54403551fe35710d76a2d4c7854ba778bf3b25a/000000_000000/0000/tree_237.root
/eos/cms/store/group/phys_higgs/ec/hbb/ntuples/VHbbPostNano/UL/EFT/2018/1ef31b0ba7c60d93db0afb91a017e3ecce19ab89dd62c3535c83ffe7/000000_000000/0000/tree_238.root
/eos/cms/store/group/phys_higgs/ec/hbb/ntuples/VHbbPostNano/UL/EFT/2018/0c9ef458b1611815dd39c76b387ee925fafee004e0dc55c5c31721e1/000000_000000/0000/tree_239.root
/eos/cms/store/group/phys_higgs/ec/hbb/ntuples/VHbbPostNano/UL/EFT/2018/8e1534e1fa1ff5999cb7a0b871fc66aa405fc1ff4f3dd78d359ee6b0/000000_000000/0000/tree_240.root
/eos/cms/store/group/phys_higgs/ec/hbb/ntuples/VHbbPostNano/UL/EFT/2018/35ae63d3f5b101a007050a25c9d58f3c1cb8ed92a7d34c033bc95f87/000000_000000/0000/tree_241.root
/eos/cms/store/group/phys_higgs/ec/hbb/ntuples/VHbbPostNano/UL/EFT/2018/c410eb1cc5084620f281301b74590760d0973e951412ed4e905d9be6/000000_000000/0000/tree_242.root
/eos/cms/store/group/phys_higgs/ec/hbb/ntuples/VHbbPostNano/UL/EFT/2018/213a06b7cf3559ac1779648269eefe98aefa6f44e334655f6a1735a8/000000_000000/0000/tree_243.root
/eos/cms/store/group/phys_higgs/ec/hbb/ntuples/VHbbPostNano/UL/EFT/2018/a7a89b2577a29da24cb99532ccf24c65a5bc6e0d2f9b9f88e27addce/000000_000000/0000/tree_244.root
/eos/cms/store/group/phys_higgs/ec/hbb/ntuples/VHbbPostNano/UL/EFT/2018/5312f67c5b552a0aaeed47bfc0f9e6043e97db981815399cca77e8a6/000000_000000/0000/tree_245.root
/eos/cms/store/group/phys_higgs/ec/hbb/ntuples/VHbbPostNano/UL/EFT/2018/840c47bee9e32f57519f87a2888e8cfaee08ebdcdad52d4beee156af/000000_000000/0000/tree_246.root
/eos/cms/store/group/phys_higgs/ec/hbb/ntuples/VHbbPostNano/UL/EFT/2018/f070198eccbaeeca3aa6398392f5efcc224953e0fbfa83fc2d652447/000000_000000/0000/tree_247.root
/eos/cms/store/group/phys_higgs/ec/hbb/ntuples/VHbbPostNano/UL/EFT/2018/6c7e69dbd9cf3cb2503a9b2d8318531bc08b461669b498e89c451e75/000000_000000/0000/tree_248.root
/eos/cms/store/group/phys_higgs/ec/hbb/ntuples/VHbbPostNano/UL/EFT/2018/83e5891527081aa3987bba592824480ec46b06e1b78a788c3dc52a19/000000_000000/0000/tree_249.root
/eos/cms/store/group/phys_higgs/ec/hbb/ntuples/VHbbPostNano/UL/EFT/2018/982ec8451b8d09023afadba399fd542938ed2470e5cc13cfffe80a71/000000_000000/0000/tree_250.root
/eos/cms/store/group/phys_higgs/ec/hbb/ntuples/VHbbPostNano/UL/EFT/2018/8e20aff57959cf9269deaf3d5916f20105b324ae044eb94c44f51b26/000000_000000/0000/tree_251.root
/eos/cms/store/group/phys_higgs/ec/hbb/ntuples/VHbbPostNano/UL/EFT/2018/2b87c20b7f2f11b23cb5cfa4045b8ef126e093477f8c4c143f3eca42/000000_000000/0000/tree_252.root
/eos/cms/store/group/phys_higgs/ec/hbb/ntuples/VHbbPostNano/UL/EFT/2018/9d58aa62ad9f12f15b9a4685ca36b2459f307678763ca8309e6452b2/000000_000000/0000/tree_253.root
/eos/cms/store/group/phys_higgs/ec/hbb/ntuples/VHbbPostNano/UL/EFT/2018/3d2a6531be6cba3eaf1fbad5be3d922362b933675b61fe365ee88fe3/000000_000000/0000/tree_254.root
/eos/cms/store/group/phys_higgs/ec/hbb/ntuples/VHbbPostNano/UL/EFT/2018/d3f916fdd85e47fec8ec23820dc469e1e47ae744a1ec077b1a4381cc/000000_000000/0000/tree_255.root
/eos/cms/store/group/phys_higgs/ec/hbb/ntuples/VHbbPostNano/UL/EFT/2018/1d9aa9628926527b57e42ec371fa1644109076d2eb3d4ff467571bd1/000000_000000/0000/tree_256.root
/eos/cms/store/group/phys_higgs/ec/hbb/ntuples/VHbbPostNano/UL/EFT/2018/083575ffc102aaafba07b934fe12fdd8e62533e9edd5d834a36644a7/000000_000000/0000/tree_257.root
/eos/cms/store/group/phys_higgs/ec/hbb/ntuples/VHbbPostNano/UL/EFT/2018/e5ae8d189979cb9f274821b4bc05bc951da71c5a572b27d628a6af55/000000_000000/0000/tree_258.root
/eos/cms/store/group/phys_higgs/ec/hbb/ntuples/VHbbPostNano/UL/EFT/2018/336aa728ffd32f259cfc563fcbef37e8ca4484d7f6f09df3faf4d2af/000000_000000/0000/tree_259.root
/eos/cms/store/group/phys_higgs/ec/hbb/ntuples/VHbbPostNano/UL/EFT/2018/3c2aa3003481e84232623620f8a1531d0f71850ea211c22c3a97c77e/000000_000000/0000/tree_260.root
/eos/cms/store/group/phys_higgs/ec/hbb/ntuples/VHbbPostNano/UL/EFT/2018/b1aff2786b3f88bd3dc40f7fb733cccc9eb700935f8ada4a43d53081/000000_000000/0000/tree_261.root
/eos/cms/store/group/phys_higgs/ec/hbb/ntuples/VHbbPostNano/UL/EFT/2018/8038da8a1b11e06de110567d205b22282694a2e4d7324ab8eabdd193/000000_000000/0000/tree_262.root
/eos/cms/store/group/phys_higgs/ec/hbb/ntuples/VHbbPostNano/UL/EFT/2018/e8f41a1c031a380bcecefca93035549f1d3a14b93d85753544cc215a/000000_000000/0000/tree_263.root
/eos/cms/store/group/phys_higgs/ec/hbb/ntuples/VHbbPostNano/UL/EFT/2018/a862bd3f977233fb27bf1c317e0fb404cb04e27d6007b71cf39062f5/000000_000000/0000/tree_264.root
/eos/cms/store/group/phys_higgs/ec/hbb/ntuples/VHbbPostNano/UL/EFT/2018/90fb73923b3470c5cdf2ab0d4cd25d7f836c9f59bcf9d98cda3f8d83/000000_000000/0000/tree_265.root
/eos/cms/store/group/phys_higgs/ec/hbb/ntuples/VHbbPostNano/UL/EFT/2018/24e372e2ee534f49bcae1fff325c11fac6d3df2d2392faa6bf5283c2/000000_000000/0000/tree_266.root
/eos/cms/store/group/phys_higgs/ec/hbb/ntuples/VHbbPostNano/UL/EFT/2018/d17301f5ed39e4ac7f6deb381dfbc975f66704d85c1276d763e1542e/000000_000000/0000/tree_267.root
/eos/cms/store/group/phys_higgs/ec/hbb/ntuples/VHbbPostNano/UL/EFT/2018/49180731a3b3605d3cdee1870756c7ac55ac86a146cbbbf85e2336af/000000_000000/0000/tree_268.root
/eos/cms/store/group/phys_higgs/ec/hbb/ntuples/VHbbPostNano/UL/EFT/2018/0a2d72f39de2e377e38f013e546f46a88126f64ced47c26deb2994ba/000000_000000/0000/tree_269.root
/eos/cms/store/group/phys_higgs/ec/hbb/ntuples/VHbbPostNano/UL/EFT/2018/b4f8dadc4c064b911295b345d64815a29ceec1d7d37124d8406070cb/000000_000000/0000/tree_270.root
/eos/cms/store/group/phys_higgs/ec/hbb/ntuples/VHbbPostNano/UL/EFT/2018/1a0448adc8105c3806604c048e5f9ad8863e83678bb82a038a804046/000000_000000/0000/tree_271.root
/eos/cms/store/group/phys_higgs/ec/hbb/ntuples/VHbbPostNano/UL/EFT/2018/4b92a2bacc5ab476d81b9f3cce9219b6636da0ca47bb01393b706316/000000_000000/0000/tree_272.root
/eos/cms/store/group/phys_higgs/ec/hbb/ntuples/VHbbPostNano/UL/EFT/2018/f38855662d9eb0e8c8245afcc89b353ea0d16fd508f9062b48000597/000000_000000/0000/tree_273.root
/eos/cms/store/group/phys_higgs/ec/hbb/ntuples/VHbbPostNano/UL/EFT/2018/9821566e18bd2ab271aba491c9f41567e07526de910b1d9a278ebff9/000000_000000/0000/tree_274.root
/eos/cms/store/group/phys_higgs/ec/hbb/ntuples/VHbbPostNano/UL/EFT/2018/e57b5463aaf0dc2b3b6adacc6d5ee3339cdd4a2ec03f08978298e706/000000_000000/0000/tree_275.root
/eos/cms/store/group/phys_higgs/ec/hbb/ntuples/VHbbPostNano/UL/EFT/2018/32f952f089eae51e0bb57044b39c8aa17bb3a8645039dbeaecbbe31f/000000_000000/0000/tree_276.root
/eos/cms/store/group/phys_higgs/ec/hbb/ntuples/VHbbPostNano/UL/EFT/2018/a1cf106f93ca0d819e4cdfe59457697d6133d70e15420f67ed5d1b86/000000_000000/0000/tree_277.root
/eos/cms/store/group/phys_higgs/ec/hbb/ntuples/VHbbPostNano/UL/EFT/2018/1c6ef16eaca233e70d1ef690a9ce26d47ec16f179523f85ceeafb140/000000_000000/0000/tree_278.root
/eos/cms/store/group/phys_higgs/ec/hbb/ntuples/VHbbPostNano/UL/EFT/2018/1a0512b337f3850847dd13ba4e801ae6430899f71488adf9ba1d04de/000000_000000/0000/tree_279.root
/eos/cms/store/group/phys_higgs/ec/hbb/ntuples/VHbbPostNano/UL/EFT/2018/5cd29398403f1fc4a1f13041a5d6665b1403f8091efe2bc4fa93bf1d/000000_000000/0000/tree_280.root
/eos/cms/store/group/phys_higgs/ec/hbb/ntuples/VHbbPostNano/UL/EFT/2018/2bbb83728ee54c9c857c67c493dd415f9d3144887abb0f8e48fdecf5/000000_000000/0000/tree_281.root
/eos/cms/store/group/phys_higgs/ec/hbb/ntuples/VHbbPostNano/UL/EFT/2018/45c4ad59b1bcb227e8d389b19769f694d3f33921ae79eaf180920f97/000000_000000/0000/tree_282.root
/eos/cms/store/group/phys_higgs/ec/hbb/ntuples/VHbbPostNano/UL/EFT/2018/1365eaf3632088d7b89eef1a66920dcf5bc566d5c3dda54a5cb3dd8b/000000_000000/0000/tree_283.root
/eos/cms/store/group/phys_higgs/ec/hbb/ntuples/VHbbPostNano/UL/EFT/2018/6bcd16fec89f723d5c0ffda3f074b40372179ba0b017cde0b837a928/000000_000000/0000/tree_284.root
/eos/cms/store/group/phys_higgs/ec/hbb/ntuples/VHbbPostNano/UL/EFT/2018/70a3b412a4cf8017bafbfae26f7b53e8c6e9518eb91593da95146509/000000_000000/0000/tree_285.root
/eos/cms/store/group/phys_higgs/ec/hbb/ntuples/VHbbPostNano/UL/EFT/2018/4f12d737c130fc292dd5aa1d69cbe432ed50a51c03172a14dee9b5f7/000000_000000/0000/tree_286.root
/eos/cms/store/group/phys_higgs/ec/hbb/ntuples/VHbbPostNano/UL/EFT/2018/2ad6823a47957a89a4056025872e447da896d07f3da0a2b9ab25f5aa/000000_000000/0000/tree_287.root
/eos/cms/store/group/phys_higgs/ec/hbb/ntuples/VHbbPostNano/UL/EFT/2018/7f25e665265105978a17476f473a46431a64cbfb9f252c70460e37d6/000000_000000/0000/tree_288.root
/eos/cms/store/group/phys_higgs/ec/hbb/ntuples/VHbbPostNano/UL/EFT/2018/460b9f476ff2e64c06c955b232dbab943392904d67fe5daa8e4da654/000000_000000/0000/tree_289.root
/eos/cms/store/group/phys_higgs/ec/hbb/ntuples/VHbbPostNano/UL/EFT/2018/4e1fd58ce646fd409e0329e8e37c16db60a96c3252dec8973d6172db/000000_000000/0000/tree_290.root
/eos/cms/store/group/phys_higgs/ec/hbb/ntuples/VHbbPostNano/UL/EFT/2018/21bf46929f8e77e8eb94789e613a9636d0c05d33d117890d9e342f44/000000_000000/0000/tree_291.root
/eos/cms/store/group/phys_higgs/ec/hbb/ntuples/VHbbPostNano/UL/EFT/2018/0d0db8d5d1c17d9c792e216b7a929a39641b8861b6d34f7eb8b86d18/000000_000000/0000/tree_292.root
/eos/cms/store/group/phys_higgs/ec/hbb/ntuples/VHbbPostNano/UL/EFT/2018/88cca211a8ea2a1f4c97f838df9c83f0c275f13d3ec02743f65f8f66/000000_000000/0000/tree_293.root
/eos/cms/store/group/phys_higgs/ec/hbb/ntuples/VHbbPostNano/UL/EFT/2018/2838a7d7a0a59dd24a4973602bfbef1611951ad83152e94052abff33/000000_000000/0000/tree_294.root
/eos/cms/store/group/phys_higgs/ec/hbb/ntuples/VHbbPostNano/UL/EFT/2018/d6b01aff89c6db5fcb12ecd48dbd5882b3379035632fd1ceacfe1f39/000000_000000/0000/tree_295.root
/eos/cms/store/group/phys_higgs/ec/hbb/ntuples/VHbbPostNano/UL/EFT/2018/cd9e88040e87908389d909454f3b9268ad8a60e555c01ac589ac4d86/000000_000000/0000/tree_296.root
/eos/cms/store/group/phys_higgs/ec/hbb/ntuples/VHbbPostNano/UL/EFT/2018/c4d2c0d9a711957525985aff7b0ebc185e408d40d38426ceb0a639cb/000000_000000/0000/tree_297.root
/eos/cms/store/group/phys_higgs/ec/hbb/ntuples/VHbbPostNano/UL/EFT/2018/4f3c9265678fcee448d281d37ee34c8ab4920512965a0fff1d91641a/000000_000000/0000/tree_298.root
/eos/cms/store/group/phys_higgs/ec/hbb/ntuples/VHbbPostNano/UL/EFT/2018/9cafdc3335ec89cfc42d9d8e070466ebfefc605fb013acf0fb0b5210/000000_000000/0000/tree_299.root
/eos/cms/store/group/phys_higgs/ec/hbb/ntuples/VHbbPostNano/UL/EFT/2018/89aa389197404cf95e703d213c8127272b63563536f1dd5fffc4af75/000000_000000/0000/tree_300.root
/eos/cms/store/group/phys_higgs/ec/hbb/ntuples/VHbbPostNano/UL/EFT/2018/6d97624892ddcfe593af044cd98e8410f0e910b81f384b71081f861a/000000_000000/0000/tree_301.root
/eos/cms/store/group/phys_higgs/ec/hbb/ntuples/VHbbPostNano/UL/EFT/2018/1e7a4f5ce351c9f5b3886a1a66ad1480803e213f3e58a60bddb5cf61/000000_000000/0000/tree_302.root
/eos/cms/store/group/phys_higgs/ec/hbb/ntuples/VHbbPostNano/UL/EFT/2018/39a36ee8c2db1905f2314d98d9e22684d7b1dba9cced5d3c1afb7099/000000_000000/0000/tree_303.root
/eos/cms/store/group/phys_higgs/ec/hbb/ntuples/VHbbPostNano/UL/EFT/2018/2cf2266d30d26d06efeba9ca1fc60a0199713fe981fbb30c4dc4f3e7/000000_000000/0000/tree_304.root
/eos/cms/store/group/phys_higgs/ec/hbb/ntuples/VHbbPostNano/UL/EFT/2018/9dbfcae7d705401c0b9c9f396c9fe1debac6be3da92dc278012e2f88/000000_000000/0000/tree_305.root
/eos/cms/store/group/phys_higgs/ec/hbb/ntuples/VHbbPostNano/UL/EFT/2018/3da42ba08a0740c507814f6bf3299671670caf60934b95226b0053da/000000_000000/0000/tree_306.root
/eos/cms/store/group/phys_higgs/ec/hbb/ntuples/VHbbPostNano/UL/EFT/2018/b7627f07f5086043f65f548ed242b48b7490bd543ba70ee9dab48f7d/000000_000000/0000/tree_307.root
/eos/cms/store/group/phys_higgs/ec/hbb/ntuples/VHbbPostNano/UL/EFT/2018/c5ba911bff5e9fb6fbc6633b1520ed15be2ca76791587b03281c5f40/000000_000000/0000/tree_308.root
/eos/cms/store/group/phys_higgs/ec/hbb/ntuples/VHbbPostNano/UL/EFT/2018/e1a75cbf35aca9625c9a5981173ede2f65b6bfd8eb6a5db179cde82e/000000_000000/0000/tree_309.root
/eos/cms/store/group/phys_higgs/ec/hbb/ntuples/VHbbPostNano/UL/EFT/2018/77cf2776d04b539d4a61236715860bfa7312fa3914dc617cbed4509b/000000_000000/0000/tree_310.root
/eos/cms/store/group/phys_higgs/ec/hbb/ntuples/VHbbPostNano/UL/EFT/2018/2f28ca4c863c9ab6298b2f47a5018c4407387b92a89d4611af9a4194/000000_000000/0000/tree_311.root
/eos/cms/store/group/phys_higgs/ec/hbb/ntuples/VHbbPostNano/UL/EFT/2018/01f16a32fc39ccc8609bb4304ec03f2105d571d77d74f9555e97b922/000000_000000/0000/tree_312.root
/eos/cms/store/group/phys_higgs/ec/hbb/ntuples/VHbbPostNano/UL/EFT/2018/1ef514268630f3c225c8de3f6661559e821285cc6d1fc1d40d878a2d/000000_000000/0000/tree_313.root
/eos/cms/store/group/phys_higgs/ec/hbb/ntuples/VHbbPostNano/UL/EFT/2018/b09357e877be569828b9ade306eb445fb75b72779ea633dfd0e031dd/000000_000000/0000/tree_314.root
/eos/cms/store/group/phys_higgs/ec/hbb/ntuples/VHbbPostNano/UL/EFT/2018/bb69c8bf18089241f10f5b9d2da6715b0025f325f059f2838af79bdf/000000_000000/0000/tree_315.root
/eos/cms/store/group/phys_higgs/ec/hbb/ntuples/VHbbPostNano/UL/EFT/2018/71a3a7826a73655fb93218e8b1ba0e0a06806b76fb5b5a6d544724bc/000000_000000/0000/tree_316.root
/eos/cms/store/group/phys_higgs/ec/hbb/ntuples/VHbbPostNano/UL/EFT/2018/e0b29ac539d2b30966806d28fd84569776a6cbb644ea38e09c56585a/000000_000000/0000/tree_317.root
/eos/cms/store/group/phys_higgs/ec/hbb/ntuples/VHbbPostNano/UL/EFT/2018/353f227cdd6d9496b9e2d71ef4aa075ff57479116558f0b7fd9931cf/000000_000000/0000/tree_318.root
/eos/cms/store/group/phys_higgs/ec/hbb/ntuples/VHbbPostNano/UL/EFT/2018/f12f9259531e384ea37b9969661982382cca9818751b25f008eff7a2/000000_000000/0000/tree_319.root
/eos/cms/store/group/phys_higgs/ec/hbb/ntuples/VHbbPostNano/UL/EFT/2018/25752c64c9fe7fb37d955c6198267ae5c99f4505eb4e9c48719020ee/000000_000000/0000/tree_320.root
/eos/cms/store/group/phys_higgs/ec/hbb/ntuples/VHbbPostNano/UL/EFT/2018/bbfb67cbbb8c73486aeb8d54221231aee44f1a190f09747068fce183/000000_000000/0000/tree_321.root
/eos/cms/store/group/phys_higgs/ec/hbb/ntuples/VHbbPostNano/UL/EFT/2018/4a701d876cedaa30456c253fcb5f4f7d810a2cdf3586f40ea8827d95/000000_000000/0000/tree_322.root
/eos/cms/store/group/phys_higgs/ec/hbb/ntuples/VHbbPostNano/UL/EFT/2018/5f208c6810809616615bfdc300d33fbb23d5e7ea639d6fb26707eeb1/000000_000000/0000/tree_323.root
/eos/cms/store/group/phys_higgs/ec/hbb/ntuples/VHbbPostNano/UL/EFT/2018/b8eecf9faca533908c835613f10569efd2462c5009e51329be0d2cbe/000000_000000/0000/tree_324.root
/eos/cms/store/group/phys_higgs/ec/hbb/ntuples/VHbbPostNano/UL/EFT/2018/f6d5804966445cd92d6bbe49f93aff74ecee9c69f128be469617356e/000000_000000/0000/tree_325.root
/eos/cms/store/group/phys_higgs/ec/hbb/ntuples/VHbbPostNano/UL/EFT/2018/563db0be790b8b36af5bbda4859883fcd04e994c528ae994827596cb/000000_000000/0000/tree_326.root
/eos/cms/store/group/phys_higgs/ec/hbb/ntuples/VHbbPostNano/UL/EFT/2018/61f83cdb9a6f19d779b4c3eb40e0da6436d58c0e1351e63d09a5bec2/000000_000000/0000/tree_327.root
/eos/cms/store/group/phys_higgs/ec/hbb/ntuples/VHbbPostNano/UL/EFT/2018/0814e3ecc445bb755c797c8431581c93e0e10ff9dd02634087be4524/000000_000000/0000/tree_328.root
/eos/cms/store/group/phys_higgs/ec/hbb/ntuples/VHbbPostNano/UL/EFT/2018/ac655dc43140b08cca83ad0a2cf4f3bb9a55c1b3a207d52d0339b8ed/000000_000000/0000/tree_329.root
/eos/cms/store/group/phys_higgs/ec/hbb/ntuples/VHbbPostNano/UL/EFT/2018/68dd8132ec21fa9528ea7a804eef80a5b688bed90db893ee5b185396/000000_000000/0000/tree_330.root
/eos/cms/store/group/phys_higgs/ec/hbb/ntuples/VHbbPostNano/UL/EFT/2018/22613ba589fd52aeda6cb2fab94c1a7d9424f4bd0f91994799edb340/000000_000000/0000/tree_331.root
/eos/cms/store/group/phys_higgs/ec/hbb/ntuples/VHbbPostNano/UL/EFT/2018/3fbb8bb7e7bec7b5202922b0c0c5a2cfe9806facb35ac843c4fe36a7/000000_000000/0000/tree_332.root
/eos/cms/store/group/phys_higgs/ec/hbb/ntuples/VHbbPostNano/UL/EFT/2018/9a99f5052ee452e514cb4a7d04207d9f19ebb0a323b5c8a32b8bcb8d/000000_000000/0000/tree_333.root
/eos/cms/store/group/phys_higgs/ec/hbb/ntuples/VHbbPostNano/UL/EFT/2018/aab2337df10c7ec4a5b8ecdcd3fce9e883ed9570f2ec0eb6c53220ce/000000_000000/0000/tree_334.root
/eos/cms/store/group/phys_higgs/ec/hbb/ntuples/VHbbPostNano/UL/EFT/2018/d4fdcc7fe948f0eb2dd4bbf43634b3fafe38531c4251d893c59db79b/000000_000000/0000/tree_335.root
/eos/cms/store/group/phys_higgs/ec/hbb/ntuples/VHbbPostNano/UL/EFT/2018/ecbf712ae257b650558141684a4baf8e402f0171f1b95036c0020115/000000_000000/0000/tree_336.root
/eos/cms/store/group/phys_higgs/ec/hbb/ntuples/VHbbPostNano/UL/EFT/2018/9b6ba46d5a53558110789da1a845c1572df50a1e272c62596bc1e110/000000_000000/0000/tree_337.root
/eos/cms/store/group/phys_higgs/ec/hbb/ntuples/VHbbPostNano/UL/EFT/2018/743f2bf827969c824b5735bc6e7fa64054eed74f9f471a9cc3d2cf21/000000_000000/0000/tree_338.root
/eos/cms/store/group/phys_higgs/ec/hbb/ntuples/VHbbPostNano/UL/EFT/2018/227d615f938d9e506ded90d46da591cfcaa835182d81cabb0e2550c3/000000_000000/0000/tree_339.root
/eos/cms/store/group/phys_higgs/ec/hbb/ntuples/VHbbPostNano/UL/EFT/2018/a4290c58fb93d4cd973c936743281564fbaebfc53559c0684188f2b0/000000_000000/0000/tree_340.root
/eos/cms/store/group/phys_higgs/ec/hbb/ntuples/VHbbPostNano/UL/EFT/2018/1acd0b4389c2f284407339e4212d5f59cb8d10f1337a2429efb8d01f/000000_000000/0000/tree_341.root
/eos/cms/store/group/phys_higgs/ec/hbb/ntuples/VHbbPostNano/UL/EFT/2018/34c96365b100b373763d59992f674e7706261c4279d9163d67a807a0/000000_000000/0000/tree_342.root
/eos/cms/store/group/phys_higgs/ec/hbb/ntuples/VHbbPostNano/UL/EFT/2018/2267f00d1fd4e6b12c04c46305654874eb45af10af60a5057a2dca7e/000000_000000/0000/tree_343.root
/eos/cms/store/group/phys_higgs/ec/hbb/ntuples/VHbbPostNano/UL/EFT/2018/a4166806dc42bcb1367c8c28b87af111cb2aef6f9ef8c5f0367e5c2d/000000_000000/0000/tree_344.root
/eos/cms/store/group/phys_higgs/ec/hbb/ntuples/VHbbPostNano/UL/EFT/2018/69c347861b626f9a401eb0270a54058c645d891d6ee7b84f9cbd3830/000000_000000/0000/tree_345.root
/eos/cms/store/group/phys_higgs/ec/hbb/ntuples/VHbbPostNano/UL/EFT/2018/71a785949a27528d4fcbef4a7262c9e6c297fe8c67368f656178c7af/000000_000000/0000/tree_346.root
/eos/cms/store/group/phys_higgs/ec/hbb/ntuples/VHbbPostNano/UL/EFT/2018/87af226ab6e4116fa87ad32f1a26f0f323cc092a7b2203226246fe64/000000_000000/0000/tree_347.root
/eos/cms/store/group/phys_higgs/ec/hbb/ntuples/VHbbPostNano/UL/EFT/2018/3243a0bd512ef0d1732f76293eba398047010b3bd851044c38f433a2/000000_000000/0000/tree_348.root
/eos/cms/store/group/phys_higgs/ec/hbb/ntuples/VHbbPostNano/UL/EFT/2018/220163709355284e9599e59ae7694311b63ba1cbbd4292d47c45c051/000000_000000/0000/tree_349.root
/eos/cms/store/group/phys_higgs/ec/hbb/ntuples/VHbbPostNano/UL/EFT/2018/1ce318255c71067c7d36902c0921e93d2d921b8f82821adb7c2d1f0d/000000_000000/0000/tree_350.root
/eos/cms/store/group/phys_higgs/ec/hbb/ntuples/VHbbPostNano/UL/EFT/2018/efc443743f31cf3842a62f61cc857670436ba2996b691d9d960e4c42/000000_000000/0000/tree_351.root
/eos/cms/store/group/phys_higgs/ec/hbb/ntuples/VHbbPostNano/UL/EFT/2018/b85732927018e56621928ce2e084d40a50c76381f685299244c989a6/000000_000000/0000/tree_352.root
/eos/cms/store/group/phys_higgs/ec/hbb/ntuples/VHbbPostNano/UL/EFT/2018/5a4fb867ede703ca4c8408ee3ec145dcf44ab5ec6e2e8795c87d453e/000000_000000/0000/tree_353.root
/eos/cms/store/group/phys_higgs/ec/hbb/ntuples/VHbbPostNano/UL/EFT/2018/3066fb136c535d07e0215cdaede6461aef1d849e19be78d42f97bef0/000000_000000/0000/tree_354.root
/eos/cms/store/group/phys_higgs/ec/hbb/ntuples/VHbbPostNano/UL/EFT/2018/3cbd3dadb32b365f0900e8f60c841215043104587a38238c3be9c3c4/000000_000000/0000/tree_355.root
/eos/cms/store/group/phys_higgs/ec/hbb/ntuples/VHbbPostNano/UL/EFT/2018/fa003a69f408c6e9cfe487fd73d21a755a4ddc8ee5ecf394d60ab62d/000000_000000/0000/tree_356.root
/eos/cms/store/group/phys_higgs/ec/hbb/ntuples/VHbbPostNano/UL/EFT/2018/494853c8f28479895005cc513331d9c530caa8a3ccb1a4e446a1aac4/000000_000000/0000/tree_357.root
/eos/cms/store/group/phys_higgs/ec/hbb/ntuples/VHbbPostNano/UL/EFT/2018/3ec20ceb5fc48ba03ab510f9c0c17a069f6034837740fc171c65e73d/000000_000000/0000/tree_358.root
/eos/cms/store/group/phys_higgs/ec/hbb/ntuples/VHbbPostNano/UL/EFT/2018/cd31d4c51d26b8b24a986b2f10af75006998ca4a024c51929e30eb35/000000_000000/0000/tree_359.root
/eos/cms/store/group/phys_higgs/ec/hbb/ntuples/VHbbPostNano/UL/EFT/2018/6b8fa16c3ab1090cdb2677ad0c488537b7c9d11ab54dcfd96aa6b847/000000_000000/0000/tree_360.root
/eos/cms/store/group/phys_higgs/ec/hbb/ntuples/VHbbPostNano/UL/EFT/2018/0b2648d384cacf13e8ce971aab1498163220cafd533026bd40b068ed/000000_000000/0000/tree_361.root
/eos/cms/store/group/phys_higgs/ec/hbb/ntuples/VHbbPostNano/UL/EFT/2018/af5594fc51a47f102cc90bbad87cf2aaece7409235ac599f39d6c61e/000000_000000/0000/tree_362.root
/eos/cms/store/group/phys_higgs/ec/hbb/ntuples/VHbbPostNano/UL/EFT/2018/800bbcea1e7efb6159730084affd9f86e8994477df7c2dcc8002297f/000000_000000/0000/tree_363.root
/eos/cms/store/group/phys_higgs/ec/hbb/ntuples/VHbbPostNano/UL/EFT/2018/b75e2fac1977530af1978e09cfb517c5c403736fbc76ed6d55b04b82/000000_000000/0000/tree_364.root
/eos/cms/store/group/phys_higgs/ec/hbb/ntuples/VHbbPostNano/UL/EFT/2018/85a7fb08bf326056052c78ec27008162f97abad2aebe69f2a5cd9604/000000_000000/0000/tree_365.root
/eos/cms/store/group/phys_higgs/ec/hbb/ntuples/VHbbPostNano/UL/EFT/2018/e1238a492c52430458cb449a4d048286385d147cb58907665b0d21f6/000000_000000/0000/tree_366.root
/eos/cms/store/group/phys_higgs/ec/hbb/ntuples/VHbbPostNano/UL/EFT/2018/57d236d933f1309508701b60151575727fde9f717bc745a65efd090d/000000_000000/0000/tree_367.root
/eos/cms/store/group/phys_higgs/ec/hbb/ntuples/VHbbPostNano/UL/EFT/2018/5d428035e88d9150709e2cdeadc896bc7598fec1bd664b5cf6f545c7/000000_000000/0000/tree_368.root
/eos/cms/store/group/phys_higgs/ec/hbb/ntuples/VHbbPostNano/UL/EFT/2018/b7adecd7afa59df6ceccf5d41300e413f0e58d520f2c94c73938415e/000000_000000/0000/tree_369.root
/eos/cms/store/group/phys_higgs/ec/hbb/ntuples/VHbbPostNano/UL/EFT/2018/89b1f33a309a223512ec1bd95378ee962506d713ed8ad4b40b72952c/000000_000000/0000/tree_370.root
/eos/cms/store/group/phys_higgs/ec/hbb/ntuples/VHbbPostNano/UL/EFT/2018/4d1d257b7a1850757a604cee13078d419acbf360dbfb3e9b90e0ebf9/000000_000000/0000/tree_371.root
/eos/cms/store/group/phys_higgs/ec/hbb/ntuples/VHbbPostNano/UL/EFT/2018/9ccae57db176f3d87071fb9451d9b6ce5cd95f216045e1e4f6a75815/000000_000000/0000/tree_372.root
/eos/cms/store/group/phys_higgs/ec/hbb/ntuples/VHbbPostNano/UL/EFT/2018/08e0c5d300ae8839a63fbf781c0d22fe3624ba4d3fbae26747eb7b5b/000000_000000/0000/tree_373.root
/eos/cms/store/group/phys_higgs/ec/hbb/ntuples/VHbbPostNano/UL/EFT/2018/a576bdad2f13457d9679f8f954a34d1cc0e74ba95fddb0614b99f06a/000000_000000/0000/tree_374.root
/eos/cms/store/group/phys_higgs/ec/hbb/ntuples/VHbbPostNano/UL/EFT/2018/eb97b3f8089c1d89794eac7b99ed65e34da4821296befa1430be760a/000000_000000/0000/tree_375.root
/eos/cms/store/group/phys_higgs/ec/hbb/ntuples/VHbbPostNano/UL/EFT/2018/58175fabbc50118ee58370129e44d41e4b7a5a22ee05d124b3a40b40/000000_000000/0000/tree_376.root
/eos/cms/store/group/phys_higgs/ec/hbb/ntuples/VHbbPostNano/UL/EFT/2018/855c41ee7bfa16d7c3b0009b97e369f514522827227e9289d5446cf1/000000_000000/0000/tree_377.root
/eos/cms/store/group/phys_higgs/ec/hbb/ntuples/VHbbPostNano/UL/EFT/2018/ec6248781d572db0928ee8b9abd410697cd7c3e0b2e0bdb15a99b22a/000000_000000/0000/tree_378.root
/eos/cms/store/group/phys_higgs/ec/hbb/ntuples/VHbbPostNano/UL/EFT/2018/913231c76c34ae64014b763f0bfdf7e7ae4bbaa90986c992ee281b34/000000_000000/0000/tree_379.root
/eos/cms/store/group/phys_higgs/ec/hbb/ntuples/VHbbPostNano/UL/EFT/2018/6c887600e48aea78f748262efc036e8cbb5a3504d75249c21a54ec53/000000_000000/0000/tree_380.root
/eos/cms/store/group/phys_higgs/ec/hbb/ntuples/VHbbPostNano/UL/EFT/2018/5763d0650924f73817d5470fae98819e4aba31db6648e56f0ac581a9/000000_000000/0000/tree_381.root
/eos/cms/store/group/phys_higgs/ec/hbb/ntuples/VHbbPostNano/UL/EFT/2018/8638549c54f6a04e17a9933b6d17e057c3305c8e64a43bd234a76499/000000_000000/0000/tree_382.root
/eos/cms/store/group/phys_higgs/ec/hbb/ntuples/VHbbPostNano/UL/EFT/2018/26a6d50e4c288e4229debe26a161ec4e6c1db1d15712e6322ae18e26/000000_000000/0000/tree_383.root
/eos/cms/store/group/phys_higgs/ec/hbb/ntuples/VHbbPostNano/UL/EFT/2018/eb9dd05347a1e83f8e80cbc05adc3b01d7ee5cf01221e794b426945f/000000_000000/0000/tree_384.root
/eos/cms/store/group/phys_higgs/ec/hbb/ntuples/VHbbPostNano/UL/EFT/2018/aff209a4636e30ec22d79acd55d14eaac68a475f7012e586d161d669/000000_000000/0000/tree_385.root
/eos/cms/store/group/phys_higgs/ec/hbb/ntuples/VHbbPostNano/UL/EFT/2018/bbc7be55c78da44875487d5e740ae7a33a95e52a22ad03895e7e929b/000000_000000/0000/tree_386.root
/eos/cms/store/group/phys_higgs/ec/hbb/ntuples/VHbbPostNano/UL/EFT/2018/ed6778a36f9701c01c070bf2b55b5c1640b7fa71e589a243353592d8/000000_000000/0000/tree_387.root
/eos/cms/store/group/phys_higgs/ec/hbb/ntuples/VHbbPostNano/UL/EFT/2018/eb0ccc6816566c9ae51e486ba422253afc6742cdd6b48ca48448ab44/000000_000000/0000/tree_388.root
/eos/cms/store/group/phys_higgs/ec/hbb/ntuples/VHbbPostNano/UL/EFT/2018/f4835eed3fd7d436fe7c060787527cd27782c01e26bad86a362fac9f/000000_000000/0000/tree_389.root
/eos/cms/store/group/phys_higgs/ec/hbb/ntuples/VHbbPostNano/UL/EFT/2018/fef50e09b896c50ba6e166b392d7f1a35f0d7905fc4adb9de13d9630/000000_000000/0000/tree_390.root