/eos/cms/store/group/phys_higgs/hbb/ntuples/VHbbPostNano/UL/EFT/2018/V1/WJetsToLNu_Pt-100To250_MatchEWPDG20_TuneCP5_13TeV-amcatnloFXFX-pythia8/8016bacbfa71d3c4fd4c8e973f8cbc850cb0b74e72670bb6a1c58e51/000000_000000/0000/tree_0.root
/eos/cms/store/group/phys_higgs/hbb/ntuples/VHbbPostNano/UL/EFT/2018/V1/WJetsToLNu_Pt-100To250_MatchEWPDG20_TuneCP5_13TeV-amcatnloFXFX-pythia8/9dc66a8c41fbad475808357e2119bef6b7e345ad2899ff956395aaa8/000000_000000/0000/tree_1.root
/eos/cms/store/group/phys_higgs/hbb/ntuples/VHbbPostNano/UL/EFT/2018/V1/WJetsToLNu_Pt-100To250_MatchEWPDG20_TuneCP5_13TeV-amcatnloFXFX-pythia8/710b5a7a98e06b44d515ed3efb3bef8d6bd0137fc30895fbb9ebae53/000000_000000/0000/tree_2.root
/eos/cms/store/group/phys_higgs/hbb/ntuples/VHbbPostNano/UL/EFT/2018/V1/WJetsToLNu_Pt-100To250_MatchEWPDG20_TuneCP5_13TeV-amcatnloFXFX-pythia8/14d77e3ba9175311c02574e7788a745ec9584157ea11815b44786d63/000000_000000/0000/tree_3.root
/eos/cms/store/group/phys_higgs/hbb/ntuples/VHbbPostNano/UL/EFT/2018/V1/WJetsToLNu_Pt-100To250_MatchEWPDG20_TuneCP5_13TeV-amcatnloFXFX-pythia8/bb713e68f466e4bb8db1c963d3756bc3b164d29613323e61d802d7ce/000000_000000/0000/tree_4.root
/eos/cms/store/group/phys_higgs/hbb/ntuples/VHbbPostNano/UL/EFT/2018/V1/WJetsToLNu_Pt-100To250_MatchEWPDG20_TuneCP5_13TeV-amcatnloFXFX-pythia8/b2ddefd6432fbef7c86566e779c77e8f181e66460da672837a09ee75/000000_000000/0000/tree_5.root
/eos/cms/store/group/phys_higgs/hbb/ntuples/VHbbPostNano/UL/EFT/2018/V1/WJetsToLNu_Pt-100To250_MatchEWPDG20_TuneCP5_13TeV-amcatnloFXFX-pythia8/d907bb30b122a185821f13aa7050f49a35ef0b6fe2b3fd00ddb946cb/000000_000000/0000/tree_6.root
/eos/cms/store/group/phys_higgs/hbb/ntuples/VHbbPostNano/UL/EFT/2018/V1/WJetsToLNu_Pt-100To250_MatchEWPDG20_TuneCP5_13TeV-amcatnloFXFX-pythia8/68cdeec15b0338ead7927c6c7c27501949fe8a852cf524ca61fef4a8/000000_000000/0000/tree_7.root
/eos/cms/store/group/phys_higgs/hbb/ntuples/VHbbPostNano/UL/EFT/2018/V1/WJetsToLNu_Pt-100To250_MatchEWPDG20_TuneCP5_13TeV-amcatnloFXFX-pythia8/2c30f032596aabd8916de869872f766a290698f28ea26a18df6b6af4/000000_000000/0000/tree_8.root
/eos/cms/store/group/phys_higgs/hbb/ntuples/VHbbPostNano/UL/EFT/2018/V1/WJetsToLNu_Pt-100To250_MatchEWPDG20_TuneCP5_13TeV-amcatnloFXFX-pythia8/3456b2113a20d330e60f1b562686ed09f09e3b101dde986abbaaf6b3/000000_000000/0000/tree_9.root
/eos/cms/store/group/phys_higgs/hbb/ntuples/VHbbPostNano/UL/EFT/2018/V1/WJetsToLNu_Pt-100To250_MatchEWPDG20_TuneCP5_13TeV-amcatnloFXFX-pythia8/6b36ce7e5b43e9fb4eee0e85067d775ebc3772cfad94f32f23b280dd/000000_000000/0000/tree_10.root
/eos/cms/store/group/phys_higgs/hbb/ntuples/VHbbPostNano/UL/EFT/2018/V1/WJetsToLNu_Pt-100To250_MatchEWPDG20_TuneCP5_13TeV-amcatnloFXFX-pythia8/edfe1aba74602d511ccbc9e6327edf243ffcc852e43c564ea54ef4ae/000000_000000/0000/tree_11.root
/eos/cms/store/group/phys_higgs/hbb/ntuples/VHbbPostNano/UL/EFT/2018/V1/WJetsToLNu_Pt-100To250_MatchEWPDG20_TuneCP5_13TeV-amcatnloFXFX-pythia8/0c5550b1a3f71734dcfc649f45cda1010df3c1ce204b01190479faee/000000_000000/0000/tree_12.root
/eos/cms/store/group/phys_higgs/hbb/ntuples/VHbbPostNano/UL/EFT/2018/V1/WJetsToLNu_Pt-100To250_MatchEWPDG20_TuneCP5_13TeV-amcatnloFXFX-pythia8/e99570c7666efa764b2dab2e81762da200804d5f4416d0f804aa072f/000000_000000/0000/tree_13.root
/eos/cms/store/group/phys_higgs/hbb/ntuples/VHbbPostNano/UL/EFT/2018/V1/WJetsToLNu_Pt-100To250_MatchEWPDG20_TuneCP5_13TeV-amcatnloFXFX-pythia8/c27aa82cd4b91c82524f8a46ede8fa6f5f25a707caf2c6aab901ac61/000000_000000/0000/tree_14.root
/eos/cms/store/group/phys_higgs/hbb/ntuples/VHbbPostNano/UL/EFT/2018/V1/WJetsToLNu_Pt-100To250_MatchEWPDG20_TuneCP5_13TeV-amcatnloFXFX-pythia8/f83b2bf36778d3679a81134cb337561b7c6be9ab265e557c7128e2df/000000_000000/0000/tree_15.root
/eos/cms/store/group/phys_higgs/hbb/ntuples/VHbbPostNano/UL/EFT/2018/V1/WJetsToLNu_Pt-100To250_MatchEWPDG20_TuneCP5_13TeV-amcatnloFXFX-pythia8/4f8b8c2e96df7e39a4ae9d763fb3408edb0d99589c1ad73bdfd1a556/000000_000000/0000/tree_16.root
/eos/cms/store/group/phys_higgs/hbb/ntuples/VHbbPostNano/UL/EFT/2018/V1/WJetsToLNu_Pt-100To250_MatchEWPDG20_TuneCP5_13TeV-amcatnloFXFX-pythia8/71d716f9b5979136ee99c0c4c281f1378942f9f8a770e0962b03fe60/000000_000000/0000/tree_17.root
/eos/cms/store/group/phys_higgs/hbb/ntuples/VHbbPostNano/UL/EFT/2018/V1/WJetsToLNu_Pt-100To250_MatchEWPDG20_TuneCP5_13TeV-amcatnloFXFX-pythia8/8d4118d001541ded7e6c1022626c00611e45b7ad961cabf31e129fa1/000000_000000/0000/tree_18.root
/eos/cms/store/group/phys_higgs/hbb/ntuples/VHbbPostNano/UL/EFT/2018/V1/WJetsToLNu_Pt-100To250_MatchEWPDG20_TuneCP5_13TeV-amcatnloFXFX-pythia8/31ed42b1e3ef887fec62c91ac48c9f755f364dbf05dc514e3094f8fe/000000_000000/0000/tree_19.root
/eos/cms/store/group/phys_higgs/hbb/ntuples/VHbbPostNano/UL/EFT/2018/V1/WJetsToLNu_Pt-100To250_MatchEWPDG20_TuneCP5_13TeV-amcatnloFXFX-pythia8/0f8ad184387fe7c31f4c2b0f229d4ed1c9c0be5b44444dd4b767c0ad/000000_000000/0000/tree_20.root
/eos/cms/store/group/phys_higgs/hbb/ntuples/VHbbPostNano/UL/EFT/2018/V1/WJetsToLNu_Pt-100To250_MatchEWPDG20_TuneCP5_13TeV-amcatnloFXFX-pythia8/f8842f4e01bfde2685ddfc7f61a5becbde005edcc3067cd4c88902d7/000000_000000/0000/tree_21.root
/eos/cms/store/group/phys_higgs/hbb/ntuples/VHbbPostNano/UL/EFT/2018/V1/WJetsToLNu_Pt-100To250_MatchEWPDG20_TuneCP5_13TeV-amcatnloFXFX-pythia8/de6d06d0b0b17116dcd0b7bc49f028b871dd61c32191296b48189771/000000_000000/0000/tree_22.root
/eos/cms/store/group/phys_higgs/hbb/ntuples/VHbbPostNano/UL/EFT/2018/V1/WJetsToLNu_Pt-100To250_MatchEWPDG20_TuneCP5_13TeV-amcatnloFXFX-pythia8/8dcd6bbbbeca64054d6563e14978c9f685a33b01d816ee1234512e21/000000_000000/0000/tree_23.root
/eos/cms/store/group/phys_higgs/hbb/ntuples/VHbbPostNano/UL/EFT/2018/V1/WJetsToLNu_Pt-100To250_MatchEWPDG20_TuneCP5_13TeV-amcatnloFXFX-pythia8/5c5349cfccfd696f8ec73fc03db80037ed66f2ad251a2dd912e451fe/000000_000000/0000/tree_24.root
/eos/cms/store/group/phys_higgs/hbb/ntuples/VHbbPostNano/UL/EFT/2018/V1/WJetsToLNu_Pt-100To250_MatchEWPDG20_TuneCP5_13TeV-amcatnloFXFX-pythia8/54ba3c62796a59a29de2ff32dc930119e62350e272368a2f26fd0b40/000000_000000/0000/tree_25.root
/eos/cms/store/group/phys_higgs/hbb/ntuples/VHbbPostNano/UL/EFT/2018/V1/WJetsToLNu_Pt-100To250_MatchEWPDG20_TuneCP5_13TeV-amcatnloFXFX-pythia8/a7331f463461121f21303369f891054f41c43fd5a94e503901c39d0f/000000_000000/0000/tree_26.root
/eos/cms/store/group/phys_higgs/hbb/ntuples/VHbbPostNano/UL/EFT/2018/V1/WJetsToLNu_Pt-100To250_MatchEWPDG20_TuneCP5_13TeV-amcatnloFXFX-pythia8/220aad585aa924a0a3de2e746ae86defdffa6cf91ab8d4a774d711d4/000000_000000/0000/tree_27.root
/eos/cms/store/group/phys_higgs/hbb/ntuples/VHbbPostNano/UL/EFT/2018/V1/WJetsToLNu_Pt-100To250_MatchEWPDG20_TuneCP5_13TeV-amcatnloFXFX-pythia8/43fadc6be23eefeb345e4b2891538816f0ad58e9e8905155ca4eefd7/000000_000000/0000/tree_28.root
/eos/cms/store/group/phys_higgs/hbb/ntuples/VHbbPostNano/UL/EFT/2018/V1/WJetsToLNu_Pt-100To250_MatchEWPDG20_TuneCP5_13TeV-amcatnloFXFX-pythia8/311951fbf0777fda47ea67dee47ecf1be624a558113a4a76e1007357/000000_000000/0000/tree_29.root
/eos/cms/store/group/phys_higgs/hbb/ntuples/VHbbPostNano/UL/EFT/2018/V1/WJetsToLNu_Pt-100To250_MatchEWPDG20_TuneCP5_13TeV-amcatnloFXFX-pythia8/5ba952a84a2ca797cec46539c6ac41d0c0cf51475a59d029276be590/000000_000000/0000/tree_30.root
/eos/cms/store/group/phys_higgs/hbb/ntuples/VHbbPostNano/UL/EFT/2018/V1/WJetsToLNu_Pt-100To250_MatchEWPDG20_TuneCP5_13TeV-amcatnloFXFX-pythia8/9896bf62a8564487244b86102edc355d15cb60779f0eb84c5a8e2be7/000000_000000/0000/tree_31.root
/eos/cms/store/group/phys_higgs/hbb/ntuples/VHbbPostNano/UL/EFT/2018/V1/WJetsToLNu_Pt-100To250_MatchEWPDG20_TuneCP5_13TeV-amcatnloFXFX-pythia8/c262a3236cce3acba0c60c1d258e8d2330b1f806754ef6236e2f1b46/000000_000000/0000/tree_32.root
/eos/cms/store/group/phys_higgs/hbb/ntuples/VHbbPostNano/UL/EFT/2018/V1/WJetsToLNu_Pt-100To250_MatchEWPDG20_TuneCP5_13TeV-amcatnloFXFX-pythia8/4cb745d6b5e132c919217b3358fb5d7ee555d59cd5536cba43b83795/000000_000000/0000/tree_33.root
/eos/cms/store/group/phys_higgs/hbb/ntuples/VHbbPostNano/UL/EFT/2018/V1/WJetsToLNu_Pt-100To250_MatchEWPDG20_TuneCP5_13TeV-amcatnloFXFX-pythia8/eb4331691b14448a9520cd1c5b6f9e0ca7382eba153e14cf02be9449/000000_000000/0000/tree_34.root
/eos/cms/store/group/phys_higgs/hbb/ntuples/VHbbPostNano/UL/EFT/2018/V1/WJetsToLNu_Pt-100To250_MatchEWPDG20_TuneCP5_13TeV-amcatnloFXFX-pythia8/c5f4f142d48b523f888c7e5820f0a15c8db9feb9753e28b16f1a995d/000000_000000/0000/tree_35.root
/eos/cms/store/group/phys_higgs/hbb/ntuples/VHbbPostNano/UL/EFT/2018/V1/WJetsToLNu_Pt-100To250_MatchEWPDG20_TuneCP5_13TeV-amcatnloFXFX-pythia8/6c004dcfe2d1024dde9fa36f1baa7047e26bbf4987bb0a24fb2cb22e/000000_000000/0000/tree_36.root
/eos/cms/store/group/phys_higgs/hbb/ntuples/VHbbPostNano/UL/EFT/2018/V1/WJetsToLNu_Pt-100To250_MatchEWPDG20_TuneCP5_13TeV-amcatnloFXFX-pythia8/8185728606d861f19504ba11c02559434e25c91b0bec0a0449752b12/000000_000000/0000/tree_37.root
/eos/cms/store/group/phys_higgs/hbb/ntuples/VHbbPostNano/UL/EFT/2018/V1/WJetsToLNu_Pt-100To250_MatchEWPDG20_TuneCP5_13TeV-amcatnloFXFX-pythia8/51b9c11b92ffd9f6da823a2b9639a17d71aa65f5a1ef4034cab4bd14/000000_000000/0000/tree_38.root
/eos/cms/store/group/phys_higgs/hbb/ntuples/VHbbPostNano/UL/EFT/2018/V1/WJetsToLNu_Pt-100To250_MatchEWPDG20_TuneCP5_13TeV-amcatnloFXFX-pythia8/07aa5e8b0b7f170b19eca6022f525ef46df0d224522f0c1109cb8b7f/000000_000000/0000/tree_39.root
/eos/cms/store/group/phys_higgs/hbb/ntuples/VHbbPostNano/UL/EFT/2018/V1/WJetsToLNu_Pt-100To250_MatchEWPDG20_TuneCP5_13TeV-amcatnloFXFX-pythia8/2759da4e19ecd3a60b39ee33f9aa49ea3620350d6fc1144680be3f6b/000000_000000/0000/tree_40.root
/eos/cms/store/group/phys_higgs/hbb/ntuples/VHbbPostNano/UL/EFT/2018/V1/WJetsToLNu_Pt-100To250_MatchEWPDG20_TuneCP5_13TeV-amcatnloFXFX-pythia8/e375acc5dc7e095ce935ef7886606fcdb65903455e725c1d3b6c7be2/000000_000000/0000/tree_41.root
/eos/cms/store/group/phys_higgs/hbb/ntuples/VHbbPostNano/UL/EFT/2018/V1/WJetsToLNu_Pt-100To250_MatchEWPDG20_TuneCP5_13TeV-amcatnloFXFX-pythia8/2e3983464a0b2f707a3a0dd443a68dc7a184d11bde09f34b5e7a18e2/000000_000000/0000/tree_42.root
/eos/cms/store/group/phys_higgs/hbb/ntuples/VHbbPostNano/UL/EFT/2018/V1/WJetsToLNu_Pt-100To250_MatchEWPDG20_TuneCP5_13TeV-amcatnloFXFX-pythia8/e57e48abed1e4d766f91de96289bca41bce08314760412e9dc1abe25/000000_000000/0000/tree_43.root
/eos/cms/store/group/phys_higgs/hbb/ntuples/VHbbPostNano/UL/EFT/2018/V1/WJetsToLNu_Pt-100To250_MatchEWPDG20_TuneCP5_13TeV-amcatnloFXFX-pythia8/8d0f5fc53cec2d87488c3cd49c4dcb32eabf1144ff63d62fa0105325/000000_000000/0000/tree_44.root
/eos/cms/store/group/phys_higgs/hbb/ntuples/VHbbPostNano/UL/EFT/2018/V1/WJetsToLNu_Pt-100To250_MatchEWPDG20_TuneCP5_13TeV-amcatnloFXFX-pythia8/9a956460249d1323f98f37180175ba712caf24b670bd9596eb51081c/000000_000000/0000/tree_45.root
/eos/cms/store/group/phys_higgs/hbb/ntuples/VHbbPostNano/UL/EFT/2018/V1/WJetsToLNu_Pt-100To250_MatchEWPDG20_TuneCP5_13TeV-amcatnloFXFX-pythia8/57e9cc54414cbb92af274a38c13bdc4f5c35a7f65478f7c9ebfe1e75/000000_000000/0000/tree_46.root
/eos/cms/store/group/phys_higgs/hbb/ntuples/VHbbPostNano/UL/EFT/2018/V1/WJetsToLNu_Pt-100To250_MatchEWPDG20_TuneCP5_13TeV-amcatnloFXFX-pythia8/09bdf01cca34ebfc8c404983137179259040aa5b48d0c299b2f8e8f4/000000_000000/0000/tree_47.root
/eos/cms/store/group/phys_higgs/hbb/ntuples/VHbbPostNano/UL/EFT/2018/V1/WJetsToLNu_Pt-100To250_MatchEWPDG20_TuneCP5_13TeV-amcatnloFXFX-pythia8/aca1cef787d45a8e9a1682c746924f411875931d5bb6cfbf284eaa37/000000_000000/0000/tree_48.root
/eos/cms/store/group/phys_higgs/hbb/ntuples/VHbbPostNano/UL/EFT/2018/V1/WJetsToLNu_Pt-100To250_MatchEWPDG20_TuneCP5_13TeV-amcatnloFXFX-pythia8/eed29b603d0e28ab04e5ee4853745e4ec57e818eeaf936c05f21660c/000000_000000/0000/tree_49.root
/eos/cms/store/group/phys_higgs/hbb/ntuples/VHbbPostNano/UL/EFT/2018/V1/WJetsToLNu_Pt-100To250_MatchEWPDG20_TuneCP5_13TeV-amcatnloFXFX-pythia8/0240e23e226e3b6e784d5954146ea97d0673c44a1a68ad1a1efd897b/000000_000000/0000/tree_50.root
/eos/cms/store/group/phys_higgs/hbb/ntuples/VHbbPostNano/UL/EFT/2018/V1/WJetsToLNu_Pt-100To250_MatchEWPDG20_TuneCP5_13TeV-amcatnloFXFX-pythia8/7225a0d42812cb6b3b2f8569c3675ae9888171a8a54019cc7d284c55/000000_000000/0000/tree_51.root
/eos/cms/store/group/phys_higgs/hbb/ntuples/VHbbPostNano/UL/EFT/2018/V1/WJetsToLNu_Pt-100To250_MatchEWPDG20_TuneCP5_13TeV-amcatnloFXFX-pythia8/2d9813a08a5b325a9e268b5cdbb9ff6d8d042f58231138ff2a60e76f/000000_000000/0000/tree_52.root
/eos/cms/store/group/phys_higgs/hbb/ntuples/VHbbPostNano/UL/EFT/2018/V1/WJetsToLNu_Pt-100To250_MatchEWPDG20_TuneCP5_13TeV-amcatnloFXFX-pythia8/5d197a6832f53bcbb18258032e76e826bcb8d92bf302fedb796e36bb/000000_000000/0000/tree_53.root
/eos/cms/store/group/phys_higgs/hbb/ntuples/VHbbPostNano/UL/EFT/2018/V1/WJetsToLNu_Pt-100To250_MatchEWPDG20_TuneCP5_13TeV-amcatnloFXFX-pythia8/97d9f95b55024c3f292e1a24ad7777b694027cda7565aab365aa1823/000000_000000/0000/tree_54.root
/eos/cms/store/group/phys_higgs/hbb/ntuples/VHbbPostNano/UL/EFT/2018/V1/WJetsToLNu_Pt-100To250_MatchEWPDG20_TuneCP5_13TeV-amcatnloFXFX-pythia8/9c1cf21675e6d9ad60a663649bcfe9a7b502044c8a5be48bd73bb522/000000_000000/0000/tree_55.root
/eos/cms/store/group/phys_higgs/hbb/ntuples/VHbbPostNano/UL/EFT/2018/V1/WJetsToLNu_Pt-100To250_MatchEWPDG20_TuneCP5_13TeV-amcatnloFXFX-pythia8/9805fd6d9628e1d41358deb4b0c54a43453ed03fe2ee6e9c1fd76fea/000000_000000/0000/tree_56.root
/eos/cms/store/group/phys_higgs/hbb/ntuples/VHbbPostNano/UL/EFT/2018/V1/WJetsToLNu_Pt-100To250_MatchEWPDG20_TuneCP5_13TeV-amcatnloFXFX-pythia8/28ce4f52d96e5f5ad586fbbb4388f9d31c8748d48a305d80bf8ef168/000000_000000/0000/tree_57.root
/eos/cms/store/group/phys_higgs/hbb/ntuples/VHbbPostNano/UL/EFT/2018/V1/WJetsToLNu_Pt-100To250_MatchEWPDG20_TuneCP5_13TeV-amcatnloFXFX-pythia8/12c4c44a3eb701956184e84d576597dada81baa04792d58c7889fbea/000000_000000/0000/tree_58.root
/eos/cms/store/group/phys_higgs/hbb/ntuples/VHbbPostNano/UL/EFT/2018/V1/WJetsToLNu_Pt-100To250_MatchEWPDG20_TuneCP5_13TeV-amcatnloFXFX-pythia8/9d61b8a458a0cbf6f816d7afe5e3372cf49a0348c42128fb9e8af42f/000000_000000/0000/tree_59.root
/eos/cms/store/group/phys_higgs/hbb/ntuples/VHbbPostNano/UL/EFT/2018/V1/WJetsToLNu_Pt-100To250_MatchEWPDG20_TuneCP5_13TeV-amcatnloFXFX-pythia8/bab9de58f0df17f9970e2954a239db9db7e87ed0a25687ab67ea042e/000000_000000/0000/tree_60.root
/eos/cms/store/group/phys_higgs/hbb/ntuples/VHbbPostNano/UL/EFT/2018/V1/WJetsToLNu_Pt-100To250_MatchEWPDG20_TuneCP5_13TeV-amcatnloFXFX-pythia8/5f50c9a1380d4d3e97e01a1a61a1918359ad9a97fefae9a4a74a6bd1/000000_000000/0000/tree_61.root
/eos/cms/store/group/phys_higgs/hbb/ntuples/VHbbPostNano/UL/EFT/2018/V1/WJetsToLNu_Pt-100To250_MatchEWPDG20_TuneCP5_13TeV-amcatnloFXFX-pythia8/d8002fc8d8ab2c81f9a2564f7345d1100bf72c08474273f4b5f0cacb/000000_000000/0000/tree_62.root
/eos/cms/store/group/phys_higgs/hbb/ntuples/VHbbPostNano/UL/EFT/2018/V1/WJetsToLNu_Pt-100To250_MatchEWPDG20_TuneCP5_13TeV-amcatnloFXFX-pythia8/115ecb62fdc725b7c3e286c331fd40a0ba89d1a7883d44b6572afd59/000000_000000/0000/tree_63.root
/eos/cms/store/group/phys_higgs/hbb/ntuples/VHbbPostNano/UL/EFT/2018/V1/WJetsToLNu_Pt-100To250_MatchEWPDG20_TuneCP5_13TeV-amcatnloFXFX-pythia8/db9670280be8b47a34ef58bb83a6278d381e056e2e76c7860dc31259/000000_000000/0000/tree_64.root
/eos/cms/store/group/phys_higgs/hbb/ntuples/VHbbPostNano/UL/EFT/2018/V1/WJetsToLNu_Pt-100To250_MatchEWPDG20_TuneCP5_13TeV-amcatnloFXFX-pythia8/8de9103605098e5f63d26a16140a99a66f86d7f3f6d88a70a4798dce/000000_000000/0000/tree_65.root
/eos/cms/store/group/phys_higgs/hbb/ntuples/VHbbPostNano/UL/EFT/2018/V1/WJetsToLNu_Pt-100To250_MatchEWPDG20_TuneCP5_13TeV-amcatnloFXFX-pythia8/784f755720ce12ded141a0c0408c39660c69dc057954d4a063fc5234/000000_000000/0000/tree_66.root
/eos/cms/store/group/phys_higgs/hbb/ntuples/VHbbPostNano/UL/EFT/2018/V1/WJetsToLNu_Pt-100To250_MatchEWPDG20_TuneCP5_13TeV-amcatnloFXFX-pythia8/5b3b1acd522a3afe486b455eae2bdfced024d6d99308e068ca304f3f/000000_000000/0000/tree_67.root
/eos/cms/store/group/phys_higgs/hbb/ntuples/VHbbPostNano/UL/EFT/2018/V1/WJetsToLNu_Pt-100To250_MatchEWPDG20_TuneCP5_13TeV-amcatnloFXFX-pythia8/3f94babe93278d100c3d5de9bcab1a5ca55a5608ec36ddae6bba0f3b/000000_000000/0000/tree_68.root
/eos/cms/store/group/phys_higgs/hbb/ntuples/VHbbPostNano/UL/EFT/2018/V1/WJetsToLNu_Pt-100To250_MatchEWPDG20_TuneCP5_13TeV-amcatnloFXFX-pythia8/431f1d824abf8aebc79118b95bb2aa1c166eaff816533cad38b9f99f/000000_000000/0000/tree_69.root
/eos/cms/store/group/phys_higgs/hbb/ntuples/VHbbPostNano/UL/EFT/2018/V1/WJetsToLNu_Pt-100To250_MatchEWPDG20_TuneCP5_13TeV-amcatnloFXFX-pythia8/910208245e4e4c613a5a5a15fc3b9ee433932f294bf57da349162fd1/000000_000000/0000/tree_70.root
/eos/cms/store/group/phys_higgs/hbb/ntuples/VHbbPostNano/UL/EFT/2018/V1/WJetsToLNu_Pt-100To250_MatchEWPDG20_TuneCP5_13TeV-amcatnloFXFX-pythia8/652f74ac95bdc3b027c7753070bd40dabc6f653292dddd7ddf4ab718/000000_000000/0000/tree_71.root
/eos/cms/store/group/phys_higgs/hbb/ntuples/VHbbPostNano/UL/EFT/2018/V1/WJetsToLNu_Pt-100To250_MatchEWPDG20_TuneCP5_13TeV-amcatnloFXFX-pythia8/28026d7842d355c32378265a52e1fd857e285e7521ca3965e63b703a/000000_000000/0000/tree_72.root
/eos/cms/store/group/phys_higgs/hbb/ntuples/VHbbPostNano/UL/EFT/2018/V1/WJetsToLNu_Pt-100To250_MatchEWPDG20_TuneCP5_13TeV-amcatnloFXFX-pythia8/42b164ac51bd4dd3fab6788c9aa7efb63ad76bc4fd768203504d3074/000000_000000/0000/tree_73.root
/eos/cms/store/group/phys_higgs/hbb/ntuples/VHbbPostNano/UL/EFT/2018/V1/WJetsToLNu_Pt-100To250_MatchEWPDG20_TuneCP5_13TeV-amcatnloFXFX-pythia8/fd8bc40da45b10baf681e8daa04396a2101448f07b236dfe53c08640/000000_000000/0000/tree_74.root
/eos/cms/store/group/phys_higgs/hbb/ntuples/VHbbPostNano/UL/EFT/2018/V1/WJetsToLNu_Pt-100To250_MatchEWPDG20_TuneCP5_13TeV-amcatnloFXFX-pythia8/210dfdc96445afda571d1a368a37653d04366fce96ecd6afced0e1a9/000000_000000/0000/tree_75.root
/eos/cms/store/group/phys_higgs/hbb/ntuples/VHbbPostNano/UL/EFT/2018/V1/WJetsToLNu_Pt-100To250_MatchEWPDG20_TuneCP5_13TeV-amcatnloFXFX-pythia8/c4ea8a3799dd1fa76cec4fcd4ba2b6beb60d3cba3b20bd14a4ebd761/000000_000000/0000/tree_76.root
/eos/cms/store/group/phys_higgs/hbb/ntuples/VHbbPostNano/UL/EFT/2018/V1/WJetsToLNu_Pt-100To250_MatchEWPDG20_TuneCP5_13TeV-amcatnloFXFX-pythia8/ff20adba61d70ef28caea327b12265051f0078fe301ad2794d94a15c/000000_000000/0000/tree_77.root
/eos/cms/store/group/phys_higgs/hbb/ntuples/VHbbPostNano/UL/EFT/2018/V1/WJetsToLNu_Pt-100To250_MatchEWPDG20_TuneCP5_13TeV-amcatnloFXFX-pythia8/f2b5e14042e2e307e0c79f457abdfe4d514cacaa04b5bcba35913f05/000000_000000/0000/tree_78.root
/eos/cms/store/group/phys_higgs/hbb/ntuples/VHbbPostNano/UL/EFT/2018/V1/WJetsToLNu_Pt-100To250_MatchEWPDG20_TuneCP5_13TeV-amcatnloFXFX-pythia8/eed61a101c8a4a7a9f1c0b2088e8904de2c5537a4115e1bd0dea904d/000000_000000/0000/tree_79.root
/eos/cms/store/group/phys_higgs/hbb/ntuples/VHbbPostNano/UL/EFT/2018/V1/WJetsToLNu_Pt-100To250_MatchEWPDG20_TuneCP5_13TeV-amcatnloFXFX-pythia8/876972ef807dcf291e870dcdd41b41f327eaaf3dede1d074a1bb085f/000000_000000/0000/tree_80.root
/eos/cms/store/group/phys_higgs/hbb/ntuples/VHbbPostNano/UL/EFT/2018/V1/WJetsToLNu_Pt-100To250_MatchEWPDG20_TuneCP5_13TeV-amcatnloFXFX-pythia8/2f1105713efef7b6a328cfa57472a13ec03233476ae565cd1d65528a/000000_000000/0000/tree_81.root
/eos/cms/store/group/phys_higgs/hbb/ntuples/VHbbPostNano/UL/EFT/2018/V1/WJetsToLNu_Pt-100To250_MatchEWPDG20_TuneCP5_13TeV-amcatnloFXFX-pythia8/90008549086b1a2b662c2331a960b22bcef8ed5c7d98dc6c604e729f/000000_000000/0000/tree_82.root
/eos/cms/store/group/phys_higgs/hbb/ntuples/VHbbPostNano/UL/EFT/2018/V1/WJetsToLNu_Pt-100To250_MatchEWPDG20_TuneCP5_13TeV-amcatnloFXFX-pythia8/b2ca1604de7c9de4487bf4f590c81b485633ae444636e69891274b69/000000_000000/0000/tree_83.root
/eos/cms/store/group/phys_higgs/hbb/ntuples/VHbbPostNano/UL/EFT/2018/V1/WJetsToLNu_Pt-100To250_MatchEWPDG20_TuneCP5_13TeV-amcatnloFXFX-pythia8/599d51a433795f20953c87c5541700d3d91ac1a92307fbd48d3a225b/000000_000000/0000/tree_84.root
/eos/cms/store/group/phys_higgs/hbb/ntuples/VHbbPostNano/UL/EFT/2018/V1/WJetsToLNu_Pt-100To250_MatchEWPDG20_TuneCP5_13TeV-amcatnloFXFX-pythia8/83477dcb2a5ceb1a337a82b32fbbfaa675c69b024580017b8e539a0d/000000_000000/0000/tree_85.root
/eos/cms/store/group/phys_higgs/hbb/ntuples/VHbbPostNano/UL/EFT/2018/V1/WJetsToLNu_Pt-100To250_MatchEWPDG20_TuneCP5_13TeV-amcatnloFXFX-pythia8/c5599057bd6d395b9e44337e37ce786fab3b11006d58b786d6c77827/000000_000000/0000/tree_86.root
/eos/cms/store/group/phys_higgs/hbb/ntuples/VHbbPostNano/UL/EFT/2018/V1/WJetsToLNu_Pt-100To250_MatchEWPDG20_TuneCP5_13TeV-amcatnloFXFX-pythia8/be1cf1d2c945c492288f86e9b69047e6c71e8861c6c06c5415a2b99d/000000_000000/0000/tree_87.root
/eos/cms/store/group/phys_higgs/hbb/ntuples/VHbbPostNano/UL/EFT/2018/V1/WJetsToLNu_Pt-100To250_MatchEWPDG20_TuneCP5_13TeV-amcatnloFXFX-pythia8/6625b8edad0fa5961b8a591846c64ca8530f0e806b69e5a396a9eacc/000000_000000/0000/tree_88.root
/eos/cms/store/group/phys_higgs/hbb/ntuples/VHbbPostNano/UL/EFT/2018/V1/WJetsToLNu_Pt-100To250_MatchEWPDG20_TuneCP5_13TeV-amcatnloFXFX-pythia8/6452809da784e74d36a01b2016d285553fef3f7231de7f4422a2c71d/000000_000000/0000/tree_89.root
/eos/cms/store/group/phys_higgs/hbb/ntuples/VHbbPostNano/UL/EFT/2018/V1/WJetsToLNu_Pt-100To250_MatchEWPDG20_TuneCP5_13TeV-amcatnloFXFX-pythia8/aff6b2df45b408e31caf521dc488e5cf04c68faefe3a3dacc3a7e9a3/000000_000000/0000/tree_90.root
/eos/cms/store/group/phys_higgs/hbb/ntuples/VHbbPostNano/UL/EFT/2018/V1/WJetsToLNu_Pt-100To250_MatchEWPDG20_TuneCP5_13TeV-amcatnloFXFX-pythia8/42bc224416ffa8db8c20032088355834c65c1dbb12489b9d77605537/000000_000000/0000/tree_91.root
/eos/cms/store/group/phys_higgs/hbb/ntuples/VHbbPostNano/UL/EFT/2018/V1/WJetsToLNu_Pt-100To250_MatchEWPDG20_TuneCP5_13TeV-amcatnloFXFX-pythia8/02f010a6dc1e4b2e428cc033b81fd60b75f7f1b1315cffb2e3a88e92/000000_000000/0000/tree_92.root
/eos/cms/store/group/phys_higgs/hbb/ntuples/VHbbPostNano/UL/EFT/2018/V1/WJetsToLNu_Pt-100To250_MatchEWPDG20_TuneCP5_13TeV-amcatnloFXFX-pythia8/f03cb35085c87047b68872f2e6c3bc6b6ec0d85859cfb8e97b3227d2/000000_000000/0000/tree_93.root
/eos/cms/store/group/phys_higgs/hbb/ntuples/VHbbPostNano/UL/EFT/2018/V1/WJetsToLNu_Pt-100To250_MatchEWPDG20_TuneCP5_13TeV-amcatnloFXFX-pythia8/cdef613df60a31f2ff7f38ce4ae762b2cf401b78c3280d8f1b6ed2d6/000000_000000/0000/tree_94.root
/eos/cms/store/group/phys_higgs/hbb/ntuples/VHbbPostNano/UL/EFT/2018/V1/WJetsToLNu_Pt-100To250_MatchEWPDG20_TuneCP5_13TeV-amcatnloFXFX-pythia8/21906cbc34ee6bdfdffa4404276e936616d963766d5f8da3cf7c2f14/000000_000000/0000/tree_95.root
/eos/cms/store/group/phys_higgs/hbb/ntuples/VHbbPostNano/UL/EFT/2018/V1/WJetsToLNu_Pt-100To250_MatchEWPDG20_TuneCP5_13TeV-amcatnloFXFX-pythia8/21ece4c7d7c57beceed29a8b06645edf781bb3293b69f1868027c12f/000000_000000/0000/tree_96.root
/eos/cms/store/group/phys_higgs/hbb/ntuples/VHbbPostNano/UL/EFT/2018/V1/WJetsToLNu_Pt-100To250_MatchEWPDG20_TuneCP5_13TeV-amcatnloFXFX-pythia8/dcda56bf6b555c5c0d6089f8e7175a5e6f854dfb3a66dc60e1630397/000000_000000/0000/tree_97.root
/eos/cms/store/group/phys_higgs/hbb/ntuples/VHbbPostNano/UL/EFT/2018/V1/WJetsToLNu_Pt-100To250_MatchEWPDG20_TuneCP5_13TeV-amcatnloFXFX-pythia8/8097c9736062a4403d974080900918f077bc16bc1ea8ee1924ba4fd6/000000_000000/0000/tree_98.root
/eos/cms/store/group/phys_higgs/hbb/ntuples/VHbbPostNano/UL/EFT/2018/V1/WJetsToLNu_Pt-100To250_MatchEWPDG20_TuneCP5_13TeV-amcatnloFXFX-pythia8/9b771573c1beda8cd1650e0c36aa479c0e1c8efab49af9b1cd089801/000000_000000/0000/tree_99.root
/eos/cms/store/group/phys_higgs/hbb/ntuples/VHbbPostNano/UL/EFT/2018/V1/WJetsToLNu_Pt-100To250_MatchEWPDG20_TuneCP5_13TeV-amcatnloFXFX-pythia8/548d17be87bc9e51852da6cd8ddf759ad7f50b0cb30833d3f3e6bdfa/000000_000000/0000/tree_100.root
/eos/cms/store/group/phys_higgs/hbb/ntuples/VHbbPostNano/UL/EFT/2018/V1/WJetsToLNu_Pt-100To250_MatchEWPDG20_TuneCP5_13TeV-amcatnloFXFX-pythia8/29326db8c4358d0edaeb9dc1265e690f4ea707493aeb21e238ae2ef5/000000_000000/0000/tree_101.root
/eos/cms/store/group/phys_higgs/hbb/ntuples/VHbbPostNano/UL/EFT/2018/V1/WJetsToLNu_Pt-100To250_MatchEWPDG20_TuneCP5_13TeV-amcatnloFXFX-pythia8/49e593b094f97416b6435687d3a832544bedfefad0833498259123bc/000000_000000/0000/tree_102.root
/eos/cms/store/group/phys_higgs/hbb/ntuples/VHbbPostNano/UL/EFT/2018/V1/WJetsToLNu_Pt-100To250_MatchEWPDG20_TuneCP5_13TeV-amcatnloFXFX-pythia8/1693ff7043537968dd2337ed19d7f709a1803b1986dc86fd5e9dae2a/000000_000000/0000/tree_103.root
/eos/cms/store/group/phys_higgs/hbb/ntuples/VHbbPostNano/UL/EFT/2018/V1/WJetsToLNu_Pt-100To250_MatchEWPDG20_TuneCP5_13TeV-amcatnloFXFX-pythia8/540690b72e49623ca66d0e4f4dd199702434f0bb900c2c2bab850d81/000000_000000/0000/tree_104.root
/eos/cms/store/group/phys_higgs/hbb/ntuples/VHbbPostNano/UL/EFT/2018/V1/WJetsToLNu_Pt-100To250_MatchEWPDG20_TuneCP5_13TeV-amcatnloFXFX-pythia8/0bd1274254608085bfbd6ffa38e89881ed11ecf69e174a9caa6ae4fb/000000_000000/0000/tree_105.root
/eos/cms/store/group/phys_higgs/hbb/ntuples/VHbbPostNano/UL/EFT/2018/V1/WJetsToLNu_Pt-100To250_MatchEWPDG20_TuneCP5_13TeV-amcatnloFXFX-pythia8/f1ba793dccd67c605d819e2e859b5c205044690a7b1daa64544b2d68/000000_000000/0000/tree_106.root
/eos/cms/store/group/phys_higgs/hbb/ntuples/VHbbPostNano/UL/EFT/2018/V1/WJetsToLNu_Pt-100To250_MatchEWPDG20_TuneCP5_13TeV-amcatnloFXFX-pythia8/ff8e6e481c71204c7a256fa253efbd756892bd861083c29c79370d9a/000000_000000/0000/tree_107.root
/eos/cms/store/group/phys_higgs/hbb/ntuples/VHbbPostNano/UL/EFT/2018/V1/WJetsToLNu_Pt-100To250_MatchEWPDG20_TuneCP5_13TeV-amcatnloFXFX-pythia8/a0d26c98781b28248b56493a6340eb1266b088a22eea7d97eaab3749/000000_000000/0000/tree_108.root
/eos/cms/store/group/phys_higgs/hbb/ntuples/VHbbPostNano/UL/EFT/2018/V1/WJetsToLNu_Pt-100To250_MatchEWPDG20_TuneCP5_13TeV-amcatnloFXFX-pythia8/bc3547f8ae762bdc9d27333860a0739e2c09c4cd0eb6827e93853381/000000_000000/0000/tree_109.root
/eos/cms/store/group/phys_higgs/hbb/ntuples/VHbbPostNano/UL/EFT/2018/V1/WJetsToLNu_Pt-100To250_MatchEWPDG20_TuneCP5_13TeV-amcatnloFXFX-pythia8/3cf5211d67c1f60574588d2788f3c560b126668583fd32fd5db789a1/000000_000000/0000/tree_110.root
/eos/cms/store/group/phys_higgs/hbb/ntuples/VHbbPostNano/UL/EFT/2018/V1/WJetsToLNu_Pt-100To250_MatchEWPDG20_TuneCP5_13TeV-amcatnloFXFX-pythia8/58984ee4a41c52d5fa3d4944c04ec730012d31a80b016b8d62f3a224/000000_000000/0000/tree_111.root
/eos/cms/store/group/phys_higgs/hbb/ntuples/VHbbPostNano/UL/EFT/2018/V1/WJetsToLNu_Pt-100To250_MatchEWPDG20_TuneCP5_13TeV-amcatnloFXFX-pythia8/a08474eebc8893378af455b1e827912e0a269dab37d727a9c2d31ba0/000000_000000/0000/tree_112.root
/eos/cms/store/group/phys_higgs/hbb/ntuples/VHbbPostNano/UL/EFT/2018/V1/WJetsToLNu_Pt-100To250_MatchEWPDG20_TuneCP5_13TeV-amcatnloFXFX-pythia8/dd9e1a7aa3575d410f2e752239c755383f243bba5bd67d5a07cc00ed/000000_000000/0000/tree_113.root
/eos/cms/store/group/phys_higgs/hbb/ntuples/VHbbPostNano/UL/EFT/2018/V1/WJetsToLNu_Pt-100To250_MatchEWPDG20_TuneCP5_13TeV-amcatnloFXFX-pythia8/b6efd750b2a352411e8f806768d840a457576219c0c8716a7d7dc7cb/000000_000000/0000/tree_114.root
/eos/cms/store/group/phys_higgs/hbb/ntuples/VHbbPostNano/UL/EFT/2018/V1/WJetsToLNu_Pt-100To250_MatchEWPDG20_TuneCP5_13TeV-amcatnloFXFX-pythia8/bb97892fe6cda493aea92bde4d8206997c96d49debd1fbd7772649a2/000000_000000/0000/tree_115.root
/eos/cms/store/group/phys_higgs/hbb/ntuples/VHbbPostNano/UL/EFT/2018/V1/WJetsToLNu_Pt-100To250_MatchEWPDG20_TuneCP5_13TeV-amcatnloFXFX-pythia8/5ccefa9fe34720a71a84df7cc0c6c2a75f828e2cfca09715b304a5f4/000000_000000/0000/tree_116.root
/eos/cms/store/group/phys_higgs/hbb/ntuples/VHbbPostNano/UL/EFT/2018/V1/WJetsToLNu_Pt-100To250_MatchEWPDG20_TuneCP5_13TeV-amcatnloFXFX-pythia8/8e887ebc9d528f33dd26255f7cf4274048d21bb8c0e53b8f9a7fa0d4/000000_000000/0000/tree_117.root
/eos/cms/store/group/phys_higgs/hbb/ntuples/VHbbPostNano/UL/EFT/2018/V1/WJetsToLNu_Pt-100To250_MatchEWPDG20_TuneCP5_13TeV-amcatnloFXFX-pythia8/7e220fc317c31899b08e1b48dd029f3651001a30482734a109ec60d0/000000_000000/0000/tree_118.root
/eos/cms/store/group/phys_higgs/hbb/ntuples/VHbbPostNano/UL/EFT/2018/V1/WJetsToLNu_Pt-100To250_MatchEWPDG20_TuneCP5_13TeV-amcatnloFXFX-pythia8/0297cfd2fdd5cd19938dec3597826c8f2287f7f509fa4de20b28bc09/000000_000000/0000/tree_119.root
/eos/cms/store/group/phys_higgs/hbb/ntuples/VHbbPostNano/UL/EFT/2018/V1/WJetsToLNu_Pt-100To250_MatchEWPDG20_TuneCP5_13TeV-amcatnloFXFX-pythia8/19d8d0ffbd9703b371540c4bf96befede35d8e00f890b42a07a0cf81/000000_000000/0000/tree_120.root
/eos/cms/store/group/phys_higgs/hbb/ntuples/VHbbPostNano/UL/EFT/2018/V1/WJetsToLNu_Pt-100To250_MatchEWPDG20_TuneCP5_13TeV-amcatnloFXFX-pythia8/962d8407b0e5153322db9ab92879ba0398cfb6f1ae8166d01290d834/000000_000000/0000/tree_121.root
/eos/cms/store/group/phys_higgs/hbb/ntuples/VHbbPostNano/UL/EFT/2018/V1/WJetsToLNu_Pt-100To250_MatchEWPDG20_TuneCP5_13TeV-amcatnloFXFX-pythia8/f18f2e718c44dbb96ac3f31aad96d145c5960d3839a9bfd0f82b6989/000000_000000/0000/tree_122.root
/eos/cms/store/group/phys_higgs/hbb/ntuples/VHbbPostNano/UL/EFT/2018/V1/WJetsToLNu_Pt-100To250_MatchEWPDG20_TuneCP5_13TeV-amcatnloFXFX-pythia8/ea691dfe4ebd9f89650138c59e9135a77ebf49d663e73603c6291f4f/000000_000000/0000/tree_123.root
/eos/cms/store/group/phys_higgs/hbb/ntuples/VHbbPostNano/UL/EFT/2018/V1/WJetsToLNu_Pt-100To250_MatchEWPDG20_TuneCP5_13TeV-amcatnloFXFX-pythia8/0c3066ff6ea8dfc21ac8d9360fb534668625e5341abc6d1431706aa5/000000_000000/0000/tree_124.root
/eos/cms/store/group/phys_higgs/hbb/ntuples/VHbbPostNano/UL/EFT/2018/V1/WJetsToLNu_Pt-100To250_MatchEWPDG20_TuneCP5_13TeV-amcatnloFXFX-pythia8/2f6eb580352a9c92620c945a502a3bcaca345d947d2510ae400d2e45/000000_000000/0000/tree_125.root
/eos/cms/store/group/phys_higgs/hbb/ntuples/VHbbPostNano/UL/EFT/2018/V1/WJetsToLNu_Pt-100To250_MatchEWPDG20_TuneCP5_13TeV-amcatnloFXFX-pythia8/6431e406da949570c60782ce4b11aa7114370aa1b6b1fea30930c648/000000_000000/0000/tree_126.root
/eos/cms/store/group/phys_higgs/hbb/ntuples/VHbbPostNano/UL/EFT/2018/V1/WJetsToLNu_Pt-100To250_MatchEWPDG20_TuneCP5_13TeV-amcatnloFXFX-pythia8/cdb4dc4b5dea24b6829523a79271aefa0685767d9ae566711a544286/000000_000000/0000/tree_127.root
/eos/cms/store/group/phys_higgs/hbb/ntuples/VHbbPostNano/UL/EFT/2018/V1/WJetsToLNu_Pt-100To250_MatchEWPDG20_TuneCP5_13TeV-amcatnloFXFX-pythia8/3bc759af0a20a785fea9edf08c9d5ff57eb24a520b1151186a04ed00/000000_000000/0000/tree_128.root
/eos/cms/store/group/phys_higgs/hbb/ntuples/VHbbPostNano/UL/EFT/2018/V1/WJetsToLNu_Pt-100To250_MatchEWPDG20_TuneCP5_13TeV-amcatnloFXFX-pythia8/98416dd387c5420932b2a82f950708a3d9eaa40e0efd65c799e1c924/000000_000000/0000/tree_129.root
/eos/cms/store/group/phys_higgs/hbb/ntuples/VHbbPostNano/UL/EFT/2018/V1/WJetsToLNu_Pt-100To250_MatchEWPDG20_TuneCP5_13TeV-amcatnloFXFX-pythia8/1d6a2b12f1b65c00d6048281f54d0ab296d3a3346532e6936372f220/000000_000000/0000/tree_130.root
/eos/cms/store/group/phys_higgs/hbb/ntuples/VHbbPostNano/UL/EFT/2018/V1/WJetsToLNu_Pt-100To250_MatchEWPDG20_TuneCP5_13TeV-amcatnloFXFX-pythia8/59491e0a150033d12e8c7c9c7fbc4237aedc7717efad525b635d0938/000000_000000/0000/tree_131.root
/eos/cms/store/group/phys_higgs/hbb/ntuples/VHbbPostNano/UL/EFT/2018/V1/WJetsToLNu_Pt-100To250_MatchEWPDG20_TuneCP5_13TeV-amcatnloFXFX-pythia8/4b868e1827a7e6a80d07b11501ad42f9d41a05486c45b0c1f0e5a54c/000000_000000/0000/tree_132.root
/eos/cms/store/group/phys_higgs/hbb/ntuples/VHbbPostNano/UL/EFT/2018/V1/WJetsToLNu_Pt-100To250_MatchEWPDG20_TuneCP5_13TeV-amcatnloFXFX-pythia8/54a9fed7ecfa7e4ed6be5f7babcf86f9484161f2351e0f6b095c5a6f/000000_000000/0000/tree_133.root
/eos/cms/store/group/phys_higgs/hbb/ntuples/VHbbPostNano/UL/EFT/2018/V1/WJetsToLNu_Pt-100To250_MatchEWPDG20_TuneCP5_13TeV-amcatnloFXFX-pythia8/9edfcad7622cfeb48fef2c5c9cc7335cef0357b3ee8d4d341ec46956/000000_000000/0000/tree_134.root
/eos/cms/store/group/phys_higgs/hbb/ntuples/VHbbPostNano/UL/EFT/2018/V1/WJetsToLNu_Pt-100To250_MatchEWPDG20_TuneCP5_13TeV-amcatnloFXFX-pythia8/055af1e71c67cf57e4ee31080a0d460549b226ecf5b51fbd3620f9a2/000000_000000/0000/tree_135.root
/eos/cms/store/group/phys_higgs/hbb/ntuples/VHbbPostNano/UL/EFT/2018/V1/WJetsToLNu_Pt-100To250_MatchEWPDG20_TuneCP5_13TeV-amcatnloFXFX-pythia8/bb5fb60e900e0f29ae11a123483ffc3d87706930317f84ddf12bc66e/000000_000000/0000/tree_136.root
/eos/cms/store/group/phys_higgs/hbb/ntuples/VHbbPostNano/UL/EFT/2018/V1/WJetsToLNu_Pt-100To250_MatchEWPDG20_TuneCP5_13TeV-amcatnloFXFX-pythia8/b7949676bec4f67f077162a7650a3e47ecb9d1ae8d69b98f360b5845/000000_000000/0000/tree_137.root
/eos/cms/store/group/phys_higgs/hbb/ntuples/VHbbPostNano/UL/EFT/2018/V1/WJetsToLNu_Pt-100To250_MatchEWPDG20_TuneCP5_13TeV-amcatnloFXFX-pythia8/7e474085c704ee22a3f90a937892d2ec2ba94339bd56d10ff6b9a901/000000_000000/0000/tree_138.root
/eos/cms/store/group/phys_higgs/hbb/ntuples/VHbbPostNano/UL/EFT/2018/V1/WJetsToLNu_Pt-100To250_MatchEWPDG20_TuneCP5_13TeV-amcatnloFXFX-pythia8/8f5626b8199ce6cad023dc22a3f8d70a82730344d680e3bed41220f4/000000_000000/0000/tree_139.root
/eos/cms/store/group/phys_higgs/hbb/ntuples/VHbbPostNano/UL/EFT/2018/V1/WJetsToLNu_Pt-100To250_MatchEWPDG20_TuneCP5_13TeV-amcatnloFXFX-pythia8/56e6e33bc053aa9fcffef0133829a190b1e3904555da9f0854155601/000000_000000/0000/tree_140.root
/eos/cms/store/group/phys_higgs/hbb/ntuples/VHbbPostNano/UL/EFT/2018/V1/WJetsToLNu_Pt-100To250_MatchEWPDG20_TuneCP5_13TeV-amcatnloFXFX-pythia8/2446ab7d17fd0cc34c0ca70f73468f6c246f44bc2009ce2f0294ee9b/000000_000000/0000/tree_141.root
/eos/cms/store/group/phys_higgs/hbb/ntuples/VHbbPostNano/UL/EFT/2018/V1/WJetsToLNu_Pt-100To250_MatchEWPDG20_TuneCP5_13TeV-amcatnloFXFX-pythia8/0f57ac0cfe232d59bd80b6ff2c4742f4669d2724bb878b5d4596f972/000000_000000/0000/tree_142.root
/eos/cms/store/group/phys_higgs/hbb/ntuples/VHbbPostNano/UL/EFT/2018/V1/WJetsToLNu_Pt-100To250_MatchEWPDG20_TuneCP5_13TeV-amcatnloFXFX-pythia8/d057702b3f61b804af07ba02b322904eb760b89e84e6852df7f662b3/000000_000000/0000/tree_143.root
/eos/cms/store/group/phys_higgs/hbb/ntuples/VHbbPostNano/UL/EFT/2018/V1/WJetsToLNu_Pt-100To250_MatchEWPDG20_TuneCP5_13TeV-amcatnloFXFX-pythia8/92da2e07d1d791f7008a1a5bfcbf6f8b1afd6d039309ab891c8b1672/000000_000000/0000/tree_144.root
/eos/cms/store/group/phys_higgs/hbb/ntuples/VHbbPostNano/UL/EFT/2018/V1/WJetsToLNu_Pt-100To250_MatchEWPDG20_TuneCP5_13TeV-amcatnloFXFX-pythia8/bd58f4b6a03dc22756449b6cbd8b813e423377d9b6f9c46cded8c5c9/000000_000000/0000/tree_145.root
/eos/cms/store/group/phys_higgs/hbb/ntuples/VHbbPostNano/UL/EFT/2018/V1/WJetsToLNu_Pt-100To250_MatchEWPDG20_TuneCP5_13TeV-amcatnloFXFX-pythia8/8692b57a78eb44d6132242a9378339158d42510f15787a587c301827/000000_000000/0000/tree_146.root
/eos/cms/store/group/phys_higgs/hbb/ntuples/VHbbPostNano/UL/EFT/2018/V1/WJetsToLNu_Pt-100To250_MatchEWPDG20_TuneCP5_13TeV-amcatnloFXFX-pythia8/cd460fa099701da3e1a6b9fb7151b0edebf022fa25341c656a491ea9/000000_000000/0000/tree_147.root
/eos/cms/store/group/phys_higgs/hbb/ntuples/VHbbPostNano/UL/EFT/2018/V1/WJetsToLNu_Pt-100To250_MatchEWPDG20_TuneCP5_13TeV-amcatnloFXFX-pythia8/4d97b81641d715e20934d5f52426c2e7cd906af719ea2273b90f275f/000000_000000/0000/tree_148.root
/eos/cms/store/group/phys_higgs/hbb/ntuples/VHbbPostNano/UL/EFT/2018/V1/WJetsToLNu_Pt-100To250_MatchEWPDG20_TuneCP5_13TeV-amcatnloFXFX-pythia8/8961ed787f01aa84ed851cd796f13acbf90fad6b22115914d14fbdab/000000_000000/0000/tree_149.root
/eos/cms/store/group/phys_higgs/hbb/ntuples/VHbbPostNano/UL/EFT/2018/V1/WJetsToLNu_Pt-100To250_MatchEWPDG20_TuneCP5_13TeV-amcatnloFXFX-pythia8/d69e7584a9bc1189a541114c6eea177941f0f5a644699ca398b3cae6/000000_000000/0000/tree_150.root
/eos/cms/store/group/phys_higgs/hbb/ntuples/VHbbPostNano/UL/EFT/2018/V1/WJetsToLNu_Pt-100To250_MatchEWPDG20_TuneCP5_13TeV-amcatnloFXFX-pythia8/9ada177a7959ba084f106a44986e20d7265eccf651884cd33e0fa305/000000_000000/0000/tree_151.root
/eos/cms/store/group/phys_higgs/hbb/ntuples/VHbbPostNano/UL/EFT/2018/V1/WJetsToLNu_Pt-100To250_MatchEWPDG20_TuneCP5_13TeV-amcatnloFXFX-pythia8/0368fe8337ffd46b91eca1fe5a317e0012eeb288cf1c7026313b4a67/000000_000000/0000/tree_152.root
/eos/cms/store/group/phys_higgs/hbb/ntuples/VHbbPostNano/UL/EFT/2018/V1/WJetsToLNu_Pt-100To250_MatchEWPDG20_TuneCP5_13TeV-amcatnloFXFX-pythia8/3ff956c5b5c630aca67601a1ef925146fb33be86e5a3d60f57ca9045/000000_000000/0000/tree_153.root
/eos/cms/store/group/phys_higgs/hbb/ntuples/VHbbPostNano/UL/EFT/2018/V1/WJetsToLNu_Pt-100To250_MatchEWPDG20_TuneCP5_13TeV-amcatnloFXFX-pythia8/9f6305afcca236ffa7d4837aae30d46616212b292b264fa2f58aa6a6/000000_000000/0000/tree_154.root
/eos/cms/store/group/phys_higgs/hbb/ntuples/VHbbPostNano/UL/EFT/2018/V1/WJetsToLNu_Pt-100To250_MatchEWPDG20_TuneCP5_13TeV-amcatnloFXFX-pythia8/f62b4d77f1deb5888fd12945ce5634068e1a59642a07430c5b5359ae/000000_000000/0000/tree_155.root
/eos/cms/store/group/phys_higgs/hbb/ntuples/VHbbPostNano/UL/EFT/2018/V1/WJetsToLNu_Pt-100To250_MatchEWPDG20_TuneCP5_13TeV-amcatnloFXFX-pythia8/424b483712807b66800b90e6156ab3182a8b8034b6f19ccdda586a39/000000_000000/0000/tree_156.root
/eos/cms/store/group/phys_higgs/hbb/ntuples/VHbbPostNano/UL/EFT/2018/V1/WJetsToLNu_Pt-100To250_MatchEWPDG20_TuneCP5_13TeV-amcatnloFXFX-pythia8/6ff31c721c1eb20651c1f5bda86dba0a5de2586610770abdf0b3df9c/000000_000000/0000/tree_157.root
/eos/cms/store/group/phys_higgs/hbb/ntuples/VHbbPostNano/UL/EFT/2018/V1/WJetsToLNu_Pt-100To250_MatchEWPDG20_TuneCP5_13TeV-amcatnloFXFX-pythia8/bb7ce0b740f83c00fd4881e2ca068493d822ef392a2bf496db5d7858/000000_000000/0000/tree_158.root
/eos/cms/store/group/phys_higgs/hbb/ntuples/VHbbPostNano/UL/EFT/2018/V1/WJetsToLNu_Pt-100To250_MatchEWPDG20_TuneCP5_13TeV-amcatnloFXFX-pythia8/cbdfd272d34e0baea419cd51f74a98ceb5aed9e3616aa6331f0c533d/000000_000000/0000/tree_159.root
/eos/cms/store/group/phys_higgs/hbb/ntuples/VHbbPostNano/UL/EFT/2018/V1/WJetsToLNu_Pt-100To250_MatchEWPDG20_TuneCP5_13TeV-amcatnloFXFX-pythia8/b1141b7b322e8ef4bf7d7c2c040b2868ed889ba36950a22dbe3cc209/000000_000000/0000/tree_160.root
/eos/cms/store/group/phys_higgs/hbb/ntuples/VHbbPostNano/UL/EFT/2018/V1/WJetsToLNu_Pt-100To250_MatchEWPDG20_TuneCP5_13TeV-amcatnloFXFX-pythia8/1a9103718b6f3f54f3c22cd6092fc3120d8cf02de5cf1c5ff9f43614/000000_000000/0000/tree_161.root
/eos/cms/store/group/phys_higgs/hbb/ntuples/VHbbPostNano/UL/EFT/2018/V1/WJetsToLNu_Pt-100To250_MatchEWPDG20_TuneCP5_13TeV-amcatnloFXFX-pythia8/3bae8b8fb9fcfaa77646e015a93b494e099006ac64170821f83ec131/000000_000000/0000/tree_162.root
/eos/cms/store/group/phys_higgs/hbb/ntuples/VHbbPostNano/UL/EFT/2018/V1/WJetsToLNu_Pt-100To250_MatchEWPDG20_TuneCP5_13TeV-amcatnloFXFX-pythia8/cd208965ef169d8fb46626c5199ae57b039002a69d33e0c4088adfff/000000_000000/0000/tree_163.root
/eos/cms/store/group/phys_higgs/hbb/ntuples/VHbbPostNano/UL/EFT/2018/V1/WJetsToLNu_Pt-100To250_MatchEWPDG20_TuneCP5_13TeV-amcatnloFXFX-pythia8/e05aff1ab81eddd29f7b98911ae2dc53434bcc41b1462bd2507201b0/000000_000000/0000/tree_164.root
/eos/cms/store/group/phys_higgs/hbb/ntuples/VHbbPostNano/UL/EFT/2018/V1/WJetsToLNu_Pt-100To250_MatchEWPDG20_TuneCP5_13TeV-amcatnloFXFX-pythia8/07e856db7bc4e8797b9c0a1b268086454bf29f047c4a1ec66fdf88a4/000000_000000/0000/tree_165.root
/eos/cms/store/group/phys_higgs/hbb/ntuples/VHbbPostNano/UL/EFT/2018/V1/WJetsToLNu_Pt-100To250_MatchEWPDG20_TuneCP5_13TeV-amcatnloFXFX-pythia8/8f2e106bdf1affb11998e56b607821b4274bc4c2d52827e63baf86a6/000000_000000/0000/tree_166.root
/eos/cms/store/group/phys_higgs/hbb/ntuples/VHbbPostNano/UL/EFT/2018/V1/WJetsToLNu_Pt-100To250_MatchEWPDG20_TuneCP5_13TeV-amcatnloFXFX-pythia8/b2bb08fe8a9fe6553e3fd3c832ac62218f98463c9f381ca6c54180ef/000000_000000/0000/tree_167.root
/eos/cms/store/group/phys_higgs/hbb/ntuples/VHbbPostNano/UL/EFT/2018/V1/WJetsToLNu_Pt-100To250_MatchEWPDG20_TuneCP5_13TeV-amcatnloFXFX-pythia8/5796b963f09fa9cfb0e144afc64e305c081c00f1d58047f2c4f780da/000000_000000/0000/tree_168.root
/eos/cms/store/group/phys_higgs/hbb/ntuples/VHbbPostNano/UL/EFT/2018/V1/WJetsToLNu_Pt-100To250_MatchEWPDG20_TuneCP5_13TeV-amcatnloFXFX-pythia8/ef67ab6b55080d3fbbe4ae86db79c78c2716610c41b260cd9bb34da3/000000_000000/0000/tree_169.root
/eos/cms/store/group/phys_higgs/hbb/ntuples/VHbbPostNano/UL/EFT/2018/V1/WJetsToLNu_Pt-100To250_MatchEWPDG20_TuneCP5_13TeV-amcatnloFXFX-pythia8/80bcc68394a233d9697d6abcabf50609168a7653b2953814161c9a5e/000000_000000/0000/tree_170.root
/eos/cms/store/group/phys_higgs/hbb/ntuples/VHbbPostNano/UL/EFT/2018/V1/WJetsToLNu_Pt-100To250_MatchEWPDG20_TuneCP5_13TeV-amcatnloFXFX-pythia8/3667642980ac15fbe7b5be34bdb0f137e7b8bb8724dc3dd444fa639c/000000_000000/0000/tree_171.root
/eos/cms/store/group/phys_higgs/hbb/ntuples/VHbbPostNano/UL/EFT/2018/V1/WJetsToLNu_Pt-100To250_MatchEWPDG20_TuneCP5_13TeV-amcatnloFXFX-pythia8/c572f41837cbd071ef36acaeff368014ac331e7cecca1615d2461e40/000000_000000/0000/tree_172.root
/eos/cms/store/group/phys_higgs/hbb/ntuples/VHbbPostNano/UL/EFT/2018/V1/WJetsToLNu_Pt-100To250_MatchEWPDG20_TuneCP5_13TeV-amcatnloFXFX-pythia8/c9ca819464cb77ff31a768c5bf01d51a73f500ea9477d06e40071393/000000_000000/0000/tree_173.root
/eos/cms/store/group/phys_higgs/hbb/ntuples/VHbbPostNano/UL/EFT/2018/V1/WJetsToLNu_Pt-100To250_MatchEWPDG20_TuneCP5_13TeV-amcatnloFXFX-pythia8/158ab9a408cf6a7a691cd723d9759a23233b8660a830969201f0122e/000000_000000/0000/tree_174.root
/eos/cms/store/group/phys_higgs/hbb/ntuples/VHbbPostNano/UL/EFT/2018/V1/WJetsToLNu_Pt-100To250_MatchEWPDG20_TuneCP5_13TeV-amcatnloFXFX-pythia8/bd9d604c0a9df30f90e77240c324b3537c49cbd9d767ce4bc143d2b8/000000_000000/0000/tree_175.root
/eos/cms/store/group/phys_higgs/hbb/ntuples/VHbbPostNano/UL/EFT/2018/V1/WJetsToLNu_Pt-100To250_MatchEWPDG20_TuneCP5_13TeV-amcatnloFXFX-pythia8/7c5e442580a285a17e24dde474b554c3ea061ca4f708c5f8882f2693/000000_000000/0000/tree_176.root
/eos/cms/store/group/phys_higgs/hbb/ntuples/VHbbPostNano/UL/EFT/2018/V1/WJetsToLNu_Pt-100To250_MatchEWPDG20_TuneCP5_13TeV-amcatnloFXFX-pythia8/56953bd9287fad5a440b396f5b4d5bbde3db25a2d4c5628088cd9e3d/000000_000000/0000/tree_177.root
/eos/cms/store/group/phys_higgs/hbb/ntuples/VHbbPostNano/UL/EFT/2018/V1/WJetsToLNu_Pt-100To250_MatchEWPDG20_TuneCP5_13TeV-amcatnloFXFX-pythia8/b7563f88491b8038aa583c96ccf642e5321bf0c5c39a410d7415adb0/000000_000000/0000/tree_178.root
/eos/cms/store/group/phys_higgs/hbb/ntuples/VHbbPostNano/UL/EFT/2018/V1/WJetsToLNu_Pt-100To250_MatchEWPDG20_TuneCP5_13TeV-amcatnloFXFX-pythia8/7227eb1b593e96a21662ca6188a7b1f178fdf9682c98b5a749820ec1/000000_000000/0000/tree_179.root
/eos/cms/store/group/phys_higgs/hbb/ntuples/VHbbPostNano/UL/EFT/2018/V1/WJetsToLNu_Pt-100To250_MatchEWPDG20_TuneCP5_13TeV-amcatnloFXFX-pythia8/57554c0d3e11835b01baeb5854dd86f31236e48e7f782b93736c0f4f/000000_000000/0000/tree_180.root
/eos/cms/store/group/phys_higgs/hbb/ntuples/VHbbPostNano/UL/EFT/2018/V1/WJetsToLNu_Pt-100To250_MatchEWPDG20_TuneCP5_13TeV-amcatnloFXFX-pythia8/0a0e027ad1d8ce58845c9d9e4ea3efb80c9881b5ed3c3d529dddea81/000000_000000/0000/tree_181.root
/eos/cms/store/group/phys_higgs/hbb/ntuples/VHbbPostNano/UL/EFT/2018/V1/WJetsToLNu_Pt-100To250_MatchEWPDG20_TuneCP5_13TeV-amcatnloFXFX-pythia8/7daa507f628cb362b60c1ca9e58678f5680fab81ad7a998237c2a201/000000_000000/0000/tree_182.root
/eos/cms/store/group/phys_higgs/hbb/ntuples/VHbbPostNano/UL/EFT/2018/V1/WJetsToLNu_Pt-100To250_MatchEWPDG20_TuneCP5_13TeV-amcatnloFXFX-pythia8/e7b3da095b38efcac8b846ae66d718adfb7b0d181ecf155876b48d71/000000_000000/0000/tree_183.root
/eos/cms/store/group/phys_higgs/hbb/ntuples/VHbbPostNano/UL/EFT/2018/V1/WJetsToLNu_Pt-100To250_MatchEWPDG20_TuneCP5_13TeV-amcatnloFXFX-pythia8/004e46f2c2e9fff598698d07ad5d9f34e26d4e2fab31c49305248b50/000000_000000/0000/tree_184.root
/eos/cms/store/group/phys_higgs/hbb/ntuples/VHbbPostNano/UL/EFT/2018/V1/WJetsToLNu_Pt-100To250_MatchEWPDG20_TuneCP5_13TeV-amcatnloFXFX-pythia8/e4ead4b79aee06b411b3efa10d7bb40293e8fe94004f8a75fcea9e51/000000_000000/0000/tree_185.root
/eos/cms/store/group/phys_higgs/hbb/ntuples/VHbbPostNano/UL/EFT/2018/V1/WJetsToLNu_Pt-100To250_MatchEWPDG20_TuneCP5_13TeV-amcatnloFXFX-pythia8/e06f0a7f17986b9236ed7fd1e9d0a2c22037779f3406d525137a6d7b/000000_000000/0000/tree_186.root
/eos/cms/store/group/phys_higgs/hbb/ntuples/VHbbPostNano/UL/EFT/2018/V1/WJetsToLNu_Pt-100To250_MatchEWPDG20_TuneCP5_13TeV-amcatnloFXFX-pythia8/a640fec1bb895fa56ced4ee08a0e4ad1b87f2b6e5d7d42242dd96065/000000_000000/0000/tree_187.root
/eos/cms/store/group/phys_higgs/hbb/ntuples/VHbbPostNano/UL/EFT/2018/V1/WJetsToLNu_Pt-100To250_MatchEWPDG20_TuneCP5_13TeV-amcatnloFXFX-pythia8/6051eaf11533bd623d5f445d7309ffcf49d1c050833dfd4bb41f35b2/000000_000000/0000/tree_188.root
/eos/cms/store/group/phys_higgs/hbb/ntuples/VHbbPostNano/UL/EFT/2018/V1/WJetsToLNu_Pt-100To250_MatchEWPDG20_TuneCP5_13TeV-amcatnloFXFX-pythia8/191a8275e3a482b691f7d2fecbb908f0f88e5b4451216af36df273dc/000000_000000/0000/tree_189.root
/eos/cms/store/group/phys_higgs/hbb/ntuples/VHbbPostNano/UL/EFT/2018/V1/WJetsToLNu_Pt-100To250_MatchEWPDG20_TuneCP5_13TeV-amcatnloFXFX-pythia8/3c301e47a13d70281607c117aad3634f3f634e8cf76c052bc9071bde/000000_000000/0000/tree_190.root
/eos/cms/store/group/phys_higgs/hbb/ntuples/VHbbPostNano/UL/EFT/2018/V1/WJetsToLNu_Pt-100To250_MatchEWPDG20_TuneCP5_13TeV-amcatnloFXFX-pythia8/d8eabb56dee83fc6d422f50ac461e7fd74b76b197bf53db22ee4565f/000000_000000/0000/tree_191.root
/eos/cms/store/group/phys_higgs/hbb/ntuples/VHbbPostNano/UL/EFT/2018/V1/WJetsToLNu_Pt-100To250_MatchEWPDG20_TuneCP5_13TeV-amcatnloFXFX-pythia8/f7cbbb90fc311e81953a42d5cfae78a89eb3f637d2963747d3c9da10/000000_000000/0000/tree_192.root
/eos/cms/store/group/phys_higgs/hbb/ntuples/VHbbPostNano/UL/EFT/2018/V1/WJetsToLNu_Pt-100To250_MatchEWPDG20_TuneCP5_13TeV-amcatnloFXFX-pythia8/8f3e65988dc0f5e9eca38448a1f8f0a0a666785f754f028274ad4df4/000000_000000/0000/tree_193.root
/eos/cms/store/group/phys_higgs/hbb/ntuples/VHbbPostNano/UL/EFT/2018/V1/WJetsToLNu_Pt-100To250_MatchEWPDG20_TuneCP5_13TeV-amcatnloFXFX-pythia8/1c37225974a1ef61a407ec5457663d23f5fc68820c26f1cdd961802e/000000_000000/0000/tree_194.root
/eos/cms/store/group/phys_higgs/hbb/ntuples/VHbbPostNano/UL/EFT/2018/V1/WJetsToLNu_Pt-100To250_MatchEWPDG20_TuneCP5_13TeV-amcatnloFXFX-pythia8/fb84523b78c6f391d53faf57c33a100cad83a7104f46a02ec36c3e0c/000000_000000/0000/tree_195.root
/eos/cms/store/group/phys_higgs/hbb/ntuples/VHbbPostNano/UL/EFT/2018/V1/WJetsToLNu_Pt-100To250_MatchEWPDG20_TuneCP5_13TeV-amcatnloFXFX-pythia8/0c0a0a3c9a522a84f3bf1bc7f8dc55e9781fe5be6d3cb680b537c61a/000000_000000/0000/tree_196.root
/eos/cms/store/group/phys_higgs/hbb/ntuples/VHbbPostNano/UL/EFT/2018/V1/WJetsToLNu_Pt-100To250_MatchEWPDG20_TuneCP5_13TeV-amcatnloFXFX-pythia8/1e296e9af91116fe452ee66490e68dcf1aa91de559d2feb190ebfbd2/000000_000000/0000/tree_197.root
/eos/cms/store/group/phys_higgs/hbb/ntuples/VHbbPostNano/UL/EFT/2018/V1/WJetsToLNu_Pt-100To250_MatchEWPDG20_TuneCP5_13TeV-amcatnloFXFX-pythia8/277fcd23046b1d958c725080cde325d115492e9921515749dbd6dff0/000000_000000/0000/tree_198.root
/eos/cms/store/group/phys_higgs/hbb/ntuples/VHbbPostNano/UL/EFT/2018/V1/WJetsToLNu_Pt-100To250_MatchEWPDG20_TuneCP5_13TeV-amcatnloFXFX-pythia8/b0e1bfa476428c1eb62cd5a8c72cb88dcbf80b45282dc252cad88192/000000_000000/0000/tree_199.root
/eos/cms/store/group/phys_higgs/hbb/ntuples/VHbbPostNano/UL/EFT/2018/V1/WJetsToLNu_Pt-100To250_MatchEWPDG20_TuneCP5_13TeV-amcatnloFXFX-pythia8/8a92f8a118cba369aeb50dd4094bb7c31cb651e1edf9a055212f53d6/000000_000000/0000/tree_200.root
/eos/cms/store/group/phys_higgs/hbb/ntuples/VHbbPostNano/UL/EFT/2018/V1/WJetsToLNu_Pt-100To250_MatchEWPDG20_TuneCP5_13TeV-amcatnloFXFX-pythia8/ab9ffc9520a37a3dbe0513bb3442ca39044f7e2bfb21e38e7f58d474/000000_000000/0000/tree_201.root
/eos/cms/store/group/phys_higgs/hbb/ntuples/VHbbPostNano/UL/EFT/2018/V1/WJetsToLNu_Pt-100To250_MatchEWPDG20_TuneCP5_13TeV-amcatnloFXFX-pythia8/25a1afea06b51611e86467188df544ece4d670a5396e3b33f4a49064/000000_000000/0000/tree_202.root
/eos/cms/store/group/phys_higgs/hbb/ntuples/VHbbPostNano/UL/EFT/2018/V1/WJetsToLNu_Pt-100To250_MatchEWPDG20_TuneCP5_13TeV-amcatnloFXFX-pythia8/5c0e7a2c76017b810513618f7d4c2cdabf189b13b4c0a1c69391832f/000000_000000/0000/tree_203.root
/eos/cms/store/group/phys_higgs/hbb/ntuples/VHbbPostNano/UL/EFT/2018/V1/WJetsToLNu_Pt-100To250_MatchEWPDG20_TuneCP5_13TeV-amcatnloFXFX-pythia8/31ef9d499ae43c87a8691613d672a82898f5027e471aa62deabb2b69/000000_000000/0000/tree_204.root
/eos/cms/store/group/phys_higgs/hbb/ntuples/VHbbPostNano/UL/EFT/2018/V1/WJetsToLNu_Pt-100To250_MatchEWPDG20_TuneCP5_13TeV-amcatnloFXFX-pythia8/126a390720c28f06572914ab872f339987ec76f968b4a2dd55b9d30e/000000_000000/0000/tree_205.root
/eos/cms/store/group/phys_higgs/hbb/ntuples/VHbbPostNano/UL/EFT/2018/V1/WJetsToLNu_Pt-100To250_MatchEWPDG20_TuneCP5_13TeV-amcatnloFXFX-pythia8/6ffba317a33addb01e9754e98ca6131283e94e9a91a8433ea553692c/000000_000000/0000/tree_206.root
/eos/cms/store/group/phys_higgs/hbb/ntuples/VHbbPostNano/UL/EFT/2018/V1/WJetsToLNu_Pt-100To250_MatchEWPDG20_TuneCP5_13TeV-amcatnloFXFX-pythia8/20e8dae783a350c0c5244ef9ff906263304f904e06d1230c50eb576c/000000_000000/0000/tree_207.root
/eos/cms/store/group/phys_higgs/hbb/ntuples/VHbbPostNano/UL/EFT/2018/V1/WJetsToLNu_Pt-100To250_MatchEWPDG20_TuneCP5_13TeV-amcatnloFXFX-pythia8/c4b5d4cab06b296379f138863ed67ba91ccdb764ce23b03f183c0024/000000_000000/0000/tree_208.root
/eos/cms/store/group/phys_higgs/hbb/ntuples/VHbbPostNano/UL/EFT/2018/V1/WJetsToLNu_Pt-100To250_MatchEWPDG20_TuneCP5_13TeV-amcatnloFXFX-pythia8/5f8b12c9350bda575835eeddc4d933d1b01d948ab12e268d36bc237b/000000_000000/0000/tree_209.root
/eos/cms/store/group/phys_higgs/hbb/ntuples/VHbbPostNano/UL/EFT/2018/V1/WJetsToLNu_Pt-100To250_MatchEWPDG20_TuneCP5_13TeV-amcatnloFXFX-pythia8/a3dd3c7758d98d875e4d306f340075d7b96b8b51a99c3dba36a223d1/000000_000000/0000/tree_210.root
/eos/cms/store/group/phys_higgs/hbb/ntuples/VHbbPostNano/UL/EFT/2018/V1/WJetsToLNu_Pt-100To250_MatchEWPDG20_TuneCP5_13TeV-amcatnloFXFX-pythia8/fc4c27a680f31845d320b06f355d3d4589a9383e0ad48b09381f268e/000000_000000/0000/tree_211.root
/eos/cms/store/group/phys_higgs/hbb/ntuples/VHbbPostNano/UL/EFT/2018/V1/WJetsToLNu_Pt-100To250_MatchEWPDG20_TuneCP5_13TeV-amcatnloFXFX-pythia8/3c45a4ffdeb667e7db65e866fd86c641d8404999c81320cc94ea1929/000000_000000/0000/tree_212.root
/eos/cms/store/group/phys_higgs/hbb/ntuples/VHbbPostNano/UL/EFT/2018/V1/WJetsToLNu_Pt-100To250_MatchEWPDG20_TuneCP5_13TeV-amcatnloFXFX-pythia8/cfde665fae66a26760bee269d5bc69cd66224f81b237abbc24522bfc/000000_000000/0000/tree_213.root
/eos/cms/store/group/phys_higgs/hbb/ntuples/VHbbPostNano/UL/EFT/2018/V1/WJetsToLNu_Pt-100To250_MatchEWPDG20_TuneCP5_13TeV-amcatnloFXFX-pythia8/652a0af07cb7e798b19225292b2b19bb7a058b2565c86675c0c4fa82/000000_000000/0000/tree_214.root
/eos/cms/store/group/phys_higgs/hbb/ntuples/VHbbPostNano/UL/EFT/2018/V1/WJetsToLNu_Pt-100To250_MatchEWPDG20_TuneCP5_13TeV-amcatnloFXFX-pythia8/bbd39a6851ba8b9930645e1ca7dce2aaacb3f70b31b5113ba209bc90/000000_000000/0000/tree_215.root
/eos/cms/store/group/phys_higgs/hbb/ntuples/VHbbPostNano/UL/EFT/2018/V1/WJetsToLNu_Pt-100To250_MatchEWPDG20_TuneCP5_13TeV-amcatnloFXFX-pythia8/49243b5847b6d14a53b94248b33fee8deb967ed2ca1daab9151a68dd/000000_000000/0000/tree_216.root
/eos/cms/store/group/phys_higgs/hbb/ntuples/VHbbPostNano/UL/EFT/2018/V1/WJetsToLNu_Pt-100To250_MatchEWPDG20_TuneCP5_13TeV-amcatnloFXFX-pythia8/8da42592c82f1c75441a86774ffdc2c9a08f36d8135d63ebbe8f18d5/000000_000000/0000/tree_217.root
/eos/cms/store/group/phys_higgs/hbb/ntuples/VHbbPostNano/UL/EFT/2018/V1/WJetsToLNu_Pt-100To250_MatchEWPDG20_TuneCP5_13TeV-amcatnloFXFX-pythia8/ac2e9b4cd05a841db881d71cbaecc17f92fbd0508b15eec14715909b/000000_000000/0000/tree_218.root
/eos/cms/store/group/phys_higgs/hbb/ntuples/VHbbPostNano/UL/EFT/2018/V1/WJetsToLNu_Pt-100To250_MatchEWPDG20_TuneCP5_13TeV-amcatnloFXFX-pythia8/7e44fc2c1b6d5ff36a1e28b82abb563f392b31e70dc99f0a21803b38/000000_000000/0000/tree_219.root
/eos/cms/store/group/phys_higgs/hbb/ntuples/VHbbPostNano/UL/EFT/2018/V1/WJetsToLNu_Pt-100To250_MatchEWPDG20_TuneCP5_13TeV-amcatnloFXFX-pythia8/8c7e7bcb6256ec5cc0c5fb267049a5d9e53d16a23a914f6eaba21983/000000_000000/0000/tree_220.root
/eos/cms/store/group/phys_higgs/hbb/ntuples/VHbbPostNano/UL/EFT/2018/V1/WJetsToLNu_Pt-100To250_MatchEWPDG20_TuneCP5_13TeV-amcatnloFXFX-pythia8/3d27ad0911099559c2e1c0da53bb8aed5333e0be58879bf6501b0726/000000_000000/0000/tree_221.root
/eos/cms/store/group/phys_higgs/hbb/ntuples/VHbbPostNano/UL/EFT/2018/V1/WJetsToLNu_Pt-100To250_MatchEWPDG20_TuneCP5_13TeV-amcatnloFXFX-pythia8/0440c5edb8eef3582bc1622d9aaba35ddbbb2d4baf59363a4fdae3a7/000000_000000/0000/tree_222.root
/eos/cms/store/group/phys_higgs/hbb/ntuples/VHbbPostNano/UL/EFT/2018/V1/WJetsToLNu_Pt-100To250_MatchEWPDG20_TuneCP5_13TeV-amcatnloFXFX-pythia8/4f2e6a2fbad9d5156e8bd5f208389f02fbac01029d47ed2d1d48ffea/000000_000000/0000/tree_223.root
/eos/cms/store/group/phys_higgs/hbb/ntuples/VHbbPostNano/UL/EFT/2018/V1/WJetsToLNu_Pt-100To250_MatchEWPDG20_TuneCP5_13TeV-amcatnloFXFX-pythia8/3e20f82ab94dfa83076918bb0abff6b554c1b98f28e540696b02d923/000000_000000/0000/tree_224.root
/eos/cms/store/group/phys_higgs/hbb/ntuples/VHbbPostNano/UL/EFT/2018/V1/WJetsToLNu_Pt-100To250_MatchEWPDG20_TuneCP5_13TeV-amcatnloFXFX-pythia8/1c64cf1fb53c9ac34d687921e4400acf19e0c579e3615e83a039379b/000000_000000/0000/tree_225.root
/eos/cms/store/group/phys_higgs/hbb/ntuples/VHbbPostNano/UL/EFT/2018/V1/WJetsToLNu_Pt-100To250_MatchEWPDG20_TuneCP5_13TeV-amcatnloFXFX-pythia8/4b16066509f74308e7744cfe8a44e3c6395f1bdedaf189c9f37b84fc/000000_000000/0000/tree_226.root
/eos/cms/store/group/phys_higgs/hbb/ntuples/VHbbPostNano/UL/EFT/2018/V1/WJetsToLNu_Pt-100To250_MatchEWPDG20_TuneCP5_13TeV-amcatnloFXFX-pythia8/ea544511549d508594962630591b3f367ac4c41f72bf2a95cbfc9ee7/000000_000000/0000/tree_227.root