/eos/cms/store/group/phys_higgs/ec/hbb/ntuples/VHbbPostNano/UL/EFT/2018/V1/ZJetsToNuNu_HT-400To600_TuneCP5_13TeV-madgraphMLM-pythia8/fbfc2c81b7de9e9d43a5019388640517c018546e489affeae6cd193c/000000_000000/0000/tree_0.root
/eos/cms/store/group/phys_higgs/ec/hbb/ntuples/VHbbPostNano/UL/EFT/2018/V1/ZJetsToNuNu_HT-400To600_TuneCP5_13TeV-madgraphMLM-pythia8/95d7d05c117cb44dd163767bcb5f4498581f5a556cab3a2007148129/000000_000000/0000/tree_1.root
/eos/cms/store/group/phys_higgs/ec/hbb/ntuples/VHbbPostNano/UL/EFT/2018/V1/ZJetsToNuNu_HT-400To600_TuneCP5_13TeV-madgraphMLM-pythia8/b184b5355a25847af9ed8cf8fc513adba62a8fb0e38823236686f9c9/000000_000000/0000/tree_2.root
/eos/cms/store/group/phys_higgs/ec/hbb/ntuples/VHbbPostNano/UL/EFT/2018/V1/ZJetsToNuNu_HT-400To600_TuneCP5_13TeV-madgraphMLM-pythia8/e1f2a445dd48e59ca86ade0a616368661455d7ce15380836547115ca/000000_000000/0000/tree_3.root
/eos/cms/store/group/phys_higgs/ec/hbb/ntuples/VHbbPostNano/UL/EFT/2018/V1/ZJetsToNuNu_HT-400To600_TuneCP5_13TeV-madgraphMLM-pythia8/8b0dff853c41baedcffe742cebbc3d64fd5aab62901adef30538a49f/000000_000000/0000/tree_4.root
/eos/cms/store/group/phys_higgs/ec/hbb/ntuples/VHbbPostNano/UL/EFT/2018/V1/ZJetsToNuNu_HT-400To600_TuneCP5_13TeV-madgraphMLM-pythia8/6e86333676ade9d4b993bfa1cf5570a8c3b698ec304947b02f5fa29f/000000_000000/0000/tree_5.root
/eos/cms/store/group/phys_higgs/ec/hbb/ntuples/VHbbPostNano/UL/EFT/2018/V1/ZJetsToNuNu_HT-400To600_TuneCP5_13TeV-madgraphMLM-pythia8/56d418d125a76af26f8f6961087395dfbc9c17b04877624ad7694313/000000_000000/0000/tree_6.root
/eos/cms/store/group/phys_higgs/ec/hbb/ntuples/VHbbPostNano/UL/EFT/2018/V1/ZJetsToNuNu_HT-400To600_TuneCP5_13TeV-madgraphMLM-pythia8/9be4404dc4c40318ba62c590b70da6f7df5823a414fee809995d3f51/000000_000000/0000/tree_7.root
/eos/cms/store/group/phys_higgs/ec/hbb/ntuples/VHbbPostNano/UL/EFT/2018/V1/ZJetsToNuNu_HT-400To600_TuneCP5_13TeV-madgraphMLM-pythia8/86125d9e71d102d79229625511c3839203d0a87dc139bf65980997a5/000000_000000/0000/tree_8.root
/eos/cms/store/group/phys_higgs/ec/hbb/ntuples/VHbbPostNano/UL/EFT/2018/V1/ZJetsToNuNu_HT-400To600_TuneCP5_13TeV-madgraphMLM-pythia8/7ff67e041c28769eeab328abad935c53c0533d73063effedaa6292f2/000000_000000/0000/tree_9.root
/eos/cms/store/group/phys_higgs/ec/hbb/ntuples/VHbbPostNano/UL/EFT/2018/V1/ZJetsToNuNu_HT-400To600_TuneCP5_13TeV-madgraphMLM-pythia8/c98a776badc29ce055590aff0bb28ec07d9d6ccab2983e0d4f34e9da/000000_000000/0000/tree_10.root
/eos/cms/store/group/phys_higgs/ec/hbb/ntuples/VHbbPostNano/UL/EFT/2018/V1/ZJetsToNuNu_HT-400To600_TuneCP5_13TeV-madgraphMLM-pythia8/ea9427578c514ee8e4b3782c1000d6e8529c60fcf549473183684373/000000_000000/0000/tree_11.root
/eos/cms/store/group/phys_higgs/ec/hbb/ntuples/VHbbPostNano/UL/EFT/2018/V1/ZJetsToNuNu_HT-400To600_TuneCP5_13TeV-madgraphMLM-pythia8/c37ce0f1144a21347ab4d4fcb049e70b3b826dc685b523178572bcf7/000000_000000/0000/tree_12.root
/eos/cms/store/group/phys_higgs/ec/hbb/ntuples/VHbbPostNano/UL/EFT/2018/V1/ZJetsToNuNu_HT-400To600_TuneCP5_13TeV-madgraphMLM-pythia8/27ae3c07a952538e5bf0e88688b43611e3d122453194da3e0f73fd9c/000000_000000/0000/tree_13.root
/eos/cms/store/group/phys_higgs/ec/hbb/ntuples/VHbbPostNano/UL/EFT/2018/V1/ZJetsToNuNu_HT-400To600_TuneCP5_13TeV-madgraphMLM-pythia8/37daa767b465936bca1cc2a3ff50f0d8186741f04080f08f93bea32f/000000_000000/0000/tree_14.root
/eos/cms/store/group/phys_higgs/ec/hbb/ntuples/VHbbPostNano/UL/EFT/2018/V1/ZJetsToNuNu_HT-400To600_TuneCP5_13TeV-madgraphMLM-pythia8/882592ec11e59e8f51af812a59ea35026728acf8cd6b3949e3523bcc/000000_000000/0000/tree_15.root
/eos/cms/store/group/phys_higgs/ec/hbb/ntuples/VHbbPostNano/UL/EFT/2018/V1/ZJetsToNuNu_HT-400To600_TuneCP5_13TeV-madgraphMLM-pythia8/0b3e9bf658b80a0f37886a8bef81f08d54285c16cd46ed22f7828339/000000_000000/0000/tree_16.root
/eos/cms/store/group/phys_higgs/ec/hbb/ntuples/VHbbPostNano/UL/EFT/2018/V1/ZJetsToNuNu_HT-400To600_TuneCP5_13TeV-madgraphMLM-pythia8/728c08e1226bad5680af121f892af1b5748fd18382291fbf600daf37/000000_000000/0000/tree_17.root
/eos/cms/store/group/phys_higgs/ec/hbb/ntuples/VHbbPostNano/UL/EFT/2018/V1/ZJetsToNuNu_HT-400To600_TuneCP5_13TeV-madgraphMLM-pythia8/ad47ee96a3d920d9a41890bf1c737a29ee499f7ec95b399ab65c9c82/000000_000000/0000/tree_18.root
/eos/cms/store/group/phys_higgs/ec/hbb/ntuples/VHbbPostNano/UL/EFT/2018/V1/ZJetsToNuNu_HT-400To600_TuneCP5_13TeV-madgraphMLM-pythia8/b6c761d902e82023b940a83b1408b53071ba66e4fb6d6242a09875c0/000000_000000/0000/tree_19.root
/eos/cms/store/group/phys_higgs/ec/hbb/ntuples/VHbbPostNano/UL/EFT/2018/V1/ZJetsToNuNu_HT-400To600_TuneCP5_13TeV-madgraphMLM-pythia8/c031a1a1a89b69fbb4de0316de6a4ad2d0cc8b594a0984aae5977d40/000000_000000/0000/tree_20.root
/eos/cms/store/group/phys_higgs/ec/hbb/ntuples/VHbbPostNano/UL/EFT/2018/V1/ZJetsToNuNu_HT-400To600_TuneCP5_13TeV-madgraphMLM-pythia8/a1afcec36cfbe6aaa462a3011489af679d670ce665e42a36d3fe276f/000000_000000/0000/tree_21.root
/eos/cms/store/group/phys_higgs/ec/hbb/ntuples/VHbbPostNano/UL/EFT/2018/V1/ZJetsToNuNu_HT-400To600_TuneCP5_13TeV-madgraphMLM-pythia8/9b4f2f43e88d13099bff23811ce23d0fa6c9185d0553c0fccf17807e/000000_000000/0000/tree_22.root
/eos/cms/store/group/phys_higgs/ec/hbb/ntuples/VHbbPostNano/UL/EFT/2018/V1/ZJetsToNuNu_HT-400To600_TuneCP5_13TeV-madgraphMLM-pythia8/909879ca894cf5ffc4a27b10b5a134e9eea3d48b5201a2aaa433947f/000000_000000/0000/tree_23.root
/eos/cms/store/group/phys_higgs/ec/hbb/ntuples/VHbbPostNano/UL/EFT/2018/V1/ZJetsToNuNu_HT-400To600_TuneCP5_13TeV-madgraphMLM-pythia8/684d2000d409865cb7695ec21b6d88986b617e1d472d0f27a3ae99c0/000000_000000/0000/tree_24.root
/eos/cms/store/group/phys_higgs/ec/hbb/ntuples/VHbbPostNano/UL/EFT/2018/V1/ZJetsToNuNu_HT-400To600_TuneCP5_13TeV-madgraphMLM-pythia8/0401454a64f77c9bedf636dcafc7ff6bde9be75cd78858bd3de8750a/000000_000000/0000/tree_25.root
/eos/cms/store/group/phys_higgs/ec/hbb/ntuples/VHbbPostNano/UL/EFT/2018/V1/ZJetsToNuNu_HT-400To600_TuneCP5_13TeV-madgraphMLM-pythia8/6c35e92161f816fa689fc914aab7d3d91bfd226d07054ee877a517fb/000000_000000/0000/tree_26.root
/eos/cms/store/group/phys_higgs/ec/hbb/ntuples/VHbbPostNano/UL/EFT/2018/V1/ZJetsToNuNu_HT-400To600_TuneCP5_13TeV-madgraphMLM-pythia8/415d05c03b970553f7c6febea15f0d229dec06e2f86e39790e870e92/000000_000000/0000/tree_27.root
/eos/cms/store/group/phys_higgs/ec/hbb/ntuples/VHbbPostNano/UL/EFT/2018/V1/ZJetsToNuNu_HT-400To600_TuneCP5_13TeV-madgraphMLM-pythia8/398f0493cbf33ff4d2d6291b5d9ce5f8802bc4b8fedd0ea2ab1d40c3/000000_000000/0000/tree_28.root
/eos/cms/store/group/phys_higgs/ec/hbb/ntuples/VHbbPostNano/UL/EFT/2018/V1/ZJetsToNuNu_HT-400To600_TuneCP5_13TeV-madgraphMLM-pythia8/6a2eae1fb3b6ce569a1e3670ee9bf8ed26723b4bfe75b1ff583424ab/000000_000000/0000/tree_29.root
/eos/cms/store/group/phys_higgs/ec/hbb/ntuples/VHbbPostNano/UL/EFT/2018/V1/ZJetsToNuNu_HT-400To600_TuneCP5_13TeV-madgraphMLM-pythia8/3adacc4d19798ba605ba4aec0acbba748a43a8b26e062cf90b0e8a5b/000000_000000/0000/tree_30.root
/eos/cms/store/group/phys_higgs/ec/hbb/ntuples/VHbbPostNano/UL/EFT/2018/V1/ZJetsToNuNu_HT-400To600_TuneCP5_13TeV-madgraphMLM-pythia8/4dcf34d4d5b4ad7aa8289f92a946d91f0e8df5dd85fdacbe1bf73d3f/000000_000000/0000/tree_31.root
/eos/cms/store/group/phys_higgs/ec/hbb/ntuples/VHbbPostNano/UL/EFT/2018/V1/ZJetsToNuNu_HT-400To600_TuneCP5_13TeV-madgraphMLM-pythia8/a24ba4a12c26f50ce99e47f0a0de2164c043a91fb628a2253868d2b0/000000_000000/0000/tree_32.root
/eos/cms/store/group/phys_higgs/ec/hbb/ntuples/VHbbPostNano/UL/EFT/2018/V1/ZJetsToNuNu_HT-400To600_TuneCP5_13TeV-madgraphMLM-pythia8/156328b71f0718f15f8aacf2eee2b9516ab6f8e87fd26e9624b07c94/000000_000000/0000/tree_33.root
/eos/cms/store/group/phys_higgs/ec/hbb/ntuples/VHbbPostNano/UL/EFT/2018/V1/ZJetsToNuNu_HT-400To600_TuneCP5_13TeV-madgraphMLM-pythia8/5bdd0f2e446c1e8607b636e27dc77b81aecdd2a21d81fb9ccb23e250/000000_000000/0000/tree_34.root
/eos/cms/store/group/phys_higgs/ec/hbb/ntuples/VHbbPostNano/UL/EFT/2018/V1/ZJetsToNuNu_HT-400To600_TuneCP5_13TeV-madgraphMLM-pythia8/0f13f51582865ba78fa155388cd834a577d00ae1521a48784c897197/000000_000000/0000/tree_35.root
/eos/cms/store/group/phys_higgs/ec/hbb/ntuples/VHbbPostNano/UL/EFT/2018/V1/ZJetsToNuNu_HT-400To600_TuneCP5_13TeV-madgraphMLM-pythia8/3f2c788ce1a42b8380afcbe07734b3f451fc37fa1b80c99b85867f60/000000_000000/0000/tree_36.root
/eos/cms/store/group/phys_higgs/ec/hbb/ntuples/VHbbPostNano/UL/EFT/2018/V1/ZJetsToNuNu_HT-400To600_TuneCP5_13TeV-madgraphMLM-pythia8/b0acc9c0ad434c751aad15fa0740b47ba75e1d369768465a3a451d46/000000_000000/0000/tree_37.root
/eos/cms/store/group/phys_higgs/ec/hbb/ntuples/VHbbPostNano/UL/EFT/2018/V1/ZJetsToNuNu_HT-400To600_TuneCP5_13TeV-madgraphMLM-pythia8/042bfed998e91901595ae0c6a5018d4f1fe347cfe7e8dabe450a306f/000000_000000/0000/tree_38.root
/eos/cms/store/group/phys_higgs/ec/hbb/ntuples/VHbbPostNano/UL/EFT/2018/V1/ZJetsToNuNu_HT-400To600_TuneCP5_13TeV-madgraphMLM-pythia8/ff69ef7b37191315295d10fd8fa7347ad21f787915902ec5cc838cdc/000000_000000/0000/tree_39.root
/eos/cms/store/group/phys_higgs/ec/hbb/ntuples/VHbbPostNano/UL/EFT/2018/V1/ZJetsToNuNu_HT-400To600_TuneCP5_13TeV-madgraphMLM-pythia8/3e6c88444f71f60aa078c1fa2d024d3d1c1e38e2954e27b196cf84ed/000000_000000/0000/tree_40.root
/eos/cms/store/group/phys_higgs/ec/hbb/ntuples/VHbbPostNano/UL/EFT/2018/V1/ZJetsToNuNu_HT-400To600_TuneCP5_13TeV-madgraphMLM-pythia8/845355a70063647172e635d766e7f67910aa1a99f16455e9409ca2c6/000000_000000/0000/tree_41.root
/eos/cms/store/group/phys_higgs/ec/hbb/ntuples/VHbbPostNano/UL/EFT/2018/V1/ZJetsToNuNu_HT-400To600_TuneCP5_13TeV-madgraphMLM-pythia8/183b5a5d83d592ed371dadc0bfca40a28cad04abbf9ab98c53a40ccf/000000_000000/0000/tree_42.root
/eos/cms/store/group/phys_higgs/ec/hbb/ntuples/VHbbPostNano/UL/EFT/2018/V1/ZJetsToNuNu_HT-400To600_TuneCP5_13TeV-madgraphMLM-pythia8/d45414b8d8c6d99ab81336df34cce19d6b5b6757316fe400e1c22715/000000_000000/0000/tree_43.root
/eos/cms/store/group/phys_higgs/ec/hbb/ntuples/VHbbPostNano/UL/EFT/2018/V1/ZJetsToNuNu_HT-400To600_TuneCP5_13TeV-madgraphMLM-pythia8/f6aacc60d2716ae00b0eccaff5efa25a2f0407dc9fabf21ed86b978c/000000_000000/0000/tree_44.root
/eos/cms/store/group/phys_higgs/ec/hbb/ntuples/VHbbPostNano/UL/EFT/2018/V1/ZJetsToNuNu_HT-400To600_TuneCP5_13TeV-madgraphMLM-pythia8/254587176f34af2c17590ff315060459438cd7bb194e25e6ea938815/000000_000000/0000/tree_45.root
/eos/cms/store/group/phys_higgs/ec/hbb/ntuples/VHbbPostNano/UL/EFT/2018/V1/ZJetsToNuNu_HT-400To600_TuneCP5_13TeV-madgraphMLM-pythia8/915bb39d91f6e7f9e3a5cbf2b259b075642a1a22ff15d07a759b2fa0/000000_000000/0000/tree_46.root
/eos/cms/store/group/phys_higgs/ec/hbb/ntuples/VHbbPostNano/UL/EFT/2018/V1/ZJetsToNuNu_HT-400To600_TuneCP5_13TeV-madgraphMLM-pythia8/f4abd571b029060c302d19da0e3d62e254c05d2d6198e2bf68508d3b/000000_000000/0000/tree_47.root
/eos/cms/store/group/phys_higgs/ec/hbb/ntuples/VHbbPostNano/UL/EFT/2018/V1/ZJetsToNuNu_HT-400To600_TuneCP5_13TeV-madgraphMLM-pythia8/34a25dfa421e1d596b7516e3547f11bf4a65c40b1624d6d4d2a7f46f/000000_000000/0000/tree_48.root
/eos/cms/store/group/phys_higgs/ec/hbb/ntuples/VHbbPostNano/UL/EFT/2018/V1/ZJetsToNuNu_HT-400To600_TuneCP5_13TeV-madgraphMLM-pythia8/22e37cbdcb0c462e112acb26bbe74c501ce446663c8908b25b9e0351/000000_000000/0000/tree_49.root
/eos/cms/store/group/phys_higgs/ec/hbb/ntuples/VHbbPostNano/UL/EFT/2018/V1/ZJetsToNuNu_HT-400To600_TuneCP5_13TeV-madgraphMLM-pythia8/cbc7b7894ad785258e02dc72e1074d81845cf0abefb5f8a15f2bcaad/000000_000000/0000/tree_50.root
/eos/cms/store/group/phys_higgs/ec/hbb/ntuples/VHbbPostNano/UL/EFT/2018/V1/ZJetsToNuNu_HT-400To600_TuneCP5_13TeV-madgraphMLM-pythia8/efeb54c77944c04adb576bfdbdeb3243eabab9c4ec75619c3ffc6292/000000_000000/0000/tree_51.root
/eos/cms/store/group/phys_higgs/ec/hbb/ntuples/VHbbPostNano/UL/EFT/2018/V1/ZJetsToNuNu_HT-400To600_TuneCP5_13TeV-madgraphMLM-pythia8/60c3679bf6026deb8b11eb2b582c5e655214274c23341da314fe24af/000000_000000/0000/tree_52.root
/eos/cms/store/group/phys_higgs/ec/hbb/ntuples/VHbbPostNano/UL/EFT/2018/V1/ZJetsToNuNu_HT-400To600_TuneCP5_13TeV-madgraphMLM-pythia8/9850d3f1125275d445aefcf19a689ce65d18f6c2844efdc7422d20af/000000_000000/0000/tree_53.root
/eos/cms/store/group/phys_higgs/ec/hbb/ntuples/VHbbPostNano/UL/EFT/2018/V1/ZJetsToNuNu_HT-400To600_TuneCP5_13TeV-madgraphMLM-pythia8/18afcf84465af7f2b93138bbc1eb704578c95e7c6c71836ebba9fb35/000000_000000/0000/tree_54.root
/eos/cms/store/group/phys_higgs/ec/hbb/ntuples/VHbbPostNano/UL/EFT/2018/V1/ZJetsToNuNu_HT-400To600_TuneCP5_13TeV-madgraphMLM-pythia8/d07f43505bdfdfb1fd3bd3e4c6a5f0644b6b0143d9261066629c781a/000000_000000/0000/tree_55.root
/eos/cms/store/group/phys_higgs/ec/hbb/ntuples/VHbbPostNano/UL/EFT/2018/V1/ZJetsToNuNu_HT-400To600_TuneCP5_13TeV-madgraphMLM-pythia8/e9956ac72007d0c66b01bcb34ebea19fa6e3d724b8e83737c84ebadb/000000_000000/0000/tree_56.root
/eos/cms/store/group/phys_higgs/ec/hbb/ntuples/VHbbPostNano/UL/EFT/2018/V1/ZJetsToNuNu_HT-400To600_TuneCP5_13TeV-madgraphMLM-pythia8/fdbc867e3a9f2a028980dcfd4b4d7260dca8dd7aad207c63a209c0ba/000000_000000/0000/tree_57.root
/eos/cms/store/group/phys_higgs/ec/hbb/ntuples/VHbbPostNano/UL/EFT/2018/V1/ZJetsToNuNu_HT-400To600_TuneCP5_13TeV-madgraphMLM-pythia8/714c5568fee0dd5d398a4ee986bd73679bbad966a826c3a9f6c33ed7/000000_000000/0000/tree_58.root
/eos/cms/store/group/phys_higgs/ec/hbb/ntuples/VHbbPostNano/UL/EFT/2018/V1/ZJetsToNuNu_HT-400To600_TuneCP5_13TeV-madgraphMLM-pythia8/e5d96e39340b0d32a5906387a53fe3b2e618a810cebd7b0072acafd0/000000_000000/0000/tree_59.root
/eos/cms/store/group/phys_higgs/ec/hbb/ntuples/VHbbPostNano/UL/EFT/2018/V1/ZJetsToNuNu_HT-400To600_TuneCP5_13TeV-madgraphMLM-pythia8/68ca065da499caeeea7c025390bf34cd54478fa649ab526e80fb7fc9/000000_000000/0000/tree_60.root
/eos/cms/store/group/phys_higgs/ec/hbb/ntuples/VHbbPostNano/UL/EFT/2018/V1/ZJetsToNuNu_HT-400To600_TuneCP5_13TeV-madgraphMLM-pythia8/e78362583559a6ae7243cf62973fbac2807be1e6b043fa31d022cbc8/000000_000000/0000/tree_61.root
/eos/cms/store/group/phys_higgs/ec/hbb/ntuples/VHbbPostNano/UL/EFT/2018/V1/ZJetsToNuNu_HT-400To600_TuneCP5_13TeV-madgraphMLM-pythia8/e2820f16ee92ff68c659af12450af0e4f59f58a896f1c0e97ca2e6d8/000000_000000/0000/tree_62.root
/eos/cms/store/group/phys_higgs/ec/hbb/ntuples/VHbbPostNano/UL/EFT/2018/V1/ZJetsToNuNu_HT-400To600_TuneCP5_13TeV-madgraphMLM-pythia8/9d26b99d7b1b43f08a316b487b5af9c056f624167317071cd78f5ae6/000000_000000/0000/tree_63.root
/eos/cms/store/group/phys_higgs/ec/hbb/ntuples/VHbbPostNano/UL/EFT/2018/V1/ZJetsToNuNu_HT-400To600_TuneCP5_13TeV-madgraphMLM-pythia8/c0b494f64a3e4c0c1798cf0a845f1de687a609076ac371e3b5e1f9a1/000000_000000/0000/tree_64.root
/eos/cms/store/group/phys_higgs/ec/hbb/ntuples/VHbbPostNano/UL/EFT/2018/V1/ZJetsToNuNu_HT-400To600_TuneCP5_13TeV-madgraphMLM-pythia8/18494a71ccbba09b2130c011cec50c60a47c2c882b0ba8888feb3398/000000_000000/0000/tree_65.root
/eos/cms/store/group/phys_higgs/ec/hbb/ntuples/VHbbPostNano/UL/EFT/2018/V1/ZJetsToNuNu_HT-400To600_TuneCP5_13TeV-madgraphMLM-pythia8/efe6d8e3bf8d3cddd416c040e4b20954fd8fca361db08d2d4ffd19ba/000000_000000/0000/tree_66.root
/eos/cms/store/group/phys_higgs/ec/hbb/ntuples/VHbbPostNano/UL/EFT/2018/V1/ZJetsToNuNu_HT-400To600_TuneCP5_13TeV-madgraphMLM-pythia8/21cef64c46165c6f4a43242fd3218a1efea635c0109a45849e524d24/000000_000000/0000/tree_67.root
/eos/cms/store/group/phys_higgs/ec/hbb/ntuples/VHbbPostNano/UL/EFT/2018/V1/ZJetsToNuNu_HT-400To600_TuneCP5_13TeV-madgraphMLM-pythia8/08c02a0696bf06830dd7707af9ba3c365d2524671be23507d3af9abe/000000_000000/0000/tree_68.root
/eos/cms/store/group/phys_higgs/ec/hbb/ntuples/VHbbPostNano/UL/EFT/2018/V1/ZJetsToNuNu_HT-400To600_TuneCP5_13TeV-madgraphMLM-pythia8/d6e843ffceb405066eb7705c87a55072b72fb3609d4061524b0e6d46/000000_000000/0000/tree_69.root
/eos/cms/store/group/phys_higgs/ec/hbb/ntuples/VHbbPostNano/UL/EFT/2018/V1/ZJetsToNuNu_HT-400To600_TuneCP5_13TeV-madgraphMLM-pythia8/a02bf97ddc54b7e8929e52f63e61babc178eefb323d82b807d925d73/000000_000000/0000/tree_70.root
/eos/cms/store/group/phys_higgs/ec/hbb/ntuples/VHbbPostNano/UL/EFT/2018/V1/ZJetsToNuNu_HT-400To600_TuneCP5_13TeV-madgraphMLM-pythia8/f49403e57d8c09b71c755743e8662cc89bbc0a83471086060503e01d/000000_000000/0000/tree_71.root
/eos/cms/store/group/phys_higgs/ec/hbb/ntuples/VHbbPostNano/UL/EFT/2018/V1/ZJetsToNuNu_HT-400To600_TuneCP5_13TeV-madgraphMLM-pythia8/9eb4a50f64345383c85754d74af2cfd3609d764a494d8d98f381c5d3/000000_000000/0000/tree_72.root
/eos/cms/store/group/phys_higgs/ec/hbb/ntuples/VHbbPostNano/UL/EFT/2018/V1/ZJetsToNuNu_HT-400To600_TuneCP5_13TeV-madgraphMLM-pythia8/b55b0a60baab998ef20306df473f48c23cd2a0910e85913811308525/000000_000000/0000/tree_73.root
/eos/cms/store/group/phys_higgs/ec/hbb/ntuples/VHbbPostNano/UL/EFT/2018/V1/ZJetsToNuNu_HT-400To600_TuneCP5_13TeV-madgraphMLM-pythia8/90b06756fcda814060dc48ae7b67bf01ffb077861f7c6d890fec7772/000000_000000/0000/tree_74.root
/eos/cms/store/group/phys_higgs/ec/hbb/ntuples/VHbbPostNano/UL/EFT/2018/V1/ZJetsToNuNu_HT-400To600_TuneCP5_13TeV-madgraphMLM-pythia8/395e8d2931d34a4b0f6ce100b6ffcf2dbabbb63a0cb85fd00726bca8/000000_000000/0000/tree_75.root
/eos/cms/store/group/phys_higgs/ec/hbb/ntuples/VHbbPostNano/UL/EFT/2018/V1/ZJetsToNuNu_HT-400To600_TuneCP5_13TeV-madgraphMLM-pythia8/ede4043197642332fa0cd0d2bab7b301d5f5dbbc453a752ef2bda288/000000_000000/0000/tree_76.root
/eos/cms/store/group/phys_higgs/ec/hbb/ntuples/VHbbPostNano/UL/EFT/2018/V1/ZJetsToNuNu_HT-400To600_TuneCP5_13TeV-madgraphMLM-pythia8/145a5b768266b7cdf14cf210b8faeabd92c8711cf6882e924c00bf82/000000_000000/0000/tree_77.root
/eos/cms/store/group/phys_higgs/ec/hbb/ntuples/VHbbPostNano/UL/EFT/2018/V1/ZJetsToNuNu_HT-400To600_TuneCP5_13TeV-madgraphMLM-pythia8/31e7d443566c5e71c64c71d66701728fcb861e2ea8a66eb3f19610af/000000_000000/0000/tree_78.root
/eos/cms/store/group/phys_higgs/ec/hbb/ntuples/VHbbPostNano/UL/EFT/2018/V1/ZJetsToNuNu_HT-400To600_TuneCP5_13TeV-madgraphMLM-pythia8/7e012d4919a2af541a2b79c68562c01c7e9586f00ca349a47476a940/000000_000000/0000/tree_79.root
/eos/cms/store/group/phys_higgs/ec/hbb/ntuples/VHbbPostNano/UL/EFT/2018/V1/ZJetsToNuNu_HT-400To600_TuneCP5_13TeV-madgraphMLM-pythia8/ed7ed1ee931ac184da090fe09ea685588c8ba5ef4d6f016e223a5053/000000_000000/0000/tree_80.root
/eos/cms/store/group/phys_higgs/ec/hbb/ntuples/VHbbPostNano/UL/EFT/2018/V1/ZJetsToNuNu_HT-400To600_TuneCP5_13TeV-madgraphMLM-pythia8/fd804f718205269f4f0202a5809aeb932be9c056f9d8bfabf53a7c9b/000000_000000/0000/tree_81.root
/eos/cms/store/group/phys_higgs/ec/hbb/ntuples/VHbbPostNano/UL/EFT/2018/V1/ZJetsToNuNu_HT-400To600_TuneCP5_13TeV-madgraphMLM-pythia8/5f4575e3630b14cd25893a064dfe91f29174c3f27ad5c07b6f867b8b/000000_000000/0000/tree_82.root
/eos/cms/store/group/phys_higgs/ec/hbb/ntuples/VHbbPostNano/UL/EFT/2018/V1/ZJetsToNuNu_HT-400To600_TuneCP5_13TeV-madgraphMLM-pythia8/d35f248daff8e80ff9a1235a79f62b0f51d73fe15c33d23e0a52f847/000000_000000/0000/tree_83.root
/eos/cms/store/group/phys_higgs/ec/hbb/ntuples/VHbbPostNano/UL/EFT/2018/V1/ZJetsToNuNu_HT-400To600_TuneCP5_13TeV-madgraphMLM-pythia8/275ff32721dcadc96232eda61c8f2653c734dcd202ad791902c49a38/000000_000000/0000/tree_84.root
/eos/cms/store/group/phys_higgs/ec/hbb/ntuples/VHbbPostNano/UL/EFT/2018/V1/ZJetsToNuNu_HT-400To600_TuneCP5_13TeV-madgraphMLM-pythia8/179b701f465c7c511d555a01ef1c045677e5454d01e79de741450ef8/000000_000000/0000/tree_85.root
/eos/cms/store/group/phys_higgs/ec/hbb/ntuples/VHbbPostNano/UL/EFT/2018/V1/ZJetsToNuNu_HT-400To600_TuneCP5_13TeV-madgraphMLM-pythia8/e1ba18dd27b7952c35127b86fee98964be6c025418708f16140d775b/000000_000000/0000/tree_86.root
/eos/cms/store/group/phys_higgs/ec/hbb/ntuples/VHbbPostNano/UL/EFT/2018/V1/ZJetsToNuNu_HT-400To600_TuneCP5_13TeV-madgraphMLM-pythia8/7e1305a63e55b821c1b50f219d44d64230df02e9ee4b0f67cce577d9/000000_000000/0000/tree_87.root
/eos/cms/store/group/phys_higgs/ec/hbb/ntuples/VHbbPostNano/UL/EFT/2018/V1/ZJetsToNuNu_HT-400To600_TuneCP5_13TeV-madgraphMLM-pythia8/c52f1caccdf2e5e00df5222a81b0ebb1973cb6d866df7794b93348d2/000000_000000/0000/tree_88.root
/eos/cms/store/group/phys_higgs/ec/hbb/ntuples/VHbbPostNano/UL/EFT/2018/V1/ZJetsToNuNu_HT-400To600_TuneCP5_13TeV-madgraphMLM-pythia8/d113280d8e8553f045d1c13d0958ab4e9e184b48ba31af6f239c3652/000000_000000/0000/tree_89.root
/eos/cms/store/group/phys_higgs/ec/hbb/ntuples/VHbbPostNano/UL/EFT/2018/V1/ZJetsToNuNu_HT-400To600_TuneCP5_13TeV-madgraphMLM-pythia8/5c954363af7696cc218c250ec25d3be33ef005e94691c67bc5c2c428/000000_000000/0000/tree_90.root
/eos/cms/store/group/phys_higgs/ec/hbb/ntuples/VHbbPostNano/UL/EFT/2018/V1/ZJetsToNuNu_HT-400To600_TuneCP5_13TeV-madgraphMLM-pythia8/2058bb9134fdefc3c5546fb09a593f17bfb5e3013f2fb9cafa916d78/000000_000000/0000/tree_91.root
/eos/cms/store/group/phys_higgs/ec/hbb/ntuples/VHbbPostNano/UL/EFT/2018/V1/ZJetsToNuNu_HT-400To600_TuneCP5_13TeV-madgraphMLM-pythia8/6bd8f62109ae91bc3caff251afdf1f6cdc7bda0fa552ceaf2720acd6/000000_000000/0000/tree_92.root
/eos/cms/store/group/phys_higgs/ec/hbb/ntuples/VHbbPostNano/UL/EFT/2018/V1/ZJetsToNuNu_HT-400To600_TuneCP5_13TeV-madgraphMLM-pythia8/57064ca36cb16891f02f7f86b3fbd8617da3f086470b46b799fb4172/000000_000000/0000/tree_93.root
/eos/cms/store/group/phys_higgs/ec/hbb/ntuples/VHbbPostNano/UL/EFT/2018/V1/ZJetsToNuNu_HT-400To600_TuneCP5_13TeV-madgraphMLM-pythia8/74390e061d6bb51022d8d8a7c1adf3b96c2564c40e7e8636d2d63805/000000_000000/0000/tree_94.root
/eos/cms/store/group/phys_higgs/ec/hbb/ntuples/VHbbPostNano/UL/EFT/2018/V1/ZJetsToNuNu_HT-400To600_TuneCP5_13TeV-madgraphMLM-pythia8/332ed785b4207535c4b62b988b8b43aec7e75316ea52bb2c91d4f730/000000_000000/0000/tree_95.root
/eos/cms/store/group/phys_higgs/ec/hbb/ntuples/VHbbPostNano/UL/EFT/2018/V1/ZJetsToNuNu_HT-400To600_TuneCP5_13TeV-madgraphMLM-pythia8/eaf89300123cdc8b3d95b5ecb3ccec13f54dbe31d6a1e82e03c1ee23/000000_000000/0000/tree_96.root
/eos/cms/store/group/phys_higgs/ec/hbb/ntuples/VHbbPostNano/UL/EFT/2018/V1/ZJetsToNuNu_HT-400To600_TuneCP5_13TeV-madgraphMLM-pythia8/c27d6aa7d7733576824e16f4f794ca930fbbf01a9fcfc221a8951c14/000000_000000/0000/tree_97.root
/eos/cms/store/group/phys_higgs/ec/hbb/ntuples/VHbbPostNano/UL/EFT/2018/V1/ZJetsToNuNu_HT-400To600_TuneCP5_13TeV-madgraphMLM-pythia8/2ac0347be3a3fde2109e5be4d49a33bfb04609acb8882f5c82e953e8/000000_000000/0000/tree_98.root
/eos/cms/store/group/phys_higgs/ec/hbb/ntuples/VHbbPostNano/UL/EFT/2018/V1/ZJetsToNuNu_HT-400To600_TuneCP5_13TeV-madgraphMLM-pythia8/ce199c7ffcc3bad626498dd92329f2ba887774d9c2003ad4fe8c8419/000000_000000/0000/tree_99.root
/eos/cms/store/group/phys_higgs/ec/hbb/ntuples/VHbbPostNano/UL/EFT/2018/V1/ZJetsToNuNu_HT-400To600_TuneCP5_13TeV-madgraphMLM-pythia8/dc9daae46320126a9696f471bc5c4cddd91ab58df5a6b49e9bfa7a10/000000_000000/0000/tree_100.root
/eos/cms/store/group/phys_higgs/ec/hbb/ntuples/VHbbPostNano/UL/EFT/2018/V1/ZJetsToNuNu_HT-400To600_TuneCP5_13TeV-madgraphMLM-pythia8/804e2e25161f5f818a6d47eae81ae431d35970ae3c181493368cc6c6/000000_000000/0000/tree_101.root
/eos/cms/store/group/phys_higgs/ec/hbb/ntuples/VHbbPostNano/UL/EFT/2018/V1/ZJetsToNuNu_HT-400To600_TuneCP5_13TeV-madgraphMLM-pythia8/9a6a43f51e2bc3ede78c8c228c1cdf0e9eaac36c2df4ad0e2c61a258/000000_000000/0000/tree_102.root
/eos/cms/store/group/phys_higgs/ec/hbb/ntuples/VHbbPostNano/UL/EFT/2018/V1/ZJetsToNuNu_HT-400To600_TuneCP5_13TeV-madgraphMLM-pythia8/3b6c3245e2191d2fecc910966cb4eff3db8cd658f877a13445727b1b/000000_000000/0000/tree_103.root
/eos/cms/store/group/phys_higgs/ec/hbb/ntuples/VHbbPostNano/UL/EFT/2018/V1/ZJetsToNuNu_HT-400To600_TuneCP5_13TeV-madgraphMLM-pythia8/556c1dd62b4f3031c18086184a08028f122d98802a4cacf85714b97e/000000_000000/0000/tree_104.root
/eos/cms/store/group/phys_higgs/ec/hbb/ntuples/VHbbPostNano/UL/EFT/2018/V1/ZJetsToNuNu_HT-400To600_TuneCP5_13TeV-madgraphMLM-pythia8/2eb2c23713c9a74d7f3d87105e3153de48ed550606bac1982431595c/000000_000000/0000/tree_105.root
/eos/cms/store/group/phys_higgs/ec/hbb/ntuples/VHbbPostNano/UL/EFT/2018/V1/ZJetsToNuNu_HT-400To600_TuneCP5_13TeV-madgraphMLM-pythia8/719037ea49db0f5a6227244cbfab30806877125fa3298169d3fc3639/000000_000000/0000/tree_106.root
/eos/cms/store/group/phys_higgs/ec/hbb/ntuples/VHbbPostNano/UL/EFT/2018/V1/ZJetsToNuNu_HT-400To600_TuneCP5_13TeV-madgraphMLM-pythia8/330563d945e4cede59d4dbb8a511bc79d55fd1fc86610e48ba3369af/000000_000000/0000/tree_107.root
/eos/cms/store/group/phys_higgs/ec/hbb/ntuples/VHbbPostNano/UL/EFT/2018/V1/ZJetsToNuNu_HT-400To600_TuneCP5_13TeV-madgraphMLM-pythia8/32f3fbbad2572d8a65c83731f75f88f5ad1363b7dc72a297cd02a8ef/000000_000000/0000/tree_108.root
/eos/cms/store/group/phys_higgs/ec/hbb/ntuples/VHbbPostNano/UL/EFT/2018/V1/ZJetsToNuNu_HT-400To600_TuneCP5_13TeV-madgraphMLM-pythia8/2dcb0396fc1c025d9c52fb2f096bebb6ba2c20862c3b362d6d352bef/000000_000000/0000/tree_109.root
/eos/cms/store/group/phys_higgs/ec/hbb/ntuples/VHbbPostNano/UL/EFT/2018/V1/ZJetsToNuNu_HT-400To600_TuneCP5_13TeV-madgraphMLM-pythia8/17fc98f8e4e2267a9d132dc43cec428dd6bae26497d810c2a4fc2cc0/000000_000000/0000/tree_110.root
/eos/cms/store/group/phys_higgs/ec/hbb/ntuples/VHbbPostNano/UL/EFT/2018/V1/ZJetsToNuNu_HT-400To600_TuneCP5_13TeV-madgraphMLM-pythia8/f0a29b9eb3dd0dbf2eedb3d7ad4fc7327f533afcab6b72c60950fed3/000000_000000/0000/tree_111.root
/eos/cms/store/group/phys_higgs/ec/hbb/ntuples/VHbbPostNano/UL/EFT/2018/V1/ZJetsToNuNu_HT-400To600_TuneCP5_13TeV-madgraphMLM-pythia8/f36db7d2599a0c165b2641479e07845006602e11f127b5545a21446d/000000_000000/0000/tree_112.root
/eos/cms/store/group/phys_higgs/ec/hbb/ntuples/VHbbPostNano/UL/EFT/2018/V1/ZJetsToNuNu_HT-400To600_TuneCP5_13TeV-madgraphMLM-pythia8/38debf409beb66249059df2c9ac320c24b19523e6a4cd3e9abb4ecbc/000000_000000/0000/tree_113.root
/eos/cms/store/group/phys_higgs/ec/hbb/ntuples/VHbbPostNano/UL/EFT/2018/V1/ZJetsToNuNu_HT-400To600_TuneCP5_13TeV-madgraphMLM-pythia8/947c5090ad1d78355314ab61d718241a4aaccd713aae3a95970e5bb3/000000_000000/0000/tree_114.root
/eos/cms/store/group/phys_higgs/ec/hbb/ntuples/VHbbPostNano/UL/EFT/2018/V1/ZJetsToNuNu_HT-400To600_TuneCP5_13TeV-madgraphMLM-pythia8/5074de33401af68544dc73a5f0e549b005c78fcff676fbca86ac1768/000000_000000/0000/tree_115.root
/eos/cms/store/group/phys_higgs/ec/hbb/ntuples/VHbbPostNano/UL/EFT/2018/V1/ZJetsToNuNu_HT-400To600_TuneCP5_13TeV-madgraphMLM-pythia8/37b165f455a4cdf03feca73694bfbfc15aa2fa10275a394f60ee1224/000000_000000/0000/tree_116.root
/eos/cms/store/group/phys_higgs/ec/hbb/ntuples/VHbbPostNano/UL/EFT/2018/V1/ZJetsToNuNu_HT-400To600_TuneCP5_13TeV-madgraphMLM-pythia8/03a607ce282ea61669194b5201361eb59e169645d438360525f41906/000000_000000/0000/tree_117.root
/eos/cms/store/group/phys_higgs/ec/hbb/ntuples/VHbbPostNano/UL/EFT/2018/V1/ZJetsToNuNu_HT-400To600_TuneCP5_13TeV-madgraphMLM-pythia8/1a3afe85375ba7e5d423d5748fb9c550068490c0cfb437f17e9b5f51/000000_000000/0000/tree_118.root
/eos/cms/store/group/phys_higgs/ec/hbb/ntuples/VHbbPostNano/UL/EFT/2018/V1/ZJetsToNuNu_HT-400To600_TuneCP5_13TeV-madgraphMLM-pythia8/95fe50733f4d0d7169d18ddaeab0a90b168e7088b283ef560f2395b0/000000_000000/0000/tree_119.root
/eos/cms/store/group/phys_higgs/ec/hbb/ntuples/VHbbPostNano/UL/EFT/2018/V1/ZJetsToNuNu_HT-400To600_TuneCP5_13TeV-madgraphMLM-pythia8/d662fe504a0ce766247db51556cd9d00c0498747d409623a77fa300c/000000_000000/0000/tree_120.root
/eos/cms/store/group/phys_higgs/ec/hbb/ntuples/VHbbPostNano/UL/EFT/2018/V1/ZJetsToNuNu_HT-400To600_TuneCP5_13TeV-madgraphMLM-pythia8/36dd7a0e3826869ed156fd9d0fa8c7ff1b9924f7c2066bf37bed0491/000000_000000/0000/tree_121.root
/eos/cms/store/group/phys_higgs/ec/hbb/ntuples/VHbbPostNano/UL/EFT/2018/V1/ZJetsToNuNu_HT-400To600_TuneCP5_13TeV-madgraphMLM-pythia8/a0161a3ca51acc8dd8c90c30f8fc210dd064f3f0b8923fe52711b2bb/000000_000000/0000/tree_122.root
/eos/cms/store/group/phys_higgs/ec/hbb/ntuples/VHbbPostNano/UL/EFT/2018/V1/ZJetsToNuNu_HT-400To600_TuneCP5_13TeV-madgraphMLM-pythia8/39e1aa354b8a478f0c2d7f4fa4e9ef6ad3d0eca236492d116b751e35/000000_000000/0000/tree_123.root
/eos/cms/store/group/phys_higgs/ec/hbb/ntuples/VHbbPostNano/UL/EFT/2018/V1/ZJetsToNuNu_HT-400To600_TuneCP5_13TeV-madgraphMLM-pythia8/658f309e90767e4d655e2559e1c0636d1f85ab78998c5b7c0993ada7/000000_000000/0000/tree_124.root
/eos/cms/store/group/phys_higgs/ec/hbb/ntuples/VHbbPostNano/UL/EFT/2018/V1/ZJetsToNuNu_HT-400To600_TuneCP5_13TeV-madgraphMLM-pythia8/1a9ce917362ac1ea37d77799261b7d4e1012ecf0ef8d4c2187c11888/000000_000000/0000/tree_125.root
/eos/cms/store/group/phys_higgs/ec/hbb/ntuples/VHbbPostNano/UL/EFT/2018/V1/ZJetsToNuNu_HT-400To600_TuneCP5_13TeV-madgraphMLM-pythia8/9e6992fa15daf2d8dc7fc5939c332b0904b57b77fe946c8dce6da08b/000000_000000/0000/tree_126.root
/eos/cms/store/group/phys_higgs/ec/hbb/ntuples/VHbbPostNano/UL/EFT/2018/V1/ZJetsToNuNu_HT-400To600_TuneCP5_13TeV-madgraphMLM-pythia8/17ef590620463c3ec44360f11b6f1ea72234654d47dd3872e1cde203/000000_000000/0000/tree_127.root
/eos/cms/store/group/phys_higgs/ec/hbb/ntuples/VHbbPostNano/UL/EFT/2018/V1/ZJetsToNuNu_HT-400To600_TuneCP5_13TeV-madgraphMLM-pythia8/347971878c57c725e29ce67441940f595821476b9354c4d32488a637/000000_000000/0000/tree_128.root
/eos/cms/store/group/phys_higgs/ec/hbb/ntuples/VHbbPostNano/UL/EFT/2018/V1/ZJetsToNuNu_HT-400To600_TuneCP5_13TeV-madgraphMLM-pythia8/dff85207a18a45e84d4f38c2846ca9752e23cd7d961eb3effd39b479/000000_000000/0000/tree_129.root
/eos/cms/store/group/phys_higgs/ec/hbb/ntuples/VHbbPostNano/UL/EFT/2018/V1/ZJetsToNuNu_HT-400To600_TuneCP5_13TeV-madgraphMLM-pythia8/02abb8cdf4b9e86b028163bb792edef86a8ac17b5dad84b382ba324d/000000_000000/0000/tree_130.root
/eos/cms/store/group/phys_higgs/ec/hbb/ntuples/VHbbPostNano/UL/EFT/2018/V1/ZJetsToNuNu_HT-400To600_TuneCP5_13TeV-madgraphMLM-pythia8/1ece6ecde7acec6e20c7eb5785776d5033d0986f4c539dd44ab3894b/000000_000000/0000/tree_131.root
/eos/cms/store/group/phys_higgs/ec/hbb/ntuples/VHbbPostNano/UL/EFT/2018/V1/ZJetsToNuNu_HT-400To600_TuneCP5_13TeV-madgraphMLM-pythia8/49d2979d41ff3545df33e5b0e86d9121d9976e77926bf3569206e44b/000000_000000/0000/tree_132.root
/eos/cms/store/group/phys_higgs/ec/hbb/ntuples/VHbbPostNano/UL/EFT/2018/V1/ZJetsToNuNu_HT-400To600_TuneCP5_13TeV-madgraphMLM-pythia8/0a2cce9137bb40961427f159a0e72b20fe89c077a1aa1afef13b44ad/000000_000000/0000/tree_133.root