/eos/cms/store/group/phys_higgs/ec/hbb/ntuples/VHbbPostNano/UL/EFT/2018/V1/ZJetsToNuNu_HT-600To800_TuneCP5_13TeV-madgraphMLM-pythia8/a5b39bf224b5154f978d5b555306754b3d273ac80794d418a158e10a/000000_000000/0000/tree_0.root
/eos/cms/store/group/phys_higgs/ec/hbb/ntuples/VHbbPostNano/UL/EFT/2018/V1/ZJetsToNuNu_HT-600To800_TuneCP5_13TeV-madgraphMLM-pythia8/d509e52b8fac74940bab3ab92972f8ab0f92ee3569da22a5e1e29551/000000_000000/0000/tree_1.root
/eos/cms/store/group/phys_higgs/ec/hbb/ntuples/VHbbPostNano/UL/EFT/2018/V1/ZJetsToNuNu_HT-600To800_TuneCP5_13TeV-madgraphMLM-pythia8/7e522af3faa3a384231b74a684a4891b7b396ff93a7aa679202711f8/000000_000000/0000/tree_2.root
/eos/cms/store/group/phys_higgs/ec/hbb/ntuples/VHbbPostNano/UL/EFT/2018/V1/ZJetsToNuNu_HT-600To800_TuneCP5_13TeV-madgraphMLM-pythia8/ffba629149ecc5f929153f9634e61c2507c95f911d5468421250a3ff/000000_000000/0000/tree_3.root
/eos/cms/store/group/phys_higgs/ec/hbb/ntuples/VHbbPostNano/UL/EFT/2018/V1/ZJetsToNuNu_HT-600To800_TuneCP5_13TeV-madgraphMLM-pythia8/9e601f7e87402b05dc9661b7bf3eddd0c59be55d2ba6489c9495ab3d/000000_000000/0000/tree_4.root
/eos/cms/store/group/phys_higgs/ec/hbb/ntuples/VHbbPostNano/UL/EFT/2018/V1/ZJetsToNuNu_HT-600To800_TuneCP5_13TeV-madgraphMLM-pythia8/6b2c912b3098fe78d906d484f11942474cd900cde021a2cca9170718/000000_000000/0000/tree_5.root
/eos/cms/store/group/phys_higgs/ec/hbb/ntuples/VHbbPostNano/UL/EFT/2018/V1/ZJetsToNuNu_HT-600To800_TuneCP5_13TeV-madgraphMLM-pythia8/267b08d7703945cb63bdd796b0046b24262c733c4facc1798dce7458/000000_000000/0000/tree_6.root
/eos/cms/store/group/phys_higgs/ec/hbb/ntuples/VHbbPostNano/UL/EFT/2018/V1/ZJetsToNuNu_HT-600To800_TuneCP5_13TeV-madgraphMLM-pythia8/8a98c2b9fcdf241bfdf5ecb91a2a24ea0e42f6e58a4e2d2bd2de56de/000000_000000/0000/tree_7.root
/eos/cms/store/group/phys_higgs/ec/hbb/ntuples/VHbbPostNano/UL/EFT/2018/V1/ZJetsToNuNu_HT-600To800_TuneCP5_13TeV-madgraphMLM-pythia8/6a3928b8dbda385cc0086bedf89c0f14e4b32c1a8381adf0511009aa/000000_000000/0000/tree_8.root
/eos/cms/store/group/phys_higgs/ec/hbb/ntuples/VHbbPostNano/UL/EFT/2018/V1/ZJetsToNuNu_HT-600To800_TuneCP5_13TeV-madgraphMLM-pythia8/ed6a56814edfee35cfd4c56de66cffbf8c85d28650b6e6093b587283/000000_000000/0000/tree_9.root
/eos/cms/store/group/phys_higgs/ec/hbb/ntuples/VHbbPostNano/UL/EFT/2018/V1/ZJetsToNuNu_HT-600To800_TuneCP5_13TeV-madgraphMLM-pythia8/1a59374871084d1ed1e38438cbf7102da10d794caac668f4b18822e9/000000_000000/0000/tree_10.root
/eos/cms/store/group/phys_higgs/ec/hbb/ntuples/VHbbPostNano/UL/EFT/2018/V1/ZJetsToNuNu_HT-600To800_TuneCP5_13TeV-madgraphMLM-pythia8/891fb3b18ce6d3af1567666fa5591e1bbcc48cca262aef4e99ae95ae/000000_000000/0000/tree_11.root
/eos/cms/store/group/phys_higgs/ec/hbb/ntuples/VHbbPostNano/UL/EFT/2018/V1/ZJetsToNuNu_HT-600To800_TuneCP5_13TeV-madgraphMLM-pythia8/209714649e14c19855f90d2998289a2b4defae7941fd2146be87e586/000000_000000/0000/tree_12.root
/eos/cms/store/group/phys_higgs/ec/hbb/ntuples/VHbbPostNano/UL/EFT/2018/V1/ZJetsToNuNu_HT-600To800_TuneCP5_13TeV-madgraphMLM-pythia8/899002be1463962ad5ace547d00f783e6675eac586edcf97b23ce3a2/000000_000000/0000/tree_13.root
/eos/cms/store/group/phys_higgs/ec/hbb/ntuples/VHbbPostNano/UL/EFT/2018/V1/ZJetsToNuNu_HT-600To800_TuneCP5_13TeV-madgraphMLM-pythia8/17421bfb6546b2ea7826091f9737b3e8bdf2d0b0399eddef45160b4a/000000_000000/0000/tree_14.root
/eos/cms/store/group/phys_higgs/ec/hbb/ntuples/VHbbPostNano/UL/EFT/2018/V1/ZJetsToNuNu_HT-600To800_TuneCP5_13TeV-madgraphMLM-pythia8/80f8c4b5e502021b457786b3cc6b60b79202fa5ddf1279080bb858f5/000000_000000/0000/tree_15.root
/eos/cms/store/group/phys_higgs/ec/hbb/ntuples/VHbbPostNano/UL/EFT/2018/V1/ZJetsToNuNu_HT-600To800_TuneCP5_13TeV-madgraphMLM-pythia8/dfda6db9043fec259f49430e3c495ec4f3c690fb197b52b469abd1cf/000000_000000/0000/tree_16.root
/eos/cms/store/group/phys_higgs/ec/hbb/ntuples/VHbbPostNano/UL/EFT/2018/V1/ZJetsToNuNu_HT-600To800_TuneCP5_13TeV-madgraphMLM-pythia8/aefdeab9b6397f13f81b3db9d2a433f2a82a58026a4a23f462680e0d/000000_000000/0000/tree_17.root
/eos/cms/store/group/phys_higgs/ec/hbb/ntuples/VHbbPostNano/UL/EFT/2018/V1/ZJetsToNuNu_HT-600To800_TuneCP5_13TeV-madgraphMLM-pythia8/6b10bc1e456add45faf451f4c999871e65d89fc041924357e442403e/000000_000000/0000/tree_18.root
/eos/cms/store/group/phys_higgs/ec/hbb/ntuples/VHbbPostNano/UL/EFT/2018/V1/ZJetsToNuNu_HT-600To800_TuneCP5_13TeV-madgraphMLM-pythia8/105cefe71cde5ebc84704c09dcdac52ac550464983dba1805feaca0f/000000_000000/0000/tree_19.root
/eos/cms/store/group/phys_higgs/ec/hbb/ntuples/VHbbPostNano/UL/EFT/2018/V1/ZJetsToNuNu_HT-600To800_TuneCP5_13TeV-madgraphMLM-pythia8/b6b53ffb790bf2604733de88bf822292e576570d59bfc3704e5f3ee0/000000_000000/0000/tree_20.root
/eos/cms/store/group/phys_higgs/ec/hbb/ntuples/VHbbPostNano/UL/EFT/2018/V1/ZJetsToNuNu_HT-600To800_TuneCP5_13TeV-madgraphMLM-pythia8/0d8c2aab3ba58f7a758577312f28ce65e093f18620d4262b1d0f008b/000000_000000/0000/tree_21.root
/eos/cms/store/group/phys_higgs/ec/hbb/ntuples/VHbbPostNano/UL/EFT/2018/V1/ZJetsToNuNu_HT-600To800_TuneCP5_13TeV-madgraphMLM-pythia8/2b066e8b1efe503de5df69ff6afab844811392671fb16fb2f39e7ee3/000000_000000/0000/tree_22.root
/eos/cms/store/group/phys_higgs/ec/hbb/ntuples/VHbbPostNano/UL/EFT/2018/V1/ZJetsToNuNu_HT-600To800_TuneCP5_13TeV-madgraphMLM-pythia8/e4b1434a53375fce48755dce7e1312d7e99c477fab96809d00e00ea0/000000_000000/0000/tree_23.root
/eos/cms/store/group/phys_higgs/ec/hbb/ntuples/VHbbPostNano/UL/EFT/2018/V1/ZJetsToNuNu_HT-600To800_TuneCP5_13TeV-madgraphMLM-pythia8/12e250a2ff0addbf930286d6f649764683bb541b79a22a4025ed9800/000000_000000/0000/tree_24.root
/eos/cms/store/group/phys_higgs/ec/hbb/ntuples/VHbbPostNano/UL/EFT/2018/V1/ZJetsToNuNu_HT-600To800_TuneCP5_13TeV-madgraphMLM-pythia8/1152c5c5f29b71c02b29602511812d191c875f4daf0879e2caf89ce6/000000_000000/0000/tree_25.root
/eos/cms/store/group/phys_higgs/ec/hbb/ntuples/VHbbPostNano/UL/EFT/2018/V1/ZJetsToNuNu_HT-600To800_TuneCP5_13TeV-madgraphMLM-pythia8/c0b3ba569b7ae5d3cbbe20f05ae49bfcb5d51b4a7084f5da3367e3e4/000000_000000/0000/tree_26.root
/eos/cms/store/group/phys_higgs/ec/hbb/ntuples/VHbbPostNano/UL/EFT/2018/V1/ZJetsToNuNu_HT-600To800_TuneCP5_13TeV-madgraphMLM-pythia8/bc484eac451a3438f29ff7f70604210bd610980601e043424333bf0b/000000_000000/0000/tree_27.root
/eos/cms/store/group/phys_higgs/ec/hbb/ntuples/VHbbPostNano/UL/EFT/2018/V1/ZJetsToNuNu_HT-600To800_TuneCP5_13TeV-madgraphMLM-pythia8/2da5c30e236245fba1d8cafb39e5bdb5fc668cf1b18b1eda5f5fee3e/000000_000000/0000/tree_28.root
/eos/cms/store/group/phys_higgs/ec/hbb/ntuples/VHbbPostNano/UL/EFT/2018/V1/ZJetsToNuNu_HT-600To800_TuneCP5_13TeV-madgraphMLM-pythia8/c617db8c4fa91947d885a6223290b2d342f2bb63133e58e6065c8e1b/000000_000000/0000/tree_29.root
/eos/cms/store/group/phys_higgs/ec/hbb/ntuples/VHbbPostNano/UL/EFT/2018/V1/ZJetsToNuNu_HT-600To800_TuneCP5_13TeV-madgraphMLM-pythia8/5a9c554d7a6c937c796e29d37827c974056cbd9664f24aa98383562d/000000_000000/0000/tree_30.root
/eos/cms/store/group/phys_higgs/ec/hbb/ntuples/VHbbPostNano/UL/EFT/2018/V1/ZJetsToNuNu_HT-600To800_TuneCP5_13TeV-madgraphMLM-pythia8/154d9eacc31792b7e6a5eb58c286386cff58648a7d6c35687537f8a8/000000_000000/0000/tree_31.root
/eos/cms/store/group/phys_higgs/ec/hbb/ntuples/VHbbPostNano/UL/EFT/2018/V1/ZJetsToNuNu_HT-600To800_TuneCP5_13TeV-madgraphMLM-pythia8/45b8e3c6407ed5b00a2946966cf1b83934a0b1d34a0ab8aab9910780/000000_000000/0000/tree_32.root
/eos/cms/store/group/phys_higgs/ec/hbb/ntuples/VHbbPostNano/UL/EFT/2018/V1/ZJetsToNuNu_HT-600To800_TuneCP5_13TeV-madgraphMLM-pythia8/9cbf216dac7233ce90c3a044e3c3dbb388ac804e87f082f260dd2a56/000000_000000/0000/tree_33.root
/eos/cms/store/group/phys_higgs/ec/hbb/ntuples/VHbbPostNano/UL/EFT/2018/V1/ZJetsToNuNu_HT-600To800_TuneCP5_13TeV-madgraphMLM-pythia8/be79da806490b16de33f3552a9aa8aebabe32d837b685b5b81187187/000000_000000/0000/tree_34.root
/eos/cms/store/group/phys_higgs/ec/hbb/ntuples/VHbbPostNano/UL/EFT/2018/V1/ZJetsToNuNu_HT-600To800_TuneCP5_13TeV-madgraphMLM-pythia8/95a41e4592bdf463bb14dd7cd44d127350314882e016fa1f2f5b87da/000000_000000/0000/tree_35.root
/eos/cms/store/group/phys_higgs/ec/hbb/ntuples/VHbbPostNano/UL/EFT/2018/V1/ZJetsToNuNu_HT-600To800_TuneCP5_13TeV-madgraphMLM-pythia8/df25fece22b8a84c999e40614609941eedd4eedb7f94ea60f34940c3/000000_000000/0000/tree_36.root
/eos/cms/store/group/phys_higgs/ec/hbb/ntuples/VHbbPostNano/UL/EFT/2018/V1/ZJetsToNuNu_HT-600To800_TuneCP5_13TeV-madgraphMLM-pythia8/fd3049cdc31d09e691f7307d736bccfbf8892d785fba0433975a0a06/000000_000000/0000/tree_37.root
/eos/cms/store/group/phys_higgs/ec/hbb/ntuples/VHbbPostNano/UL/EFT/2018/V1/ZJetsToNuNu_HT-600To800_TuneCP5_13TeV-madgraphMLM-pythia8/d295d70c62d2e710219de650ff290ec725ad960af612af0e160ce907/000000_000000/0000/tree_38.root
/eos/cms/store/group/phys_higgs/ec/hbb/ntuples/VHbbPostNano/UL/EFT/2018/V1/ZJetsToNuNu_HT-600To800_TuneCP5_13TeV-madgraphMLM-pythia8/02bd8b088eb65d27d365b987cad4bc1791f3fba3f1d44c2c0bb977c4/000000_000000/0000/tree_39.root
/eos/cms/store/group/phys_higgs/ec/hbb/ntuples/VHbbPostNano/UL/EFT/2018/V1/ZJetsToNuNu_HT-600To800_TuneCP5_13TeV-madgraphMLM-pythia8/4b3c4db9f47b98f3ed769e19762fb72bfe357faa50e4a9b069e71164/000000_000000/0000/tree_40.root
/eos/cms/store/group/phys_higgs/ec/hbb/ntuples/VHbbPostNano/UL/EFT/2018/V1/ZJetsToNuNu_HT-600To800_TuneCP5_13TeV-madgraphMLM-pythia8/36e19c1b69614c559f8960a83de445b792515c5b11185ad4f33d2450/000000_000000/0000/tree_41.root
/eos/cms/store/group/phys_higgs/ec/hbb/ntuples/VHbbPostNano/UL/EFT/2018/V1/ZJetsToNuNu_HT-600To800_TuneCP5_13TeV-madgraphMLM-pythia8/66e6d1fc4900c2095ab4734525672d4d0c167abbaad8c538ca741926/000000_000000/0000/tree_42.root
/eos/cms/store/group/phys_higgs/ec/hbb/ntuples/VHbbPostNano/UL/EFT/2018/V1/ZJetsToNuNu_HT-600To800_TuneCP5_13TeV-madgraphMLM-pythia8/ebb2dd273fe7ee61c766a95944ab4a272afb7038a86a18e575128ba2/000000_000000/0000/tree_43.root
/eos/cms/store/group/phys_higgs/ec/hbb/ntuples/VHbbPostNano/UL/EFT/2018/V1/ZJetsToNuNu_HT-600To800_TuneCP5_13TeV-madgraphMLM-pythia8/98b423eb6babb56f3cac4a2487bdaaa9fefbf1b652f0de6b50a173c7/000000_000000/0000/tree_44.root
/eos/cms/store/group/phys_higgs/ec/hbb/ntuples/VHbbPostNano/UL/EFT/2018/V1/ZJetsToNuNu_HT-600To800_TuneCP5_13TeV-madgraphMLM-pythia8/0c6dbe1c76695da7703fffca84d287c6009b77f38a0d373cb08da005/000000_000000/0000/tree_45.root
/eos/cms/store/group/phys_higgs/ec/hbb/ntuples/VHbbPostNano/UL/EFT/2018/V1/ZJetsToNuNu_HT-600To800_TuneCP5_13TeV-madgraphMLM-pythia8/fa268fe1d491d40381557e392c243cda7185e01410342cdd4cf5b2fd/000000_000000/0000/tree_46.root
/eos/cms/store/group/phys_higgs/ec/hbb/ntuples/VHbbPostNano/UL/EFT/2018/V1/ZJetsToNuNu_HT-600To800_TuneCP5_13TeV-madgraphMLM-pythia8/26a432ab60418e6507fa84d7cbae6b1ce2091635b06dec4be8b90bab/000000_000000/0000/tree_47.root
/eos/cms/store/group/phys_higgs/ec/hbb/ntuples/VHbbPostNano/UL/EFT/2018/V1/ZJetsToNuNu_HT-600To800_TuneCP5_13TeV-madgraphMLM-pythia8/c149fa6e75760380f11ce0a7b7036ca858e3138b685aee22c1380e81/000000_000000/0000/tree_48.root
/eos/cms/store/group/phys_higgs/ec/hbb/ntuples/VHbbPostNano/UL/EFT/2018/V1/ZJetsToNuNu_HT-600To800_TuneCP5_13TeV-madgraphMLM-pythia8/cfd3f887dd3abc563544e84914170918ca4410fe66f72fe749d8ed5b/000000_000000/0000/tree_49.root
/eos/cms/store/group/phys_higgs/ec/hbb/ntuples/VHbbPostNano/UL/EFT/2018/V1/ZJetsToNuNu_HT-600To800_TuneCP5_13TeV-madgraphMLM-pythia8/7a7ee6b8e140cd5dae1df7709d51022c0a3c04b6479605b951745edd/000000_000000/0000/tree_50.root
/eos/cms/store/group/phys_higgs/ec/hbb/ntuples/VHbbPostNano/UL/EFT/2018/V1/ZJetsToNuNu_HT-600To800_TuneCP5_13TeV-madgraphMLM-pythia8/334962bc5d9d676ec10503695be4d9e7db3aaa011c4ce0c7e959fc7c/000000_000000/0000/tree_51.root
/eos/cms/store/group/phys_higgs/ec/hbb/ntuples/VHbbPostNano/UL/EFT/2018/V1/ZJetsToNuNu_HT-600To800_TuneCP5_13TeV-madgraphMLM-pythia8/0874c61f1407d4b10c16efd2723937e0dd09f3028a3e4b3be246a7cf/000000_000000/0000/tree_52.root
/eos/cms/store/group/phys_higgs/ec/hbb/ntuples/VHbbPostNano/UL/EFT/2018/V1/ZJetsToNuNu_HT-600To800_TuneCP5_13TeV-madgraphMLM-pythia8/37f03d6d5ea7a02b6b987e4af7fef40d1ed45ce1caabd63765c13448/000000_000000/0000/tree_53.root
/eos/cms/store/group/phys_higgs/ec/hbb/ntuples/VHbbPostNano/UL/EFT/2018/V1/ZJetsToNuNu_HT-600To800_TuneCP5_13TeV-madgraphMLM-pythia8/4cc13792873991f021597a8a7839d76babc76a13ff62c2ab3e9c5c11/000000_000000/0000/tree_54.root
/eos/cms/store/group/phys_higgs/ec/hbb/ntuples/VHbbPostNano/UL/EFT/2018/V1/ZJetsToNuNu_HT-600To800_TuneCP5_13TeV-madgraphMLM-pythia8/499d0ebf09f56b43f9d782cbfbf10f73fdd081d5cf51345bdbe81b45/000000_000000/0000/tree_55.root
/eos/cms/store/group/phys_higgs/ec/hbb/ntuples/VHbbPostNano/UL/EFT/2018/V1/ZJetsToNuNu_HT-600To800_TuneCP5_13TeV-madgraphMLM-pythia8/1fe2fd5b63c1b478795586d2cea425f746b7a6d10aef7ed1d24a7788/000000_000000/0000/tree_56.root
/eos/cms/store/group/phys_higgs/ec/hbb/ntuples/VHbbPostNano/UL/EFT/2018/V1/ZJetsToNuNu_HT-600To800_TuneCP5_13TeV-madgraphMLM-pythia8/234a0ddf417e3de7097f4a22c52fd0973e098715098d603e5cfcd66d/000000_000000/0000/tree_57.root
/eos/cms/store/group/phys_higgs/ec/hbb/ntuples/VHbbPostNano/UL/EFT/2018/V1/ZJetsToNuNu_HT-600To800_TuneCP5_13TeV-madgraphMLM-pythia8/5ffc643a6089062430981a6d61fbab6711e08b301640342837fcfad4/000000_000000/0000/tree_58.root
/eos/cms/store/group/phys_higgs/ec/hbb/ntuples/VHbbPostNano/UL/EFT/2018/V1/ZJetsToNuNu_HT-600To800_TuneCP5_13TeV-madgraphMLM-pythia8/acab3b721be380e64f91ae197f4c8ebe49921ecda8ae218e3231425b/000000_000000/0000/tree_59.root
/eos/cms/store/group/phys_higgs/ec/hbb/ntuples/VHbbPostNano/UL/EFT/2018/V1/ZJetsToNuNu_HT-600To800_TuneCP5_13TeV-madgraphMLM-pythia8/9c4a79ddac3a409945fd2856e029afaedd90c843f7a4c948b8974e44/000000_000000/0000/tree_60.root
/eos/cms/store/group/phys_higgs/ec/hbb/ntuples/VHbbPostNano/UL/EFT/2018/V1/ZJetsToNuNu_HT-600To800_TuneCP5_13TeV-madgraphMLM-pythia8/a43e5e170fbf3dd180dad794c22fcdb3f203591b56b873812e39b42c/000000_000000/0000/tree_61.root