/eos/cms/store/group/phys_higgs/ec/hbb/ntuples/VHbbPostNano/UL/EFT/2018/V1/ZJetsToNuNu_HT-200To400_TuneCP5_13TeV-madgraphMLM-pythia8/c8e8aa37f18898899610f29171a0b5ed87becdbca9a35d3977ec1f6d/000000_000000/0000/tree_0.root
/eos/cms/store/group/phys_higgs/ec/hbb/ntuples/VHbbPostNano/UL/EFT/2018/V1/ZJetsToNuNu_HT-200To400_TuneCP5_13TeV-madgraphMLM-pythia8/5e9930e424fef14f604b9017caf39e8282ed38208acf37013834396f/000000_000000/0000/tree_1.root
/eos/cms/store/group/phys_higgs/ec/hbb/ntuples/VHbbPostNano/UL/EFT/2018/V1/ZJetsToNuNu_HT-200To400_TuneCP5_13TeV-madgraphMLM-pythia8/d62e1442d65ac4892c77fe2baeafbef4568eb9e6b4cd723ba7b00aa5/000000_000000/0000/tree_2.root
/eos/cms/store/group/phys_higgs/ec/hbb/ntuples/VHbbPostNano/UL/EFT/2018/V1/ZJetsToNuNu_HT-200To400_TuneCP5_13TeV-madgraphMLM-pythia8/4bdd3a314e1c785f51487da342ec0a0e3bdffea9083245cbdb2b57d8/000000_000000/0000/tree_3.root
/eos/cms/store/group/phys_higgs/ec/hbb/ntuples/VHbbPostNano/UL/EFT/2018/V1/ZJetsToNuNu_HT-200To400_TuneCP5_13TeV-madgraphMLM-pythia8/20acdbf0bd62575b4c8e0458b011a874bf0dafdf9e708f10dbfd27cc/000000_000000/0000/tree_4.root
/eos/cms/store/group/phys_higgs/ec/hbb/ntuples/VHbbPostNano/UL/EFT/2018/V1/ZJetsToNuNu_HT-200To400_TuneCP5_13TeV-madgraphMLM-pythia8/98bff89f0117c591ccfb23613613561f757cfb36a5a1422993301dcd/000000_000000/0000/tree_5.root
/eos/cms/store/group/phys_higgs/ec/hbb/ntuples/VHbbPostNano/UL/EFT/2018/V1/ZJetsToNuNu_HT-200To400_TuneCP5_13TeV-madgraphMLM-pythia8/1a910379ab9dd51ad105d78e49e7ae6cfed0a738e048b2e5a37ecef3/000000_000000/0000/tree_6.root
/eos/cms/store/group/phys_higgs/ec/hbb/ntuples/VHbbPostNano/UL/EFT/2018/V1/ZJetsToNuNu_HT-200To400_TuneCP5_13TeV-madgraphMLM-pythia8/5a1c934ed0f2b5f47cabf38f99a22ff370aeb140f251abec7d7b5a7a/000000_000000/0000/tree_7.root
/eos/cms/store/group/phys_higgs/ec/hbb/ntuples/VHbbPostNano/UL/EFT/2018/V1/ZJetsToNuNu_HT-200To400_TuneCP5_13TeV-madgraphMLM-pythia8/671e101a851670b12044673482f061506afc3d82f91f6647f7f86c2f/000000_000000/0000/tree_8.root
/eos/cms/store/group/phys_higgs/ec/hbb/ntuples/VHbbPostNano/UL/EFT/2018/V1/ZJetsToNuNu_HT-200To400_TuneCP5_13TeV-madgraphMLM-pythia8/a71489d37b2d5f4ec3008e7ea773c433240c657e4c9d4aca09592e91/000000_000000/0000/tree_9.root
/eos/cms/store/group/phys_higgs/ec/hbb/ntuples/VHbbPostNano/UL/EFT/2018/V1/ZJetsToNuNu_HT-200To400_TuneCP5_13TeV-madgraphMLM-pythia8/e5e0e223fd90a2f5566aae8d832f6c53dbe1e73b81d3535a9e45bd5e/000000_000000/0000/tree_10.root
/eos/cms/store/group/phys_higgs/ec/hbb/ntuples/VHbbPostNano/UL/EFT/2018/V1/ZJetsToNuNu_HT-200To400_TuneCP5_13TeV-madgraphMLM-pythia8/5cf9e3ca9fb1e53ad414d1ef8764c0891a293c2d131928ce07b2b99e/000000_000000/0000/tree_11.root
/eos/cms/store/group/phys_higgs/ec/hbb/ntuples/VHbbPostNano/UL/EFT/2018/V1/ZJetsToNuNu_HT-200To400_TuneCP5_13TeV-madgraphMLM-pythia8/472b88675808fd3ea5bc5065d39b6848111855d9431eb541de17cd1b/000000_000000/0000/tree_12.root
/eos/cms/store/group/phys_higgs/ec/hbb/ntuples/VHbbPostNano/UL/EFT/2018/V1/ZJetsToNuNu_HT-200To400_TuneCP5_13TeV-madgraphMLM-pythia8/a2a418eac0d3cc47e8873495acb5a77bc0b1be3d0b5899a4c2845ba1/000000_000000/0000/tree_13.root
/eos/cms/store/group/phys_higgs/ec/hbb/ntuples/VHbbPostNano/UL/EFT/2018/V1/ZJetsToNuNu_HT-200To400_TuneCP5_13TeV-madgraphMLM-pythia8/20e1259410c3585ede17a84a760510d4168844ebdccf0758267e9efa/000000_000000/0000/tree_14.root
/eos/cms/store/group/phys_higgs/ec/hbb/ntuples/VHbbPostNano/UL/EFT/2018/V1/ZJetsToNuNu_HT-200To400_TuneCP5_13TeV-madgraphMLM-pythia8/b9519daf121f687120d710279b9e6ae1b4feecc6c1c96bf261e19ae7/000000_000000/0000/tree_15.root
/eos/cms/store/group/phys_higgs/ec/hbb/ntuples/VHbbPostNano/UL/EFT/2018/V1/ZJetsToNuNu_HT-200To400_TuneCP5_13TeV-madgraphMLM-pythia8/1b26379395d809815cfd85edbc97aee3006b8be5ba1edeb994fa58c0/000000_000000/0000/tree_16.root
/eos/cms/store/group/phys_higgs/ec/hbb/ntuples/VHbbPostNano/UL/EFT/2018/V1/ZJetsToNuNu_HT-200To400_TuneCP5_13TeV-madgraphMLM-pythia8/972bc88bb7af26fd75621e7c108557efdf95ac589069b25d0c3492c8/000000_000000/0000/tree_17.root
/eos/cms/store/group/phys_higgs/ec/hbb/ntuples/VHbbPostNano/UL/EFT/2018/V1/ZJetsToNuNu_HT-200To400_TuneCP5_13TeV-madgraphMLM-pythia8/1a4402892b54af2bf621328e2cdb548e1130684b4e82f064ce3f9f89/000000_000000/0000/tree_18.root
/eos/cms/store/group/phys_higgs/ec/hbb/ntuples/VHbbPostNano/UL/EFT/2018/V1/ZJetsToNuNu_HT-200To400_TuneCP5_13TeV-madgraphMLM-pythia8/168f788065d334318605dd41c196906f5db53328e77c8823af087751/000000_000000/0000/tree_19.root
/eos/cms/store/group/phys_higgs/ec/hbb/ntuples/VHbbPostNano/UL/EFT/2018/V1/ZJetsToNuNu_HT-200To400_TuneCP5_13TeV-madgraphMLM-pythia8/8ea49f1c9037d4c10ced39b879496eee241d42812207462f3f4f7b02/000000_000000/0000/tree_20.root
/eos/cms/store/group/phys_higgs/ec/hbb/ntuples/VHbbPostNano/UL/EFT/2018/V1/ZJetsToNuNu_HT-200To400_TuneCP5_13TeV-madgraphMLM-pythia8/1c9a1231a1f3cf9e19831ec78dd345bb39fe4dcf6e2a58bb811c068e/000000_000000/0000/tree_21.root
/eos/cms/store/group/phys_higgs/ec/hbb/ntuples/VHbbPostNano/UL/EFT/2018/V1/ZJetsToNuNu_HT-200To400_TuneCP5_13TeV-madgraphMLM-pythia8/ccc0f0215219c65cb83da82423ff9b0c721589a2e553c44c0076ac7e/000000_000000/0000/tree_22.root
/eos/cms/store/group/phys_higgs/ec/hbb/ntuples/VHbbPostNano/UL/EFT/2018/V1/ZJetsToNuNu_HT-200To400_TuneCP5_13TeV-madgraphMLM-pythia8/b13d42ec0df87078b66d3c45efab9fafdea1ffa542470f518257444d/000000_000000/0000/tree_23.root
/eos/cms/store/group/phys_higgs/ec/hbb/ntuples/VHbbPostNano/UL/EFT/2018/V1/ZJetsToNuNu_HT-200To400_TuneCP5_13TeV-madgraphMLM-pythia8/a6835995a27c64e61c4f854c5218f646907e56946a00d032a4a652c5/000000_000000/0000/tree_24.root
/eos/cms/store/group/phys_higgs/ec/hbb/ntuples/VHbbPostNano/UL/EFT/2018/V1/ZJetsToNuNu_HT-200To400_TuneCP5_13TeV-madgraphMLM-pythia8/ad94af21b17452744a68db159d2d0c80f72007f74d8a8054dbe5ca61/000000_000000/0000/tree_25.root
/eos/cms/store/group/phys_higgs/ec/hbb/ntuples/VHbbPostNano/UL/EFT/2018/V1/ZJetsToNuNu_HT-200To400_TuneCP5_13TeV-madgraphMLM-pythia8/b57329988939f0c9fda77a985e20321d3c6a763a935269c1be86b82b/000000_000000/0000/tree_26.root
/eos/cms/store/group/phys_higgs/ec/hbb/ntuples/VHbbPostNano/UL/EFT/2018/V1/ZJetsToNuNu_HT-200To400_TuneCP5_13TeV-madgraphMLM-pythia8/f9585ab04ee094098e4b65e0792a60b02b66684893a5367260c0f741/000000_000000/0000/tree_27.root
/eos/cms/store/group/phys_higgs/ec/hbb/ntuples/VHbbPostNano/UL/EFT/2018/V1/ZJetsToNuNu_HT-200To400_TuneCP5_13TeV-madgraphMLM-pythia8/bbc122d9fc92102c55c05beaa52fbb5e79e393a0d54e913b86da448d/000000_000000/0000/tree_28.root
/eos/cms/store/group/phys_higgs/ec/hbb/ntuples/VHbbPostNano/UL/EFT/2018/V1/ZJetsToNuNu_HT-200To400_TuneCP5_13TeV-madgraphMLM-pythia8/d09df4e169f641478684efce4ac303a712578df5d837fd3f8c59b1f0/000000_000000/0000/tree_29.root
/eos/cms/store/group/phys_higgs/ec/hbb/ntuples/VHbbPostNano/UL/EFT/2018/V1/ZJetsToNuNu_HT-200To400_TuneCP5_13TeV-madgraphMLM-pythia8/8842fb7655d3bba32230a29819d2782e03a5e92cf2ee0e550ce785ec/000000_000000/0000/tree_30.root
/eos/cms/store/group/phys_higgs/ec/hbb/ntuples/VHbbPostNano/UL/EFT/2018/V1/ZJetsToNuNu_HT-200To400_TuneCP5_13TeV-madgraphMLM-pythia8/43a20fd6e56a7c723afa8a280325231ddb8267a31d8dc1d123a1a239/000000_000000/0000/tree_31.root
/eos/cms/store/group/phys_higgs/ec/hbb/ntuples/VHbbPostNano/UL/EFT/2018/V1/ZJetsToNuNu_HT-200To400_TuneCP5_13TeV-madgraphMLM-pythia8/6e0882a827f551045103897a4547f44618bd5a47927e7402296186e4/000000_000000/0000/tree_32.root
/eos/cms/store/group/phys_higgs/ec/hbb/ntuples/VHbbPostNano/UL/EFT/2018/V1/ZJetsToNuNu_HT-200To400_TuneCP5_13TeV-madgraphMLM-pythia8/5350d9e6f0d137c3836263e8712c37b3c44fb63f61ffdc24989e6807/000000_000000/0000/tree_33.root
/eos/cms/store/group/phys_higgs/ec/hbb/ntuples/VHbbPostNano/UL/EFT/2018/V1/ZJetsToNuNu_HT-200To400_TuneCP5_13TeV-madgraphMLM-pythia8/26e9ebbd11f3eb003599d7d88f10252a03b8a55a976341dc82e08ed1/000000_000000/0000/tree_34.root
/eos/cms/store/group/phys_higgs/ec/hbb/ntuples/VHbbPostNano/UL/EFT/2018/V1/ZJetsToNuNu_HT-200To400_TuneCP5_13TeV-madgraphMLM-pythia8/6b6ddf2d339ba082284a2c0a6d17a685423beb8df5572875bae2f37a/000000_000000/0000/tree_35.root
/eos/cms/store/group/phys_higgs/ec/hbb/ntuples/VHbbPostNano/UL/EFT/2018/V1/ZJetsToNuNu_HT-200To400_TuneCP5_13TeV-madgraphMLM-pythia8/27812aa4bc30c29f5814b61c472da1273d824c5c4b7ff4b822100b2a/000000_000000/0000/tree_36.root
/eos/cms/store/group/phys_higgs/ec/hbb/ntuples/VHbbPostNano/UL/EFT/2018/V1/ZJetsToNuNu_HT-200To400_TuneCP5_13TeV-madgraphMLM-pythia8/8ff07ff8887634579c3425b92bc39bacff77aeadd69417b5a91af666/000000_000000/0000/tree_37.root
/eos/cms/store/group/phys_higgs/ec/hbb/ntuples/VHbbPostNano/UL/EFT/2018/V1/ZJetsToNuNu_HT-200To400_TuneCP5_13TeV-madgraphMLM-pythia8/0ad8f5f21d8351a8a21fbabea4f35cc516c7dd92f93ca79ab2e380c9/000000_000000/0000/tree_38.root
/eos/cms/store/group/phys_higgs/ec/hbb/ntuples/VHbbPostNano/UL/EFT/2018/V1/ZJetsToNuNu_HT-200To400_TuneCP5_13TeV-madgraphMLM-pythia8/f9e669e348466b3239ffdee14dc1c94c2762c12f13d11104a16e41f9/000000_000000/0000/tree_39.root
/eos/cms/store/group/phys_higgs/ec/hbb/ntuples/VHbbPostNano/UL/EFT/2018/V1/ZJetsToNuNu_HT-200To400_TuneCP5_13TeV-madgraphMLM-pythia8/a16125562db47cd804da66cf654c1a8ca1391f686968e4a6389a157b/000000_000000/0000/tree_40.root
/eos/cms/store/group/phys_higgs/ec/hbb/ntuples/VHbbPostNano/UL/EFT/2018/V1/ZJetsToNuNu_HT-200To400_TuneCP5_13TeV-madgraphMLM-pythia8/98575840a70570ae49f6c4f7270842a95458d2d987d5886471efa2d9/000000_000000/0000/tree_41.root
/eos/cms/store/group/phys_higgs/ec/hbb/ntuples/VHbbPostNano/UL/EFT/2018/V1/ZJetsToNuNu_HT-200To400_TuneCP5_13TeV-madgraphMLM-pythia8/c17999e134e78706fcb543c0f8164f6c6f4652eb6c466bcdbeeaa3f7/000000_000000/0000/tree_42.root
/eos/cms/store/group/phys_higgs/ec/hbb/ntuples/VHbbPostNano/UL/EFT/2018/V1/ZJetsToNuNu_HT-200To400_TuneCP5_13TeV-madgraphMLM-pythia8/87727a3f441c90f9d8e607b8ee8c8da243a0fab04b8a0c491c5f4dca/000000_000000/0000/tree_43.root
/eos/cms/store/group/phys_higgs/ec/hbb/ntuples/VHbbPostNano/UL/EFT/2018/V1/ZJetsToNuNu_HT-200To400_TuneCP5_13TeV-madgraphMLM-pythia8/8a4304f71124e57e86997c097d3b7fda0bddedc717c513d368cd73f4/000000_000000/0000/tree_44.root
/eos/cms/store/group/phys_higgs/ec/hbb/ntuples/VHbbPostNano/UL/EFT/2018/V1/ZJetsToNuNu_HT-200To400_TuneCP5_13TeV-madgraphMLM-pythia8/f571f1cd554f4669f24c6e4e94da3295e1ce6e8944d49248cbbe9613/000000_000000/0000/tree_45.root
/eos/cms/store/group/phys_higgs/ec/hbb/ntuples/VHbbPostNano/UL/EFT/2018/V1/ZJetsToNuNu_HT-200To400_TuneCP5_13TeV-madgraphMLM-pythia8/85ad5855db5b8d702ea4b1a6e1d307bfd374e4b1b252bb28d9d14082/000000_000000/0000/tree_46.root
/eos/cms/store/group/phys_higgs/ec/hbb/ntuples/VHbbPostNano/UL/EFT/2018/V1/ZJetsToNuNu_HT-200To400_TuneCP5_13TeV-madgraphMLM-pythia8/e574b91a4feb41e6df23de20d8f16e5c57335faceb728276897120f8/000000_000000/0000/tree_47.root
/eos/cms/store/group/phys_higgs/ec/hbb/ntuples/VHbbPostNano/UL/EFT/2018/V1/ZJetsToNuNu_HT-200To400_TuneCP5_13TeV-madgraphMLM-pythia8/ad1269e7a06967d9fd842e951e9f273768e86f0a8968bee9cb7082df/000000_000000/0000/tree_48.root
/eos/cms/store/group/phys_higgs/ec/hbb/ntuples/VHbbPostNano/UL/EFT/2018/V1/ZJetsToNuNu_HT-200To400_TuneCP5_13TeV-madgraphMLM-pythia8/763a0f547ad29ea0d6668a408c035393917f95ffe65e925279cace08/000000_000000/0000/tree_49.root
/eos/cms/store/group/phys_higgs/ec/hbb/ntuples/VHbbPostNano/UL/EFT/2018/V1/ZJetsToNuNu_HT-200To400_TuneCP5_13TeV-madgraphMLM-pythia8/cfb3c3c85aa29c3a1180aab63fc14693ab3fc5ecbe78ea0b5cd26642/000000_000000/0000/tree_50.root
/eos/cms/store/group/phys_higgs/ec/hbb/ntuples/VHbbPostNano/UL/EFT/2018/V1/ZJetsToNuNu_HT-200To400_TuneCP5_13TeV-madgraphMLM-pythia8/cd9971f771b59b28ae493c8617548280967a9f8dc660406d795bd57b/000000_000000/0000/tree_51.root
/eos/cms/store/group/phys_higgs/ec/hbb/ntuples/VHbbPostNano/UL/EFT/2018/V1/ZJetsToNuNu_HT-200To400_TuneCP5_13TeV-madgraphMLM-pythia8/582f665f435e34ec8649eb370e8ec5585f4892bc01d0c36b9a8d0d8c/000000_000000/0000/tree_52.root
/eos/cms/store/group/phys_higgs/ec/hbb/ntuples/VHbbPostNano/UL/EFT/2018/V1/ZJetsToNuNu_HT-200To400_TuneCP5_13TeV-madgraphMLM-pythia8/d3c77e82cce92290c5bdbb1198d1255a2d33935899687c7cf21deabb/000000_000000/0000/tree_53.root
/eos/cms/store/group/phys_higgs/ec/hbb/ntuples/VHbbPostNano/UL/EFT/2018/V1/ZJetsToNuNu_HT-200To400_TuneCP5_13TeV-madgraphMLM-pythia8/5e69ed3c0d96d04907ffa27e3bad68f139017749475621a0fc9be177/000000_000000/0000/tree_54.root
/eos/cms/store/group/phys_higgs/ec/hbb/ntuples/VHbbPostNano/UL/EFT/2018/V1/ZJetsToNuNu_HT-200To400_TuneCP5_13TeV-madgraphMLM-pythia8/21743f2e1a3cd10a318f772746467e0ece4ba259d657eed60a16a466/000000_000000/0000/tree_55.root
/eos/cms/store/group/phys_higgs/ec/hbb/ntuples/VHbbPostNano/UL/EFT/2018/V1/ZJetsToNuNu_HT-200To400_TuneCP5_13TeV-madgraphMLM-pythia8/ea436d7da85330cd85bded357049c0a92ec514d36f7df422004d962c/000000_000000/0000/tree_56.root
/eos/cms/store/group/phys_higgs/ec/hbb/ntuples/VHbbPostNano/UL/EFT/2018/V1/ZJetsToNuNu_HT-200To400_TuneCP5_13TeV-madgraphMLM-pythia8/ad19c6a250c9ff60cf0c17df1548b4f6c64a078e61a93aebb2cd42b6/000000_000000/0000/tree_57.root
/eos/cms/store/group/phys_higgs/ec/hbb/ntuples/VHbbPostNano/UL/EFT/2018/V1/ZJetsToNuNu_HT-200To400_TuneCP5_13TeV-madgraphMLM-pythia8/ce1fba21bee90f55c19ad0b76bfce6fe90283f61ff16cb312afa0cad/000000_000000/0000/tree_58.root
/eos/cms/store/group/phys_higgs/ec/hbb/ntuples/VHbbPostNano/UL/EFT/2018/V1/ZJetsToNuNu_HT-200To400_TuneCP5_13TeV-madgraphMLM-pythia8/b7647d29ee76d34e3e892964d878d3df81fdee9e9d476f44d7aaedae/000000_000000/0000/tree_59.root
/eos/cms/store/group/phys_higgs/ec/hbb/ntuples/VHbbPostNano/UL/EFT/2018/V1/ZJetsToNuNu_HT-200To400_TuneCP5_13TeV-madgraphMLM-pythia8/5926cfa5de7c4825047a2941fca019e4921d47b60da6319bb614f580/000000_000000/0000/tree_60.root
/eos/cms/store/group/phys_higgs/ec/hbb/ntuples/VHbbPostNano/UL/EFT/2018/V1/ZJetsToNuNu_HT-200To400_TuneCP5_13TeV-madgraphMLM-pythia8/b38e41753f6d2fed7fbc59c9025484c535fc787e0fed69a199c3e779/000000_000000/0000/tree_61.root
/eos/cms/store/group/phys_higgs/ec/hbb/ntuples/VHbbPostNano/UL/EFT/2018/V1/ZJetsToNuNu_HT-200To400_TuneCP5_13TeV-madgraphMLM-pythia8/4043b964af2af22175267dbde82b4e4e72fbe974866243859b80466c/000000_000000/0000/tree_62.root
/eos/cms/store/group/phys_higgs/ec/hbb/ntuples/VHbbPostNano/UL/EFT/2018/V1/ZJetsToNuNu_HT-200To400_TuneCP5_13TeV-madgraphMLM-pythia8/6beb4d56afeca5ecd9af47febd6536b42746c273a4aa1ef003865a75/000000_000000/0000/tree_63.root
/eos/cms/store/group/phys_higgs/ec/hbb/ntuples/VHbbPostNano/UL/EFT/2018/V1/ZJetsToNuNu_HT-200To400_TuneCP5_13TeV-madgraphMLM-pythia8/f6a5c0fd1a9edec56df8f24afc7f2e0949d265fcc7c6c9382a1eb878/000000_000000/0000/tree_64.root
/eos/cms/store/group/phys_higgs/ec/hbb/ntuples/VHbbPostNano/UL/EFT/2018/V1/ZJetsToNuNu_HT-200To400_TuneCP5_13TeV-madgraphMLM-pythia8/d3b73a022a57ff8bdb7e4310914af5fbb03c4aaddd9b7a7edac1e08a/000000_000000/0000/tree_65.root