/store/group/phys_higgs/hbb/ntuples/VHbbPostNano/2018/V13/DYJetsToLL_M-50_HT-200to400_TuneCP5_PSweights_13TeV-madgraphMLM-pythia8/RunIIAutumn18NanoAODv7-Nano02A84/200708_081330/6169ec072cea367a17ef0eb7687987e23a67cbd64a087eaaa7eb0df3/000000_000000/0000/tree_0.root
/store/group/phys_higgs/hbb/ntuples/VHbbPostNano/2018/V13/DYJetsToLL_M-50_HT-200to400_TuneCP5_PSweights_13TeV-madgraphMLM-pythia8/RunIIAutumn18NanoAODv7-Nano02A84/200708_081330/f0e61252b3cd5b989212ed0df4bd499ee6bbf1c34d29bdbb1b8329cf/000000_000000/0000/tree_1.root
/store/group/phys_higgs/hbb/ntuples/VHbbPostNano/2018/V13/DYJetsToLL_M-50_HT-200to400_TuneCP5_PSweights_13TeV-madgraphMLM-pythia8/RunIIAutumn18NanoAODv7-Nano02A84/200708_081330/cb4cf7389857af188d770933646e2f3e32a2cf7ffb681374e2f6ba2c/000000_000000/0000/tree_2.root
/store/group/phys_higgs/hbb/ntuples/VHbbPostNano/2018/V13/DYJetsToLL_M-50_HT-200to400_TuneCP5_PSweights_13TeV-madgraphMLM-pythia8/RunIIAutumn18NanoAODv7-Nano02A84/200708_081330/443f8cd410c45951e0df0736f6333270069da12f1211e73ffe604ece/000000_000000/0000/tree_3.root
/store/group/phys_higgs/hbb/ntuples/VHbbPostNano/2018/V13/DYJetsToLL_M-50_HT-200to400_TuneCP5_PSweights_13TeV-madgraphMLM-pythia8/RunIIAutumn18NanoAODv7-Nano02A84/200708_081330/4640062acbe48c3811654e28fad89d28bebaac7d63cbd40a27c97a26/000000_000000/0000/tree_4.root
/store/group/phys_higgs/hbb/ntuples/VHbbPostNano/2018/V13/DYJetsToLL_M-50_HT-200to400_TuneCP5_PSweights_13TeV-madgraphMLM-pythia8/RunIIAutumn18NanoAODv7-Nano02A84/200708_081330/8799b5d47f64afc92457516dca242fc75e1c0d6f3043f0b8232a8747/000000_000000/0000/tree_5.root
/store/group/phys_higgs/hbb/ntuples/VHbbPostNano/2018/V13/DYJetsToLL_M-50_HT-200to400_TuneCP5_PSweights_13TeV-madgraphMLM-pythia8/RunIIAutumn18NanoAODv7-Nano02A84/200708_081330/a61e1b1f36c34bb7fff6d38e2013eeff2e578810509918a58ca691eb/000000_000000/0000/tree_6.root
/store/group/phys_higgs/hbb/ntuples/VHbbPostNano/2018/V13/DYJetsToLL_M-50_HT-200to400_TuneCP5_PSweights_13TeV-madgraphMLM-pythia8/RunIIAutumn18NanoAODv7-Nano02A84/200708_081330/19658b3b214c870916e75cdc8421efcd8e2605aafc9d9e2c1c2d9b0d/000000_000000/0000/tree_7.root
/store/group/phys_higgs/hbb/ntuples/VHbbPostNano/2018/V13/DYJetsToLL_M-50_HT-200to400_TuneCP5_PSweights_13TeV-madgraphMLM-pythia8/RunIIAutumn18NanoAODv7-Nano02A84/200708_081330/1e6cbac67bdef174b321ef6de29c4cefff98a8088bd6528db310f3ee/000000_000000/0000/tree_8.root
/store/group/phys_higgs/hbb/ntuples/VHbbPostNano/2018/V13/DYJetsToLL_M-50_HT-200to400_TuneCP5_PSweights_13TeV-madgraphMLM-pythia8/RunIIAutumn18NanoAODv7-Nano02A84/200708_081330/c58147de9a7fcc21f9e6c9086729cbecc7a2a02593ad889c9ec2481a/000000_000000/0000/tree_9.root
/store/group/phys_higgs/hbb/ntuples/VHbbPostNano/2018/V13/DYJetsToLL_M-50_HT-200to400_TuneCP5_PSweights_13TeV-madgraphMLM-pythia8/RunIIAutumn18NanoAODv7-Nano02A84/200708_081330/fd28b5fb0a1872855d9716a8e1bd1f3e13340353b4f5b35ef52f37f2/000000_000000/0000/tree_10.root
/store/group/phys_higgs/hbb/ntuples/VHbbPostNano/2018/V13/DYJetsToLL_M-50_HT-200to400_TuneCP5_PSweights_13TeV-madgraphMLM-pythia8/RunIIAutumn18NanoAODv7-Nano02A84/200708_081330/d58adfd8b4b2bef3b7ee2a7b4729e650816a78a26557f6c65cbc9507/000000_000000/0000/tree_11.root