/store/group/phys_higgs/hbb/ntuples/VHbbPostNano/2018/V13/WplusH_HToBB_WToLNu_M125_13TeV_powheg_pythia8/RunIIAutumn18NanoAODv7-Nano02A83/200519_095529/433ec40c5e0b96b2d70a1cc7b1a383a5463a4bdd5501ca788047cbbe/000000_000000/0000/tree_0.root
/store/group/phys_higgs/hbb/ntuples/VHbbPostNano/2018/V13/WplusH_HToBB_WToLNu_M125_13TeV_powheg_pythia8/RunIIAutumn18NanoAODv7-Nano02A83/200519_095529/46ba6f5f6d17f42ec0e33db535cb200d921e60e2b882cd1e864f90ca/000000_000000/0000/tree_1.root
/store/group/phys_higgs/hbb/ntuples/VHbbPostNano/2018/V13/WplusH_HToBB_WToLNu_M125_13TeV_powheg_pythia8/RunIIAutumn18NanoAODv7-Nano02A83/200519_095529/ec4803da9dae0d8265582f5bbbe88f7ed41a0eed1b0b5ded80f0bd20/000000_000000/0000/tree_2.root
/store/group/phys_higgs/hbb/ntuples/VHbbPostNano/2018/V13/WplusH_HToBB_WToLNu_M125_13TeV_powheg_pythia8/RunIIAutumn18NanoAODv7-Nano02A83/200519_095529/e8403a4e0a74bb831801b504c29f7fd8db35190dbe7ee9075bc5d5aa/000000_000000/0000/tree_3.root
/store/group/phys_higgs/hbb/ntuples/VHbbPostNano/2018/V13/WplusH_HToBB_WToLNu_M125_13TeV_powheg_pythia8/RunIIAutumn18NanoAODv7-Nano02A83/200519_095529/9628f7567ea545500545ddc9dfa6b97239de46490d8beb7d3b8e3fcf/000000_000000/0000/tree_4.root
/store/group/phys_higgs/hbb/ntuples/VHbbPostNano/2018/V13/WplusH_HToBB_WToLNu_M125_13TeV_powheg_pythia8/RunIIAutumn18NanoAODv7-Nano02A83/200519_095529/6390ab074366628047e30f8a7f0fb2856d92abaf0d3495e9e1f7d0ac/000000_000000/0000/tree_5.root