/store/group/phys_higgs/hbb/ntuples/VHbbPostNano/2017/V11/DoubleMuon/Run2017B-Nano14Dec2018-v185/190426_101258/0000/tree_1.root
/store/group/phys_higgs/hbb/ntuples/VHbbPostNano/2017/V11/DoubleMuon/Run2017B-Nano14Dec2018-v185/190426_101258/0000/tree_2.root
/store/group/phys_higgs/hbb/ntuples/VHbbPostNano/2017/V11/DoubleMuon/Run2017B-Nano14Dec2018-v185/190426_101258/0000/tree_3.root
/store/group/phys_higgs/hbb/ntuples/VHbbPostNano/2017/V11/DoubleMuon/Run2017B-Nano14Dec2018-v185/190426_101258/0000/tree_4.root
/store/group/phys_higgs/hbb/ntuples/VHbbPostNano/2017/V11/DoubleMuon/Run2017B-Nano14Dec2018-v185/190426_101258/0000/tree_5.root
/store/group/phys_higgs/hbb/ntuples/VHbbPostNano/2017/V11/DoubleMuon/Run2017B-Nano14Dec2018-v185/190426_101258/0000/tree_6.root
/store/group/phys_higgs/hbb/ntuples/VHbbPostNano/2017/V11/DoubleMuon/Run2017B-Nano14Dec2018-v185/190426_101258/0000/tree_7.root
/store/group/phys_higgs/hbb/ntuples/VHbbPostNano/2017/V11/DoubleMuon/Run2017B-Nano14Dec2018-v185/190426_101258/0000/tree_8.root
/store/group/phys_higgs/hbb/ntuples/VHbbPostNano/2017/V11/DoubleMuon/Run2017B-Nano14Dec2018-v185/190426_101258/0000/tree_9.root
/store/group/phys_higgs/hbb/ntuples/VHbbPostNano/2017/V11/DoubleMuon/Run2017C-Nano14Dec2018-v186/190426_101351/0000/tree_10.root
/store/group/phys_higgs/hbb/ntuples/VHbbPostNano/2017/V11/DoubleMuon/Run2017C-Nano14Dec2018-v186/190426_101351/0000/tree_11.root
/store/group/phys_higgs/hbb/ntuples/VHbbPostNano/2017/V11/DoubleMuon/Run2017C-Nano14Dec2018-v186/190426_101351/0000/tree_12.root
/store/group/phys_higgs/hbb/ntuples/VHbbPostNano/2017/V11/DoubleMuon/Run2017C-Nano14Dec2018-v186/190426_101351/0000/tree_13.root
/store/group/phys_higgs/hbb/ntuples/VHbbPostNano/2017/V11/DoubleMuon/Run2017C-Nano14Dec2018-v186/190426_101351/0000/tree_14.root
/store/group/phys_higgs/hbb/ntuples/VHbbPostNano/2017/V11/DoubleMuon/Run2017C-Nano14Dec2018-v186/190426_101351/0000/tree_15.root
/store/group/phys_higgs/hbb/ntuples/VHbbPostNano/2017/V11/DoubleMuon/Run2017C-Nano14Dec2018-v186/190426_101351/0000/tree_16.root
/store/group/phys_higgs/hbb/ntuples/VHbbPostNano/2017/V11/DoubleMuon/Run2017C-Nano14Dec2018-v186/190426_101351/0000/tree_17.root
/store/group/phys_higgs/hbb/ntuples/VHbbPostNano/2017/V11/DoubleMuon/Run2017C-Nano14Dec2018-v186/190426_101351/0000/tree_18.root
/store/group/phys_higgs/hbb/ntuples/VHbbPostNano/2017/V11/DoubleMuon/Run2017C-Nano14Dec2018-v186/190426_101351/0000/tree_19.root
/store/group/phys_higgs/hbb/ntuples/VHbbPostNano/2017/V11/DoubleMuon/Run2017C-Nano14Dec2018-v186/190426_101351/0000/tree_1.root
/store/group/phys_higgs/hbb/ntuples/VHbbPostNano/2017/V11/DoubleMuon/Run2017C-Nano14Dec2018-v186/190426_101351/0000/tree_20.root
/store/group/phys_higgs/hbb/ntuples/VHbbPostNano/2017/V11/DoubleMuon/Run2017C-Nano14Dec2018-v186/190426_101351/0000/tree_21.root
/store/group/phys_higgs/hbb/ntuples/VHbbPostNano/2017/V11/DoubleMuon/Run2017C-Nano14Dec2018-v186/190426_101351/0000/tree_22.root
/store/group/phys_higgs/hbb/ntuples/VHbbPostNano/2017/V11/DoubleMuon/Run2017C-Nano14Dec2018-v186/190426_101351/0000/tree_23.root
/store/group/phys_higgs/hbb/ntuples/VHbbPostNano/2017/V11/DoubleMuon/Run2017C-Nano14Dec2018-v186/190426_101351/0000/tree_24.root
/store/group/phys_higgs/hbb/ntuples/VHbbPostNano/2017/V11/DoubleMuon/Run2017C-Nano14Dec2018-v186/190426_101351/0000/tree_25.root
/store/group/phys_higgs/hbb/ntuples/VHbbPostNano/2017/V11/DoubleMuon/Run2017C-Nano14Dec2018-v186/190426_101351/0000/tree_2.root
/store/group/phys_higgs/hbb/ntuples/VHbbPostNano/2017/V11/DoubleMuon/Run2017C-Nano14Dec2018-v186/190426_101351/0000/tree_3.root
/store/group/phys_higgs/hbb/ntuples/VHbbPostNano/2017/V11/DoubleMuon/Run2017C-Nano14Dec2018-v186/190426_101351/0000/tree_4.root
/store/group/phys_higgs/hbb/ntuples/VHbbPostNano/2017/V11/DoubleMuon/Run2017C-Nano14Dec2018-v186/190426_101351/0000/tree_5.root
/store/group/phys_higgs/hbb/ntuples/VHbbPostNano/2017/V11/DoubleMuon/Run2017C-Nano14Dec2018-v186/190426_101351/0000/tree_6.root
/store/group/phys_higgs/hbb/ntuples/VHbbPostNano/2017/V11/DoubleMuon/Run2017C-Nano14Dec2018-v186/190426_101351/0000/tree_7.root
/store/group/phys_higgs/hbb/ntuples/VHbbPostNano/2017/V11/DoubleMuon/Run2017C-Nano14Dec2018-v186/190426_101351/0000/tree_8.root
/store/group/phys_higgs/hbb/ntuples/VHbbPostNano/2017/V11/DoubleMuon/Run2017C-Nano14Dec2018-v186/190426_101351/0000/tree_9.root
/store/group/phys_higgs/hbb/ntuples/VHbbPostNano/2017/V11/DoubleMuon/Run2017D-Nano14Dec2018-v187/190426_101443/0000/tree_10.root
/store/group/phys_higgs/hbb/ntuples/VHbbPostNano/2017/V11/DoubleMuon/Run2017D-Nano14Dec2018-v187/190426_101443/0000/tree_11.root
/store/group/phys_higgs/hbb/ntuples/VHbbPostNano/2017/V11/DoubleMuon/Run2017D-Nano14Dec2018-v187/190426_101443/0000/tree_12.root
/store/group/phys_higgs/hbb/ntuples/VHbbPostNano/2017/V11/DoubleMuon/Run2017D-Nano14Dec2018-v187/190426_101443/0000/tree_13.root
/store/group/phys_higgs/hbb/ntuples/VHbbPostNano/2017/V11/DoubleMuon/Run2017D-Nano14Dec2018-v187/190426_101443/0000/tree_14.root
/store/group/phys_higgs/hbb/ntuples/VHbbPostNano/2017/V11/DoubleMuon/Run2017D-Nano14Dec2018-v187/190426_101443/0000/tree_1.root
/store/group/phys_higgs/hbb/ntuples/VHbbPostNano/2017/V11/DoubleMuon/Run2017D-Nano14Dec2018-v187/190426_101443/0000/tree_2.root
/store/group/phys_higgs/hbb/ntuples/VHbbPostNano/2017/V11/DoubleMuon/Run2017D-Nano14Dec2018-v187/190426_101443/0000/tree_3.root
/store/group/phys_higgs/hbb/ntuples/VHbbPostNano/2017/V11/DoubleMuon/Run2017D-Nano14Dec2018-v187/190426_101443/0000/tree_4.root
/store/group/phys_higgs/hbb/ntuples/VHbbPostNano/2017/V11/DoubleMuon/Run2017D-Nano14Dec2018-v187/190426_101443/0000/tree_5.root
/store/group/phys_higgs/hbb/ntuples/VHbbPostNano/2017/V11/DoubleMuon/Run2017D-Nano14Dec2018-v187/190426_101443/0000/tree_6.root
/store/group/phys_higgs/hbb/ntuples/VHbbPostNano/2017/V11/DoubleMuon/Run2017D-Nano14Dec2018-v187/190426_101443/0000/tree_7.root
/store/group/phys_higgs/hbb/ntuples/VHbbPostNano/2017/V11/DoubleMuon/Run2017D-Nano14Dec2018-v187/190426_101443/0000/tree_8.root
/store/group/phys_higgs/hbb/ntuples/VHbbPostNano/2017/V11/DoubleMuon/Run2017D-Nano14Dec2018-v187/190426_101443/0000/tree_9.root
/store/group/phys_higgs/hbb/ntuples/VHbbPostNano/2017/V11/DoubleMuon/Run2017E-Nano14Dec2018-v188/190426_101546/0000/tree_10.root
/store/group/phys_higgs/hbb/ntuples/VHbbPostNano/2017/V11/DoubleMuon/Run2017E-Nano14Dec2018-v188/190426_101546/0000/tree_11.root
/store/group/phys_higgs/hbb/ntuples/VHbbPostNano/2017/V11/DoubleMuon/Run2017E-Nano14Dec2018-v188/190426_101546/0000/tree_12.root
/store/group/phys_higgs/hbb/ntuples/VHbbPostNano/2017/V11/DoubleMuon/Run2017E-Nano14Dec2018-v188/190426_101546/0000/tree_13.root
/store/group/phys_higgs/hbb/ntuples/VHbbPostNano/2017/V11/DoubleMuon/Run2017E-Nano14Dec2018-v188/190426_101546/0000/tree_14.root
/store/group/phys_higgs/hbb/ntuples/VHbbPostNano/2017/V11/DoubleMuon/Run2017E-Nano14Dec2018-v188/190426_101546/0000/tree_15.root
/store/group/phys_higgs/hbb/ntuples/VHbbPostNano/2017/V11/DoubleMuon/Run2017E-Nano14Dec2018-v188/190426_101546/0000/tree_16.root
/store/group/phys_higgs/hbb/ntuples/VHbbPostNano/2017/V11/DoubleMuon/Run2017E-Nano14Dec2018-v188/190426_101546/0000/tree_17.root
/store/group/phys_higgs/hbb/ntuples/VHbbPostNano/2017/V11/DoubleMuon/Run2017E-Nano14Dec2018-v188/190426_101546/0000/tree_18.root
/store/group/phys_higgs/hbb/ntuples/VHbbPostNano/2017/V11/DoubleMuon/Run2017E-Nano14Dec2018-v188/190426_101546/0000/tree_19.root
/store/group/phys_higgs/hbb/ntuples/VHbbPostNano/2017/V11/DoubleMuon/Run2017E-Nano14Dec2018-v188/190426_101546/0000/tree_1.root
/store/group/phys_higgs/hbb/ntuples/VHbbPostNano/2017/V11/DoubleMuon/Run2017E-Nano14Dec2018-v188/190426_101546/0000/tree_20.root
/store/group/phys_higgs/hbb/ntuples/VHbbPostNano/2017/V11/DoubleMuon/Run2017E-Nano14Dec2018-v188/190426_101546/0000/tree_21.root
/store/group/phys_higgs/hbb/ntuples/VHbbPostNano/2017/V11/DoubleMuon/Run2017E-Nano14Dec2018-v188/190426_101546/0000/tree_22.root
/store/group/phys_higgs/hbb/ntuples/VHbbPostNano/2017/V11/DoubleMuon/Run2017E-Nano14Dec2018-v188/190426_101546/0000/tree_23.root
/store/group/phys_higgs/hbb/ntuples/VHbbPostNano/2017/V11/DoubleMuon/Run2017E-Nano14Dec2018-v188/190426_101546/0000/tree_24.root
/store/group/phys_higgs/hbb/ntuples/VHbbPostNano/2017/V11/DoubleMuon/Run2017E-Nano14Dec2018-v188/190426_101546/0000/tree_25.root
/store/group/phys_higgs/hbb/ntuples/VHbbPostNano/2017/V11/DoubleMuon/Run2017E-Nano14Dec2018-v188/190426_101546/0000/tree_26.root
/store/group/phys_higgs/hbb/ntuples/VHbbPostNano/2017/V11/DoubleMuon/Run2017E-Nano14Dec2018-v188/190426_101546/0000/tree_27.root
/store/group/phys_higgs/hbb/ntuples/VHbbPostNano/2017/V11/DoubleMuon/Run2017E-Nano14Dec2018-v188/190426_101546/0000/tree_2.root
/store/group/phys_higgs/hbb/ntuples/VHbbPostNano/2017/V11/DoubleMuon/Run2017E-Nano14Dec2018-v188/190426_101546/0000/tree_3.root
/store/group/phys_higgs/hbb/ntuples/VHbbPostNano/2017/V11/DoubleMuon/Run2017E-Nano14Dec2018-v188/190426_101546/0000/tree_4.root
/store/group/phys_higgs/hbb/ntuples/VHbbPostNano/2017/V11/DoubleMuon/Run2017E-Nano14Dec2018-v188/190426_101546/0000/tree_5.root
/store/group/phys_higgs/hbb/ntuples/VHbbPostNano/2017/V11/DoubleMuon/Run2017E-Nano14Dec2018-v188/190426_101546/0000/tree_6.root
/store/group/phys_higgs/hbb/ntuples/VHbbPostNano/2017/V11/DoubleMuon/Run2017E-Nano14Dec2018-v188/190426_101546/0000/tree_7.root
/store/group/phys_higgs/hbb/ntuples/VHbbPostNano/2017/V11/DoubleMuon/Run2017E-Nano14Dec2018-v188/190426_101546/0000/tree_8.root
/store/group/phys_higgs/hbb/ntuples/VHbbPostNano/2017/V11/DoubleMuon/Run2017E-Nano14Dec2018-v188/190426_101546/0000/tree_9.root
/store/group/phys_higgs/hbb/ntuples/VHbbPostNano/2017/V11/DoubleMuon/Run2017F-Nano14Dec2018-v189/190426_101644/0000/tree_10.root
/store/group/phys_higgs/hbb/ntuples/VHbbPostNano/2017/V11/DoubleMuon/Run2017F-Nano14Dec2018-v189/190426_101644/0000/tree_11.root
/store/group/phys_higgs/hbb/ntuples/VHbbPostNano/2017/V11/DoubleMuon/Run2017F-Nano14Dec2018-v189/190426_101644/0000/tree_12.root
/store/group/phys_higgs/hbb/ntuples/VHbbPostNano/2017/V11/DoubleMuon/Run2017F-Nano14Dec2018-v189/190426_101644/0000/tree_13.root
/store/group/phys_higgs/hbb/ntuples/VHbbPostNano/2017/V11/DoubleMuon/Run2017F-Nano14Dec2018-v189/190426_101644/0000/tree_14.root
/store/group/phys_higgs/hbb/ntuples/VHbbPostNano/2017/V11/DoubleMuon/Run2017F-Nano14Dec2018-v189/190426_101644/0000/tree_15.root
/store/group/phys_higgs/hbb/ntuples/VHbbPostNano/2017/V11/DoubleMuon/Run2017F-Nano14Dec2018-v189/190426_101644/0000/tree_16.root
/store/group/phys_higgs/hbb/ntuples/VHbbPostNano/2017/V11/DoubleMuon/Run2017F-Nano14Dec2018-v189/190426_101644/0000/tree_17.root
/store/group/phys_higgs/hbb/ntuples/VHbbPostNano/2017/V11/DoubleMuon/Run2017F-Nano14Dec2018-v189/190426_101644/0000/tree_18.root
/store/group/phys_higgs/hbb/ntuples/VHbbPostNano/2017/V11/DoubleMuon/Run2017F-Nano14Dec2018-v189/190426_101644/0000/tree_19.root
/store/group/phys_higgs/hbb/ntuples/VHbbPostNano/2017/V11/DoubleMuon/Run2017F-Nano14Dec2018-v189/190426_101644/0000/tree_1.root
/store/group/phys_higgs/hbb/ntuples/VHbbPostNano/2017/V11/DoubleMuon/Run2017F-Nano14Dec2018-v189/190426_101644/0000/tree_20.root
/store/group/phys_higgs/hbb/ntuples/VHbbPostNano/2017/V11/DoubleMuon/Run2017F-Nano14Dec2018-v189/190426_101644/0000/tree_21.root
/store/group/phys_higgs/hbb/ntuples/VHbbPostNano/2017/V11/DoubleMuon/Run2017F-Nano14Dec2018-v189/190426_101644/0000/tree_22.root
/store/group/phys_higgs/hbb/ntuples/VHbbPostNano/2017/V11/DoubleMuon/Run2017F-Nano14Dec2018-v189/190426_101644/0000/tree_23.root
/store/group/phys_higgs/hbb/ntuples/VHbbPostNano/2017/V11/DoubleMuon/Run2017F-Nano14Dec2018-v189/190426_101644/0000/tree_24.root
/store/group/phys_higgs/hbb/ntuples/VHbbPostNano/2017/V11/DoubleMuon/Run2017F-Nano14Dec2018-v189/190426_101644/0000/tree_25.root
/store/group/phys_higgs/hbb/ntuples/VHbbPostNano/2017/V11/DoubleMuon/Run2017F-Nano14Dec2018-v189/190426_101644/0000/tree_26.root
/store/group/phys_higgs/hbb/ntuples/VHbbPostNano/2017/V11/DoubleMuon/Run2017F-Nano14Dec2018-v189/190426_101644/0000/tree_27.root
/store/group/phys_higgs/hbb/ntuples/VHbbPostNano/2017/V11/DoubleMuon/Run2017F-Nano14Dec2018-v189/190426_101644/0000/tree_28.root
/store/group/phys_higgs/hbb/ntuples/VHbbPostNano/2017/V11/DoubleMuon/Run2017F-Nano14Dec2018-v189/190426_101644/0000/tree_29.root
/store/group/phys_higgs/hbb/ntuples/VHbbPostNano/2017/V11/DoubleMuon/Run2017F-Nano14Dec2018-v189/190426_101644/0000/tree_2.root
/store/group/phys_higgs/hbb/ntuples/VHbbPostNano/2017/V11/DoubleMuon/Run2017F-Nano14Dec2018-v189/190426_101644/0000/tree_30.root
/store/group/phys_higgs/hbb/ntuples/VHbbPostNano/2017/V11/DoubleMuon/Run2017F-Nano14Dec2018-v189/190426_101644/0000/tree_31.root
/store/group/phys_higgs/hbb/ntuples/VHbbPostNano/2017/V11/DoubleMuon/Run2017F-Nano14Dec2018-v189/190426_101644/0000/tree_32.root
/store/group/phys_higgs/hbb/ntuples/VHbbPostNano/2017/V11/DoubleMuon/Run2017F-Nano14Dec2018-v189/190426_101644/0000/tree_33.root
/store/group/phys_higgs/hbb/ntuples/VHbbPostNano/2017/V11/DoubleMuon/Run2017F-Nano14Dec2018-v189/190426_101644/0000/tree_34.root
/store/group/phys_higgs/hbb/ntuples/VHbbPostNano/2017/V11/DoubleMuon/Run2017F-Nano14Dec2018-v189/190426_101644/0000/tree_35.root
/store/group/phys_higgs/hbb/ntuples/VHbbPostNano/2017/V11/DoubleMuon/Run2017F-Nano14Dec2018-v189/190426_101644/0000/tree_36.root
/store/group/phys_higgs/hbb/ntuples/VHbbPostNano/2017/V11/DoubleMuon/Run2017F-Nano14Dec2018-v189/190426_101644/0000/tree_37.root
/store/group/phys_higgs/hbb/ntuples/VHbbPostNano/2017/V11/DoubleMuon/Run2017F-Nano14Dec2018-v189/190426_101644/0000/tree_38.root
/store/group/phys_higgs/hbb/ntuples/VHbbPostNano/2017/V11/DoubleMuon/Run2017F-Nano14Dec2018-v189/190426_101644/0000/tree_39.root
/store/group/phys_higgs/hbb/ntuples/VHbbPostNano/2017/V11/DoubleMuon/Run2017F-Nano14Dec2018-v189/190426_101644/0000/tree_3.root
/store/group/phys_higgs/hbb/ntuples/VHbbPostNano/2017/V11/DoubleMuon/Run2017F-Nano14Dec2018-v189/190426_101644/0000/tree_40.root
/store/group/phys_higgs/hbb/ntuples/VHbbPostNano/2017/V11/DoubleMuon/Run2017F-Nano14Dec2018-v189/190426_101644/0000/tree_41.root
/store/group/phys_higgs/hbb/ntuples/VHbbPostNano/2017/V11/DoubleMuon/Run2017F-Nano14Dec2018-v189/190426_101644/0000/tree_4.root
/store/group/phys_higgs/hbb/ntuples/VHbbPostNano/2017/V11/DoubleMuon/Run2017F-Nano14Dec2018-v189/190426_101644/0000/tree_5.root
/store/group/phys_higgs/hbb/ntuples/VHbbPostNano/2017/V11/DoubleMuon/Run2017F-Nano14Dec2018-v189/190426_101644/0000/tree_6.root
/store/group/phys_higgs/hbb/ntuples/VHbbPostNano/2017/V11/DoubleMuon/Run2017F-Nano14Dec2018-v189/190426_101644/0000/tree_7.root
/store/group/phys_higgs/hbb/ntuples/VHbbPostNano/2017/V11/DoubleMuon/Run2017F-Nano14Dec2018-v189/190426_101644/0000/tree_8.root
/store/group/phys_higgs/hbb/ntuples/VHbbPostNano/2017/V11/DoubleMuon/Run2017F-Nano14Dec2018-v189/190426_101644/0000/tree_9.root
