/store/group/phys_higgs/hbb/ntuples/VHbbPostNano/2017/V11/WJetsToLNu_HT-1200To2500_TuneCP5_13TeV-madgraphMLM-pythia8/RunIIFall17NanoAODv4-PU2017_1281/190521_132237/0000/tree_10.root
/store/group/phys_higgs/hbb/ntuples/VHbbPostNano/2017/V11/WJetsToLNu_HT-1200To2500_TuneCP5_13TeV-madgraphMLM-pythia8/RunIIFall17NanoAODv4-PU2017_1281/190521_132237/0000/tree_11.root
/store/group/phys_higgs/hbb/ntuples/VHbbPostNano/2017/V11/WJetsToLNu_HT-1200To2500_TuneCP5_13TeV-madgraphMLM-pythia8/RunIIFall17NanoAODv4-PU2017_1281/190521_132237/0000/tree_13.root
/store/group/phys_higgs/hbb/ntuples/VHbbPostNano/2017/V11/WJetsToLNu_HT-1200To2500_TuneCP5_13TeV-madgraphMLM-pythia8/RunIIFall17NanoAODv4-PU2017_1281/190521_132237/0000/tree_14.root
/store/group/phys_higgs/hbb/ntuples/VHbbPostNano/2017/V11/WJetsToLNu_HT-1200To2500_TuneCP5_13TeV-madgraphMLM-pythia8/RunIIFall17NanoAODv4-PU2017_1281/190521_132237/0000/tree_15.root
/store/group/phys_higgs/hbb/ntuples/VHbbPostNano/2017/V11/WJetsToLNu_HT-1200To2500_TuneCP5_13TeV-madgraphMLM-pythia8/RunIIFall17NanoAODv4-PU2017_1281/190521_132237/0000/tree_16.root
/store/group/phys_higgs/hbb/ntuples/VHbbPostNano/2017/V11/WJetsToLNu_HT-1200To2500_TuneCP5_13TeV-madgraphMLM-pythia8/RunIIFall17NanoAODv4-PU2017_1281/190521_132237/0000/tree_17.root
/store/group/phys_higgs/hbb/ntuples/VHbbPostNano/2017/V11/WJetsToLNu_HT-1200To2500_TuneCP5_13TeV-madgraphMLM-pythia8/RunIIFall17NanoAODv4-PU2017_1281/190521_132237/0000/tree_18.root
/store/group/phys_higgs/hbb/ntuples/VHbbPostNano/2017/V11/WJetsToLNu_HT-1200To2500_TuneCP5_13TeV-madgraphMLM-pythia8/RunIIFall17NanoAODv4-PU2017_1281/190521_132237/0000/tree_19.root
/store/group/phys_higgs/hbb/ntuples/VHbbPostNano/2017/V11/WJetsToLNu_HT-1200To2500_TuneCP5_13TeV-madgraphMLM-pythia8/RunIIFall17NanoAODv4-PU2017_1281/190521_132237/0000/tree_1.root
/store/group/phys_higgs/hbb/ntuples/VHbbPostNano/2017/V11/WJetsToLNu_HT-1200To2500_TuneCP5_13TeV-madgraphMLM-pythia8/RunIIFall17NanoAODv4-PU2017_1281/190521_132237/0000/tree_20.root
/store/group/phys_higgs/hbb/ntuples/VHbbPostNano/2017/V11/WJetsToLNu_HT-1200To2500_TuneCP5_13TeV-madgraphMLM-pythia8/RunIIFall17NanoAODv4-PU2017_1281/190521_132237/0000/tree_21.root
/store/group/phys_higgs/hbb/ntuples/VHbbPostNano/2017/V11/WJetsToLNu_HT-1200To2500_TuneCP5_13TeV-madgraphMLM-pythia8/RunIIFall17NanoAODv4-PU2017_1281/190521_132237/0000/tree_2.root
/store/group/phys_higgs/hbb/ntuples/VHbbPostNano/2017/V11/WJetsToLNu_HT-1200To2500_TuneCP5_13TeV-madgraphMLM-pythia8/RunIIFall17NanoAODv4-PU2017_1281/190521_132237/0000/tree_5.root
/store/group/phys_higgs/hbb/ntuples/VHbbPostNano/2017/V11/WJetsToLNu_HT-1200To2500_TuneCP5_13TeV-madgraphMLM-pythia8/RunIIFall17NanoAODv4-PU2017_1281/190521_132237/0000/tree_7.root
/store/group/phys_higgs/hbb/ntuples/VHbbPostNano/2017/V11/WJetsToLNu_HT-1200To2500_TuneCP5_13TeV-madgraphMLM-pythia8/RunIIFall17NanoAODv4-PU2017_1281/190521_132237/0000/tree_8.root
