/store/group/phys_higgs/hbb/ntuples/VHbbPostNano/2018/V12/WZTo2L2Q_13TeV_amcatnloFXFX_madspin_pythia8/59194b20aaa540c2f8d140d79077b5d8b244cbe40865ffad3be371a8/000000_000000/0000/tree_0.root
/store/group/phys_higgs/hbb/ntuples/VHbbPostNano/2018/V12/WZTo2L2Q_13TeV_amcatnloFXFX_madspin_pythia8/8a998bbb069a7efff0e63119abafa1d5c3c9ec81a568f2d4b3bdc7be/000000_000000/0000/tree_1.root
/store/group/phys_higgs/hbb/ntuples/VHbbPostNano/2018/V12/WZTo2L2Q_13TeV_amcatnloFXFX_madspin_pythia8/71b8b695690394235fa5bb2e7cf65bd4da9460b8842838602e6523a7/000000_000000/0000/tree_2.root
/store/group/phys_higgs/hbb/ntuples/VHbbPostNano/2018/V12/WZTo2L2Q_13TeV_amcatnloFXFX_madspin_pythia8/fa14da1b0cdf612fc581c520a767f7d2034ec74cacee8e526d81bca8/000000_000000/0000/tree_3.root
/store/group/phys_higgs/hbb/ntuples/VHbbPostNano/2018/V12/WZTo2L2Q_13TeV_amcatnloFXFX_madspin_pythia8/bf8a9b0c710d8e5ce13e73bba29ecf0b910ab1537d17f9d0cc365612/000000_000000/0000/tree_4.root
/store/group/phys_higgs/hbb/ntuples/VHbbPostNano/2018/V12/WZTo2L2Q_13TeV_amcatnloFXFX_madspin_pythia8/a0cb93940a3cc55dee91712b07876bf04dc1f301193807200ae4eb69/000000_000000/0000/tree_5.root
/store/group/phys_higgs/hbb/ntuples/VHbbPostNano/2018/V12/WZTo2L2Q_13TeV_amcatnloFXFX_madspin_pythia8/e44bc13ccaba73a1410a6605092765cbd752458e58b3f07d87155208/000000_000000/0000/tree_6.root
/store/group/phys_higgs/hbb/ntuples/VHbbPostNano/2018/V12/WZTo2L2Q_13TeV_amcatnloFXFX_madspin_pythia8/7332bb9933b87028b1f0f9eabfe3c168981124c7357af47c378d31bd/000000_000000/0000/tree_7.root
/store/group/phys_higgs/hbb/ntuples/VHbbPostNano/2018/V12/WZTo2L2Q_13TeV_amcatnloFXFX_madspin_pythia8/2c94307b6635995bb6cf91ad1e401ab0cc20ff954b98032cf0e888e6/000000_000000/0000/tree_8.root
/store/group/phys_higgs/hbb/ntuples/VHbbPostNano/2018/V12/WZTo2L2Q_13TeV_amcatnloFXFX_madspin_pythia8/fde4e63255c4ae850ce056cb404b58661c32113b054db4fee80edebd/000000_000000/0000/tree_9.root
/store/group/phys_higgs/hbb/ntuples/VHbbPostNano/2018/V12/WZTo2L2Q_13TeV_amcatnloFXFX_madspin_pythia8/9f79106aef032669f7499f959ceea34f6e7779d024422690f7b22c71/000000_000000/0000/tree_10.root
/store/group/phys_higgs/hbb/ntuples/VHbbPostNano/2018/V12/WZTo2L2Q_13TeV_amcatnloFXFX_madspin_pythia8/b051f0fabbf13ae642dda10edc8680351fdfe322452f4128bdc6ace0/000000_000000/0000/tree_11.root