/store/group/phys_higgs/hbb/ntuples/VHbbPostNano/2018/V12/ZH_HToBB_ZToLL_M125_13TeV_powheg_pythia8/1eadccec50fedb7f7f7001590b233a7589b68dd1173c51caebc966a1/000000_000000/0000/tree_0.root
/store/group/phys_higgs/hbb/ntuples/VHbbPostNano/2018/V12/ZH_HToBB_ZToLL_M125_13TeV_powheg_pythia8/ab2a70f5cf4cca8fbc64362ad57ab1935219bd81d231d2027462d3ee/000000_000000/0000/tree_1.root
/store/group/phys_higgs/hbb/ntuples/VHbbPostNano/2018/V12/ZH_HToBB_ZToLL_M125_13TeV_powheg_pythia8/2d44853ede4851520a87673fe7e3282201bddc70864f453a469742ad/000000_000000/0000/tree_2.root
/store/group/phys_higgs/hbb/ntuples/VHbbPostNano/2018/V12/ZH_HToBB_ZToLL_M125_13TeV_powheg_pythia8/ca94eab1dac05578808bbc235e94afad7e270c1250a99c63dcf6988b/000000_000000/0000/tree_3.root
/store/group/phys_higgs/hbb/ntuples/VHbbPostNano/2018/V12/ZH_HToBB_ZToLL_M125_13TeV_powheg_pythia8/bf5722636a9c684b9f2ff2886c0813d3591c64bfba486a674576c394/000000_000000/0000/tree_4.root
/store/group/phys_higgs/hbb/ntuples/VHbbPostNano/2018/V12/ZH_HToBB_ZToLL_M125_13TeV_powheg_pythia8/ae1b33111802080e5da4d6f39cbe6d5e5d9c27173a9c7fc89f7ea4ab/000000_000000/0000/tree_5.root