/store/group/phys_higgs/hbb/ntuples/VHbbPostNano/2018/V12/ZZTo2L2Q_13TeV_amcatnloFXFX_madspin_pythia8/bdd12bb328b7d9be64a60bce3a6dd60ed634ccb549df9f0e149fa760/000000_000000/0000/tree_0.root
/store/group/phys_higgs/hbb/ntuples/VHbbPostNano/2018/V12/ZZTo2L2Q_13TeV_amcatnloFXFX_madspin_pythia8/236a7ab941405c77e2e4716a929519b87098a7d05f2584366dbea623/000000_000000/0000/tree_1.root
/store/group/phys_higgs/hbb/ntuples/VHbbPostNano/2018/V12/ZZTo2L2Q_13TeV_amcatnloFXFX_madspin_pythia8/233a88b576759e9b7a4a7e35adc01bbb07d0b55d938f8b7a3455c64a/000000_000000/0000/tree_2.root
/store/group/phys_higgs/hbb/ntuples/VHbbPostNano/2018/V12/ZZTo2L2Q_13TeV_amcatnloFXFX_madspin_pythia8/57aeb4601d8ae9bb16819d82dec68d4e4a5663b50afee6f4feb9db31/000000_000000/0000/tree_3.root
/store/group/phys_higgs/hbb/ntuples/VHbbPostNano/2018/V12/ZZTo2L2Q_13TeV_amcatnloFXFX_madspin_pythia8/94bb63b27131e9fb58c9379b152f201342045cf223eb7ebc0fa6da74/000000_000000/0000/tree_4.root
/store/group/phys_higgs/hbb/ntuples/VHbbPostNano/2018/V12/ZZTo2L2Q_13TeV_amcatnloFXFX_madspin_pythia8/fe7ad3baae0465ac0a9fa199319408939030b6300218148e35759857/000000_000000/0000/tree_5.root
/store/group/phys_higgs/hbb/ntuples/VHbbPostNano/2018/V12/ZZTo2L2Q_13TeV_amcatnloFXFX_madspin_pythia8/fc62909cacaea2f3b1953c0555f666fca881dd8992d53fd1c3905e89/000000_000000/0000/tree_6.root
/store/group/phys_higgs/hbb/ntuples/VHbbPostNano/2018/V12/ZZTo2L2Q_13TeV_amcatnloFXFX_madspin_pythia8/75c43e1df2bb62c383cf8b9b94ff1dcbef55bdc9c6cafd00ad736bec/000000_000000/0000/tree_7.root
/store/group/phys_higgs/hbb/ntuples/VHbbPostNano/2018/V12/ZZTo2L2Q_13TeV_amcatnloFXFX_madspin_pythia8/fddf9093690ddb29578ceb635665848dec58c37ef19e7c34cf95162c/000000_000000/0000/tree_8.root
/store/group/phys_higgs/hbb/ntuples/VHbbPostNano/2018/V12/ZZTo2L2Q_13TeV_amcatnloFXFX_madspin_pythia8/45780627aea7c351623089afda513c7e754883820f822b7fcae3035e/000000_000000/0000/tree_9.root
/store/group/phys_higgs/hbb/ntuples/VHbbPostNano/2018/V12/ZZTo2L2Q_13TeV_amcatnloFXFX_madspin_pythia8/a88bcb722ad5cd648b7dac83e943721db12556c5c4696b5fdd744d94/000000_000000/0000/tree_10.root
/store/group/phys_higgs/hbb/ntuples/VHbbPostNano/2018/V12/ZZTo2L2Q_13TeV_amcatnloFXFX_madspin_pythia8/afc29ebdd33265e1aaec8ad8c27bbe136608aa84286618a3c033b3b7/000000_000000/0000/tree_11.root