/eos/cms/store/group/phys_higgs/hbb/ntuples/VHbbPostNano/UL/EFT/2016/V1/DYJetsToLL_LHEFilterPtZ-100To250_MatchEWPDG20_TuneCP5_13TeV-amcatnloFXFX-pythia8/f4b8c71ddc50a211be2884c7f67ffe13a83d99b6e76579dde0d7de53/000000_000000/0000/tree_0.root
/eos/cms/store/group/phys_higgs/hbb/ntuples/VHbbPostNano/UL/EFT/2016/V1/DYJetsToLL_LHEFilterPtZ-100To250_MatchEWPDG20_TuneCP5_13TeV-amcatnloFXFX-pythia8/4290f9b23fcc40465b69948010069684d3edb73c82a83390f35b2688/000000_000000/0000/tree_1.root
/eos/cms/store/group/phys_higgs/hbb/ntuples/VHbbPostNano/UL/EFT/2016/V1/DYJetsToLL_LHEFilterPtZ-100To250_MatchEWPDG20_TuneCP5_13TeV-amcatnloFXFX-pythia8/aae1832b93deabd70ee861f450be5be8373d2b9e4bf49553d30221e8/000000_000000/0000/tree_2.root
/eos/cms/store/group/phys_higgs/hbb/ntuples/VHbbPostNano/UL/EFT/2016/V1/DYJetsToLL_LHEFilterPtZ-100To250_MatchEWPDG20_TuneCP5_13TeV-amcatnloFXFX-pythia8/78700d70527e84de864f3a97a43f021c731078af4deb4674d3b65a27/000000_000000/0000/tree_3.root