/eos/cms/store/group/phys_higgs/hbb/ntuples/VHbbPostNano/UL/EFT/2016/V1/ST_t-channel_top_5f_InclusiveDecays_TuneCP5_13TeV-powheg-pythia8/06bfeb22cf0bcb942d01363789567a22a0630f21d5d84757d5d79629/000000_000000/0000/tree_0.root
/eos/cms/store/group/phys_higgs/hbb/ntuples/VHbbPostNano/UL/EFT/2016/V1/ST_t-channel_top_5f_InclusiveDecays_TuneCP5_13TeV-powheg-pythia8/dcd16ba9af868ee8057a78102964d8ed7ce0a6872f8dbeaf60720d9b/000000_000000/0000/tree_1.root
/eos/cms/store/group/phys_higgs/hbb/ntuples/VHbbPostNano/UL/EFT/2016/V1/ST_t-channel_top_5f_InclusiveDecays_TuneCP5_13TeV-powheg-pythia8/94f53b3ead75b3c62285beaf0cb0079a24949e099bb0811ef00901f0/000000_000000/0000/tree_2.root
/eos/cms/store/group/phys_higgs/hbb/ntuples/VHbbPostNano/UL/EFT/2016/V1/ST_t-channel_top_5f_InclusiveDecays_TuneCP5_13TeV-powheg-pythia8/e722cd5bdcac9ee8546b1f91f89696f017ddf0a9e582da382434a090/000000_000000/0000/tree_3.root
/eos/cms/store/group/phys_higgs/hbb/ntuples/VHbbPostNano/UL/EFT/2016/V1/ST_t-channel_top_5f_InclusiveDecays_TuneCP5_13TeV-powheg-pythia8/9528c5554186f5e76bf3a5dfe029615a40db922110052a26fec57e2f/000000_000000/0000/tree_4.root
/eos/cms/store/group/phys_higgs/hbb/ntuples/VHbbPostNano/UL/EFT/2016/V1/ST_t-channel_top_5f_InclusiveDecays_TuneCP5_13TeV-powheg-pythia8/8d4e2fbec72e468f88204fa7fddd24ba5f495693f44720a188689aff/000000_000000/0000/tree_5.root
/eos/cms/store/group/phys_higgs/hbb/ntuples/VHbbPostNano/UL/EFT/2016/V1/ST_t-channel_top_5f_InclusiveDecays_TuneCP5_13TeV-powheg-pythia8/b14069e23df19c876b09e451e2fafceef345f05c542de846daecc920/000000_000000/0000/tree_6.root