/eos/cms/store/group/phys_higgs/hbb/ntuples/VHbbPostNano/UL/EFT/2016/V1/TTTo2L2Nu_TuneCP5_13TeV-powheg-pythia8/6e797a4f612833dbcdaf2020425996915d5c32ab0c521795d18b2e9b/000000_000000/0000/tree_0.root
/eos/cms/store/group/phys_higgs/hbb/ntuples/VHbbPostNano/UL/EFT/2016/V1/TTTo2L2Nu_TuneCP5_13TeV-powheg-pythia8/1db86a2252a33a9790026e288eae9e1d3945de52f7bf1b9ca183a18d/000000_000000/0000/tree_1.root
/eos/cms/store/group/phys_higgs/hbb/ntuples/VHbbPostNano/UL/EFT/2016/V1/TTTo2L2Nu_TuneCP5_13TeV-powheg-pythia8/00c6f0590ccc3c9faa869c0a71da3f7427759ee26eaff3b8ad7bc0d9/000000_000000/0000/tree_2.root
/eos/cms/store/group/phys_higgs/hbb/ntuples/VHbbPostNano/UL/EFT/2016/V1/TTTo2L2Nu_TuneCP5_13TeV-powheg-pythia8/fcab57c8e539b50db59e4001d97365e66c1c4b0af94eccd63d305ff0/000000_000000/0000/tree_3.root
/eos/cms/store/group/phys_higgs/hbb/ntuples/VHbbPostNano/UL/EFT/2016/V1/TTTo2L2Nu_TuneCP5_13TeV-powheg-pythia8/fc392db076da554efa52d5524bec4399067b149826567caab3433bb4/000000_000000/0000/tree_4.root
/eos/cms/store/group/phys_higgs/hbb/ntuples/VHbbPostNano/UL/EFT/2016/V1/TTTo2L2Nu_TuneCP5_13TeV-powheg-pythia8/02040f9cd6c5474a057a80bc0fecd94abfeb471696702cdc7afff371/000000_000000/0000/tree_5.root
/eos/cms/store/group/phys_higgs/hbb/ntuples/VHbbPostNano/UL/EFT/2016/V1/TTTo2L2Nu_TuneCP5_13TeV-powheg-pythia8/ec5511ced11d4bf8c9bcb0d8a154de58bdd03f4353319e20d6253ddd/000000_000000/0000/tree_6.root
/eos/cms/store/group/phys_higgs/hbb/ntuples/VHbbPostNano/UL/EFT/2016/V1/TTTo2L2Nu_TuneCP5_13TeV-powheg-pythia8/e4cfa2169f5159acf75c8c52271283d080105706b9f45916955b4a30/000000_000000/0000/tree_7.root
/eos/cms/store/group/phys_higgs/hbb/ntuples/VHbbPostNano/UL/EFT/2016/V1/TTTo2L2Nu_TuneCP5_13TeV-powheg-pythia8/a3d99d1ad8c56c62f862ecd668ce9535851a627ee984e39aeb2d9eee/000000_000000/0000/tree_8.root
/eos/cms/store/group/phys_higgs/hbb/ntuples/VHbbPostNano/UL/EFT/2016/V1/TTTo2L2Nu_TuneCP5_13TeV-powheg-pythia8/b7a94bdbca4c582cda4625bb2625d8a71c1d1aae77af35a5648601c2/000000_000000/0000/tree_9.root
/eos/cms/store/group/phys_higgs/hbb/ntuples/VHbbPostNano/UL/EFT/2016/V1/TTTo2L2Nu_TuneCP5_13TeV-powheg-pythia8/93676977a3d0bdc8e334d81d4125aec178ab80824c143d81d9918962/000000_000000/0000/tree_10.root
/eos/cms/store/group/phys_higgs/hbb/ntuples/VHbbPostNano/UL/EFT/2016/V1/TTTo2L2Nu_TuneCP5_13TeV-powheg-pythia8/acebe27c4cba7f4ced1e91511015d9918998417e99d09f4640359d97/000000_000000/0000/tree_11.root
/eos/cms/store/group/phys_higgs/hbb/ntuples/VHbbPostNano/UL/EFT/2016/V1/TTTo2L2Nu_TuneCP5_13TeV-powheg-pythia8/061ea1b97eabcb96169675429d7ce2072bd396e9ca9f0d8c46485e15/000000_000000/0000/tree_12.root
/eos/cms/store/group/phys_higgs/hbb/ntuples/VHbbPostNano/UL/EFT/2016/V1/TTTo2L2Nu_TuneCP5_13TeV-powheg-pythia8/668645e2c5de7568c4fe9d712e17d6ada4cd6df4aa2a150606afabd4/000000_000000/0000/tree_13.root
/eos/cms/store/group/phys_higgs/hbb/ntuples/VHbbPostNano/UL/EFT/2016/V1/TTTo2L2Nu_TuneCP5_13TeV-powheg-pythia8/f8676d74d26f62fee7e64588b12bfca2aa642f2d232017fab252ac72/000000_000000/0000/tree_14.root
/eos/cms/store/group/phys_higgs/hbb/ntuples/VHbbPostNano/UL/EFT/2016/V1/TTTo2L2Nu_TuneCP5_13TeV-powheg-pythia8/bced6678790810bfde00be1d88445675af08c3755261f29e49849bc3/000000_000000/0000/tree_15.root
/eos/cms/store/group/phys_higgs/hbb/ntuples/VHbbPostNano/UL/EFT/2016/V1/TTTo2L2Nu_TuneCP5_13TeV-powheg-pythia8/1a927beafa8cc806a821857530e25f0ffd897e9dde71197af51c6261/000000_000000/0000/tree_16.root
/eos/cms/store/group/phys_higgs/hbb/ntuples/VHbbPostNano/UL/EFT/2016/V1/TTTo2L2Nu_TuneCP5_13TeV-powheg-pythia8/98361aaf01fd22fa188a63e233b5bbd6aa7c1cff293c56f3e98f767d/000000_000000/0000/tree_17.root
/eos/cms/store/group/phys_higgs/hbb/ntuples/VHbbPostNano/UL/EFT/2016/V1/TTTo2L2Nu_TuneCP5_13TeV-powheg-pythia8/71a023eb13e17a69c7aa3380ace55aa3c7fb9d21b266d797be6471ad/000000_000000/0000/tree_18.root
/eos/cms/store/group/phys_higgs/hbb/ntuples/VHbbPostNano/UL/EFT/2016/V1/TTTo2L2Nu_TuneCP5_13TeV-powheg-pythia8/f176cbd4030bd4d1e2f274f86395c4987bfc030b1a806d87adf36e08/000000_000000/0000/tree_19.root
/eos/cms/store/group/phys_higgs/hbb/ntuples/VHbbPostNano/UL/EFT/2016/V1/TTTo2L2Nu_TuneCP5_13TeV-powheg-pythia8/67a1ee751583221451c1a5499d93e9acaf38e867fef1076c3c23ffe7/000000_000000/0000/tree_20.root
/eos/cms/store/group/phys_higgs/hbb/ntuples/VHbbPostNano/UL/EFT/2016/V1/TTTo2L2Nu_TuneCP5_13TeV-powheg-pythia8/3cb3c5196c49e5c25af5064c77822c23036e77c48dd3f15919fae04d/000000_000000/0000/tree_21.root
/eos/cms/store/group/phys_higgs/hbb/ntuples/VHbbPostNano/UL/EFT/2016/V1/TTTo2L2Nu_TuneCP5_13TeV-powheg-pythia8/9de7844714958b451827c1b07eacbb60852819b9112fdf0969a320f4/000000_000000/0000/tree_22.root
/eos/cms/store/group/phys_higgs/hbb/ntuples/VHbbPostNano/UL/EFT/2016/V1/TTTo2L2Nu_TuneCP5_13TeV-powheg-pythia8/7473a48ed8e9782eee24c87481f0c934e7aa585942844845a85dc115/000000_000000/0000/tree_23.root
/eos/cms/store/group/phys_higgs/hbb/ntuples/VHbbPostNano/UL/EFT/2016/V1/TTTo2L2Nu_TuneCP5_13TeV-powheg-pythia8/5a0f346f8eb4b3f3b3ae693b4952b2f86e73b6bde5b59ee32f528042/000000_000000/0000/tree_24.root
/eos/cms/store/group/phys_higgs/hbb/ntuples/VHbbPostNano/UL/EFT/2016/V1/TTTo2L2Nu_TuneCP5_13TeV-powheg-pythia8/34698df3d91624a6ebbea205a51f611ef451d65a13f2c229c1421bd9/000000_000000/0000/tree_25.root
/eos/cms/store/group/phys_higgs/hbb/ntuples/VHbbPostNano/UL/EFT/2016/V1/TTTo2L2Nu_TuneCP5_13TeV-powheg-pythia8/beff6b61ed140db733e3cf94ee992fcf1f9409cde143323572ab0ee4/000000_000000/0000/tree_26.root
/eos/cms/store/group/phys_higgs/hbb/ntuples/VHbbPostNano/UL/EFT/2016/V1/TTTo2L2Nu_TuneCP5_13TeV-powheg-pythia8/18c0a412d82b2de1682915930556ba939656d78778b8bc718a8e57ce/000000_000000/0000/tree_27.root
/eos/cms/store/group/phys_higgs/hbb/ntuples/VHbbPostNano/UL/EFT/2016/V1/TTTo2L2Nu_TuneCP5_13TeV-powheg-pythia8/ad76c177527cf05504a0c476a5be95810c8cf3ca8dbe72983cfa2ecd/000000_000000/0000/tree_28.root
/eos/cms/store/group/phys_higgs/hbb/ntuples/VHbbPostNano/UL/EFT/2016/V1/TTTo2L2Nu_TuneCP5_13TeV-powheg-pythia8/ba33454a4ea656975f7950424c33fdc814e4b226e35fda31897c9b37/000000_000000/0000/tree_29.root