/store/group/phys_higgs/hbb/ntuples/VHbbPostNano/2018/V12/DYJetsToLL_1J_TuneCP5_13TeV-amcatnloFXFX-pythia8/0ced77aa1cc01a085b70d7764c4dfb16b338091093ef93effd72b7e3/000000_000000/0000/tree_0.root
/store/group/phys_higgs/hbb/ntuples/VHbbPostNano/2018/V12/DYJetsToLL_1J_TuneCP5_13TeV-amcatnloFXFX-pythia8/8252ca1cd5a0658b1ec88a25b48ff9d293189ecee5c5b6aa6dde36e5/000000_000000/0000/tree_1.root
/store/group/phys_higgs/hbb/ntuples/VHbbPostNano/2018/V12/DYJetsToLL_1J_TuneCP5_13TeV-amcatnloFXFX-pythia8/a3bf03d6036301868eadcb22ec921494d0863a60f09f3d387dd26e3f/000000_000000/0000/tree_2.root
/store/group/phys_higgs/hbb/ntuples/VHbbPostNano/2018/V12/DYJetsToLL_1J_TuneCP5_13TeV-amcatnloFXFX-pythia8/01032c367ad553b35e5ed80e7a9c63e5ed62af75bb4dc12c24372f7d/000000_000000/0000/tree_3.root
/store/group/phys_higgs/hbb/ntuples/VHbbPostNano/2018/V12/DYJetsToLL_1J_TuneCP5_13TeV-amcatnloFXFX-pythia8/be67abb76035c87aec5db96a1c9c0b346ec6ad240d2b0f864ef49d54/000000_000000/0000/tree_4.root
/store/group/phys_higgs/hbb/ntuples/VHbbPostNano/2018/V12/DYJetsToLL_1J_TuneCP5_13TeV-amcatnloFXFX-pythia8/7b6e39829b5395edc4922809e1c0a82612b5c88a9b30afa99b904b38/000000_000000/0000/tree_5.root
/store/group/phys_higgs/hbb/ntuples/VHbbPostNano/2018/V12/DYJetsToLL_1J_TuneCP5_13TeV-amcatnloFXFX-pythia8/61145bef0674aeddca0cf735f8a9aaa0e143dad6fe7ffd961879a8e8/000000_000000/0000/tree_6.root
/store/group/phys_higgs/hbb/ntuples/VHbbPostNano/2018/V12/DYJetsToLL_1J_TuneCP5_13TeV-amcatnloFXFX-pythia8/225bdffc1027461dada597be693242bb277fbf366e8a6556a9395c61/000000_000000/0000/tree_7.root
/store/group/phys_higgs/hbb/ntuples/VHbbPostNano/2018/V12/DYJetsToLL_1J_TuneCP5_13TeV-amcatnloFXFX-pythia8/f0d184dbcd29258755812a8b3cbd030e319050a89eecf25c72b73025/000000_000000/0000/tree_8.root
/store/group/phys_higgs/hbb/ntuples/VHbbPostNano/2018/V12/DYJetsToLL_1J_TuneCP5_13TeV-amcatnloFXFX-pythia8/769e723ab26df8fc165906e5517f12c1b9298d0f11d8a750c41efb9e/000000_000000/0000/tree_9.root
/store/group/phys_higgs/hbb/ntuples/VHbbPostNano/2018/V12/DYJetsToLL_1J_TuneCP5_13TeV-amcatnloFXFX-pythia8/7f74a959a453b727be0b3373dd7a5e8dbc062113b26463bcda02651c/000000_000000/0000/tree_10.root
/store/group/phys_higgs/hbb/ntuples/VHbbPostNano/2018/V12/DYJetsToLL_1J_TuneCP5_13TeV-amcatnloFXFX-pythia8/bff3ded61c44834d9b03d430e61ae8c54cb8e429fd5da1d6603d6ab8/000000_000000/0000/tree_11.root
/store/group/phys_higgs/hbb/ntuples/VHbbPostNano/2018/V12/DYJetsToLL_1J_TuneCP5_13TeV-amcatnloFXFX-pythia8/823fc28bf2e45e0840e8acee796a5af26d4f1bb7689227d1bbfd9e29/000000_000000/0000/tree_12.root
/store/group/phys_higgs/hbb/ntuples/VHbbPostNano/2018/V12/DYJetsToLL_1J_TuneCP5_13TeV-amcatnloFXFX-pythia8/f3aa05b1c1187838661c585f3b304bb59dbad9ea2f63f3008a9a1783/000000_000000/0000/tree_13.root
/store/group/phys_higgs/hbb/ntuples/VHbbPostNano/2018/V12/DYJetsToLL_1J_TuneCP5_13TeV-amcatnloFXFX-pythia8/c42cabf793d9318e946bdd70fdfb7ae595566ceead011f8116b4f540/000000_000000/0000/tree_14.root
/store/group/phys_higgs/hbb/ntuples/VHbbPostNano/2018/V12/DYJetsToLL_1J_TuneCP5_13TeV-amcatnloFXFX-pythia8/f9f85c9dac271a506c59593cfed521657ffb2a49c386055a2cb43df0/000000_000000/0000/tree_15.root
/store/group/phys_higgs/hbb/ntuples/VHbbPostNano/2018/V12/DYJetsToLL_1J_TuneCP5_13TeV-amcatnloFXFX-pythia8/b35c75a62ad6ae335129645d85a4073967f97c5bf92113c7442ca281/000000_000000/0000/tree_16.root
/store/group/phys_higgs/hbb/ntuples/VHbbPostNano/2018/V12/DYJetsToLL_1J_TuneCP5_13TeV-amcatnloFXFX-pythia8/0037380ea5cb7c1a2cacc739cb020e3a92568420a00e3bfad30cdebd/000000_000000/0000/tree_17.root
/store/group/phys_higgs/hbb/ntuples/VHbbPostNano/2018/V12/DYJetsToLL_1J_TuneCP5_13TeV-amcatnloFXFX-pythia8/1f535d160a4bcb893d5a40f1c55e47fb2498fe22666dec009ddf54ed/000000_000000/0000/tree_18.root
/store/group/phys_higgs/hbb/ntuples/VHbbPostNano/2018/V12/DYJetsToLL_1J_TuneCP5_13TeV-amcatnloFXFX-pythia8/24a6f4ae41ff357b5e37fab787c9b25e02a24fd35706a9587a4df3da/000000_000000/0000/tree_19.root
/store/group/phys_higgs/hbb/ntuples/VHbbPostNano/2018/V12/DYJetsToLL_1J_TuneCP5_13TeV-amcatnloFXFX-pythia8/1b6169322a1622216d509605354df2346ab51e0254d8749c4061c5f0/000000_000000/0000/tree_20.root
/store/group/phys_higgs/hbb/ntuples/VHbbPostNano/2018/V12/DYJetsToLL_1J_TuneCP5_13TeV-amcatnloFXFX-pythia8/d78636c7f367a8c936aad3f85cbf8122d2671143f2bcc03e9c071883/000000_000000/0000/tree_21.root
/store/group/phys_higgs/hbb/ntuples/VHbbPostNano/2018/V12/DYJetsToLL_1J_TuneCP5_13TeV-amcatnloFXFX-pythia8/deca1784c4ff831ce137a05cf7282a50516a9f703f43ed8a0047b061/000000_000000/0000/tree_22.root
/store/group/phys_higgs/hbb/ntuples/VHbbPostNano/2018/V12/DYJetsToLL_1J_TuneCP5_13TeV-amcatnloFXFX-pythia8/2df8f08cb0ec5c12859094105b19597c9b19bb794c3c8f2314d7f01b/000000_000000/0000/tree_23.root
/store/group/phys_higgs/hbb/ntuples/VHbbPostNano/2018/V12/DYJetsToLL_1J_TuneCP5_13TeV-amcatnloFXFX-pythia8/a3494289e9534b99950b26076d1c695bb84f3f0beb8193df84de7484/000000_000000/0000/tree_24.root
/store/group/phys_higgs/hbb/ntuples/VHbbPostNano/2018/V12/DYJetsToLL_1J_TuneCP5_13TeV-amcatnloFXFX-pythia8/28ec6e61b454f823864e24cb1e9e84b99afad91a592ea8e14e952c84/000000_000000/0000/tree_25.root
/store/group/phys_higgs/hbb/ntuples/VHbbPostNano/2018/V12/DYJetsToLL_1J_TuneCP5_13TeV-amcatnloFXFX-pythia8/acaa79a9b754988f1f570293eab1d6f517c792e001cc991d8eeb45a5/000000_000000/0000/tree_26.root
/store/group/phys_higgs/hbb/ntuples/VHbbPostNano/2018/V12/DYJetsToLL_1J_TuneCP5_13TeV-amcatnloFXFX-pythia8/e172458bb0a80cfa2cbf0d1d9851c956113351d2a00b54559044b295/000000_000000/0000/tree_27.root
/store/group/phys_higgs/hbb/ntuples/VHbbPostNano/2018/V12/DYJetsToLL_1J_TuneCP5_13TeV-amcatnloFXFX-pythia8/0f546ebf2253d3f3d9e982c8a6e396f061bd1f9190629b57ce137a54/000000_000000/0000/tree_28.root
/store/group/phys_higgs/hbb/ntuples/VHbbPostNano/2018/V12/DYJetsToLL_1J_TuneCP5_13TeV-amcatnloFXFX-pythia8/551c86299f6aeb50835820c646a6fbbc113e4fed201eb9c4423b8b7c/000000_000000/0000/tree_29.root
/store/group/phys_higgs/hbb/ntuples/VHbbPostNano/2018/V12/DYJetsToLL_1J_TuneCP5_13TeV-amcatnloFXFX-pythia8/3ba80721fa31da960a6a7b8d6046f2ea64dc16e164496a15d7afadd5/000000_000000/0000/tree_30.root
/store/group/phys_higgs/hbb/ntuples/VHbbPostNano/2018/V12/DYJetsToLL_1J_TuneCP5_13TeV-amcatnloFXFX-pythia8/e5395d5f8a69d59dab675ee45478912e2f70f456d086bf5de08a65cd/000000_000000/0000/tree_31.root
/store/group/phys_higgs/hbb/ntuples/VHbbPostNano/2018/V12/DYJetsToLL_1J_TuneCP5_13TeV-amcatnloFXFX-pythia8/d4b88d9bf82024ec9ed679d5c7872d448cf7a543f774367f1bc099fd/000000_000000/0000/tree_32.root
/store/group/phys_higgs/hbb/ntuples/VHbbPostNano/2018/V12/DYJetsToLL_1J_TuneCP5_13TeV-amcatnloFXFX-pythia8/8e150ade1ad2aaf611fa8dc8c2e3a70ad2b24f3f8614f824a386a39b/000000_000000/0000/tree_33.root
/store/group/phys_higgs/hbb/ntuples/VHbbPostNano/2018/V12/DYJetsToLL_1J_TuneCP5_13TeV-amcatnloFXFX-pythia8/5b3ed37c2d0e798b49e4eb7ee02f4e061dd42fe1ff9ba242444cc0d7/000000_000000/0000/tree_34.root
/store/group/phys_higgs/hbb/ntuples/VHbbPostNano/2018/V12/DYJetsToLL_1J_TuneCP5_13TeV-amcatnloFXFX-pythia8/b1c99ddb70dbd0de1eda9ec99dec6b6c8648c6de8c94f4086bae520a/000000_000000/0000/tree_35.root
/store/group/phys_higgs/hbb/ntuples/VHbbPostNano/2018/V12/DYJetsToLL_1J_TuneCP5_13TeV-amcatnloFXFX-pythia8/7254622bff4b9d973c28ca313d6f7450be166992a539b8722ea19a89/000000_000000/0000/tree_36.root
/store/group/phys_higgs/hbb/ntuples/VHbbPostNano/2018/V12/DYJetsToLL_1J_TuneCP5_13TeV-amcatnloFXFX-pythia8/f3629e212de4eb6fa3ddf38f81f8995789ae6601b93e070edb053243/000000_000000/0000/tree_37.root
/store/group/phys_higgs/hbb/ntuples/VHbbPostNano/2018/V12/DYJetsToLL_1J_TuneCP5_13TeV-amcatnloFXFX-pythia8/6c740d6a43918812531c8f72254d66a8d1134dd908d1011041649120/000000_000000/0000/tree_38.root