/store/group/phys_higgs/hbb/ntuples/VHbbPostNano/2018/V12/DYJetsToLL_M-50_HT-70to100_TuneCP5_PSweights_13TeV-madgraphMLM-pythia8/a7c0b03d796ec479230a0ea748815bca99e94259f0788f076759895d/000000_000000/0000/tree_0.root
/store/group/phys_higgs/hbb/ntuples/VHbbPostNano/2018/V12/DYJetsToLL_M-50_HT-70to100_TuneCP5_PSweights_13TeV-madgraphMLM-pythia8/ac496787b81816966499efd757425b618b2f8c2e3e35ca96a9d0d575/000000_000000/0000/tree_1.root
/store/group/phys_higgs/hbb/ntuples/VHbbPostNano/2018/V12/DYJetsToLL_M-50_HT-70to100_TuneCP5_PSweights_13TeV-madgraphMLM-pythia8/e09e8aea7f9ba49eee8e52c32b66d35ac51486b1d4073054db57c92e/000000_000000/0000/tree_2.root
/store/group/phys_higgs/hbb/ntuples/VHbbPostNano/2018/V12/DYJetsToLL_M-50_HT-70to100_TuneCP5_PSweights_13TeV-madgraphMLM-pythia8/999dad3394701508cea2e7eec30d7997ee6a4effef8671bf6aaf5d3f/000000_000000/0000/tree_3.root
/store/group/phys_higgs/hbb/ntuples/VHbbPostNano/2018/V12/DYJetsToLL_M-50_HT-70to100_TuneCP5_PSweights_13TeV-madgraphMLM-pythia8/a0fec523d4b6e7188e096786ef39c50a9906223baf35a68562d62ba3/000000_000000/0000/tree_4.root
/store/group/phys_higgs/hbb/ntuples/VHbbPostNano/2018/V12/DYJetsToLL_M-50_HT-70to100_TuneCP5_PSweights_13TeV-madgraphMLM-pythia8/608a2c31d390b5f51ddcd426cb1dd9151cb132b3bce0f2c705d623ba/000000_000000/0000/tree_5.root
/store/group/phys_higgs/hbb/ntuples/VHbbPostNano/2018/V12/DYJetsToLL_M-50_HT-70to100_TuneCP5_PSweights_13TeV-madgraphMLM-pythia8/832007086d1bb0720a39df18da4ff4345df1e67ea390b41c3710b9af/000000_000000/0000/tree_6.root
/store/group/phys_higgs/hbb/ntuples/VHbbPostNano/2018/V12/DYJetsToLL_M-50_HT-70to100_TuneCP5_PSweights_13TeV-madgraphMLM-pythia8/911f08c1eb9bd4e7776e7971acb2f26768ccb59047b2a536d462dc48/000000_000000/0000/tree_7.root