/store/group/phys_higgs/hbb/ntuples/VHbbPostNano/2018/V12/DYBJetsToLL_M-50_Zpt-200toInf_TuneCP5_13TeV-madgraphMLM-pythia8/16915b59afd1bd78c7acb1dd6abcd1e546baf6607c6b4552b97155e9/000000_000000/0000/tree_0.root
/store/group/phys_higgs/hbb/ntuples/VHbbPostNano/2018/V12/DYBJetsToLL_M-50_Zpt-200toInf_TuneCP5_13TeV-madgraphMLM-pythia8/3161dd2686005705a10d3c1ef8d4dd4d394c53dacddeefb0301f53b4/000000_000000/0000/tree_1.root
/store/group/phys_higgs/hbb/ntuples/VHbbPostNano/2018/V12/DYBJetsToLL_M-50_Zpt-200toInf_TuneCP5_13TeV-madgraphMLM-pythia8/f474837a119fe181e4adadc5a987424d459913e4c3d21fff5c22dd23/000000_000000/0000/tree_2.root
/store/group/phys_higgs/hbb/ntuples/VHbbPostNano/2018/V12/DYBJetsToLL_M-50_Zpt-200toInf_TuneCP5_13TeV-madgraphMLM-pythia8/aece53219e52d062441b1401759a7e86135e2461c9539dbbc3424622/000000_000000/0000/tree_3.root
/store/group/phys_higgs/hbb/ntuples/VHbbPostNano/2018/V12/DYBJetsToLL_M-50_Zpt-200toInf_TuneCP5_13TeV-madgraphMLM-pythia8/5d217286d0a115fb1d2462cdce9d68c04b79a817c5bbbf7e703809b8/000000_000000/0000/tree_4.root
/store/group/phys_higgs/hbb/ntuples/VHbbPostNano/2018/V12/DYBJetsToLL_M-50_Zpt-200toInf_TuneCP5_13TeV-madgraphMLM-pythia8/057e8600235f18593e66e59840b0709c3d0ffe942d8903d73cd6104d/000000_000000/0000/tree_5.root
/store/group/phys_higgs/hbb/ntuples/VHbbPostNano/2018/V12/DYBJetsToLL_M-50_Zpt-200toInf_TuneCP5_13TeV-madgraphMLM-pythia8/9091b977cf13c91f840cf3373d8b95bd613eb68e9a307569f5ec8a44/000000_000000/0000/tree_6.root
/store/group/phys_higgs/hbb/ntuples/VHbbPostNano/2018/V12/DYBJetsToLL_M-50_Zpt-200toInf_TuneCP5_13TeV-madgraphMLM-pythia8/c65f56435ddfc1aa263fbcb8fb94c0c2b821fee8df38278ecb5e7528/000000_000000/0000/tree_7.root