/store/group/phys_higgs/hbb/ntuples/VHbbPostNano/2018/V12/DYBJetsToLL_M-50_Zpt-100to200_TuneCP5_13TeV-madgraphMLM-pythia8/a6b49dbb202048bd17cdf3f392ef3c2813bf6388d3275d8708169f7b/000000_000000/0000/tree_0.root
/store/group/phys_higgs/hbb/ntuples/VHbbPostNano/2018/V12/DYBJetsToLL_M-50_Zpt-100to200_TuneCP5_13TeV-madgraphMLM-pythia8/47475e5db482a75f53d512910dd8791fb8493e6feb04ac849916bb58/000000_000000/0000/tree_1.root
/store/group/phys_higgs/hbb/ntuples/VHbbPostNano/2018/V12/DYBJetsToLL_M-50_Zpt-100to200_TuneCP5_13TeV-madgraphMLM-pythia8/cfdf4201f5f769018362523cae46eff7283a7c3e0c9caeb6f3d8f4f4/000000_000000/0000/tree_2.root
/store/group/phys_higgs/hbb/ntuples/VHbbPostNano/2018/V12/DYBJetsToLL_M-50_Zpt-100to200_TuneCP5_13TeV-madgraphMLM-pythia8/7761c99d6d238e6aa46d1024c8825a88702ae25031929e5def651a11/000000_000000/0000/tree_3.root
/store/group/phys_higgs/hbb/ntuples/VHbbPostNano/2018/V12/DYBJetsToLL_M-50_Zpt-100to200_TuneCP5_13TeV-madgraphMLM-pythia8/7c3ffd58e92d6fe2bf32ad1eb1a463b0ad3b669ab17b4be360f8ed43/000000_000000/0000/tree_4.root
/store/group/phys_higgs/hbb/ntuples/VHbbPostNano/2018/V12/DYBJetsToLL_M-50_Zpt-100to200_TuneCP5_13TeV-madgraphMLM-pythia8/444ef2b981f1f7c147ac3416f1ec8ef4668201ecd18042937d8747a8/000000_000000/0000/tree_5.root
/store/group/phys_higgs/hbb/ntuples/VHbbPostNano/2018/V12/DYBJetsToLL_M-50_Zpt-100to200_TuneCP5_13TeV-madgraphMLM-pythia8/aad3c4eaf2486929bf634783e86c44d2679b441f4c1d22f78dcf3364/000000_000000/0000/tree_6.root
/store/group/phys_higgs/hbb/ntuples/VHbbPostNano/2018/V12/DYBJetsToLL_M-50_Zpt-100to200_TuneCP5_13TeV-madgraphMLM-pythia8/34b20155aacef4ec7dff1e4e6202062dd29ba2559ed198fdb6db6671/000000_000000/0000/tree_7.root
/store/group/phys_higgs/hbb/ntuples/VHbbPostNano/2018/V12/DYBJetsToLL_M-50_Zpt-100to200_TuneCP5_13TeV-madgraphMLM-pythia8/d49efc1ed87312619fd5e543ef5977c7b86a0c9aec2acde833daa878/000000_000000/0000/tree_8.root
/store/group/phys_higgs/hbb/ntuples/VHbbPostNano/2018/V12/DYBJetsToLL_M-50_Zpt-100to200_TuneCP5_13TeV-madgraphMLM-pythia8/057532909699cfc9b967bd24807fcefe70c8a433058ff9d857030e0e/000000_000000/0000/tree_9.root
/store/group/phys_higgs/hbb/ntuples/VHbbPostNano/2018/V12/DYBJetsToLL_M-50_Zpt-100to200_TuneCP5_13TeV-madgraphMLM-pythia8/182a0f7a4ef943438ea6c77ac3436c68219f01af85a7c9fe60f732d3/000000_000000/0000/tree_10.root
/store/group/phys_higgs/hbb/ntuples/VHbbPostNano/2018/V12/DYBJetsToLL_M-50_Zpt-100to200_TuneCP5_13TeV-madgraphMLM-pythia8/e39c7dba5ff4abd5910df5990b5ad8857565833c1eebce6adf1b0de8/000000_000000/0000/tree_11.root
/store/group/phys_higgs/hbb/ntuples/VHbbPostNano/2018/V12/DYBJetsToLL_M-50_Zpt-100to200_TuneCP5_13TeV-madgraphMLM-pythia8/f5d0bc02de943c5de184957fc0327550beda3c5a7eb9abd4510a88af/000000_000000/0000/tree_12.root
/store/group/phys_higgs/hbb/ntuples/VHbbPostNano/2018/V12/DYBJetsToLL_M-50_Zpt-100to200_TuneCP5_13TeV-madgraphMLM-pythia8/6be923bce9d1807dc533726c885145d988a66618d38f6967c8ab4e76/000000_000000/0000/tree_13.root
/store/group/phys_higgs/hbb/ntuples/VHbbPostNano/2018/V12/DYBJetsToLL_M-50_Zpt-100to200_TuneCP5_13TeV-madgraphMLM-pythia8/88de34c68550dce256fb449b46eeb1335f36d9f4fa84e877375d85be/000000_000000/0000/tree_14.root
/store/group/phys_higgs/hbb/ntuples/VHbbPostNano/2018/V12/DYBJetsToLL_M-50_Zpt-100to200_TuneCP5_13TeV-madgraphMLM-pythia8/b3d2c31996ce7480bc552688dc56321ba453c60c4c85616faeb5d2d4/000000_000000/0000/tree_15.root
/store/group/phys_higgs/hbb/ntuples/VHbbPostNano/2018/V12/DYBJetsToLL_M-50_Zpt-100to200_TuneCP5_13TeV-madgraphMLM-pythia8/d54eb9b11960b8b3948e2e5bdffc3b0a735a5e841ece25d63bf2f16b/000000_000000/0000/tree_16.root
/store/group/phys_higgs/hbb/ntuples/VHbbPostNano/2018/V12/DYBJetsToLL_M-50_Zpt-100to200_TuneCP5_13TeV-madgraphMLM-pythia8/2539ce6025d006ba56e5d4a02bdd550abcafe3c47098a45894ae3fb3/000000_000000/0000/tree_17.root
/store/group/phys_higgs/hbb/ntuples/VHbbPostNano/2018/V12/DYBJetsToLL_M-50_Zpt-100to200_TuneCP5_13TeV-madgraphMLM-pythia8/59646d17cdf06b8f5e3408bb1c2242d83df2cd3ec608c938ff46aef6/000000_000000/0000/tree_18.root
/store/group/phys_higgs/hbb/ntuples/VHbbPostNano/2018/V12/DYBJetsToLL_M-50_Zpt-100to200_TuneCP5_13TeV-madgraphMLM-pythia8/6900edd9b38aba2f7e03c014c11d98483c08267259798ae7b95edd7d/000000_000000/0000/tree_19.root
/store/group/phys_higgs/hbb/ntuples/VHbbPostNano/2018/V12/DYBJetsToLL_M-50_Zpt-100to200_TuneCP5_13TeV-madgraphMLM-pythia8/94adf64335327cbd3588d4828bb4a6fbfeb243f95dc636488008e5b6/000000_000000/0000/tree_20.root
/store/group/phys_higgs/hbb/ntuples/VHbbPostNano/2018/V12/DYBJetsToLL_M-50_Zpt-100to200_TuneCP5_13TeV-madgraphMLM-pythia8/8f9f69dba6a0b8c22f7b2ae031005265669df97a177736a72ee4707f/000000_000000/0000/tree_21.root
/store/group/phys_higgs/hbb/ntuples/VHbbPostNano/2018/V12/DYBJetsToLL_M-50_Zpt-100to200_TuneCP5_13TeV-madgraphMLM-pythia8/146f1f8bf77881067c92b0424adfeb69241d752501c8909b82c7b893/000000_000000/0000/tree_22.root
/store/group/phys_higgs/hbb/ntuples/VHbbPostNano/2018/V12/DYBJetsToLL_M-50_Zpt-100to200_TuneCP5_13TeV-madgraphMLM-pythia8/8be4feeeda81933a75df62900dcf503f794850ff9b7d80f7e6cb6994/000000_000000/0000/tree_23.root
/store/group/phys_higgs/hbb/ntuples/VHbbPostNano/2018/V12/DYBJetsToLL_M-50_Zpt-100to200_TuneCP5_13TeV-madgraphMLM-pythia8/862bbff8fe3c35e3b76d462e194f34f09a41d39688a0e3859e02ce9d/000000_000000/0000/tree_24.root
/store/group/phys_higgs/hbb/ntuples/VHbbPostNano/2018/V12/DYBJetsToLL_M-50_Zpt-100to200_TuneCP5_13TeV-madgraphMLM-pythia8/6e9b7499f4b7e9294674cc3eeca31e035cecd3db4206d25282ea3ad8/000000_000000/0000/tree_25.root
/store/group/phys_higgs/hbb/ntuples/VHbbPostNano/2018/V12/DYBJetsToLL_M-50_Zpt-100to200_TuneCP5_13TeV-madgraphMLM-pythia8/9ae9d634db63982948ff4cdcb483dd332d2093b5c9d52d1b625c0a52/000000_000000/0000/tree_26.root
/store/group/phys_higgs/hbb/ntuples/VHbbPostNano/2018/V12/DYBJetsToLL_M-50_Zpt-100to200_TuneCP5_13TeV-madgraphMLM-pythia8/edce67a53402cecc0bc565aec535701c4661c1bd589be089bb1468b1/000000_000000/0000/tree_27.root
/store/group/phys_higgs/hbb/ntuples/VHbbPostNano/2018/V12/DYBJetsToLL_M-50_Zpt-100to200_TuneCP5_13TeV-madgraphMLM-pythia8/4ddc2c2dad4f60d1b3ed6d37db2009055f5e2e4d63149aa3ab4e29e0/000000_000000/0000/tree_28.root
/store/group/phys_higgs/hbb/ntuples/VHbbPostNano/2018/V12/DYBJetsToLL_M-50_Zpt-100to200_TuneCP5_13TeV-madgraphMLM-pythia8/0cb1dbf61470ac57503d560db956ebf0487dbba13b345f5bc3e9a092/000000_000000/0000/tree_29.root
/store/group/phys_higgs/hbb/ntuples/VHbbPostNano/2018/V12/DYBJetsToLL_M-50_Zpt-100to200_TuneCP5_13TeV-madgraphMLM-pythia8/f06194875ca3dbc40bb42997478079d04192823755a1278e59ae3040/000000_000000/0000/tree_30.root
/store/group/phys_higgs/hbb/ntuples/VHbbPostNano/2018/V12/DYBJetsToLL_M-50_Zpt-100to200_TuneCP5_13TeV-madgraphMLM-pythia8/6f5738f7f69848c9a534c13eb274c33172af425c8ec4189e53d78325/000000_000000/0000/tree_31.root
/store/group/phys_higgs/hbb/ntuples/VHbbPostNano/2018/V12/DYBJetsToLL_M-50_Zpt-100to200_TuneCP5_13TeV-madgraphMLM-pythia8/bd2db24bb1be73cd3a5538484bfe93d5f7ecc910bb0d71124355663f/000000_000000/0000/tree_32.root
/store/group/phys_higgs/hbb/ntuples/VHbbPostNano/2018/V12/DYBJetsToLL_M-50_Zpt-100to200_TuneCP5_13TeV-madgraphMLM-pythia8/7931a7757cb697787bf07a31ea04e3b17239129a1439a2cb94e0b524/000000_000000/0000/tree_33.root
/store/group/phys_higgs/hbb/ntuples/VHbbPostNano/2018/V12/DYBJetsToLL_M-50_Zpt-100to200_TuneCP5_13TeV-madgraphMLM-pythia8/2bb44f37734bb9d4b3719b3c36a0b1b26efbba43ca150bdaff475290/000000_000000/0000/tree_34.root
/store/group/phys_higgs/hbb/ntuples/VHbbPostNano/2018/V12/DYBJetsToLL_M-50_Zpt-100to200_TuneCP5_13TeV-madgraphMLM-pythia8/f16273703c09b0fbe0f7d9871916879050c51de9b959b4f1a2526a28/000000_000000/0000/tree_35.root
/store/group/phys_higgs/hbb/ntuples/VHbbPostNano/2018/V12/DYBJetsToLL_M-50_Zpt-100to200_TuneCP5_13TeV-madgraphMLM-pythia8/e3e23ab2d22b422886fdbd000e965591df8c97c33a90cae888b4bfee/000000_000000/0000/tree_36.root
/store/group/phys_higgs/hbb/ntuples/VHbbPostNano/2018/V12/DYBJetsToLL_M-50_Zpt-100to200_TuneCP5_13TeV-madgraphMLM-pythia8/c3ef9f77637a4052c9422b4c523d8ae1082c5356569cabf3a2377126/000000_000000/0000/tree_37.root
/store/group/phys_higgs/hbb/ntuples/VHbbPostNano/2018/V12/DYBJetsToLL_M-50_Zpt-100to200_TuneCP5_13TeV-madgraphMLM-pythia8/54a682b31fe650494bedaab977d99904564f938a58d785c8624acc95/000000_000000/0000/tree_38.root
/store/group/phys_higgs/hbb/ntuples/VHbbPostNano/2018/V12/DYBJetsToLL_M-50_Zpt-100to200_TuneCP5_13TeV-madgraphMLM-pythia8/99215539f814ac5e58000a12b6e32a5af4f52a6f2e423ca25758b2d4/000000_000000/0000/tree_39.root
/store/group/phys_higgs/hbb/ntuples/VHbbPostNano/2018/V12/DYBJetsToLL_M-50_Zpt-100to200_TuneCP5_13TeV-madgraphMLM-pythia8/75dc0b0ae7ccd84b9fdb95e7ce3cefafc1007b6b49ee4d59966b436e/000000_000000/0000/tree_40.root
/store/group/phys_higgs/hbb/ntuples/VHbbPostNano/2018/V12/DYBJetsToLL_M-50_Zpt-100to200_TuneCP5_13TeV-madgraphMLM-pythia8/df3fc7a0654d613819f6330974a83ef022c784fd985bcf00737181b9/000000_000000/0000/tree_41.root
/store/group/phys_higgs/hbb/ntuples/VHbbPostNano/2018/V12/DYBJetsToLL_M-50_Zpt-100to200_TuneCP5_13TeV-madgraphMLM-pythia8/e391957752cf7c6a5a85b69002583b4c0209ab06476a41f58f9d9c5f/000000_000000/0000/tree_42.root
/store/group/phys_higgs/hbb/ntuples/VHbbPostNano/2018/V12/DYBJetsToLL_M-50_Zpt-100to200_TuneCP5_13TeV-madgraphMLM-pythia8/7b52b5606529b828af5c114feee42ef23742df1d62d0d783e1256ff8/000000_000000/0000/tree_43.root
/store/group/phys_higgs/hbb/ntuples/VHbbPostNano/2018/V12/DYBJetsToLL_M-50_Zpt-100to200_TuneCP5_13TeV-madgraphMLM-pythia8/26bedd4742879faeff2a3ac56f11823bc2e09c19a48c365a19916cf3/000000_000000/0000/tree_44.root
/store/group/phys_higgs/hbb/ntuples/VHbbPostNano/2018/V12/DYBJetsToLL_M-50_Zpt-100to200_TuneCP5_13TeV-madgraphMLM-pythia8/dfd75b54f9bd53286c08f4e672350dce02a9a51502e5249f6930b1e2/000000_000000/0000/tree_45.root
/store/group/phys_higgs/hbb/ntuples/VHbbPostNano/2018/V12/DYBJetsToLL_M-50_Zpt-100to200_TuneCP5_13TeV-madgraphMLM-pythia8/8c97d14a9226426b9235520208e4c1b90d8c59de2ac46f35092b18ba/000000_000000/0000/tree_46.root
/store/group/phys_higgs/hbb/ntuples/VHbbPostNano/2018/V12/DYBJetsToLL_M-50_Zpt-100to200_TuneCP5_13TeV-madgraphMLM-pythia8/57e0638263a3b854faf40052813fedd17d3f6415f5aaabb42ad3dc95/000000_000000/0000/tree_47.root
/store/group/phys_higgs/hbb/ntuples/VHbbPostNano/2018/V12/DYBJetsToLL_M-50_Zpt-100to200_TuneCP5_13TeV-madgraphMLM-pythia8/872e1650348339edee3c3862534123f94b70bfd41322e313984a9b08/000000_000000/0000/tree_48.root
/store/group/phys_higgs/hbb/ntuples/VHbbPostNano/2018/V12/DYBJetsToLL_M-50_Zpt-100to200_TuneCP5_13TeV-madgraphMLM-pythia8/c0fd51a9a2a9e380898cae8f8eeb1927cdb838afed18b2e0a3c70410/000000_000000/0000/tree_49.root
/store/group/phys_higgs/hbb/ntuples/VHbbPostNano/2018/V12/DYBJetsToLL_M-50_Zpt-100to200_TuneCP5_13TeV-madgraphMLM-pythia8/0ccd5bf2d11c4812f5eff34a595e561cc54917457274d28e3baa579a/000000_000000/0000/tree_50.root
/store/group/phys_higgs/hbb/ntuples/VHbbPostNano/2018/V12/DYBJetsToLL_M-50_Zpt-100to200_TuneCP5_13TeV-madgraphMLM-pythia8/cdde80b53971f11dd844681876299aa9bf5312b9c1b44ef6a3373c08/000000_000000/0000/tree_51.root
/store/group/phys_higgs/hbb/ntuples/VHbbPostNano/2018/V12/DYBJetsToLL_M-50_Zpt-100to200_TuneCP5_13TeV-madgraphMLM-pythia8/233faad94304fb3939ba2ae2ea7f305a7c75c86c4cd31fce23c6b50d/000000_000000/0000/tree_52.root
/store/group/phys_higgs/hbb/ntuples/VHbbPostNano/2018/V12/DYBJetsToLL_M-50_Zpt-100to200_TuneCP5_13TeV-madgraphMLM-pythia8/b4725affb172cbd7fa2f743e7ce85a4acb6e5dc4087210b2ebed2e3a/000000_000000/0000/tree_53.root
/store/group/phys_higgs/hbb/ntuples/VHbbPostNano/2018/V12/DYBJetsToLL_M-50_Zpt-100to200_TuneCP5_13TeV-madgraphMLM-pythia8/8e47b71f0ecf6a939d79c5d4227c903e0153b00c9ef8260b118eaa6a/000000_000000/0000/tree_54.root
/store/group/phys_higgs/hbb/ntuples/VHbbPostNano/2018/V12/DYBJetsToLL_M-50_Zpt-100to200_TuneCP5_13TeV-madgraphMLM-pythia8/98c8eb57b863a15c7d691ec879166fd9bc0ee5855c5d2b3a0d363382/000000_000000/0000/tree_55.root
/store/group/phys_higgs/hbb/ntuples/VHbbPostNano/2018/V12/DYBJetsToLL_M-50_Zpt-100to200_TuneCP5_13TeV-madgraphMLM-pythia8/e6cf7c17cbe751ee72fb986989cff2a103d331337071a99fb5a29719/000000_000000/0000/tree_56.root
/store/group/phys_higgs/hbb/ntuples/VHbbPostNano/2018/V12/DYBJetsToLL_M-50_Zpt-100to200_TuneCP5_13TeV-madgraphMLM-pythia8/e0ecf4267650f148de45d695ff11a24c16f5b091ee7a61f206269629/000000_000000/0000/tree_57.root
/store/group/phys_higgs/hbb/ntuples/VHbbPostNano/2018/V12/DYBJetsToLL_M-50_Zpt-100to200_TuneCP5_13TeV-madgraphMLM-pythia8/afbac844d9b901b4025cda19d71d68de44bfbb47a59d5918d6ce5b6d/000000_000000/0000/tree_58.root
/store/group/phys_higgs/hbb/ntuples/VHbbPostNano/2018/V12/DYBJetsToLL_M-50_Zpt-100to200_TuneCP5_13TeV-madgraphMLM-pythia8/6ea28c62a80a74580fee31c9299f37921e415f39067b1a76a8838dab/000000_000000/0000/tree_59.root
/store/group/phys_higgs/hbb/ntuples/VHbbPostNano/2018/V12/DYBJetsToLL_M-50_Zpt-100to200_TuneCP5_13TeV-madgraphMLM-pythia8/d47a3eb29a846559868bd85a517108e33694adc87c440b06764ff830/000000_000000/0000/tree_60.root
/store/group/phys_higgs/hbb/ntuples/VHbbPostNano/2018/V12/DYBJetsToLL_M-50_Zpt-100to200_TuneCP5_13TeV-madgraphMLM-pythia8/18963ae0bad9714df56889f4983bbed3bf6c2f765397cd4394762327/000000_000000/0000/tree_61.root
/store/group/phys_higgs/hbb/ntuples/VHbbPostNano/2018/V12/DYBJetsToLL_M-50_Zpt-100to200_TuneCP5_13TeV-madgraphMLM-pythia8/82fe826ee7d20f94a996f4a2129d84e0db14308ae6f4f27f763b437a/000000_000000/0000/tree_62.root
/store/group/phys_higgs/hbb/ntuples/VHbbPostNano/2018/V12/DYBJetsToLL_M-50_Zpt-100to200_TuneCP5_13TeV-madgraphMLM-pythia8/c14512de6ae952f1ea8b19468494662e356728e71e994c470cc908fa/000000_000000/0000/tree_63.root
/store/group/phys_higgs/hbb/ntuples/VHbbPostNano/2018/V12/DYBJetsToLL_M-50_Zpt-100to200_TuneCP5_13TeV-madgraphMLM-pythia8/d616abb30c27dbeae3c8c5ad129055ba27f04ac3472d8635e7fe3b35/000000_000000/0000/tree_64.root
/store/group/phys_higgs/hbb/ntuples/VHbbPostNano/2018/V12/DYBJetsToLL_M-50_Zpt-100to200_TuneCP5_13TeV-madgraphMLM-pythia8/24af61c7294d04a4b2f0a6dbf53358113dda041a76861dde202a2355/000000_000000/0000/tree_65.root
/store/group/phys_higgs/hbb/ntuples/VHbbPostNano/2018/V12/DYBJetsToLL_M-50_Zpt-100to200_TuneCP5_13TeV-madgraphMLM-pythia8/6b6a4cf4c3a133fea8b3d1ba621a95a035e8894c99fba34a61f79395/000000_000000/0000/tree_66.root
/store/group/phys_higgs/hbb/ntuples/VHbbPostNano/2018/V12/DYBJetsToLL_M-50_Zpt-100to200_TuneCP5_13TeV-madgraphMLM-pythia8/8f667c41c942dec2ddc6751987d23592bae4d70ac8bf5eeb6bb52e63/000000_000000/0000/tree_67.root
/store/group/phys_higgs/hbb/ntuples/VHbbPostNano/2018/V12/DYBJetsToLL_M-50_Zpt-100to200_TuneCP5_13TeV-madgraphMLM-pythia8/3224a86338a90a34108de93218c17664e48ea6413fc75ca98bb9561e/000000_000000/0000/tree_68.root
/store/group/phys_higgs/hbb/ntuples/VHbbPostNano/2018/V12/DYBJetsToLL_M-50_Zpt-100to200_TuneCP5_13TeV-madgraphMLM-pythia8/3847beaeb00c7a095b3c8a450039fdd536c95bbb985facbf3e0ec932/000000_000000/0000/tree_69.root
/store/group/phys_higgs/hbb/ntuples/VHbbPostNano/2018/V12/DYBJetsToLL_M-50_Zpt-100to200_TuneCP5_13TeV-madgraphMLM-pythia8/82ef57a8b2dca708e8696188d0e611408b1fb14abd9e7f8ee5df9107/000000_000000/0000/tree_70.root
/store/group/phys_higgs/hbb/ntuples/VHbbPostNano/2018/V12/DYBJetsToLL_M-50_Zpt-100to200_TuneCP5_13TeV-madgraphMLM-pythia8/13d999525109496e38021e5d1cb4013463d7e65461a7dfcdedc02e94/000000_000000/0000/tree_71.root
/store/group/phys_higgs/hbb/ntuples/VHbbPostNano/2018/V12/DYBJetsToLL_M-50_Zpt-100to200_TuneCP5_13TeV-madgraphMLM-pythia8/3d94584fe15e7d4b4fe59ebf12f328fa576c4e1638d30757f009d9a3/000000_000000/0000/tree_72.root
/store/group/phys_higgs/hbb/ntuples/VHbbPostNano/2018/V12/DYBJetsToLL_M-50_Zpt-100to200_TuneCP5_13TeV-madgraphMLM-pythia8/bb9efbae6ea02d1052de624d886ba1a316738b1703be55d9e8b2acc7/000000_000000/0000/tree_73.root
/store/group/phys_higgs/hbb/ntuples/VHbbPostNano/2018/V12/DYBJetsToLL_M-50_Zpt-100to200_TuneCP5_13TeV-madgraphMLM-pythia8/084b3c45417338417a2dd154f7736863deca32b71e8bf462e8c412fd/000000_000000/0000/tree_74.root
/store/group/phys_higgs/hbb/ntuples/VHbbPostNano/2018/V12/DYBJetsToLL_M-50_Zpt-100to200_TuneCP5_13TeV-madgraphMLM-pythia8/a84cabc7636024306a916e89e6a68ef1ea5cfa917281cf8bab625eb8/000000_000000/0000/tree_75.root
/store/group/phys_higgs/hbb/ntuples/VHbbPostNano/2018/V12/DYBJetsToLL_M-50_Zpt-100to200_TuneCP5_13TeV-madgraphMLM-pythia8/5d3de7a388261244dd4863a26e50b77ae7a3215e49bd37d39efe3386/000000_000000/0000/tree_76.root
/store/group/phys_higgs/hbb/ntuples/VHbbPostNano/2018/V12/DYBJetsToLL_M-50_Zpt-100to200_TuneCP5_13TeV-madgraphMLM-pythia8/821226eb7c661e20b9b81111ca9a8f26c0169fbb77ea1048004a5c5f/000000_000000/0000/tree_77.root
/store/group/phys_higgs/hbb/ntuples/VHbbPostNano/2018/V12/DYBJetsToLL_M-50_Zpt-100to200_TuneCP5_13TeV-madgraphMLM-pythia8/4569272af9a8395c3a098a5425fe5801373cbbb0e5d7ac121a6d9b73/000000_000000/0000/tree_78.root
/store/group/phys_higgs/hbb/ntuples/VHbbPostNano/2018/V12/DYBJetsToLL_M-50_Zpt-100to200_TuneCP5_13TeV-madgraphMLM-pythia8/9e02fcd2b05082702cd70443a0c208d2e14c543f3d9436c35d703032/000000_000000/0000/tree_79.root
/store/group/phys_higgs/hbb/ntuples/VHbbPostNano/2018/V12/DYBJetsToLL_M-50_Zpt-100to200_TuneCP5_13TeV-madgraphMLM-pythia8/3bdea5bcb0a42fac52e6190bf8f5b88872de0b6e1fd31da4b3854e68/000000_000000/0000/tree_80.root