/store/group/phys_higgs/hbb/ntuples/VHbbPostNano/2018/V12/DYJetsToLL_1J_TuneCP5_13TeV-amcatnloFXFX-pythia8/71974b0d25ef93806b8ab8017b591d11fe261e1c5bb753e73819b1dd/000000_000000/0000/tree_0.root
/store/group/phys_higgs/hbb/ntuples/VHbbPostNano/2018/V12/DYJetsToLL_1J_TuneCP5_13TeV-amcatnloFXFX-pythia8/31fd365cd3581349bea7d86f27e15a499c3dfaa8cb5e2acef593f1d5/000000_000000/0000/tree_1.root
/store/group/phys_higgs/hbb/ntuples/VHbbPostNano/2018/V12/DYJetsToLL_1J_TuneCP5_13TeV-amcatnloFXFX-pythia8/7257154f5f749344f010b27b71ea51cef8b01db1475009d24d239906/000000_000000/0000/tree_2.root
/store/group/phys_higgs/hbb/ntuples/VHbbPostNano/2018/V12/DYJetsToLL_1J_TuneCP5_13TeV-amcatnloFXFX-pythia8/82f30a77734b4353d4a931aa24add0b711611308ce6893dcb8b299a4/000000_000000/0000/tree_3.root
/store/group/phys_higgs/hbb/ntuples/VHbbPostNano/2018/V12/DYJetsToLL_1J_TuneCP5_13TeV-amcatnloFXFX-pythia8/9069d70dc403dd55559a6beef5395095e0c027d855dd991f2657001c/000000_000000/0000/tree_4.root
/store/group/phys_higgs/hbb/ntuples/VHbbPostNano/2018/V12/DYJetsToLL_1J_TuneCP5_13TeV-amcatnloFXFX-pythia8/2d67ff206db5b0f2e037e417bbd4af1d29374ed5d4355451475d11ba/000000_000000/0000/tree_5.root
/store/group/phys_higgs/hbb/ntuples/VHbbPostNano/2018/V12/DYJetsToLL_1J_TuneCP5_13TeV-amcatnloFXFX-pythia8/14afe53d1fd67819425efff48e144bd6b1df4e0a51d2fc11bb150c78/000000_000000/0000/tree_6.root
/store/group/phys_higgs/hbb/ntuples/VHbbPostNano/2018/V12/DYJetsToLL_1J_TuneCP5_13TeV-amcatnloFXFX-pythia8/702c8ffb66d3fb824d04e2c31b3d200e4d2acb78212792787876fd39/000000_000000/0000/tree_7.root
/store/group/phys_higgs/hbb/ntuples/VHbbPostNano/2018/V12/DYJetsToLL_1J_TuneCP5_13TeV-amcatnloFXFX-pythia8/3bbcb281fe99c2e1d2762462fab516cab1ff077662ddf61207c8fbf5/000000_000000/0000/tree_8.root
/store/group/phys_higgs/hbb/ntuples/VHbbPostNano/2018/V12/DYJetsToLL_1J_TuneCP5_13TeV-amcatnloFXFX-pythia8/aa19219c551cdec37e5fa16802b452cba301b9431883cd40d24dbd4a/000000_000000/0000/tree_9.root
/store/group/phys_higgs/hbb/ntuples/VHbbPostNano/2018/V12/DYJetsToLL_1J_TuneCP5_13TeV-amcatnloFXFX-pythia8/1183d06adcc902a8908f8062751cc5e2a25f4dd98329cee0a74f64db/000000_000000/0000/tree_10.root
/store/group/phys_higgs/hbb/ntuples/VHbbPostNano/2018/V12/DYJetsToLL_1J_TuneCP5_13TeV-amcatnloFXFX-pythia8/5b3d36aa4fdf7b90fa8765f38b7a210158001f8f4beacc8805da5e5c/000000_000000/0000/tree_11.root
/store/group/phys_higgs/hbb/ntuples/VHbbPostNano/2018/V12/DYJetsToLL_1J_TuneCP5_13TeV-amcatnloFXFX-pythia8/efebc1feaba156c50c97aa05de30a8d449127b0f7c2e295c476638a6/000000_000000/0000/tree_12.root
/store/group/phys_higgs/hbb/ntuples/VHbbPostNano/2018/V12/DYJetsToLL_1J_TuneCP5_13TeV-amcatnloFXFX-pythia8/c13cac6032e83b38da2b7005c61d5d35e3018a6b28bc579d598fc1b8/000000_000000/0000/tree_13.root
/store/group/phys_higgs/hbb/ntuples/VHbbPostNano/2018/V12/DYJetsToLL_1J_TuneCP5_13TeV-amcatnloFXFX-pythia8/c3bfc88b80b46f06f499aee5e2f9f98c548fb6f34eae4c7120aa6dff/000000_000000/0000/tree_14.root
/store/group/phys_higgs/hbb/ntuples/VHbbPostNano/2018/V12/DYJetsToLL_1J_TuneCP5_13TeV-amcatnloFXFX-pythia8/2df33cc9ff1ec20b941bc9b7057e2b2203a95236017efbb996216e46/000000_000000/0000/tree_15.root